AWSTATS DATA FILE 6.4 (build 1.814)
# If you remove this file, all statistics for date 2011-05 will be lost/reset.

# Position (offset in bytes) in this file of beginning of each section for
# direct I/O access. If you made changes somewhere in this file, you should
# also remove completely the MAP section (AWStats will rewrite it at next
# update).
BEGIN_MAP 27
POS_GENERAL 1865                
POS_TIME 2548                
POS_VISITOR 20897               
POS_DAY 68190               
POS_DOMAIN 3353                
POS_LOGIN 3753                
POS_ROBOT 3908                
POS_WORMS 4260                
POS_EMAILSENDER 4391                
POS_EMAILRECEIVER 4534                
POS_SESSION 69082               
POS_SIDER 69286               
POS_FILETYPES 4669                
POS_OS 4816                
POS_BROWSER 4960                
POS_SCREENSIZE 5457                
POS_UNKNOWNREFERER 5531                
POS_UNKNOWNREFERERBROWSER 7019                
POS_ORIGIN 7918                
POS_SEREFERRALS 8063                
POS_PAGEREFS 8230                
POS_SEARCHWORDS 15603               
POS_KEYWORDS 16035               
POS_MISC 2210                
POS_ERRORS 16368               
POS_CLUSTER 3609                
POS_SIDER_404 16483               
END_MAP

# LastLine    = Date of last record processed - Last record line number in last log - Last record offset in last log - Last record signature value
# FirstTime   = Date of first visit for history file
# LastTime    = Date of last visit for history file
# LastUpdate  = Date of last update - Nb of parsed records - Nb of parsed old records - Nb of parsed new records - Nb of parsed corrupted - Nb of parsed dropped
# TotalVisits = Number of visits
# TotalUnique = Number of unique visitors
# MonthHostsKnown   = Number of hosts known
# MonthHostsUnKnown = Number of hosts unknown
BEGIN_GENERAL 8
LastLine 20110601034932 3932 973393 57216757257
FirstTime 20110501025703
LastTime 20110531182616
LastUpdate 20110601044655 229 0 228 0 0
TotalVisits 510                 
TotalUnique 396                 
MonthHostsKnown 845                 
MonthHostsUnknown 178                 
END_GENERAL

# Misc ID - Pages - Hits - Bandwidth
BEGIN_MISC 10
QuickTimeSupport 0 0 0
JavaEnabled 0 0 0
JavascriptDisabled 0 0 0
PDFSupport 0 0 0
WindowsMediaPlayerSupport 0 0 0
AddToFavourites 0 154 0
RealPlayerSupport 0 0 0
TotalMisc 0 0 0
DirectorSupport 0 0 0
FlashSupport 0 0 0
END_MISC

# Hour - Pages - Hits - Bandwidth - Not viewed Pages - Not viewed Hits - Not viewed Bandwidth
BEGIN_TIME 24
0 3 4 12773 9 9 4734
1 2 2 1578 4 4 3156
2 8 12 373447 14 14 7890
3 8 43 5067584 115 115 11046
4 19 161 9861156 15 16 6130
5 19 255 12430680 20 20 9468
6 81 438 23903990 62 64 20732
7 74 534 35239753 71 72 31895
8 41 233 13611649 21 25 294147
9 75 428 25348468 67 74 61964
10 73 524 36793419 57 72 735217
11 80 629 35868595 53 65 1138532
12 94 598 47287644 66 75 482727
13 55 437 36173665 35 44 840783
14 26 115 3786327 9 11 152008
15 45 144 8336611 11 22 430864
16 35 118 4780600 6 14 396615
17 29 101 5421457 7 11 275747
18 38 137 4671307 4 10 223332
19 46 149 4959844 3 6 458542
20 13 39 768878 9 12 228193
21 6 13 292360 3 3 3156
22 6 12 259981 4 5 2581
23 3 6 169563 2 2 0
END_TIME

# Domain - Pages - Hits - Bandwidth
# The 10 first Pages must be first (order not required for others)
BEGIN_DOMAIN 12
br 642 3880 257135300
ip 125 1080 49740838
com 82 108 5468358
net 20 37 762383
org 3 6 1520131
nl 2 2 3156
arpa 2 10 356200
de 2 2 3156
dk 1 1 1578
pt 0 3 99375
ar 0 1 33125
mx 0 2 297729
END_DOMAIN

# Cluster ID - Pages - Hits - Bandwidth
BEGIN_CLUSTER 0
END_CLUSTER

# Login - Pages - Hits - Bandwidth - Last visit
# The 10 first Pages must be first (order not required for others)
BEGIN_LOGIN 0
END_LOGIN

# Robot ID - Hits - Bandwidth - Last visit - Hits on robots.txt
# The 10 first Hits must be first (order not required for others)
BEGIN_ROBOT 7
msnbot 24 48441 20110526124747 0
jeeves 9 14202 20110525224506 0
googlebot 8 4296 20110528201821 0
slurp 6 9468 20110527180741 0
yandex 6 9468 20110524151616 0
robot 4 0 20110529153834 0
netcraft 1 1578 20110506111934 0
END_ROBOT

# Worm ID - Hits - Bandwidth - Last visit
# The 5 first Hits must be first (order not required for others)
BEGIN_WORMS 0
END_WORMS

# EMail - Hits - Bandwidth - Last visit
# The 20 first Hits must be first (order not required for others)
BEGIN_EMAILSENDER 0
END_EMAILSENDER

# EMail - Hits - Bandwidth - Last visit
# The 20 first hits must be first (order not required for others)
BEGIN_EMAILRECEIVER 0
END_EMAILRECEIVER

# Files type - Hits - Bandwidth - Bandwidth without compression - Bandwidth after compression
BEGIN_FILETYPES 5
html 879 1156762 0 0
js 388 392203 0 0
jpg 3378 50117751 0 0
gif 1 72117 0 0
swf 486 263682496 0 0
END_FILETYPES

# OS ID - Hits
BEGIN_OS 10
winlong 339
winxp 2924
symbian 1
win2000 5
winnt 1628
linux 12
macosx 111
wince 4
win2003 8
Unknown 100
END_OS

# Browser ID - Hits
BEGIN_BROWSER 31
msie6.0 216
firefox3.6.14 3
firefox5.0 3
firefox2.0.0.20 2
firefox4.0.1 146
firefox3.6 13
opera 17
sonyericsson 3
firefox3.0 3
firefox3.5.16 12
firefox3.6.6 1
firefox4.0 26
firefox3.6.16 27
firefox3.6.17 143
firefox3.5.2 2
lotus\-notes 3
firefox2.0.0.11 1
msie8.0 1507
nokia 1
firefox3.5.5 25
mozilla 138
netscape5.0 5
msie7.0 2193
firefox3.6.3 7
firefox3.5.19 1
firefox3.6.10 14
msie9.0 59
Unknown 26
firefox3.0.19 16
safari 516
firefox3.6.13 3
END_BROWSER

# Screen size - Hits
BEGIN_SCREENSIZE 0
END_SCREENSIZE

# Unknown referer OS - Last visit date
BEGIN_UNKNOWNREFERER 16
Mozilla/5.0_(000000000;_00000_000_00_0_000000)_DDDDDDDDDDDDDDDDDD_DDDDDDD_DDDD_DDDDDD_DDDDDDDDDDDDDDDDDD_DDDDDDDDDDDDD 20110506070438
GbPlugin 20110518103348
Mozilla/5.0_(compatible;_MJ12bot/v1.3.3;_http://www.majestic12.co.uk/bot.php?_) 20110531174145
Mozilla/5.0_(en-us)_AppleWebKit/525.13_(KHTML,_like_Gecko;_Google_Web_Preview)_Version/3.1_Safari/525.13 20110512101642
NokiaC3-00/5.0_(04.60)_Profile/MIDP-2.1_Configuration/CLDC-1.1_Mozilla/5.0_AppleWebKit/420__(KHTML,_like_Gecko)_Safari/420_ 20110511173834
BlackBerry8520/5.0.0.681_Profile/MIDP-2.1_Configuration/CLDC-1.1_VendorID/154 20110519100322
Mozilla/5.0_(compatible)_Feedfetcher-Google;_(_http://www.google.com/feedfetcher.html) 20110530050355
MAUI_WAP_Browser 20110509090936
Mozilla/5.0 20110502093255
Mozilla/5.0_(compatible;_bingbot/2.0;__http://www.bing.com/bingbot.htm) 20110531182616
Mozilla/5.0_(compatible;_Purebot/1.1;__http://www.puritysearch.net/) 20110528055704
SonyEricssonW200a/R4GB_Browser/NetFront/3.3_Profile/MIDP-2.0_Configuration/CLDC-1.1 20110512112908
Mozilla/5.0_(000000000;_0;_00000_000_00_0_000000;_00000)_DDDDDDDDDDDDDDDDDDDD_DDDDDDD_DDDD_DDDDDD 20110506070417
Mozilla/4.0_(compatible;) 20110520041650
Opera/9.80_(J2ME/MIDP;_Opera_Mini/4.3.24214/24.816;_U;_pt)_Presto/2.5.25_Version/10.54 20110504060939
SAMSUNG-GT-B3210/1.0_NetFront/3.5_Profile/MIDP-2.0_Configuration/CLDC-1.1_Novarra-Vision/8.0 20110526200445
END_UNKNOWNREFERER

# Unknown referer Browser - Last visit date
BEGIN_UNKNOWNREFERERBROWSER 9
GbPlugin 20110518103348
Microsoft_Office/14.0_(Windows_NT_6.1;_Microsoft_Outlook_14.0.4760;_Pro;_ms-office;_MSOffice_14) 20110506093841
Microsoft_Office/14.0_(Windows_NT_6.1;_Microsoft_Outlook_14.0.5128;_Pro;_ms-office;_MSOffice_14) 20110520111533
BlackBerry8520/5.0.0.681_Profile/MIDP-2.1_Configuration/CLDC-1.1_VendorID/154 20110519100322
MAUI_WAP_Browser 20110509090936
Microsoft_Office/14.0_(Windows_NT_5.1;_Microsoft_Outlook_14.0.5128;_Pro;_ms-office;_MSOffice_14) 20110524101153
Microsoft_Office/14.0_(Windows_NT_5.1;_Microsoft_Outlook_14.0.4760;_Pro;_ms-office;_MSOffice_14) 20110523121817
Microsoft_Office/14.0_(Windows_NT_6.0;_Microsoft_Outlook_14.0.5128;_Pro;_ms-office;_MSOffice_14) 20110530122858
SAMSUNG-GT-B3210/1.0_NetFront/3.5_Profile/MIDP-2.0_Configuration/CLDC-1.1_Novarra-Vision/8.0 20110526200445
END_UNKNOWNREFERERBROWSER

# Origin - Pages - Hits 
BEGIN_ORIGIN 6
From0 651 2863
From1 0 0
From2 19 24
From3 57 584
From4 152 1661
From5 0 0
END_ORIGIN

# Search engine referers ID - Pages - Hits
BEGIN_SEREFERRALS 2
google 16 21
yahoo 3 3
END_SEREFERRALS

# External page referers - Pages - Hits
# The 10 first Pages must be first (order not required for others)
BEGIN_PAGEREFS 119
http://www.bing.com/search 12 12
http://www.orkut.com.br/Interstitial 7 7
http://www.dentalis.com.br/flash/hotsite_7.swf 4 4
http://www.easyfor.com.br/site.swf 4 4
http://www.orkut.com/Interstitial 3 3
http://www.ferpak.com.br/intro.swf 3 3
http://www.ferpak.com.br/site.swf 2 2
http://webmail.robustec.com.br/zimbra/ 2 2
http://stampspumas.com.br/novo/ 2 3
http://www.mnconsultoria.com.br/site.swf 1 1
http://bl159w.blu159.mail.live.com/mail/InboxLight.aspx 0 1
http://br.mg2.mail.yahoo.com/dc/launch 0 1
http://by156w.bay156.mail.live.com/mail/InboxLight.aspx 0 1
http://webmail.jwlbrasil.com.br/Session/17711-cBOe5h1odYdpU0g7ecsl-aoganmy/message.wssp 0 1
http://mail.uol.com.br/main/message 0 1
http://webmail.barbex.com.br/Session/858966-rBFpd2InMxfCcpeAwDBh-aodhstj/message.wssp 0 1
http://gscomunicacao.blogspot.com/2010/06/o-grupo-bimbo-do-brasil-e-sucesso-na.html 0 32
http://webmail.causticlor.com.br/ultramail/getMessage.php 0 1
http://gscomunicacao.blogspot.com/2010/10/gs-no-mega-evento-da-nutricao.html 0 16
http://webmail.mastervisor.com.br:32000/mail/view.html 0 1
http://gscomunicacao.blogspot.com/2010/01/sebo-o-leitor.html 0 2
http://webmail.stitelecom.com.br/zimbra/ 1 3
http://webmail.kovelis.com.br/webmail.php 1 3
http://webmail.valeq.com.br/Main/frmPreview.aspx 0 1
http://pop.betomaq.com.br/cgi-bin/webmail/webmail-view.pl 0 1
http://sn131w.snt131.mail.live.com/mail/InboxLight.aspx 0 1
http://www.rozhdestvo.org/2011/02/uncategorized/4587/v-moskve-nachal-rabotu-arxierejskij-sobor-rpc-2/ 1 1
http://sn101w.snt101.mail.live.com/mail/InboxLight.aspx 0 1
http://br.mc1115.mail.yahoo.com/mc/welcome 0 1
http://webmail.thoquino.com.br/Session/11122707-MXKvyd2vAlbq3XQTSq64-aoganmy/blank.wssp 0 1
http://webmail.prominas.com.br/tupi/message.body.php 0 2
http://sn117w.snt117.mail.live.com/mail/InboxLight.aspx 1 2
http://pop.semco.ind.br/cgi-bin/webmail/webmail-view.pl 0 1
http://webmail.acrinil.com.br:32000/webmail/ 0 1
http://pop.bbrtoys.com.br/Session/1016035-4w9dGJ2oQX6kD1pPjHJ5-aodhsua/message.wssp 0 1
http://webmail.olvebra.com.br/cgi-bin/webmail/webmail-view.pl 0 1
http://webmail.cafecrem.com.br/Main/frmPreview.aspx 0 1
http://127.0.0.1:7633/desktop/login.jsp 0 1
http://webmail.angevan.com.br/cgi-bin/webmail/webmail-view.pl 0 1
http://36ohk6dgmcd1n.yom.mail.yahoo.net/om/api/1.0/openmail.app.invoke 0 1
http://webmail.asitec.com.br/mod_perl/inmail.pl 0 1
http://pop.bellamixdistribuidora.com.br/Session/7141006-U1s7ovUh8ODbdlqnHgcd-aoganhm/webmail.wssp 0 1
http://200.159.123.178:3000/WorldClient.dll 0 1
http://rf.com.br/owm-bin/openwebmail/openwebmail-read.pl 0 1
http://pop.kajoma.com.br/cgi-bin/webmail/webmail-view.pl 0 1
http://bmail.uol.com.br/main/message 0 1
http://pop.biomarinecosmobeauty.com.br/cgi-bin/webmail/webmail-view.pl 1 2
http://pop.phytotratha.com.br/cgi-bin/webmail/webmail-view.pl 0 2
http://webmail.dsimport.com.br/Session/18372-P6qmK6b8931zMKlc6V63-aoganjw/webmail.wssp 0 1
http://www.sanmail.com.br 0 1
http://mail.terra.com.br/99trr/reademail.php 0 2
http://sn132w.snt132.mail.live.com/mail/InboxLight.aspx 0 1
http://www.femaklaminadora.com.br/homemail/ 0 2
http://webmail.kasinski.com.br/message/messageBody/messageId/4851%7CSU5CT1g=/displayImgs/1/displayExternalContent/0 0 1
http://www.atsblindados.com.br/site.swf 1 1
http://br.mg5.mail.yahoo.com/dc/launch 0 4
http://br.mc1108.mail.yahoo.com/mc/welcome 0 7
http://mail.globo.com/mail/ 0 5
http://start.facemoods.com/results.php 1 1
http://mail.jwlbrasil.com.br/Session/13691-4JTdRpiqhGNfbbVky9ky-aoganmz/message.wssp 0 1
http://gscomunicacao.blogspot.com/2010/12/escola-great-idiomas-especializada-em.html 0 4
http://webmail.abgs.org.br/cgi-bin/webmail/webmail-view.pl 0 1
http://webmail.gomaq.com.br/Session/86139-aTQQ7FAs841S1R4YSgJf-aoganjy/webmail.wssp 0 1
http://webmail.geguton.com/cgi-bin/webmail/webmail-view.pl 0 1
http://71.6.217.131/mail/writemail.html 0 42
http://webmail.copracoco.com.br/webmail.php 0 1
http://webmail.missionrubber.com.br/src/read_body.php 0 1
http://gscomunicacao.blogspot.com 0 30
http://gscomunicacao.blogspot.com/2011/02/santiago-e-cintra-na-mundo-geo-connect.html 0 6
http://74.63.220.234/servlets/ajax 1 1
http://pop.bbrtoys.com.br/Session/1046024-GXVzPgywXSUlORglcwzU-aodhsua/message.wssp 0 2
http://sebooleitor.tempsite.ws/%5Cbook%5Cindex.html 1 1
http://gscomunicacao.blogspot.com/2009/05/vestibular-de-moda-fefisa.html 0 6
http://webmail.oi.com.br/mail/message.php 0 1
http://mail.uol.com.br/compose/forward 0 1
http://pop.intercos.com.br/Session/194685-IuXb277I8D4JKv7w3X6V-aoganmy/webmail.wssp 0 1
http://webmail.unicam.org.br/cgi-bin/webmail/webmail-view.pl 0 1
http://webmail.plusglass.com.br:32000/mail/view.html 0 1
http://co111w.col111.mail.live.com/mail/RteFrame.html 0 1
http://webmail.sendsiluminacao.com.br/102trr/reademail.php 0 2
http://mail.terra.com.br/102trr/reademail.php 0 28
http://sn107w.snt107.mail.live.com/mail/InboxLight.aspx 0 1
http://174.37.231.26:8094/Main/frmPreview.aspx 0 1
http://webmail.kajoma.com.br/cgi-bin/webmail/webmail-view.pl 0 1
http://co101w.col101.mail.live.com/mail/InboxLight.aspx 0 1
http://gscomunicacao.blogspot.com/2010/04/rotary-club.html 0 10
http://webmail.robustec.com.br/zimbra/public/launchNewWindow.jsp 0 1
http://71.6.217.131/mail/viewaction.html 0 14
http://bl163w.blu163.mail.live.com/m/messages.m/ 0 1
http://pop.equiparloc.com.br/webmail.php 1 4
http://mail.sondadril.com.br/cgi-bin/webmail/webmail-view.pl 0 1
http://www.mognomarcenaria.com.br/site.swf 1 1
http://webmail.vibrafort.com.br/Session/103357-nq7G2YWcMk1zuZOkrVXz-aogaxeq/webmail.wssp 0 1
http://pop.vgbras.com.br/cgi-bin/webmail/webmail-view.pl 0 1
http://pop.maxtone.com.br/Session/1354999-86M2W9LMK239II4ocryq-aodhsue/message.wssp 0 1
http://pop.borgesalimentos.com.br/Session/723455-cjkVT6PKgtOa7BAmCv9c-aodhsuj/message.wssp 0 1
http://gscomunicacao.blogspot.com/2011/05/gross-cargo-na-intermodal-2011.html 0 3
http://easyfor.com.br/site.swf 1 1
http://71.6.217.131/mail/view.html 0 153
http://gscomunicacao.blogspot.com/2011/05/gs-e-grupo-bimbo-parceria-renovada.html 0 4
http://webmail.kaballa.com.br/102trr/reademail.php 1 2
http://gscomunicacao.blogspot.com/2009/10/novo-cliente-habasit.html 0 2
http://sn133w.snt133.mail.live.com/mail/InboxLight.aspx 0 3
http://www.mognomarcenaria.com.br 1 1
http://webmail.kasinski.com.br/message/messageBody/messageId/4950%7CSU5CT1g=/displayImgs/1/displayExternalContent/0 0 1
http://webmail.vibrafort.com.br/Session/103357-nq7G2YWcMk1zuZOkrVXz-aogaxeq/message.wssp 0 1
http://gscomunicacao.blogspot.com/2009/07/e-nossa.html 0 2
http://imperveg.com.br:2095/3rdparty/roundcube/ 0 1
http://br.mc659.mail.yahoo.com/mc/welcome 0 1
http://pop.bbrtoys.com.br/Session/1053786-AB9SjqTTekrm0PiJ6f84-aodhstj/message.wssp 0 1
http://ilocal-email-1.ilocal.com.br/Main/frmMessage.aspx 0 5
http://mail.terra.com.br/102trr/sendmail.php 0 5
http://bl157w.blu157.mail.live.com/mail/InboxLight.aspx 0 2
http://www.stampspumas.com.br/novo/ 0 53
http://webmail/zimbra/ 1 2
http://gscomunicacao.blogspot.com/2011/02/imagens-stand-trident-2011.html 0 2
http://www.ferpak.com.br 1 1
http://antispampremium-2.dualtec.com.br/cgi-mod/openwebmail/openwebmail-read.pl 0 1
http://www.makformas.com.br/webmail/readmsg.php 1 3
END_PAGEREFS

# Search keyphrases - Number of search
# The 10 first number of search must be first (order not required for others)
BEGIN_SEARCHWORDS 11
gs+comunica%c3%a7oes 3
gs+comunica%c3%a7%c3%a3o 2
gs+comunicacao 2
www.gscomunicacao.com.br 1
gscomunica%c3%a7%c3%b5es 1
gscomunicacao 1
gscomunica%c3%a7%c3%a3o 1
http+%2f%2fwww.gscomunicacao.com%2f 1
gscomunicacao.combr 1
gs+comunica%c3%a7%c3%a3o.com+br 1
gs+comunica%c3%a7ao 1
END_SEARCHWORDS

# Search keywords - Number of search
# The 10 first number of search must be first (order not required for others)
BEGIN_KEYWORDS 14
gs 9
comunica%c3%a7oes 3
comunicacao 2
comunica%c3%a7%c3%a3o 2
www.gscomunicacao.com.br 1
br 1
gscomunica%c3%a7%c3%b5es 1
gscomunicacao 1
%2f%2fwww.gscomunicacao.com%2f 1
gscomunica%c3%a7%c3%a3o 1
comunica%c3%a7ao 1
http 1
gscomunicacao.combr 1
comunica%c3%a7%c3%a3o.com 1
END_KEYWORDS

# Errors - Hits - Bandwidth
BEGIN_ERRORS 3
206 91 5600514
404 242 0
301 374 131492
END_ERRORS

# URL with 404 errors - Hits - Last URL referer
BEGIN_SIDER_404 103
/admin/phpmyadmin/scripts/setup.php 1 -
/robots.txt 118 -
/phpMyAdmin-2.6.0-rc2/scripts/setup.php 1 -
/sqlweb/scripts/setup.php 1 -
/email/faixa-e-mail.jpg%0d%0a%20 1 http://71.6.217.131/mail/view.html
/phpMyAdmin-2.8.0.3/scripts/setup.php 1 -
/admin/pma/scripts/setup.php 1 -
/phpmanager/scripts/setup.php 1 -
/php-myadmin/scripts/setup.php 1 -
/phpMyAdmin-2.7.0-beta1/scripts/setup.php 1 -
/phpMyAdmin-2.8.2/scripts/setup.php 1 -
/sqlmanager/scripts/setup.php 1 -
/phpMyAdmin-2.7.0-rc1/scripts/setup.php 1 -
/phpMyAdmin-2.6.4-pl1/scripts/setup.php 1 -
/phpMyAdmin-2.6.1-pl2/scripts/setup.php 1 -
/phpMyAdmin-2.5.4/scripts/setup.php 1 -
/clips/06/Scripts/AC_ActiveX.js 2 http://www.gscomunicacao.com.br/clips/06/clips_06.html
/eventos/emailjpg 3 http://71.6.217.131/mail/view.html
/phpMyAdmin-2.5.6-rc1/scripts/setup.php 1 -
/phpMyAdmin-2.6.4-pl2/scripts/setup.php 1 -
/phpMyAdmin-2.8.1-rc1/scripts/setup.php 1 -
/phpMyAdmin-2.6.4-pl3/scripts/setup.php 1 -
/pma2005/scripts/setup.php 1 -
/webadmin/scripts/setup.php 1 -
/php-my-admin/scripts/setup.php 2 -
/scripts/setup.php 1 -
/phpmyadmin1/scripts/setup.php 1 -
/phpMyAdmin-2.6.0/scripts/setup.php 1 -
/phpMyAdmin-2.6.2-pl1/scripts/setup.php 1 -
/PMA2005/scripts/setup.php 1 -
/phpmy-admin/scripts/setup.php 1 -
/phpMyAdmin-2.7.0-pl2/scripts/setup.php 1 -
/phpMyAdmin-2.8.0.4/scripts/setup.php 1 -
/phpadmin/scripts/setup.php 1 -
/adm 1 -
/phpMyAdmin-2.6.0-alpha2/scripts/setup.php 1 -
/phpMyAdmin-2.8.0-beta1/scripts/setup.php 1 -
/phpMyAdmin-2.8.0-rc1/scripts/setup.php 1 -
/phpMyAdmin-2.7.0/scripts/setup.php 1 -
/phpMyAdmin-2.6.0-pl3/scripts/setup.php 1 -
/phpMyAdmin-2.8.1/scripts/setup.php 1 -
/myadmin/scripts/setup.php 1 -
/phpMyAdmin-2.6.2/scripts/setup.php 1 -
/phpMyAdmin-2.8.0.2/scripts/setup.php 1 -
/phpMyAdmin-2.8.0-rc2/scripts/setup.php 1 -
/mysql-admin/scripts/setup.php 1 -
/phpMyAdmin/scripts/setup.php 2 -
/clips/05/Scripts/AC_ActiveX.js 1 http://www.gscomunicacao.com.br/clips/05/clips_05.html
/phpMyAdmin-2.6.4-rc1/scripts/setup.php 1 -
/wp-login.php 2 -
/phpMyAdmin-2.5.6-rc2/scripts/setup.php 1 -
/phpMyAdmin-2.5.7-pl1/scripts/setup.php 1 -
/webdb/scripts/setup.php 1 -
/phpMyAdmin-2.6.1/scripts/setup.php 1 -
/phpMyAdmin-2.6.2-rc1/scripts/setup.php 2 -
/labels.rdf 1 -
/mysqladmin/scripts/setup.php 2 -
/xampp/phpmyadmin/scripts/setup.php 1 -
/w00tw00t.at.blackhats.romanian.anti-sec:) 1 -
/phpMyAdmin-2.6.3/scripts/setup.php 2 -
/phpMyAdmin-2.8.0.1/scripts/setup.php 1 -
/mysql/scripts/setup.php 1 -
/dbadmin/scripts/setup.php 1 -
/phpMyAdmin-2.6.0-beta1/scripts/setup.php 1 -
/phpMyAdmin-2.6.1-pl1/scripts/setup.php 1 -
/phpMyAdmin-2.7.0-pl1/scripts/setup.php 1 -
/phpMyAdmin-2.6.2-beta1/scripts/setup.php 1 -
/phpMyAdmin-2.5.1/scripts/setup.php 1 -
/phpmyadmin/scripts/setup.php 2 -
/phpMyAdmin-2.6.1-rc1/scripts/setup.php 1 -
/typo3/phpmyadmin/scripts/setup.php 1 -
/eventos/email.%20jpg 7 -
/phpMyAdmin-2.6.1-pl3/scripts/setup.php 1 -
/websql/scripts/setup.php 2 -
/phpMyAdmin-2.6.0-rc3/scripts/setup.php 1 -
/web/phpMyAdmin/scripts/setup.php 1 -
/admin/scripts/setup.php 1 -
/phpMyAdmin-2.5.6/scripts/setup.php 1 -
/phpMyAdmin-2.5.5/scripts/setup.php 1 -
/phpMyAdmin-2.6.0-alpha/scripts/setup.php 1 -
/p/m/a/scripts/setup.php 1 -
/phpMyAdmin-2.6.3-rc1/scripts/setup.php 1 -
/phpMyAdmin-2.6.1-rc2/scripts/setup.php 1 -
/phpMyAdmin-2.6.4/scripts/setup.php 1 -
/phpMyAdmin-2/scripts/setup.php 1 -
/phpMyAdmin-2.2.6/scripts/setup.php 1 -
/phpMyAdmin-2.8.0/scripts/setup.php 1 -
/eventos/email.+jpg 1 -
/phpMyAdmin-2.5.5-pl1/scripts/setup.php 1 -
/email/faixa-e-mail.jpg%0d%0a 5 -
/phpMyAdmin-2.5.5-rc1/scripts/setup.php 1 -
/phpMyAdmin-2.6.0-beta2/scripts/setup.php 1 -
/pma/scripts/setup.php 1 -
/eventos/email.%0d%0a%20jpg 1 -
/web/scripts/setup.php 1 -
/clips/07/Scripts/AC_ActiveX.js 2 http://www.gscomunicacao.com.br/clips/07/clips_07.html
/phpMyAdmin-2.6.0-pl2/scripts/setup.php 1 -
/db/scripts/setup.php 1 -
/phpMyAdmin-2.6.0-pl1/scripts/setup.php 1 -
/phpMyAdmin-2.5.7/scripts/setup.php 1 -
/phpMyAdmin-2.6.4-pl4/scripts/setup.php 1 -
/mysqlmanager/scripts/setup.php 1 -
/phpMyAdmin-2.6.0-rc1/scripts/setup.php 1 -
END_SIDER_404

# Host - Pages - Hits - Bandwidth - Last visit date - [Start date of last visit] - [Last page of last visit]
# [Start date of last visit] and [Last page of last visit] are saved only if session is not finished
# The 10 first Hits must be first (order not required for others)
BEGIN_VISITOR 1023
189-54-1-157-nd.cpe.vivax.com.br 50 234 7835836 20110523084729
200-138-205-188.fnsce702.dsl.brasiltelecom.net.br 31 96 2874931 20110504192039
static-208-80-194-29.as13448.com 11 11 17358 20110529140345
tvc.tv221.static.gvt.net.br 11 30 611353 20110526140649
189-29-169-176-nd.cpe.vivax.com.br 11 158 87622 20110531060709
jacto8.jacto.com.br 9 29 3750371 20110520130055
187-56-121-230.dsl.telesp.net.br 8 22 1502927 20110510102104
clonix.6.static.gvt.net.br 7 19 1901678 20110506124202
187-5-138-180.fnses700.e.brasiltelecom.net.br 7 20 256825 20110523052626
5.ovz.chicago.123systems.net 7 7 11046 20110529170607
200-207-231-167.dial-up.telesp.net.br 0 1 7657 
187.27.119.0 0 1 12773 
msnbot-207-46-13-92.search.msn.com 1 1 0 20110514022324
187-75-178-162.dsl.telesp.net.br 0 2 66250 
190-172-90-79.speedy.com.ar 0 1 33125 
189.115.16.18.static.host.gvt.net.br 2 7 492278 20110511173727
189-47-184-219.dsl.telesp.net.br 1 3 1515835 20110523091230
18924255246.user.veloxzone.com.br 0 1 33125 
189-73-9-230.dsl.ctame700.brasiltelecom.net.br 2 7 395848 20110526072932
201.90.164.178 2 6 256825 20110523043337
200.160.177.175 0 1 33125 
bd797ac7.virtua.com.br 0 2 33125 
201-43-96-157.dsl.telesp.net.br 0 42 0 
201.65.45.114 0 1 33125 
200.215.6.254 2 6 256825 20110523065612
bd3e204e.virtua.com.br 3 13 308557 20110516185512
bl22-59-16.dsl.telepac.pt 0 1 33125 
mail.fiximplementos.com.br 0 2 33125 
186.212.44.130.static.host.gvt.net.br 0 1 0 
mail2.hci.ind.br 1 4 1548960 20110523090731
bd3ca512.virtua.com.br 0 2 190551 
187.59.85.147.static.host.gvt.net.br 2 6 256825 20110514123538
200-102-13-72.fnsce704.dsl.brasiltelecom.net.br 2 6 256825 20110503215730
200-180-9-200.fnsce703.dsl.brasiltelecom.net.br 3 13 148630 20110517200154
srv-icop.projesom.com.br 1 7 1548960 20110502101650
201.85.80.250 0 12 33125 
201-41-194-15.fnsce703.dsl.brasiltelecom.net.br 1 4 30801 20110531113829
200.174.173.170 1 5 1582085 20110513113757
187-74-135-246.dsl.telesp.net.br 0 1 7657 
intranet.mbp.com.br 0 1 12659 
201.90.74.2 0 2 66250 
186.204.189.145 0 3 99375 
189-31-125-168.fnses700.dsl.brasiltelecom.net.br 2 7 349623 20110502192800
187-2-171-176-ma.cpe.vivax.com.br 0 1 0 
bb255513.virtua.com.br 0 2 66250 
187.113.84.64.static.host.gvt.net.br 0 3 33125 
mail.adlweb.com.br 0 2 66250 
201-43-98-38.dsl.telesp.net.br 0 6 0 
bacf703a.virtua.com.br 0 2 44988 
201-27-71-126.dsl.telesp.net.br 0 1 33125 
189-039-014-116.static.spo.ctbc.com.br 0 7 211517 
201-77-123-134.desktop.com.br 1 10 1681460 20110523100223
201.7.234.18 0 1 33125 
189-111-118-12.dsl.telesp.net.br 0 1 33125 
187-2-181-233-ma.cpe.vivax.com.br 0 1 0 
c90616b7.virtua.com.br 1 5 1582085 20110504095240
187-7-35-25.jvece702.e.brasiltelecom.net.br 1 4 1548960 20110525074611
201.86.95.88.static.gvt.net.br 0 1 33125 
189-19-39-55.dsl.telesp.net.br 0 11 66250 
201-93-161-117.dsl.telesp.net.br 0 1 33125 
189-78-8-79.dsl.telesp.net.br 0 1 12773 
189-18-229-119.dsl.telesp.net.br 0 1 33125 
200-161-42-161.dsl.telesp.net.br 0 1 33125 
189.115.24.193.stat.gvt.net.br 1 3 18654 20110527074426
wp02.tvglobo.com.br 0 1 7657 
189-95-114-236.3g.claro.net.br 0 1 7657 
201.56.207.178 0 1 7657 
187.55.226.164 2 7 257828 20110501121019
187-57-219-164.dsl.telesp.net.br 0 3 0 
189-109-14-186.customer.tdatabrasil.net.br 0 1 33125 
200-232-168-216.dsl.telesp.net.br 0 3 33125 
187.7.9.114 1 3 18654 20110515190450
187.45.70.3 0 4 40782 
201-25-213-83.fnsce701.dsl.brasiltelecom.net.br 3 9 1772660 20110530073515
12.4.26.248 0 1 33125 
201-0-16-88.dsl.telesp.net.br 0 2 66250 
187.53.136.2 0 2 297729 
201-35-254-170.fnses700.dsl.brasiltelecom.net.br 2 6 256825 20110526201512
ip-189-98-65-233.user.vivozap.com.br 0 1 33125 
187-24-206-108.3g.claro.net.br 4 12 256825 20110523140638
msnbot-65-52-110-40.search.msn.com 1 1 0 20110520162228
mail.cacula.com 1 4 1548960 20110512130359
187.0.145.181 0 4 66250 
18913054229.user.veloxzone.com.br 5 19 2365034 20110509123054
mail.grupotensor.com 1 5 1582085 20110518154354
189-47-170-123.dsl.telesp.net.br 1 4 1548960 20110511084656
66.249.85.1 0 1 294706 
189-30-68-249.fnses700.dsl.brasiltelecom.net.br 2 6 122366 20110527123059
109.74.53.235 0 1 33125 
189-31-126-223.fnses700.dsl.brasiltelecom.net.br 2 6 256825 20110502080233
189.27.205.230.dynamic.adsl.gvt.net.br 0 1 33125 
201.64.138.113 0 1 7657 
189.84.156.161 0 1 33125 
200-203-73-22.cslce701.dsl.brasiltelecom.net.br 0 2 297729 
201-34-174-156.fnsce701.dsl.brasiltelecom.net.br 2 6 256825 20110528163346
201-67-167-247.fnsce703.dsl.brasiltelecom.net.br 2 6 256825 20110528105017
201-13-48-23.dsl.telesp.net.br 2 8 428973 20110519110418
177.25.165.223 0 1 12773 
177.16.88.48.static.host.gvt.net.br 0 1 33125 
189-47-189-205.dsl.telesp.net.br 0 1 33125 
189-111-139-148.dsl.telesp.net.br 0 1 33125 
189-31-93-168.fnses700.dsl.brasiltelecom.net.br 1 3 18654 20110522153552
189-47-188-62.dsl.telesp.net.br 0 2 297729 
msnbot-207-46-13-132.search.msn.com 2 2 1578 20110531031618
187-50-184-234.customer.tdatabrasil.net.br 0 2 66250 
189-19-253-213.dsl.telesp.net.br 0 2 0 
gw-wllserver-10.62.tro.contato.net 2 6 256825 20110501080201
mail.epice.com.br 0 1 33125 
badfd48f.virtua.com.br 0 1 33125 
186.212.34.251.static.host.gvt.net.br 1 1 0 20110503061045
189-47-148-42.dsl.telesp.net.br 0 1 33125 
216.104.15.138 1 2 2581 20110512070048
200-207-124-45.dsl.telesp.net.br 0 1 33125 
189-47-149-114.dsl.telesp.net.br 0 1 33125 
bd21b181.virtua.com.br 0 7 66250 
187.63.160.4 0 1 1003 
mundial-sa.gvt.net.br 1 3 1515835 20110518065701
static-208-80-194-33.as13448.com 3 3 4734 20110509022440
189-111-224-125.dsl.telesp.net.br 0 5 7657 
187-52-174-25.fnses700.e.brasiltelecom.net.br 5 15 1772660 20110509094055
mail.interativa.ind.br 0 6 145159 
103.3.47.187.isp.timbrasil.com.br 0 1 33125 
189-93-119-238.3g.claro.net.br 0 1 7657 
bb279904.virtua.com.br 0 2 66250 
200.186.201.247 0 350 352222 
187-35-100-162.dsl.telesp.net.br 0 2 297729 
ip234.gigaline.com.br.79.63.187.in-addr.arpa 0 1 33125 
189-015-172-050.xd-dynamic.ctbcnetsuper.com.br 0 1 33125 
msnbot-65-52-110-34.search.msn.com 1 1 0 20110524011919
201-28-35-50.customer.tdatabrasil.net.br 0 1 33125 
c93475f6.virtua.com.br 0 2 0 
189-47-148-183.dsl.telesp.net.br 0 1 12773 
c952b453.virtua.com.br 0 1 12773 
189-108-102-26.customer.tdatabrasil.net.br 0 4 0 
201-43-98-92.dsl.telesp.net.br 0 6 0 
200-158-216-8.dsl.telesp.net.br 0 1 33125 
189-69-130-112.dial-up.telesp.net.br 0 1 33125 
189-111-164-137.dsl.telesp.net.br 0 1 33125 
201.6.130.6 0 2 33125 
ip-189-97-157-54.user.vivozap.com.br 0 1 7657 
189-95-74-94.3g.claro.net.br 0 3 48439 
bd7a2d3c.virtua.com.br 0 2 297729 
187-27-74-125.3g.claro.net.br 0 1 33125 
mail.robustec.com.br 5 16 2042144 20110530091809
189.5.239.165 0 1 7657 
187.58.5.183.static.host.gvt.net.br 2 7 75103 20110518130354
187.65.102.126 0 1 33125 
200.243.158.2 0 1 33125 
201-0-160-190.dial-up.telesp.net.br 1 4 1515835 20110519110603
148.16.65.189.isp.timbrasil.com.br 0 1 7657 
201-68-7-36.dsl.telesp.net.br 2 8 519787 20110523061210
201-92-173-140.dsl.telesp.net.br 6 10 256825 20110509065235
bd3e147f.virtua.com.br 0 1 7657 
187-27-11-58.3g.claro.net.br 6 19 2142971 20110529153505
bd3d06ab.virtua.com.br 0 2 297729 
200-171-161-34.speedyterra.com.br 0 1 7657 
msnbot-65-52-110-38.search.msn.com 1 1 0 20110508072512
189-19-39-119.dsl.telesp.net.br 0 1 0 
rev-133-90.picture.com.br 1 3 1515835 20110523095941
187-71-59-184.3g.claro.net.br 1 3 18654 20110505125813
189-47-203-19.dsl.telesp.net.br 0 2 66250 
189-95-76-188.3g.claro.net.br 1 1 351 20110523110334
186.214.42.53.static.host.gvt.net.br 0 5 33125 
187-50-47-242.customer.tdatabrasil.net.br 0 1 17003 
ns1.hydac.com.br 0 2 66250 
bacc0ddb.virtua.com.br 0 5 156947 
189-30-122-237.dsl.fnses700.brasiltelecom.net.br 1 3 18654 20110528101036
187.58.170.128.static.host.gvt.net.br 2 10 1054510 20110512065805
200-168-95-87.speedyterra.com.br 1 4 1548960 20110512133048
189.52.189.18 0 3 33125 
189.58.248.19 0 1 33125 
187-56-229-117.dsl.telesp.net.br 0 1 7657 
bb2661ed.virtua.com.br 2 8 519787 20110526131416
187127126130.user.veloxzone.com.br 0 1 33125 
201.67.211.251 2 6 256825 20110524072534
208.77.41.70 1 1 1578 20110503034316
173.242.125.196 1 1 1578 20110501025703
58.63.128.190 0 1 33125 
189-31-127-89.fnsce704.dsl.brasiltelecom.net.br 4 12 94228 20110506133505
187-3-0-185-sa.cpe.vivax.com.br 0 2 297729 
189.115.24.181.stat.gvt.net.br 1 3 18654 20110519102809
201-67-162-180.fnsce703.dsl.brasiltelecom.net.br 3 7 256825 20110514063658
187-11-237-230.dsl.telesp.net.br 0 1 33125 
bd78d6f5.virtua.com.br 0 1 24447 
201-24-90-35.fnsce702.dsl.brasiltelecom.net.br 2 6 256825 20110528094300
186.213.155.237.static.host.gvt.net.br 0 2 66250 
200-204-125-158.dsl.telesp.net.br 0 2 66250 
201.52.194.246 0 3 38301 
189-78-44-78.dsl.telesp.net.br 0 1 12773 
189-78-10-60.dsl.telesp.net.br 3 15 171963 20110512113326
201-15-159-37.paemt705.dsl.brasiltelecom.net.br 0 1 33125 
201.22.213.120.static.gvt.net.br 1 3 18654 20110511054030
ip-187-118-21-188.user.vivozap.com.br 0 1 33125 
189-110-36-130.dsl.telesp.net.br 0 1 12773 
mail.alfainstrumentos.com.br 0 1 33125 
189-78-222-6.dsl.telesp.net.br 2 6 256825 20110520081915
20158048194.user.veloxzone.com.br 4 11 1772660 20110517081852
189-111-21-234.dsl.telesp.net.br 0 1 33125 
200-207-84-187.dsl.telesp.net.br 0 2 33125 
corporativo.gvt.net.br 0 3 84890 
187.55.218.124 1 3 18654 20110524123023
187-2-171-208-ma.cpe.vivax.com.br 0 3 33125 
c952b377.virtua.com.br 0 1 0 
189.38.163.137.user.ajato.com.br 0 1 33125 
187.37.83.209 0 1 33125 
187-75-212-108.dsl.telesp.net.br 0 4 99375 
189-75-47-1.fnses700.e.brasiltelecom.net.br 3 9 256825 20110505221941
74.125.114.81 0 1 3023 
187-2-178-39-ma.cpe.vivax.com.br 0 1 0 
c953d6ca.virtua.com.br 0 1 33125 
189-95-100-44.3g.claro.net.br 0 2 40782 
200-215-42-58.fnsce702.dsl.brasiltelecom.net.br 1 3 0 20110505083630
187-7-137-44.cscgo702.e.brasiltelecom.net.br 0 1 33125 
200-153-152-192.dsl.telesp.net.br 0 1 33125 
c9347965.virtua.com.br 0 10 7657 
bd3ff8d4.virtua.com.br 0 3 33125 
189-47-142-150.dsl.telesp.net.br 0 1 33125 
sp-mail.sotreq.com.br 0 1 33125 
bd7958b1.virtua.com.br 0 8 33125 
bb26e5ac.virtua.com.br 0 2 66250 
bb268af6.virtua.com.br 0 2 33125 
201.54.4.42.dedicated.neoviatelecom.com.br 0 1 33125 
195-23-209-66.static.net.novis.pt 0 2 66250 
201.3.77.40 1 4 1548960 20110513124519
187-55-88-158.ctaje701.e.brasiltelecom.net.br 0 2 297729 
186-228-5-153.ded.intelignet.com.br 0 4 66250 
187.54.188.97 0 1 7657 
140.109.72.21 1 1 1578 20110504153009
201-35-222-169.fnsce701.dsl.brasiltelecom.net.br 3 9 275479 20110514160016
189-93-97-212.3g.claro.net.br 0 1 7657 
permetal202.static.gvt.net.br 3 12 1942108 20110520114846
c935f62c.virtua.com.br 0 1 12773 
200.142.204.100 0 1 7657 
186.214.137.32.static.host.gvt.net.br 0 2 66250 
pateta.adere.com 2 8 554554 20110512063710
201-25-253-165.fnsce703.dsl.brasiltelecom.net.br 1 3 238171 20110528125217
189-55-238-149-nd.cpe.vivax.com.br 0 2 42068 
bd3e351b.virtua.com.br 0 1 12659 
187-2-177-250-ma.cpe.vivax.com.br 1 3 18654 20110525131522
201-26-205-16.dsl.telesp.net.br 0 1 0 
201-27-4-223.dsl.telesp.net.br 0 1 7657 
201-27-137-214.dsl.telesp.net.br 0 1 33125 
201-34-142-159.fnses700.e.brasiltelecom.net.br 1 3 18654 20110524081016
201-43-191-31.dsl.telesp.net.br 0 1 33125 
187-75-248-167.dsl.telesp.net.br 0 1 33125 
187-25-82-219.3g.claro.net.br 0 1 7657 
c-155-12.fox.com.br 0 1 33125 
187-74-204-70.dsl.telesp.net.br 0 1 33125 
201.67.253.234 1 3 18654 20110502090406
200.152.202.4.ni.com 2 7 87622 20110520052443
ns1.3tsystems.com.br 3 26 5599694 20110519112404
189-47-238-39.dsl.telesp.net.br 4 13 492999 20110531051706
189-75-40-75.fnses700.dsl.brasiltelecom.net.br 2 6 256825 20110520065224
c925d39e.virtua.com.br 0 2 0 
201-35-194-78.fnsce703.dsl.brasiltelecom.net.br 2 6 176018 20110528162926
189-95-120-27.3g.claro.net.br 1 2 8008 20110518053829
186.254.33.222 0 1 33125 
189-79-202-176.dsl.telesp.net.br 0 1 33125 
189-041-234-046.xd-dynamic.ctbcnetsuper.com.br 0 1 33125 
187.55.60.102 1 3 18654 20110519190122
201-41-193-104.fnsce703.dsl.brasiltelecom.net.br 2 6 476342 20110522173755
186.212.150.218.static.host.gvt.net.br 0 1 33125 
187-3-25-116-sa.cpe.vivax.com.br 2 6 256825 20110516061402
18715144113.user.veloxzone.com.br 0 2 66250 
189-72-125-230.dsl.fnses700.brasiltelecom.net.br 1 3 18654 20110525094007
200-232-166-185.dsl.telesp.net.br 0 6 7657 
sld3.sh.com.br 0 1 33125 
cisabrasile226.static.gvt.net.br 0 1 33125 
186.214.125.228.static.host.gvt.net.br 0 1 33125 
200-232-120-2.rf.com.br 0 1 33125 
201-33-248-155.wln-static.conectcor.com.br 0 1 33125 
bd66b0ab.virtua.com.br 0 1 17003 
bb254e22.virtua.com.br 0 1 7657 
msnbot-207-46-13-137.search.msn.com 1 1 1578 20110530095815
msnbot-65-52-110-92.search.msn.com 1 1 0 20110503104447
189.58.253.252.static.host.gvt.net.br 0 2 66250 
187-50-79-194.customer.tdatabrasil.net.br 0 1 7657 
187-072-080-133.static.ctbctelecom.com.br 0 2 25546 
32.104.18.240 0 1 0 
bigformat.com.br 0 10 30628 
201-43-188-65.dsl.telesp.net.br 0 1 7657 
bb16f029.virtua.com.br 0 6 15314 
189-30-106-102.dsl.fnses700.brasiltelecom.net.br 3 9 391467 20110510182701
200.18.248.102 2 11 647113 20110519103621
csg.sense.com.br 1 10 205025 20110524100439
189-95-74-150.3g.claro.net.br 0 1 7657 
200.178.190.190 0 1 33125 
216.104.15.134 2 2 3293 20110523065845
static-208-80-194-32.as13448.com 1 1 1578 20110525205238
157.55.17.103 1 1 0 20110531182616
bd647147.virtua.com.br 0 1 33125 
c953debf.virtua.com.br 6 22 2547786 20110512111036
173.242.125.191 2 2 3156 20110530172207
mail.habasit.com.br 1 8 1564274 20110513135109
187.112.218.151.static.host.gvt.net.br 1 3 18654 20110506064116
189-19-30-82.dsl.telesp.net.br 1 10 1757647 20110516124551
msnbot-207-46-199-40.search.msn.com 1 1 0 20110501175046
187-35-167-83.dsl.telesp.net.br 0 2 66250 
187.104.40.92 0 14 66250 
201-93-191-5.dsl.telesp.net.br 0 2 297729 
static-208-80-194-28.as13448.com 1 1 1578 20110516085152
189-79-60-27.dsl.telesp.net.br 0 1 33125 
189-47-190-201.dsl.telesp.net.br 0 1 33125 
bb4202a4.virtua.com.br 4 12 256825 20110514073925
189.58.183.63.dynamic.adsl.gvt.net.br 0 2 297729 
201-12-74-210.intelignet.com.br 3 14 1243097 20110531125548
msnbot-207-46-199-44.search.msn.com 1 1 1578 20110526124600
iad1-wtp-gd-maya9.sdi.trendnet.org 1 4 1516838 20110516105325
187-50-174-74.customer.tdatabrasil.net.br 0 2 15314 
189-72-113-20.fnses700.dsl.brasiltelecom.net.br 5 11 1772660 20110503145509
static-208-80-194-37.as13448.com 2 2 3156 20110517152116
189-93-103-37.3g.claro.net.br 1 2 8008 20110509061821
187-8-206-122.customer.tdatabrasil.net.br 0 1 33125 
mail.siner.com.br 0 4 33125 
201.85.99.40 0 1 33125 
187-072-098-225.static.ctbctelecom.com.br 0 1 33125 
bd647c61.virtua.com.br 0 1 7657 
189-75-48-5.fnses700.e.brasiltelecom.net.br 1 3 18654 20110509090935
200-232-168-190.dsl.telesp.net.br 0 1 33125 
200.144.56.130 0 2 66250 
189-46-249-148.dsl.telesp.net.br 0 1 33125 
201.47.206.146.dynamic.adsl.gvt.net.br 0 1 33125 
201-41-239-13.fnsce703.dsl.brasiltelecom.net.br 2 6 137138 20110522074002
brma.acrimet.com.br 1 4 1548960 20110509125901
c9340a79.virtua.com.br 0 1 33125 
189-93-100-57.3g.claro.net.br 0 1 7657 
bd2208cc.virtua.com.br 1 3 18654 20110531155853
187-3-168-81-sa.cpe.vivax.com.br 0 1 7657 
bd3ee144.virtua.com.br 0 4 132500 
189.121.85.33 0 1 289415 
201-13-255-97.dsl.telesp.net.br 1 7 1648335 20110518105137
200-204-200-98.speedyterra.com.br 0 2 66250 
bb26539e.virtua.com.br 0 2 40782 
msnbot-207-46-199-52.search.msn.com 1 1 0 20110507004840
201-35-226-36.fnsce701.dsl.brasiltelecom.net.br 1 3 18654 20110509124822
200-232-63-98.customer.tdatabrasil.net.br 0 2 66250 
186.215.43.88.static.host.gvt.net.br 0 6 33125 
200-162-204-100.static-corp.ajato.com.br 0 1 33125 
c934763c.virtua.com.br 0 1 0 
201.90.74.79 1 4 1548960 20110513120542
c95219a3.virtua.com.br 0 1 12773 
18741017077.user.veloxzone.com.br 0 1 33125 
187-75-181-28.dsl.telesp.net.br 0 1 33125 
187-27-180-247.3g.claro.net.br 0 1 7657 
187-8-12-254.customer.tdatabrasil.net.br 0 2 66250 
189-54-102-122-nd.cpe.vivax.com.br 0 1 33125 
chronos.emae.com.br 3 9 1257787 20110526121629
189-30-108-246.dsl.fnses700.brasiltelecom.net.br 2 6 256825 20110508134704
201-68-203-58.dsl.telesp.net.br 2 6 256825 20110503132711
p54a8bc6b.dip.t-dialin.net 1 1 1578 20110502032027
201-23-160-67.gprs.claro.net.br 3 9 840227 20110517163029
201-35-252-73.fnses700.dsl.brasiltelecom.net.br 1 3 18654 20110523142858
c9258680.virtua.com.br 0 1 33125 
187-70-25-128.3g.claro.net.br 2 6 38498 20110524124131
c9523683.virtua.com.br 0 1 7657 
bd044d7c.virtua.com.br 0 11 45942 
189-46-47-200.dsl.telesp.net.br 1 6 1615210 20110511120330
badc57c0.virtua.com.br 2 6 3031670 20110516044957
189.120.52.23 0 1 33125 
mail.platodiesel.com.br 0 1 33125 
20179139185.user.veloxzone.com.br 0 1 33125 
186.215.56.17.static.host.gvt.net.br 0 1 33125 
msnbot-207-46-204-189.search.msn.com 2 2 0 20110512082822
186.212.55.189.static.host.gvt.net.br 0 1 33125 
187-072-026-038.static.ctbctelecom.com.br 1 8 1582085 20110511124724
162.156.195.200.static.copel.net 0 1 33125 
ip-187-88-182-53.user.vivozap.com.br 0 1 33125 
187.59.39.37.static.host.gvt.net.br 0 1 12695 
201-28-16-74.customer.tdatabrasil.net.br 0 1 33125 
c9533724.virtua.com.br 0 15 165625 
ns1.toledobrasil.com.br 0 1 33125 
200-204-156-230.dsl.telesp.net.br 0 1 33125 
18715177173.user.veloxzone.com.br 0 2 137060 
badc817d.virtua.com.br 0 1 33125 
static-208-80-194-27.as13448.com 2 2 3156 20110525153553
201-1-52-245.dsl.telesp.net.br 0 2 297729 
201-0-172-159.dial-up.telesp.net.br 3 11 323075 20110519124358
201-63-230-83.customer.tdatabrasil.net.br 1 4 1548960 20110512123824
74.125.66.83 0 1 3023 
187-50-198-106.customer.tdatabrasil.net.br 1 4 1548960 20110509081628
189.59.63.184.dynamic.adsl.gvt.net.br 0 1 7657 
200.230.207.2 0 1 33125 
c95193e9.virtua.com.br 0 1 289415 
93-186-31-243.rdns.blackberry.net 0 1 12773 
187-5-162-48.bnut3703.e.brasiltelecom.net.br 0 1 33125 
200-170-112-141.corp.ajato.com.br 0 1 33125 
187.55.1.253 1 3 0 20110518174438
189.120.103.167 0 1 33125 
201-42-216-238.dsl.telesp.net.br 0 1 33125 
187.7.42.160 2 6 46178 20110521185957
200-171-187-178.dsl.telesp.net.br 0 1 0 
189-31-75-212.fnses700.dsl.brasiltelecom.net.br 2 6 153110 20110504161223
189-1-190-21.customer.ntelecom.com.br 0 2 61712 
189-19-88-180.dsl.telesp.net.br 0 1 33125 
189-69-103-185.dsl.telesp.net.br 0 2 40782 
bb69d9f6.virtua.com.br 0 1 0 
bd783417.virtua.com.br 0 1 12767 
201.57.61.98 1 5 1556617 20110516130144
189.28.182.216 0 2 136968 
200-171-108-31.travelnet.com.br 0 2 33125 
201008159031.user.veloxzone.com.br 0 2 297729 
200-168-96-87.speedyterra.com.br 0 1 33125 
188.127.231.99 1 1 1578 20110507080253
187-2-182-177-ma.cpe.vivax.com.br 0 1 0 
correio.mgi.com.br 1 22 1632804 20110511061500
189-69-16-194.dsl.telesp.net.br 0 1 33125 
189-55-240-6-nd.cpe.vivax.com.br 0 1 7657 
static-208-80-194-36.as13448.com 2 2 3156 20110520204831
189.33.193.143 1 5 1582085 20110523102609
177.16.240.206.static.host.gvt.net.br 0 1 33125 
msnbot-65-52-110-42.search.msn.com 1 1 0 20110507003740
189.38.220.185.corp.ajato.com.br 0 2 33125 
200-161-121-206.dsl.telesp.net.br 0 1 33125 
201-34-202-52.cpece705.e.brasiltelecom.net.br 0 1 33125 
bb278b75.virtua.com.br 0 1 33125 
customer-164.xertix.com 2 6 35730 20110525042710
smtp.famac.ind.br 0 1 33125 
187-3-8-193-sa.cpe.vivax.com.br 0 1 33125 
msnbot-65-52-110-85.search.msn.com 1 1 0 20110519064348
sjdc-wtp-gb-maya6.sdi.trendnet.org 1 1 1715 20110518065837
186.223.218.161 0 1 33125 
189-8-59-66.ded.unitelco.com.br 1 4 1548960 20110517072438
bd66a30a.virtua.com.br 0 1 33125 
201-75-154-105-nd.cpe.vivax.com.br 0 1 33125 
187.58.175.101.static.host.gvt.net.br 0 1 33125 
189.115.22.31.static.host.gvt.net.br 2 6 256825 20110507151350
189-38-252-40.static-corp.ajato.com.br 0 6 99375 
187-57-212-252.dsl.telesp.net.br 0 1 7657 
187.59.85.39.static.host.gvt.net.br 2 6 37308 20110501104703
193.53.93.4 0 2 66250 
201.90.227.162 0 123 260338 
200-203-6-54.cslce701.dsl.brasiltelecom.net.br 1 4 1548960 20110531133614
201-016-218-090.xf-static.ctbcnetsuper.com.br.218.16.201.in-addr.arpa 0 3 66250 
bd79bddc.virtua.com.br 0 4 317897 
189.58.31.141.dynamic.adsl.gvt.net.br 2 6 256825 20110523192603
bb6b476b.virtua.com.br 0 2 33125 
187-27-48-108.3g.claro.net.br 2 5 21372 20110519163141
189-19-0-66.dsl.telesp.net.br 1 5 1548960 20110518123926
189-73-118-98.fnses700.e.brasiltelecom.net.br 1 3 18654 20110503070826
65.49.14.79 4 14 554554 20110505192609
189.16.84.130 0 1 33125 
200.228.122.130 0 4 595458 
mail.ccab.org.br 0 1 33125 
selene.gci.com.br 0 1 33125 
unassigned.psychz.net 1 1 1578 20110520125107
host-200-185-230-24.midco.net 1 1 1578 20110515105832
18713227076.user.veloxzone.com.br 0 1 33125 
baccd2eb.virtua.com.br 0 7 22971 
201-42-219-31.dsl.telesp.net.br 0 14 0 
187-71-155-220.3g.claro.net.br 1 3 15665 20110520060755
mail.rayon.com.br 0 1 33125 
201-42-135-245.dsl.telesp.net.br 0 2 297729 
201-42-195-35.dsl.telesp.net.br 0 2 43304 
189.26.100.81.dynamic.adsl.gvt.net.br 0 1 33125 
189-47-130-44.dsl.telesp.net.br 0 1 33125 
201.52.43.110 0 2 297729 
200.175.3.186.static.gvt.net.br 0 1 33125 
baccb4d0.virtua.com.br 1 4 1548960 20110506111931
r262-pr-furuba.ibys.com.br 1 6 1617490 20110511121551
187-3-41-85-sa.cpe.vivax.com.br 2 7 395848 20110503070200
189-015-255-245.xd-dynamic.ctbcnetsuper.com.br 0 1 289415 
30-static.lna-13.velloznet.com.br 0 1 33125 
189-31-110-221.dsl.fnses700.brasiltelecom.net.br 3 7 258540 20110504192938
200-138-233-126.fnses700.dsl.brasiltelecom.net.br 4 12 1629835 20110502150559
187-75-216-43.dsl.telesp.net.br 0 2 297729 
201-27-120-90.dsl.telesp.net.br 2 7 264482 20110527163001
c935c426.virtua.com.br 0 1 33125 
201.86.158.188.dynamic.adsl.gvt.net.br 0 2 297729 
187-3-58-204-sa.cpe.vivax.com.br 3 11 275479 20110505074212
189-54-161-54-nd.cpe.vivax.com.br 0 2 45784 
187-072-096-161.static.ctbctelecom.com.br 2 6 256825 20110520132520
c9118a78.virtua.com.br 0 3 33125 
187-27-37-73.3g.claro.net.br 1 3 18654 20110516200202
reverso.honos.com.br 0 2 66250 
c9350263.virtua.com.br 0 2 15314 
189.26.39.5.dynamic.adsl.gvt.net.br 0 1 33125 
189-47-178-90.dsl.telesp.net.br 1 4 1548960 20110525073106
geoposition.com.br 0 184 837337 
201-95-138-22.dsl.telesp.net.br 0 4 0 
static-208-80-194-26.as13448.com 3 3 4734 20110517192419
187-3-115-113-sa.cpe.vivax.com.br 0 1 7657 
189.121.53.95 0 1 33125 
201-93-177-100.dsl.telesp.net.br 0 62 122512 
189-20-94-66.customer.tdatabrasil.net.br 0 1 33125 
200-207-111-115.dsl.telesp.net.br 2 8 541374 20110504112327
201-1-57-158.dsl.telesp.net.br 0 2 33125 
as28165-187-62-213-131.wcs.net.br 0 13 79017 
mail.emfils.com.br 0 2 38670 
edraproxy.edra.com.br 1 4 1548960 20110523075115
host-114-177-107-208.midco.net 1 1 1578 20110518121636
20158163118.user.veloxzone.com.br 0 1 33125 
187.112.33.87.static.host.gvt.net.br 0 1 0 
201-27-17-28.dsl.telesp.net.br 0 6 7657 
189.33.227.236 0 2 249271 
201-93-164-181.dsl.telesp.net.br 0 1 33125 
201-92-198-80.dsl.telesp.net.br 0 1 33125 
marbor.com.br 0 1 7657 
189-30-108-227.dsl.fnses700.brasiltelecom.net.br 2 6 256825 20110525200151
static-208-80-194-35.as13448.com 5 5 7890 20110531103544
201.53.2.99 0 1 7657 
187-35-112-108.dsl.telesp.net.br 0 1 33125 
201.52.49.3 1 4 82526 20110516131945
80.94.164.141 1 1 1578 20110520223843
187.105.66.254 0 1 33125 
mail.conaut.com.br 1 5 1582085 20110517123526
189-29-166-30-nd.cpe.vivax.com.br 0 13 7657 
189-111-29-28.dsl.telesp.net.br 0 2 297729 
200.174.228.210 1 7 1617490 20110523043524
bd64480c.virtua.com.br 0 1 33125 
bd782f62.virtua.com.br 1 3 1515835 20110531051621
www.motocana.com.br 0 1 33125 
200-138-248-98.fnsce701.dsl.brasiltelecom.net.br 3 9 256825 20110501125516
201-27-20-136.dsl.telesp.net.br 0 1 7657 
smtp.yanmar.com.br 0 1 33125 
bd7863a2.virtua.com.br 0 1 0 
cach2.nov.mobile.re2.yahoo.net 0 1 4929 
c950615e.virtua.com.br 0 3 33125 
200.248.155.187 1 5 1582085 20110523110425
187-52-136-80.fnses700.e.brasiltelecom.net.br 2 6 256825 20110506163818
171.29.117.189.isp.timbrasil.com.br 0 1 33125 
189.115.76.28.static.host.gvt.net.br 2 5 21372 20110503125635
187-56-48-141.dsl.telesp.net.br 0 1 12773 
201-68-203-64.dsl.telesp.net.br 1 4 1548960 20110519131011
177.18.83.29.static.host.gvt.net.br 0 1 33125 
187.52.157.231 2 7 268972 20110525075414
bb265319.virtua.com.br 0 6 73907 
c92ef20e.virtua.com.br 0 2 42068 
189-19-128-184.dsl.telesp.net.br 0 2 66250 
189-111-220-235.dsl.telesp.net.br 0 3 99375 
server.sifatsistemas.com.br 0 2 66250 
mps4.exemplomp.com.br 0 1 33125 
201.22.217.218.dynamic.adsl.gvt.net.br 0 1 33125 
bd3fffcc.virtua.com.br 0 2 297729 
mx1.editoraphotos.com.br 2 7 257828 20110506121510
200.170.84.210 3 9 1772660 20110502101852
189104088129.user.veloxzone.com.br 0 1 33125 
200.248.1.171 0 1 33125 
200-150-182-206.static-corp.ajato.com.br 1 4 1548960 20110506070421
189-95-18-168.3g.claro.net.br 0 1 33125 
189.115.17.83.static.host.gvt.net.br 2 5 21372 20110527130226
187-52-183-127.jvece702.e.brasiltelecom.net.br 0 1 33125 
189.4.122.107 0 1 0 
189-19-135-10.dsl.telesp.net.br 0 2 66250 
200-138-241-246.fnsce703.dsl.brasiltelecom.net.br 1 3 18654 20110522211955
mail.icla.com.br 0 1 33125 
msnbot-65-52-110-24.search.msn.com 1 1 0 20110524042519
bd663b22.virtua.com.br 0 1 33125 
187.114.41.170.static.host.gvt.net.br 1 5 1582085 20110525103352
bb25857a.virtua.com.br 0 2 40782 
200-180-66-2.fnses700.dsl.brasiltelecom.net.br 2 6 143378 20110504105821
187-4-220-160.fnses700.dsl.brasiltelecom.net.br 1 3 18654 20110514160136
201-26-255-162.dsl.telesp.net.br 0 2 33125 
187.55.227.16 2 7 257828 20110517134850
msnbot-207-46-204-230.search.msn.com 1 1 1578 20110525131131
msnbot-65-52-110-54.search.msn.com 1 1 1578 20110529120047
sjdc-wtp-gs-maya2.sdi.trendnet.org 1 1 1578 20110514030302
189.115.16.102.static.host.gvt.net.br 2 6 256825 20110522121435
189.121.88.177 0 1 0 
200-207-78-208.speedyterra.com.br 0 2 66250 
187-57-151-214.dsl.telesp.net.br 0 1 33125 
msnbot-207-46-204-196.search.msn.com 1 1 1578 20110527022715
189-111-236-207.dsl.telesp.net.br 0 1 33125 
200-171-79-125.dsl.telesp.net.br 0 1 33125 
201-26-169-115.dial-up.telesp.net.br 0 1 33125 
201-35-223-106.fnsce701.dsl.brasiltelecom.net.br 2 6 256825 20110504093016
200.174.18.130 0 7 22971 
189-46-78-11.dsl.telesp.net.br 0 2 66250 
201-27-164-81.dsl.telesp.net.br 0 2 33125 
empwl01-05.tpaempresas.com.br 0 3 33125 
18715067233.user.veloxzone.com.br 0 1 0 
fw-cpqd.cpqd.com.br 0 1 33125 
200.155.37.233 0 1 33125 
mail.topico.com.br 3 13 1905160 20110502065550
c9067d7a.static.spo.virtua.com.br 0 1 33125 
189.121.111.85 0 2 33125 
189.122.108.69 0 1 33125 
189-18-251-1.dsl.telesp.net.br 0 1 7657 
201.56.228.82 1 3 1515835 20110523120517
173.242.125.206 4 4 6312 20110528165135
200-171-151-89.dsl.telesp.net.br 1 7 1658272 20110516093146
187-3-38-33-sa.cpe.vivax.com.br 2 7 87145 20110510154233
bd64da0f.virtua.com.br 0 1 33125 
189-78-115-169.dsl.telesp.net.br 0 1 33125 
189-47-202-128.dsl.telesp.net.br 0 1 33125 
186.215.49.252.static.host.gvt.net.br 0 1 33125 
189-68-164-228.dsl.telesp.net.br 0 4 33125 
200-225-202-033.static.ctbctelecom.com.br 0 1 33125 
ns1.perfortex.com.br 0 1 33125 
187-2-164-60-ma.cpe.vivax.com.br 0 1 7657 
32.104.18.200 0 2 0 
bd6405c0.virtua.com.br 0 5 81564 
187-52-159-127.bnut3700.e.brasiltelecom.net.br 1 3 1515835 20110515053432
200-138-233-125.fnses700.dsl.brasiltelecom.net.br 2 7 286923 20110504084344
201.67.242.212 2 6 256825 20110502065731
bb17594a.virtua.com.br 0 1 33125 
200-206-174-200.dsl.telesp.net.br 1 5 1548960 20110523034750
201.81.180.57 0 1 33125 
189-111-214-41.dsl.telesp.net.br 0 3 33125 
189-79-105-48.dsl.telesp.net.br 0 1 7657 
webmail.aerzen.com.br 0 4 33125 
18778021121.telemar.net.br 1 5 1582085 20110506065839
c9520e2b.virtua.com.br 3 9 1742673 20110509101420
201-13-209-7.dial-up.telesp.net.br 1 3 18654 20110514152851
gama.bizz.com.br 3 9 1772660 20110502194818
201-13-138-55.dial-up.telesp.net.br 0 20 0 
187-3-201-105-sa.cpe.vivax.com.br 0 1 33125 
187-74-244-238.dsl.telesp.net.br 0 1 33125 
201-35-223-225.fnsce701.dsl.brasiltelecom.net.br 3 6 21372 20110511064531
189-95-223-108.3g.claro.net.br 1 1 351 20110516071012
201-14-185-219.fnsce701.dsl.brasiltelecom.net.br 2 6 256825 20110501073145
200-206-215-67.dsl.telesp.net.br 0 1 33125 
18925062203.user.veloxzone.com.br 1 3 18654 20110524190450
200-102-14-149.fnsce703.dsl.brasiltelecom.net.br 1 3 18654 20110504102440
200-101-192-115.fnsce7004.e.brasiltelecom.net.br 4 10 384707 20110519115529
200.198.122.2 0 1 33125 
200-171-86-212.dsl.telesp.net.br 1 3 1515835 20110516080224
201.22.7.72.static.gvt.net.br 0 2 297729 
201-24-90-182.fnsce702.dsl.brasiltelecom.net.br 1 3 18654 20110511182004
msnbot-207-46-12-238.search.msn.com 1 1 0 20110504101508
201.6.125.122 0 2 66250 
187-11-74-193.dsl.telesp.net.br 0 1 7657 
201-93-227-185.dsl.telesp.net.br 0 4 0 
187-27-39-226.3g.claro.net.br 0 1 7657 
189-79-204-137.dsl.telesp.net.br 1 4 1548960 20110520104250
189-68-19-196.dsl.telesp.net.br 0 1 0 
201-93-152-125.dsl.telesp.net.br 2 6 256825 20110531131302
201.64.95.98 0 1 33125 
201-2-192-189.fnsce702.dsl.brasiltelecom.net.br 2 6 48978 20110501185347
200-170-102-157.static-corp.ajato.com.br 0 1 33125 
186.212.88.246.static.host.gvt.net.br 0 1 33125 
ip-187-88-243-226.user.vivozap.com.br 0 1 33125 
189106010098.user.veloxzone.com.br 0 2 33125 
177.16.32.244.static.host.gvt.net.br 0 1 33125 
surksum.xs4all.nl 1 1 1578 20110531174145
201.37.211.158 0 3 33125 
201-93-167-29.dsl.telesp.net.br 0 1 33125 
189-47-198-168.dsl.telesp.net.br 2 11 1670927 20110530073424
201-2-210-202.fnsce702.dsl.brasiltelecom.net.br 2 7 74073 20110529181018
189-19-77-220.dsl.telesp.net.br 0 1 33125 
exchange.teleponto.com.br 0 8 112142 
mail.e-store.com.br 0 2 66250 
187-35-10-120.dsl.telesp.net.br 1 5 1548960 20110523032131
201-33-248-110.wln-static.conectcor.com.br 0 1 33125 
ip-187-117-175-9.user.vivozap.com.br 0 2 254791 
ip-187-119-152-168.user.vivozap.com.br 0 1 33125 
187-27-191-189.3g.claro.net.br 1 1 351 20110517113347
msnbot-207-46-13-46.search.msn.com 1 1 0 20110516091547
smtp.laquila.com.br 3 9 1772660 20110525133226
201-2-192-230.fnsce702.dsl.brasiltelecom.net.br 6 14 407157 20110502191228
201-95-18-68.dsl.telesp.net.br 0 2 66250 
189-95-153-139.3g.claro.net.br 1 2 8008 20110517065250
201.76.10.72 2 6 256825 20110515102251
201.76.10.89 3 7 256825 20110523125936
189-19-243-48.dsl.telesp.net.br 0 4 15314 
201.73.105.130 3 11 1065504 20110525101323
187.7.10.229 2 6 256825 20110514090440
189-111-109-243.dsl.telesp.net.br 0 13 40782 
mail.brusantin.com.br 0 1 33125 
189.121.118.100 1 3 1515835 20110531051701
200.135.6.11 5 15 402717 20110520135038
187.63.160.6 1 5 1598676 20110526072430
189-47-137-112.dsl.telesp.net.br 2 6 256825 20110511115358
189-75-47-7.fnses700.e.brasiltelecom.net.br 2 6 256825 20110504094146
189-69-132-220.dial-up.telesp.net.br 0 2 66250 
18912190214.user.veloxzone.com.br 2 8 519787 20110516102540
201-42-115-33.dsl.telesp.net.br 0 1 33125 
mail.ibp.com.br 0 1 33125 
187.63.163.210 0 1 33125 
201-95-11-34.dsl.telesp.net.br 0 1 33125 
bd3ff466.virtua.com.br 1 9 1597399 20110530054045
bd64a57a.virtua.com.br 0 1 33125 
200.135.6.6 1 3 18654 20110504123621
18715047205.user.veloxzone.com.br 0 1 7657 
186.212.92.248.static.host.gvt.net.br 0 1 0 
186.224.248.22 0 1 0 
189.33.38.11 0 18 15314 
189-31-125-67.fnses700.dsl.brasiltelecom.net.br 2 6 86318 20110501160932
badc957d.virtua.com.br 0 2 66250 
200-207-123-67.speedyterra.com.br 0 1 33125 
200-168-96-225.dsl.telesp.net.br 0 2 66250 
186.214.1.77.static.host.gvt.net.br 0 1 0 
187.7.31.246 5 14 278211 20110521170450
187-57-197-149.dsl.telesp.net.br 0 2 297729 
badc1862.virtua.com.br 2 7 395848 20110509113025
187126229176.user.veloxzone.com.br 0 1 33125 
189-30-106-4.dsl.fnses700.brasiltelecom.net.br 2 12 744375 20110503085605
s200-189-189-167.ipb.diveo.net.br 0 1 33125 
201.52.145.110 0 1 33125 
187-25-101-172.3g.claro.net.br 1 2 8008 20110531085148
187-35-160-83.dsl.telesp.net.br 0 2 15314 
189-94-38-96.3g.claro.net.br 1 3 1515835 20110524132704
ip-189-99-217-176.user.vivozap.com.br 0 1 7657 
189-18-80-14.dsl.telesp.net.br 1 3 18654 20110531104434
189.115.17.177.static.host.gvt.net.br 2 6 256825 20110510154916
187.17.67.62 0 1 12773 
ritter115.can.gvt.net.br 0 2 40782 
bd213c0c.virtua.com.br 2 6 256825 20110509085344
c9110f0e.virtua.com.br 0 1 33125 
187-35-154-192.dsl.telesp.net.br 0 3 99375 
static-208-80-194-34.as13448.com 5 5 7890 20110519070452
c953e1b4.virtua.com.br 0 2 66250 
189.26.135.212.dynamic.adsl.gvt.net.br 0 4 66250 
200-184-145-70.intelignet.com.br 0 6 132500 
201.88.128.138 6 16 1791314 20110513092645
200-215-93-147.cuace700.e.brasiltelecom.net.br 2 6 38402 20110510162558
187-52-175-227.bnut3700.e.brasiltelecom.net.br 0 1 15467 
mail.tecelagempanamericana.com.br 0 7 81564 
188.134.32.66 1 1 1578 20110517115318
187-10-221-95.dsl.telesp.net.br 1 7 1548960 20110512075204
12.53.132.4 1 4 1548960 20110520041650
189-19-21-58.dsl.telesp.net.br 2 83 3354025 20110524091651
18924154146.user.veloxzone.com.br 0 2 45820 
187.55.27.209 5 11 256825 20110509072332
ip-187-91-65-237.user.vivozap.com.br 0 1 7657 
201.67.201.95 1 3 18654 20110505201154
189-47-232-155.dsl.telesp.net.br 2 6 256825 20110505155601
189-47-148-88.dsl.telesp.net.br 0 1 33125 
187-70-9-163.3g.claro.net.br 0 2 66250 
201-43-183-165.dsl.telesp.net.br 0 10 0 
remoto2.gruposlc.com.br 0 1 7657 
mail.wolfbrasil.com.br 0 1 33125 
200-204-179-124.cwaynet.com.br 0 1 33125 
127.163.116.189.isp.timbrasil.com.br 2 4 18654 20110514205955
189-18-3-119.dsl.telesp.net.br 0 1 33125 
bacd5580.virtua.com.br 2 6 256825 20110529193946
187-5-185-60.fnses700.e.brasiltelecom.net.br 1 3 18654 20110503042302
bacc5eed.virtua.com.br 0 6 15314 
baccbcc8.virtua.com.br 0 2 66250 
187.37.141.100 0 4 215536 
187.87.105.96 2 6 256825 20110512180002
187-94-80-114.tcnet.com.br 1 8 1605056 20110517091850
201-0-156-3.dial-up.telesp.net.br 0 1 33125 
cl203.genius.net.br.203.195.33.201.in-addr.arpa 2 6 256825 20110525090825
bd3e0a37.virtua.com.br 2 6 256825 20110527111944
c951474d.virtua.com.br 0 1 33125 
189.42.160.130 2 6 256825 20110519111525
189.38.176.72.user.ajato.com.br 0 1 33125 
186.220.181.205 0 1 33125 
186-236-105-46.wifi.dyn.lancernet.com.br 0 1 33125 
189.22.57.180 1 6 1582085 20110511130614
187-3-25-129-sa.cpe.vivax.com.br 6 19 446843 20110530115257
c9343ee0.virtua.com.br 0 1 33125 
msnbot-207-46-13-48.search.msn.com 1 1 0 20110505170318
201.22.63.203.dynamic.adsl.gvt.net.br 2 10 3132048 20110509175552
smtp.xeryus.com.br 0 1 15555 
mail.supertectecidos.com.br 0 1 33125 
mx.bbcimoveis.com.br 3 17 2046978 20110513115729
msnbot-65-52-110-37.search.msn.com 1 1 0 20110513152823
189.26.104.163.dynamic.adsl.gvt.net.br 1 4 1548960 20110527060508
189.80.147.57 0 1 0 
187-3-48-130-sa.cpe.vivax.com.br 2 6 256825 20110516065048
200.136.75.11 0 2 297729 
texas.casasfretta.com.br 3 9 275479 20110517115939
bd79ea06.virtua.com.br 0 4 338337 
189.11.129.71 5 13 492278 20110511154044
201-0-19-33.dsl.telesp.net.br 0 1 33125 
201.22.249.149.static.gvt.net.br 0 2 33125 
201.73.129.242 0 1 33125 
201-35-224-22.fnsce701.dsl.brasiltelecom.net.br 3 7 24090 20110529132333
189-38-241-25.static-corp.ajato.com.br 1 3 1515835 20110516105151
msnbot-207-46-195-105.search.msn.com 1 1 1578 20110525020554
201.72.107.146 0 7 81564 
bacc291c.virtua.com.br 0 4 33125 
msnbot-65-52-110-43.search.msn.com 1 1 1578 20110527050331
189-111-216-90.dsl.telesp.net.br 0 7 328357 
189.121.160.114 0 3 0 
200-161-59-222.dsl.telesp.net.br 0 2 66250 
187.38.192.137 0 2 0 
189.115.77.125.static.host.gvt.net.br 5 13 2070389 20110504094252
189-30-107-41.dsl.fnses700.brasiltelecom.net.br 4 10 1774238 20110521133543
189-110-45-96.dsl.telesp.net.br 0 1 33125 
mvx-189-45-128-220.mundivox.com 1 4 1548960 20110524070647
200-138-221-23.fnsce702.dsl.brasiltelecom.net.br 3 9 648347 20110504102007
200-159-85-50.customer.tdatabrasil.net.br 0 1 20067 
189.115.17.150.static.host.gvt.net.br 1 3 18654 20110504081140
189-30-85-57.fnsce703.dsl.brasiltelecom.net.br 4 10 236137 20110522154313
badc16af.virtua.com.br 0 1 33125 
201-27-165-237.dsl.telesp.net.br 0 10 15314 
187-27-193-9.3g.claro.net.br 0 1 12773 
189-31-206-244.pgosm702.dsl.brasiltelecom.net.br 2 6 256825 20110527165202
baccc337.virtua.com.br 0 7 99375 
bacc95cf.virtua.com.br 0 4 15314 
200-160-111-70-sne.cpe.vivax.com.br 0 1 33125 
189-72-86.fnses700.dsl.brasiltelecom.net.br 5 15 363249 20110513062403
201-27-13-75.dsl.telesp.net.br 0 5 33125 
189-39-147-83.gru.flash.tv.br 1 7 1548960 20110520103854
host-182-85-2-96.midco.net 1 1 1578 20110506074249
189-95-115-77.3g.claro.net.br 0 1 7657 
18925228025.user.veloxzone.com.br 0 1 33125 
201-92-182-50.dsl.telesp.net.br 0 1 33125 
mail.gascom.com.br 0 1 33125 
200-206-114-90.newbras.com.br 0 2 66250 
189-19-200-229.dsl.telesp.net.br 0 1 33125 
201-95-104-229.dsl.telesp.net.br 0 1 33125 
189-015-181-255.xd-dynamic.ctbcnetsuper.com.br 1 3 18654 20110531125040
189-47-170-34.dsl.telesp.net.br 0 1 33125 
internet.krominox.com.br 0 2 66250 
189.16.38.210 0 1 33125 
187-101-248-186.dsl.telesp.net.br 1 5 1582085 20110523103145
bb25b770.virtua.com.br 0 1 33125 
201-0-163-172.dial-up.telesp.net.br 0 1 33125 
201.53.7.245 0 1 33125 
201.22.249.81.static.gvt.net.br 0 1 33125 
189-54-9-7-nd.cpe.vivax.com.br 3 9 256825 20110530184202
189-19-90-177.dsl.telesp.net.br 1 3 0 20110527072637
66-178-44-77.reverse.newskies.net 0 2 297729 
bacc052b.virtua.com.br 2 8 2500939 20110502122834
189-75-46-92.fnses700.e.brasiltelecom.net.br 3 9 275479 20110521180956
189-31-124-238.fnses700.dsl.brasiltelecom.net.br 1 1 1578 20110505181519
187-27-157-34.3g.claro.net.br 0 1 7657 
189-19-70-33.dsl.telesp.net.br 0 2 66250 
186.214.21.192.dynamic.adsl.gvt.net.br 1 1 1578 20110502093255
mx3.csj.coop.br 0 1 33125 
142ob.scansafe.net 0 1 33125 
187-70-42-222.3g.claro.net.br 0 1 12773 
200-207-53-92.dsl.telesp.net.br 0 1 33125 
smtp1.espm.br 1 8 1582085 20110506064653
201.54.240.2 0 6 33125 
b123ddd5.virtua.com.br 2 12 653929 20110510044142
189-109-64-60.customer.vianet.srv.br 0 3 38319 
189-19-91-189.dsl.telesp.net.br 0 8 7657 
200.194.127.146 0 4 66250 
bb69ff25.virtua.com.br 0 1 33125 
189-19-67-126.dsl.telesp.net.br 0 4 7657 
201-28-214-146.customer.tdatabrasil.net.br 1 5 1582085 20110519050130
b1238123.virtua.com.br 0 1 12773 
201-92-112-6.dsl.telesp.net.br 0 2 297729 
187.5.19-154.ctaje700.e.brasiltelecom.net.br 2 18 4145823 20110513132624
2.194.21.177.miragetelecom.com.br 0 1 33125 
189.38.220.171.corp.ajato.com.br 0 2 66250 
201.55.88.42 1 8 1548960 20110523133905
187-2-52-106-am.cpe.vivax.com.br 0 1 33125 
187.105.132.123 0 1 7657 
187.115.149.85.static.gvt.net.br 0 1 33125 
tvc.tv222.static.gvt.net.br 7 20 553676 20110528204117
189-78-119-205.dsl.telesp.net.br 0 1 33125 
189-30-71-169.fnsce701.dsl.brasiltelecom.net.br 2 6 220492 20110514153723
189-112-104-045.static.ctbctelecom.com.br 1 6 1625147 20110523071030
189-75-40-55.fnses700.dsl.brasiltelecom.net.br 0 5 188627 
187.59.84.4.static.host.gvt.net.br 1 5 35730 20110528133326
201.64.141.67 0 1 0 
msnbot-65-52-110-76.search.msn.com 2 2 0 20110521234429
201.52.115.242 0 8 22971 
82.n1.netell.net.br 1 5 1582085 20110527132430
187-10-181-85.dsl.telesp.net.br 0 2 297729 
189.114.34.202.static.host.gvt.net.br 1 4 1548960 20110516130917
mail.rtsvalvulas.com.br 0 2 66250 
201.86.23.54.dynamic.adsl.gvt.net.br 0 3 7657 
187-4-201-21.bnut3700.e.brasiltelecom.net.br 0 1 33125 
189-18-215-15.dsl.telesp.net.br 0 1 33125 
189-79-36-172.dsl.telesp.net.br 0 14 430625 
177-9-233-51.dsl.telesp.net.br 0 1 12773 
187-75-128-21.dsl.telesp.net.br 5 33 1885170 20110516103621
bd21a357.virtua.com.br 0 1 7657 
189.115.17.244.static.host.gvt.net.br 2 6 37308 20110525112056
189-93-87-13.3g.claro.net.br 0 1 7657 
74.125.75.1 0 2 665009 
187.59.35.156.static.host.gvt.net.br 0 1 0 
20151088254.user.veloxzone.com.br 0 1 33125 
201-92-191-106.dsl.telesp.net.br 0 1 33125 
20158012063.user.veloxzone.com.br 2 7 244192 20110531164541
200.215.9.66 0 2 66250 
189.109.138.30 0 1 12773 
200.193.9.250 1 7 1548960 20110525125943
189.62.20.127 0 1 0 
249.131.117.189.isp.timbrasil.com.br 0 1 33125 
189-19-71-144.dsl.telesp.net.br 0 2 66250 
189-112-190-113.static.ctbctelecom.com.br 0 1 33125 
bb26c089.virtua.com.br 0 3 0 
201.6.101.75 0 1 33125 
187-52-173-131.bnut3703.e.brasiltelecom.net.br 0 4 116282 
bb26b635.virtua.com.br 0 3 33125 
p5099d43b.dip0.t-ipconnect.de 1 1 1578 20110522133527
host-139-86-2-96.midco.net 2 2 3156 20110516111525
189-30-68-84.fnses700.dsl.brasiltelecom.net.br 1 3 18654 20110525095631
200-158-120-228.dsl.telesp.net.br 0 1 33125 
ns3.librelato.com.br 6 18 1772660 20110525094138
187-3-51-159-sa.cpe.vivax.com.br 0 2 297729 
200-232-87-126.customer.tdatabrasil.net.br 0 1 33125 
c953151a.virtua.com.br 0 4 33125 
187-50-206-11.customer.tdatabrasil.net.br 0 16 1514120 
c911fbdb.virtua.com.br 5 18 4626499 20110517075612
187-8-235-146.customer.tdatabrasil.net.br 0 7 33125 
msnbot-207-46-204-236.search.msn.com 1 1 0 20110509140212
18912117249.user.veloxzone.com.br 3 9 1772660 20110519073544
187.7.9.56 2 6 256825 20110528161255
201-74-13-113-sc.cpe.vivax.com.br 0 9 247210 
187-5-185-45.fnses700.e.brasiltelecom.net.br 0 2 66250 
201-24-212-3.cscgo702.e.brasiltelecom.net.br 0 1 33125 
189-30-109-241.dsl.fnses700.brasiltelecom.net.br 4 12 1772660 20110504095238
santiagoecintra59.static.gvt.net.br 0 2 15314 
bd3e12f4.virtua.com.br 2 7 395848 20110517123831
static-208-80-194-30.as13448.com 3 3 4734 20110510145452
189107134156.user.veloxzone.com.br 0 1 33125 
189-73-100-170.fnsce704.dsl.brasiltelecom.net.br 1 3 18654 20110516160016
mail.acc.ind.br 0 1 33125 
220.227.90.238 1 1 1715 20110504152851
mvx-200-142-123-132.mundivox.com 0 1 33125 
201.83.55.36 0 1 0 
200-206-226-198.dsl.telesp.net.br 0 1 33125 
201-95-205-63.dsl.telesp.net.br 0 1 7657 
mx2.icalsc.com.br 0 1 33125 
187-34-219-1.dsl.telesp.net.br 0 1 7657 
mq233-83.ararangua.ufsc.br 2 6 256825 20110520171029
unknown.hwng.net 0 3 33125 
187.53.21.14 1 6 1596192 20110503064253
201-68-76-98.dsl.telesp.net.br 0 2 297729 
187.38.49.38 0 1 7657 
d-159-202.fox.com.br 3 13 2498979 20110511112946
host94-130.dh-c.net.br 0 3 66250 
200-170-150-105.static.ctbctelecom.com.br 0 20 102184 
187-4-193-152.fnses700.e.brasiltelecom.net.br 2 6 98846 20110505172200
201.87.0.43.user.ajato.com.br 0 1 7657 
189.91.177.215 0 4 66250 
18715152065.user.veloxzone.com.br 0 1 33125 
badceec2.virtua.com.br 0 1 7657 
139.122.208.2 0 1 33125 
189.120.151.225 0 1 0 
187-2-182-58-ma.cpe.vivax.com.br 0 1 0 
87-75-ftth.onsneteindhoven.nl 1 1 1578 20110511091929
186.220.149.125 0 1 0 
r18-06.opera-mini.net 1 3 18654 20110504060939
177.26.47.180 0 1 12773 
189-31-108-17.dsl.fnses700.brasiltelecom.net.br 2 5 21372 20110507082039
bd786295.virtua.com.br 0 1 33125 
201-36-77-146.ded.intelignet.com.br 0 1 33125 
189-110-215-198.dsl.telesp.net.br 0 2 33125 
187-45-106-3.mhnet.com.br 0 2 33125 
189.115.121.35.static.host.gvt.net.br 0 1 33125 
200-160-125-149.static.spo.ctbc.com.br 0 2 66250 
msnbot-207-46-204-195.search.msn.com 1 1 0 20110517224726
bd79ca53.virtua.com.br 0 5 165625 
bd05f4bc.virtua.com.br 1 3 1515835 20110527060539
planetaindustria210.static.gvt.net.br 0 1 33125 
189.38.182.89.user.ajato.com.br 1 3 18654 20110513125707
bd219359.virtua.com.br 0 1 33125 
msnbot-65-52-110-13.search.msn.com 1 1 0 20110528080143
187-7-35-49.jvece702.e.brasiltelecom.net.br 4 32 7626914 20110513120640
mail3.metalnox.com.br 0 1 33125 
200-158-61-197.dsl.telesp.net.br 1 9 1714585 20110502031838
200.211.82.10 0 1 0 
c906245f.virtua.com.br 3 8 264482 20110530115538
189.16.4.18 1 10 1777521 20110518070537
186.204.7.109 0 2 33125 
201.84.64.18 0 2 297729 
189-015-224-073.xd-dynamic.ctbcnetsuper.com.br 2 6 256825 20110511094202
177.16.80.15.static.host.gvt.net.br 0 1 0 
189.38.200.250.user.ajato.com.br 0 1 33125 
cpe.ge-2-1-0-918.aarsnqu1.customer.tele.dk 1 1 1578 20110526151237
dsl-189-152-46-64-dyn.prod-infinitum.com.mx 0 2 297729 
189-73-100-226.fnsce704.dsl.brasiltelecom.net.br 1 3 18654 20110521135315
189.40.191.73 1 3 18654 20110512112904
200-158-81-192.dsl.telesp.net.br 0 2 66250 
187.63.214.129 5 18 2878254 20110516125824
189.102.240.239 0 2 0 
200-171-241-116.dial-up.telesp.net.br 0 3 66250 
201-93-137-206.dsl.telesp.net.br 0 1 33125 
63.80.56.43 1 1 1715 20110523043526
216.104.15.130 0 3 237459 
186.204.94.237 0 1 7657 
201-67-182-48.fnsce702.dsl.brasiltelecom.net.br 1 3 18654 20110504085534
msnbot-207-46-204-179.search.msn.com 1 1 0 20110510231122
187-53-193-104.nhoce701.e.brasiltelecom.net.br 0 1 0 
189.121.122.199 0 1 33125 
bb170389.virtua.com.br 0 1 33125 
200-207-48-54.splicenet.com.br 1 5 1617490 20110517111550
200-148-28-77.dsl.telesp.net.br 0 1 16427 
201-13-136-248.dial-up.telesp.net.br 0 2 0 
187-8-25-134.customer.tdatabrasil.net.br 1 3 1515835 20110502083324
187.55.229.9 2 6 256825 20110501150657
187-27-125-121.3g.claro.net.br 0 2 66250 
msnbot-207-46-13-131.search.msn.com 1 1 1578 20110528023846
187.38.49.37 0 1 0 
189.58.24.176.dynamic.adsl.gvt.net.br 2 6 256825 20110526060246
ns2.perfortex.com.br 1 3 1515835 20110524123108
pop.neodent.com.br 0 1 12773 
189-46-94-111.dsl.telesp.net.br 0 2 297729 
189-69-26-147.dsl.telesp.net.br 0 1 33125 
201.67.201.17 1 3 18654 20110528103253
cach1.nov.mobile.re2.yahoo.net 1 2 13725 20110526200445
157.55.16.230 1 1 0 20110517042525
mail.visaorolamentos.com.br 0 1 33125 
jmc.jmcprod.com.br 0 4 15314 
201-95-85-198.dsl.telesp.net.br 2 6 256825 20110513111732
201-13-254-35.dsl.telesp.net.br 1 4 2511159 20110518103328
187-93-76-210.customer.tdatabrasil.net.br 1 3 1515835 20110525124140
187-25-48-147.3g.claro.net.br 0 1 7657 
ns313150.ovh.net 2 2 3156 20110513100041
91-64-156-129-dynip.superkabel.de 1 1 1578 20110514104229
ip-187-119-24-219.user.vivozap.com.br 0 2 15314 
as28165-187-62-214-243.wcs.net.br 0 1 33125 
201.39.214.242 4 12 1772660 20110516122724
201.67.200.241 1 3 18654 20110507170927
msnbot-207-46-195-240.search.msn.com 1 1 0 20110515002715
193.194.132.72 0 2 25546 
201-35-254-34.fnses700.dsl.brasiltelecom.net.br 2 5 9225 20110501141236
189-72-114-111.fnses700.dsl.brasiltelecom.net.br 2 6 38402 20110524104150
18924234095.user.veloxzone.com.br 0 1 33125 
ateky34.static.host.gvt.net.br 7 21 770475 20110528125453
189-18-198-19.dsl.telesp.net.br 0 1 0 
189-112-246-217.static.ctbcnetsuper.com.br 0 1 33125 
187.105.217.246 0 1 33125 
187-35-82-49.dsl.telesp.net.br 0 1 33125 
186.204.187.197 1 5 1515835 20110516112135
186.204.13.219 0 1 33125 
sr341.2dayhost.com 2 2 3156 20110528055704
187-5-254-14.nhoce701.e.brasiltelecom.net.br 0 4 0 
bd787bb5.virtua.com.br 1 3 1515835 20110527060330
200-170-218-11.wcs.net.br 0 1 33125 
bd79355f.virtua.com.br 0 1 33125 
bd66d8e5.virtua.com.br 0 2 66250 
201-95-203-44.dsl.telesp.net.br 0 1 7657 
245.red-88-15-126.dynamicip.rima-tde.net 0 1 33125 
201-93-139-242.dsl.telesp.net.br 0 1 7657 
187.1.16.74 0 2 66250 
189-19-233-16.dsl.telesp.net.br 1 3 1515835 20110525074457
200.175.60.22.dynamic.dialup.gvt.net.br 4 12 256825 20110521061852
ip-187-117-120-86.user.vivozap.com.br 0 1 33125 
mail.solepoxy.com.br 0 1 33125 
200-153-25-138.customer.tdatabrasil.net.br 0 4 68530 
189-19-94-106.dsl.telesp.net.br 1 4 1548960 20110506095826
189-30-69-98.fnses700.dsl.brasiltelecom.net.br 3 29 768491 20110506063206
bb69847b.virtua.com.br 0 56 38285 
END_VISITOR

# Date - Pages - Hits - Bandwidth - Visits
BEGIN_DAY 31
20110501 29 85 2247928 17
20110502 31 150 16581567 17
20110503 25 139 5586076 16
20110504 76 318 12044991 26
20110505 26 149 2787527 15
20110506 34 200 14890003 16
20110507 11 25 394146 9
20110508 5 14 611265 4
20110509 47 220 15556767 22
20110510 32 194 6625031 15
20110511 30 256 17280776 19
20110512 28 214 12658540 17
20110513 31 253 24837548 20
20110514 25 63 1626327 15
20110515 6 25 3314662 5
20110516 44 261 26231548 27
20110517 34 173 16597704 19
20110518 20 215 12834835 14
20110519 34 189 15592026 20
20110520 35 228 12313236 20
20110521 23 67 3007441 10
20110522 19 48 1197882 12
20110523 40 225 26628414 30
20110524 22 206 13045067 17
20110525 39 212 17139882 25
20110526 19 141 4692761 12
20110527 25 316 9790286 18
20110528 22 59 1803975 15
20110529 18 47 2727947 9
20110530 24 235 6998911 11
20110531 25 205 7776260 18
END_DAY

# Session range - Number of visits
BEGIN_SESSION 6
5mn-15mn 14
2mn-5mn 16
15mn-30mn 5
30s-2mn 33
0s-30s 438
30mn-1h 4
END_SESSION

# URL - Pages - Bandwidth - Entry - Exit
# The 10 first Pages must be first (order not required for others)
BEGIN_SIDER 9
/ 417 544410 364 183
/site.html 269 344715 6 165
/eventos/ 155 240100 109 132
/webmail/ 32 2808 30 28
/clips/07/clips_07.html 2 8204 0 1
/clips/01/clips_01.html 1 2871 0 1
/clips/06/clips_06.html 1 5584 1 0
/clips/02/clips_02.html 1 2980 0 0
/clips/05/clips_05.html 1 5090 0 0
END_SIDER
