AWSTATS DATA FILE 6.4 (build 1.814)
# If you remove this file, all statistics for date 2009-11 will be lost/reset.

# Position (offset in bytes) in this file of beginning of each section for
# direct I/O access. If you made changes somewhere in this file, you should
# also remove completely the MAP section (AWStats will rewrite it at next
# update).
BEGIN_MAP 27
POS_GENERAL 1865                
POS_TIME 2535                
POS_VISITOR 12983               
POS_DAY 47849               
POS_DOMAIN 3309                
POS_LOGIN 3669                
POS_ROBOT 3824                
POS_WORMS 4216                
POS_EMAILSENDER 4347                
POS_EMAILRECEIVER 4490                
POS_SESSION 48678               
POS_SIDER 48889               
POS_FILETYPES 4625                
POS_OS 4773                
POS_BROWSER 4912                
POS_SCREENSIZE 5211                
POS_UNKNOWNREFERER 5285                
POS_UNKNOWNREFERERBROWSER 5921                
POS_ORIGIN 6198                
POS_SEREFERRALS 6342                
POS_PAGEREFS 6516                
POS_SEARCHWORDS 11475               
POS_KEYWORDS 11842               
POS_MISC 2198                
POS_ERRORS 12115               
POS_CLUSTER 3525                
POS_SIDER_404 12229               
END_MAP

# LastLine    = Date of last record processed - Last record line number in last log - Last record offset in last log - Last record signature value
# FirstTime   = Date of first visit for history file
# LastTime    = Date of last visit for history file
# LastUpdate  = Date of last update - Nb of parsed records - Nb of parsed old records - Nb of parsed new records - Nb of parsed corrupted - Nb of parsed dropped
# TotalVisits = Number of visits
# TotalUnique = Number of unique visitors
# MonthHostsKnown   = Number of hosts known
# MonthHostsUnKnown = Number of hosts unknown
BEGIN_GENERAL 8
LastLine 20091201005039 4853 1246797 25267666837
FirstTime 0
LastTime 20091130223618
LastUpdate 20091201044650 239 0 238 0 0
TotalVisits 235                 
TotalUnique 136                 
MonthHostsKnown 715                 
MonthHostsUnknown 74                  
END_GENERAL

# Misc ID - Pages - Hits - Bandwidth
BEGIN_MISC 10
QuickTimeSupport 0 0 0
JavaEnabled 0 0 0
JavascriptDisabled 0 0 0
PDFSupport 0 0 0
WindowsMediaPlayerSupport 0 0 0
AddToFavourites 0 48 0
RealPlayerSupport 0 0 0
TotalMisc 0 0 0
DirectorSupport 0 0 0
FlashSupport 0 0 0
END_MISC

# Hour - Pages - Hits - Bandwidth - Not viewed Pages - Not viewed Hits - Not viewed Bandwidth
BEGIN_TIME 24
0 3 10 199826 8 9 8085
1 2 19 1088612 3 3 3156
2 18 84 3786691 5 6 475222
3 56 224 6300252 31 31 11726
4 113 419 9278566 47 53 386111
5 88 471 14799554 25 31 286934
6 56 319 11003513 18 20 10888
7 49 281 13422411 79 81 13732940
8 38 239 9428900 23 25 768688
9 52 338 11494390 22 23 459231
10 83 472 23141151 34 36 40866
11 49 309 16807256 19 21 763444
12 29 184 3584755 16 17 27994
13 37 232 9826634 9 11 331177
14 5 117 3822592 0 0 0
15 10 119 4190061 5 6 78226
16 11 132 4529964 6 6 3508
17 1 89 2608977 0 0 0
18 7 59 3263684 2 3 0
19 12 42 2001111 5 6 1003
20 2 22 716606 2 2 0
21 5 21 411361 5 5 1578
22 3 3 4734 5 5 1578
23 1 1 1578 5 5 3156
END_TIME

# Domain - Pages - Hits - Bandwidth
# The 10 first Pages must be first (order not required for others)
BEGIN_DOMAIN 9
br 637 3712 133353845
ip 53 323 16598163
com 33 71 1542287
pt 5 62 2151989
net 2 28 1178799
it 0 4 195092
gov 0 2 297729
edu 0 2 97546
se 0 2 297729
END_DOMAIN

# Cluster ID - Pages - Hits - Bandwidth
BEGIN_CLUSTER 0
END_CLUSTER

# Login - Pages - Hits - Bandwidth - Last visit
# The 10 first Pages must be first (order not required for others)
BEGIN_LOGIN 0
END_LOGIN

# Robot ID - Hits - Bandwidth - Last visit - Hits on robots.txt
# The 10 first Hits must be first (order not required for others)
BEGIN_ROBOT 8
googlebot 18 30898 20091129043048 0
robot 7 1578 20091126221622 0
slurp 5 7890 20091126214108 0
yandex 5 7890 20091123015812 0
baiduspider 5 7890 20091126102858 0
crawl 4 6312 20091122011827 0
larbin 1 1578 20091108070844 0
msiecrawler 1 1578 20091101094218 0
END_ROBOT

# Worm ID - Hits - Bandwidth - Last visit
# The 5 first Hits must be first (order not required for others)
BEGIN_WORMS 0
END_WORMS

# EMail - Hits - Bandwidth - Last visit
# The 20 first Hits must be first (order not required for others)
BEGIN_EMAILSENDER 0
END_EMAILSENDER

# EMail - Hits - Bandwidth - Last visit
# The 20 first hits must be first (order not required for others)
BEGIN_EMAILRECEIVER 0
END_EMAILRECEIVER

# Files type - Hits - Bandwidth - Bandwidth without compression - Bandwidth after compression
BEGIN_FILETYPES 5
rar 7 10887015 0 0
html 723 499145 0 0
js 258 178560 0 0
jpg 2969 66525302 0 0
swf 249 77623157 0 0
END_FILETYPES

# OS ID - Hits
BEGIN_OS 10
winlong 684
winxp 3323
win2000 12
winnt 64
win98 6
linux 7
macosx 52
winme 2
win2003 33
Unknown 23
END_OS

# Browser ID - Hits
BEGIN_BROWSER 18
msie6.0 1628
firefox2.0.0.20 2
firefox3.6 2
firefox3.5.4 91
firefox3.0.1 2
opera 4
firefox3.0.14 5
firefox3.5.3 17
lotus\-notes 1
msie5.00 1
msie8.0 569
firefox3.5.5 180
mozilla 35
netscape5.0 1
msie7.0 1166
Unknown 15
safari 155
firefox3.0.15 332
END_BROWSER

# Screen size - Hits
BEGIN_SCREENSIZE 0
END_SCREENSIZE

# Unknown referer OS - Last visit date
BEGIN_UNKNOWNREFERER 10
Mozilla/5.0_(compatible;_woriobot_support_[at]_worio_[dot]_com__http://worio.com) 20091114191921
GbPlugin 20091126034045
Mozilla/5.0_(compatible;picmole/1.0__http://www.picmole.com) 20091111211003
Mozilla/5.0_(en-us)_AppleWebKit/525.13_(KHTML,_like_Gecko)_Version/3.1_Safari/525.13 20091123122036
OutlookConnector/1.9_(TmstmpExt) 20091111110407
- 20091111211908
OutlookConnector/1.9_(TmstmpExt;_MSOffice_12) 20091119025447
Mozilla/4.0_(compatible) 20091130105045
Linguee_Bot_(bot@linguee.com) 20091127191319
Mozilla/3.0_(compatible) 20091113032723
END_UNKNOWNREFERER

# Unknown referer Browser - Last visit date
BEGIN_UNKNOWNREFERERBROWSER 5
- 20091111211908
GbPlugin 20091126034045
OutlookConnector/1.9_(TmstmpExt;_MSOffice_12) 20091119025447
Linguee_Bot_(bot@linguee.com) 20091127191319
OutlookConnector/1.9_(TmstmpExt) 20091111110407
END_UNKNOWNREFERERBROWSER

# Origin - Pages - Hits 
BEGIN_ORIGIN 6
From0 602 993
From1 0 0
From2 40 63
From3 33 2067
From4 55 1083
From5 0 0
END_ORIGIN

# Search engine referers ID - Pages - Hits
BEGIN_SEREFERRALS 2
google 39 62
google_image 1 1
END_SEREFERRALS

# External page referers - Pages - Hits
# The 10 first Pages must be first (order not required for others)
BEGIN_PAGEREFS 87
http://www.dentalis.com.br/flash/hotsite_7.swf 7 7
http://www.espacodoblindado.com.br 4 4
http://www.dentalis.com.br/marketing-consultorio-odontologia.html 2 2
http://mail.uol.com.br/main#selectedfolder=INBOX&uid=MTAyNTg 1 1
http://www.radarbit.com/site/gscomunicacao.com.br 1 1
http://www.iesa.edu.br/hotsite_700_9_11.swf 1 1
http://br.mg2.mail.yahoo.com/dc/launch 1 21
http://www.espacodoblindado.com.br 1 1
http://webmail.artstilo.net/Main/frmReadMessage.aspx 1 2
http://www.newmind.com.br 1 1
http://gscomunicacao.blogspot.com/2009/05/novo-cliente.html 0 2
http://co121w.col121.mail.live.com/mail/RteFrame_15.1.3028.1103.html 0 1
http://co121w.col121.mail.live.com/mail/InboxLight.aspx 0 2
http://webmail.ateliedoacrilico.com.br:32000/mail/view.html 0 1
http://webmail02.redehost.com.br/Main/frmPreview.aspx 0 1
http://mail.terra.com.br/82trr/reademail.php 0 1
http://mail.uol.com.br/main/message 0 4
http://webmail2.dentalis.com.br/84.1trr/reademail.php 0 1
http://curtasfefisa.blogspot.com/2009/08/como-postar-videos-no-youtube.html 0 16
http://webmail.cravoecanela.com.br:32000/mail/view.html 0 1
http://mail2.terra.com.br/84.1trr/reademail.php 0 4
http://gscomunicacao.blogspot.com/2009/11/habasit.html 0 6
http://www.orkut.com.br/FullProfile 1 1
http://gscomunicacao.blogspot.com/2009/11/propagandas-engracadas.html 0 2
http://gscomunicacao.blogspot.com/2009/11/anuncio-fefisa.html 0 6
http://bl148w.blu148.mail.live.com/mail/InboxLight.aspx 0 1
http://webmail.saged.com.br/cgi-bin/webmail/webmail-read.pl 0 1
http://bl103w.blu103.mail.live.com/mail/InboxLight.aspx 0 6
http://curtasfefisa.blogspot.com/search 0 4
http://www.fefisa.com.br/curtas/curtas.html 1 1
http://consultoraimaginarium.blogspot.com 0 13
http://by111w.bay111.mail.live.com/mail/InboxLight.aspx 0 3
http://webmailajax.consultoria.com.br/src/read_body.php 0 1
http://pop.sebooleitor.com.br/Session/1093438-tdPTYA3n7Wg90xn2Z35m-aodhstx/message.wssp 0 1
http://br.mc398.mail.yahoo.com/mc/welcome 0 1
http://webmail.samsungcftv.com.br 0 1
http://mail.mailig.ig.com.br/mail/ 0 18
http://co115w.col115.mail.live.com/mail/InboxLight.aspx 0 3
http://curtasfefisa.blogspot.com 0 44
http://webmail.cbmpublicidade.com.br/src/read_body.php 0 3
http://bmail.uol.com.br/main/message 0 1
http://br.mc521.mail.yahoo.com/mc/welcome 0 3
http://pop.mortadelabrasil.com.br/cgi-bin/webmail/webmail-view.pl 1 2
http://mail.globo.com/mail/ 0 8
http://curtasfefisa.blogspot.com/2009/08/galeria-de-videos.html 0 1286
http://co106w.col106.mail.live.com/mail/InboxLight.aspx 0 1
http://mail.terra.com.br/83trr/reademail.php 0 3
http://pop.oxytal.com.br/cgi-bin/webmail/webmail-view.pl 1 3
http://71.6.217.131/mail/writemail.html 0 348
http://gscomunicacao.blogspot.com 0 32
http://sn121w.snt121.mail.live.com/mail/InboxLight.aspx 1 2
http://ferpak.com.br 1 1
http://br.mg1.mail.yahoo.com/dc/launch 0 1
http://sn126w.snt126.mail.live.com/mail/InboxLight.aspx 0 5
http://www.espacodoblindado.com.br/site.html 1 1
http://br.mg2.mail.yahoo.com/dc/blank.html 0 1
http://by111w.bay111.mail.live.com/mail/RteFrame_15.1.3028.1103.html 0 1
http://187.61.0.74/mail/view.html 0 3
http://www.dadaarquitetura.com.br/load.swf 1 1
http://pop.hariz.com.br/Session/1760783-FOUZenon4yyFsi0gFbgp-aodhstj/webmail.wssp 0 1
http://www.blogger.com/display 0 17
http://squirrelmail.ultramail.com.br/src/view_text.php 1 2
http://webmail.sppromo.com.br/cgi-bin/webmail/webmail-read.pl 0 1
http://iesafaculdade.blogspot.com 0 2
http://mail2.terra.com.br/83trr/reademail.php 0 1
http://curtasfefisa.blogspot.com/search/label/Galeria%20de%20V%C3%ADdeos 0 6
http://71.6.217.131/mail/viewaction.html 0 47
http://webmail.alphaodonto.com.br/zimbra/ 0 1
http://71.6.217.131/mail/view.html 1 66
http://pop.sebooleitor.com.br/Session/1561773-Q5v5SnIR5lzjxs4hooRm-aodhstx/Message.wssp 0 1
http://webmail.hostnet.com.br/ultramail/getMessage.php 0 1
http://br.mc622.mail.yahoo.com/mc/welcome 0 1
http://webmail.trompowsky.org.br/zimbra/h/search 0 1
http://www.iesa.edu.br/Resultado_16112009.php 1 1
http://ferpak.com.br/intro.swf 1 1
http://by135w.bay135.mail.live.com/mail/InboxLight.aspx 0 2
http://dnserro.brasiltelecom.com.br/main.php 1 1
http://www.stampspumas.com.br/novo/ 0 6
http://sn116w.snt116.mail.live.com/mail/InboxLight.aspx 0 2
http://pop.alures.com.br/Session/887285-sVEL4aR2TAOIMUV8Rzgw-aodhsua/MessagePart/INBOX/5-02-B.html 0 1
http://pop.sebooleitor.com.br/Session/1824129-rhBoI6YHQ0YaJfuoFGgH-aodhstx/message.wssp 0 1
http://mail2.terra.com.br/82trr/reademail.php 0 3
http://pop.hariz.com.br/Session/1760783-FOUZenon4yyFsi0gFbgp-aodhstj/message.wssp 0 1
http://sn129w.snt129.mail.live.com/mail/InboxLight.aspx 0 1
http://gscomunicacao.blogspot.com/2009/11/o-leitor.html 0 2
http://webmail.portatti.com/webmail/ 0 1
http://gscomunicacao.blogspot.com/2009/09/na-torcida.html 0 2
END_PAGEREFS

# Search keyphrases - Number of search
# The 10 first number of search must be first (order not required for others)
BEGIN_SEARCHWORDS 9
gs+comunica%c3%a7%c3%a3o 22
gs+comunica%c3%a7%c3%b5es 5
gs+comunicacao 3
gsf+comunicacoes 3
gscomunica%c3%a7%c3%b5es 2
gscomunicacoes 1
www.gscomunicacao.com.br 1
www.comunica%c3%a7%c3%a3o.com.br 1
conceito+de+gs 1
END_SEARCHWORDS

# Search keywords - Number of search
# The 10 first number of search must be first (order not required for others)
BEGIN_KEYWORDS 12
gs 31
comunica%c3%a7%c3%a3o 22
comunica%c3%a7%c3%b5es 5
comunicacao 3
comunicacoes 3
gsf 3
gscomunica%c3%a7%c3%b5es 2
gscomunicacoes 1
www.gscomunicacao.com.br 1
www.comunica%c3%a7%c3%a3o.com.br 1
conceito 1
de 1
END_KEYWORDS

# Errors - Hits - Bandwidth
BEGIN_ERRORS 3
206 83 17254931
404 62 0
301 214 74966
END_ERRORS

# URL with 404 errors - Hits - Last URL referer
BEGIN_SIDER_404 8
/robots.txt 49 -
/clips/07/Scripts/AC_ActiveX.js 4 http://www.gscomunicacao.com.br/clips/07/clips_07.html
/clips/06/Scripts/AC_ActiveX.js 2 http://www.gscomunicacao.com.br/clips/06/clips_06.html
/eventos/habasit_abtcp/stands.swf 2 http://www.gscomunicacao.com.br/eventos/habasit_abtcp/index.html
/iesa/flyer2010.rar 2 -
/) 1 http://www.gscomunicacao.com.br/
/EVENTOS 1 -
/application/x-shockwave-flash 1 http://www.gscomunicacao.com.br/flash.js
END_SIDER_404

# Host - Pages - Hits - Bandwidth - Last visit date - [Start date of last visit] - [Last page of last visit]
# [Start date of last visit] and [Last page of last visit] are saved only if session is not finished
# The 10 first Hits must be first (order not required for others)
BEGIN_VISITOR 789
201.23.69.242.dynamic.neoviatelecom.com.br 419 1418 28456361 20091130111545
bd7958da.virtua.com.br 22 27 586607 20091126044544
200-171-247-49.customer.telesp.net.br 10 31 858817 20091113043725
187-26-153-148.3g.claro.net.br 9 13 578950 20091111050810
189.57.26.65 9 69 763644 20091112063850
bd21cde2.virtua.com.br 9 27 1404642 20091110153621
189.100.94.192 6 25 1357945 20091111134810
201.91.2.5 5 15 578950 20091103034359
a81-84-155-179.cpe.netcabo.pt 5 62 2151989 20091129040451
189-46-114-237.dsl.telesp.net.br 4 12 578950 20091126102429
bd211569.virtua.com.br 0 8 195092 
189-110-204-220.dsl.telesp.net.br 0 4 0 
201-75-185-236-nd.cpe.vivax.com.br 0 4 97546 
187-26-90-82.3g.claro.net.br 0 2 0 
bd79b459.virtua.com.br 0 3 99375 
ec2-67-202-61-71.compute-1.amazonaws.com 1 1 1578 20091114191921
187-3-181-79-sa.cpe.vivax.com.br 0 2 97546 
187-2-186-153-ma.cpe.vivax.com.br 0 2 97546 
189-110-222-110.dsl.telesp.net.br 0 1 0 
201-74-116-144-sv.cpe.vivax.com.br 0 2 97546 
201-26-134-196.dial-up.telesp.net.br 0 1 7657 
201-74-48-190-sa.cpe.vivax.com.br 0 2 97546 
201.73.215.34 0 2 97546 
189-110-212-189.dsl.telesp.net.br 0 2 0 
189-110-199-68.dsl.telesp.net.br 0 2 0 
189-78-206-222.dsl.telesp.net.br 0 1 259096 
189-110-210-77.dsl.telesp.net.br 0 2 97546 
189-110-252-138.dsl.telesp.net.br 0 2 0 
mx2.belasartes.br 0 4 97546 
189-110-149-21.dsl.telesp.net.br 0 2 97546 
c9515bee.virtua.com.br 0 1 33125 
200-158-102-60.dsl.telesp.net.br 0 2 97546 
200-158-246-183.dsl.telesp.net.br 0 2 97546 
200-158-80-9.dsl.telesp.net.br 0 1 7657 
18925113227.user.veloxzone.com.br 0 1 33125 
187-2-177-5-ma.cpe.vivax.com.br 0 2 97546 
189-110-211-137.dsl.telesp.net.br 0 2 97546 
bd212655.virtua.com.br 3 10 1136528 20091109114252
187-34-128-209.dsl.telesp.net.br 0 4 195092 
189-110-221-7.dsl.telesp.net.br 0 2 97546 
187-26-177-37.3g.claro.net.br 0 2 97546 
187.88.150.164 0 1 7657 
201-1-50-46.dsl.telesp.net.br 0 2 97546 
201-0-181-102.dial-up.telesp.net.br 0 1 0 
201-0-152-194.dial-up.telesp.net.br 0 2 15314 
bd64ad26.virtua.com.br 0 10 390184 
static-208-80-193-27.as13448.com 3 3 4734 20091128213931
189-19-213-91.dsl.telesp.net.br 1 6 2022048 20091126102438
bd21e26b.virtua.com.br 0 2 97546 
201-43-179-60.dsl.telesp.net.br 0 1 33125 
201-95-216-37.dsl.telesp.net.br 0 2 97546 
189-110-211-223.dsl.telesp.net.br 0 2 97546 
200-207-104-214.dsl.telesp.net.br 0 2 97546 
200-148-81-96.dsl.telesp.net.br 0 2 97546 
c90633e2.virtua.com.br 0 2 7657 
187-10-191-139.dsl.telesp.net.br 0 2 97546 
187-3-106-50-sa.cpe.vivax.com.br 0 2 97546 
189-110-196-58.dsl.telesp.net.br 0 10 0 
187-56-218-117.dsl.telesp.net.br 0 2 97546 
200-168-96-151.dsl.telesp.net.br 0 2 97546 
175.204.117.189.isp.timbrasil.com.br 0 1 5564 
201-27-163-84.dsl.telesp.net.br 0 1 33125 
pool-173-57-133-134.dllstx.fios.verizon.net 0 2 97546 
189-47-143-207.dsl.telesp.net.br 0 2 97546 
bd21ec85.virtua.com.br 1 4 216672 20091109095120
189-110-252-115.dsl.telesp.net.br 0 2 97546 
200-225-206-211.xf-static.ctbcnetsuper.com.br 0 1 33125 
c925a995.virtua.com.br 0 3 40782 
cpe-76-186-151-83.tx.res.rr.com 0 4 97546 
silkim238.static.gvt.net.br 0 2 97546 
189.38.23.144 0 1 33125 
189-110-242-78.dsl.telesp.net.br 0 2 0 
189-110-214-67.dsl.telesp.net.br 2 6 578950 20091103042302
201-92-175-113.dsl.telesp.net.br 0 1 33125 
18713166223.user.veloxzone.com.br 2 6 578950 20091124084218
189-46-27-38.dsl.telesp.net.br 0 4 97546 
189-110-239-58.dsl.telesp.net.br 0 2 97546 
189-46-150-109.dsl.telesp.net.br 0 8 97546 
187-24-239-229.3g.claro.net.br 0 2 97546 
getz146.static.gvt.net.br 2 6 578950 20091106093135
201-1-145-141.dsl.telesp.net.br 0 1 7657 
201-74-37-238-sa.cpe.vivax.com.br 0 3 0 
189.120.80.70 0 1 7657 
187-50-70-66.customer.tdatabrasil.net.br 2 6 578950 20091125093911
201-1-146-147.dsl.telesp.net.br 0 2 97546 
static-208-80-193-32.as13448.com 4 4 6312 20091115104156
216.104.15.138 0 1 1003 
189-55-252-202-nd.cpe.vivax.com.br 0 2 97546 
189-19-133-166.dsl.telesp.net.br 0 4 97546 
201-28-114-194.customer.tdatabrasil.net.br 0 1 33125 
189-110-206-21.dsl.telesp.net.br 0 2 97546 
201-2-203-179.fnsce701.dsl.brasiltelecom.net.br 2 8 876679 20091125020253
201-13-82-222.dsl.telesp.net.br 0 1 7657 
187-3-130-84-sa.cpe.vivax.com.br 0 8 292638 
189-29-165-176-nd.cpe.vivax.com.br 0 2 0 
187-34-128-244.dsl.telesp.net.br 0 3 97546 
143.107.79.78 0 2 97546 
201-13-185-181.dial-up.telesp.net.br 0 2 97546 
200.246.13.208 0 10 292638 
mail2.betulla.com.br 0 2 97546 
201-13-84-118.dsl.telesp.net.br 0 2 97546 
cpe-76-185-114-232.tx.res.rr.com 0 2 97546 
189-110-87-87.dsl.telesp.net.br 0 1 7657 
187-10-201-227.dsl.telesp.net.br 0 2 97546 
bd21ef02.virtua.com.br 0 2 0 
200-160-80-78.static-user.ajato.com.br 1 5 216672 20091105044512
bd646ab1.virtua.com.br 2 6 578950 20091110100048
bb16abc2.virtua.com.br 1 1 1578 20091102042054
189-110-220-157.dsl.telesp.net.br 0 4 195092 
200-171-41-42.dsl.telesp.net.br 0 1 7657 
189-110-87-157.dsl.telesp.net.br 0 1 0 
189.62.41.11 0 1 33125 
187-3-21-194-sa.cpe.vivax.com.br 0 2 97546 
187-26-44-105.3g.claro.net.br 0 2 15314 
187-57-241-155.dsl.telesp.net.br 0 2 97546 
189-55-252-56-nd.cpe.vivax.com.br 0 4 97546 
189-74-248-40.nhoce701.e.brasiltelecom.net.br 0 1 33125 
189-19-136-213.dsl.telesp.net.br 0 2 97546 
189-19-140-16.dsl.telesp.net.br 0 4 97546 
187-2-27-3-am.cpe.vivax.com.br 1 4 858817 20091118014309
20129185045.user.veloxzone.com.br 0 1 33125 
201-62-110-81-ma.static.vivax.com.br 0 4 31470 
200.188.208.150.dedicated.neoviatelecom.com.br 0 2 45892 
189-110-253-78.dsl.telesp.net.br 0 2 97546 
189-54-170-168-nd.cpe.vivax.com.br 0 2 97546 
c93400af.virtua.com.br 3 9 578950 20091128133104
201-27-76-125.dsl.telesp.net.br 0 2 97546 
201-92-159-40.dsl.telesp.net.br 0 2 97546 
bd3e834b.virtua.com.br 0 2 97546 
mail2.unikey.ind.br 0 2 375252 
c9348323.virtua.com.br 0 1 33125 
host-1-16-38.hotlink.com.br 0 1 7657 
189-8-57-130.ded.unitelco.com.br 0 33 68913 
187-56-221-70.dsl.telesp.net.br 0 2 97546 
200-207-106-208.dsl.telesp.net.br 0 2 97546 
189-73-169-196.paebv701.e.brasiltelecom.net.br 0 1 33125 
187-26-12-164.3g.claro.net.br 0 2 15314 
189-29-151-48-nd.cpe.vivax.com.br 0 2 97546 
201.23.86.210.dedicated.neoviatelecom.com.br 0 2 97546 
nat-170-141-109-33.tn.gov 0 2 297729 
ns1.afrebras.org.br 0 1 33125 
187.52.136.36 0 1 0 
189-110-16-111.dsl.telesp.net.br 0 2 97546 
189-110-195-129.dsl.telesp.net.br 0 4 195092 
189-110-207-136.dsl.telesp.net.br 0 2 0 
201-27-101-120.dsl.telesp.net.br 0 1 7657 
187-3-141-124-sa.cpe.vivax.com.br 0 2 97546 
201.82.233.27 0 1 33125 
189-110-215-15.dsl.telesp.net.br 0 6 292638 
187.37.193.95 1 4 565088 20091113060954
189-78-232-224.dsl.telesp.net.br 0 2 97546 
c906d495.virtua.com.br 0 1 7657 
200-204-93-47.dsl.telesp.net.br 0 1 0 
201-27-28-229.dsl.telesp.net.br 2 12 1973223 20091117061918
189-54-4-68-nd.cpe.vivax.com.br 0 1 7657 
200-203-115-44.cslce701.dsl.brasiltelecom.net.br 2 6 578950 20091107181148
189-55-255-115-nd.cpe.vivax.com.br 0 1 7657 
189-19-130-186.dsl.telesp.net.br 0 2 97546 
ip-189-98-39-65.user.vivozap.com.br 0 1 33125 
201-2-223-53.bnut3702.dsl.brasiltelecom.net.br 0 4 97546 
187-27-18-172.3g.claro.net.br 0 2 97546 
189-19-139-215.dsl.telesp.net.br 0 2 97546 
201-74-38-6-sa.cpe.vivax.com.br 0 2 97546 
static-208-80-193-38.as13448.com 1 1 1578 20091103095744
201-1-31-84.dsl.telesp.net.br 0 2 97546 
189.120.114.104 0 2 0 
189-28-246-3.clientes.cilnet.com.br 0 1 0 
64.184.179.82 1 1 1578 20091125070240
bd660a5e.virtua.com.br 0 2 97546 
189-55-251-93-nd.cpe.vivax.com.br 0 7 0 
187-2-162-55-ma.cpe.vivax.com.br 0 2 97546 
200.182.101.60 0 1 12773 
201-75-150-182-sc.cpe.vivax.com.br 0 1 7657 
201-26-96-64.dsl.telesp.net.br 0 2 97546 
187-3-135-43-sa.cpe.vivax.com.br 0 2 97546 
bd21a351.virtua.com.br 0 4 297729 
189.121.35.185 0 1 7657 
200165222163.user.veloxzone.com.br 2 6 124638 20091117181929
189-29-227-171-nd.cpe.vivax.com.br 0 4 0 
c93410e7.virtua.com.br 0 1 7657 
187-27-38-58.3g.claro.net.br 1 1 1578 20091110051637
201-43-210-18.dsl.telesp.net.br 0 1 7657 
201-75-17-56-ma.cpe.vivax.com.br 3 9 1139246 20091125024427
18777106122.telemar.net.br 0 2 97546 
static-208-80-193-29.as13448.com 2 2 3156 20091129033411
201-27-237-52.dsl.telesp.net.br 0 1 7657 
187-11-19-164.dsl.telesp.net.br 0 2 97546 
189-110-216-87.dsl.telesp.net.br 0 2 0 
201-27-77-46.dsl.telesp.net.br 0 2 97546 
201-43-42-99.dsl.telesp.net.br 0 2 97546 
189-68-14-7.dsl.telesp.net.br 0 2 97546 
59.129.204.68.cfl.res.rr.com 0 2 15314 
189-110-227-118.dsl.telesp.net.br 0 4 195092 
200-207-92-213.t-systems.com.br 0 2 97546 
189-110-251-145.dsl.telesp.net.br 0 2 0 
187.38.50.252 0 1 7657 
201-43-202-97.dsl.telesp.net.br 0 2 97546 
201-27-130-134.dsl.telesp.net.br 0 2 97546 
201-68-41-154.dsl.telesp.net.br 0 1 0 
mail.grow.com.br 0 1 33125 
189-110-228-73.dsl.telesp.net.br 0 14 0 
189-110-231-249.dsl.telesp.net.br 1 1 1578 20091107001732
201-27-72-13.dsl.telesp.net.br 0 4 97546 
189-31-129-228.bsaco701.dsl.brasiltelecom.net.br 0 2 97546 
201-1-147-17.dsl.telesp.net.br 0 2 97546 
187-26-73-245.3g.claro.net.br 0 2 97546 
187.38.55.17 0 1 7657 
189-47-137-234.dsl.telesp.net.br 3 26 698076 20091130113835
201009255123.user.veloxzone.com.br 1 1 1578 20091124150715
200-148-81-62.dsl.telesp.net.br 0 2 97546 
adm004.cepeusp.net.recad.usp.br 0 2 97546 
189-78-109-42.dsl.telesp.net.br 0 1 0 
200-171-9-71.dglnet.com.br 0 1 7657 
187-3-93-180-sa.cpe.vivax.com.br 0 1 7657 
189-19-130-55.dsl.telesp.net.br 0 2 97546 
200.18.248.102 0 4 281510 
187-34-129-44.dsl.telesp.net.br 0 2 97546 
166-205-006-008.mobile.mymmode.com 0 2 97546 
201-93-144-66.dsl.telesp.net.br 0 2 97546 
189-18-213-15.dsl.telesp.net.br 0 2 97546 
201-24-95-89.fnsce703.dsl.brasiltelecom.net.br 1 3 18654 20091117092516
200-138-101-121.ctame706.dsl.brasiltelecom.net.br 0 1 33125 
mail.habasit.com.br 1 15 769495 20091130100509
cpe-76-184-242-38.tx.res.rr.com 0 2 97546 
189-110-215-152.dsl.telesp.net.br 0 2 97546 
187-2-172-44-ma.cpe.vivax.com.br 0 2 97546 
201-42-79-161.dsl.telesp.net.br 0 2 97546 
cpe-72-181-216-58.tx.res.rr.com 0 2 97546 
201-43-194-254.dsl.telesp.net.br 0 1 0 
189.120.80.57 0 1 7657 
201-0-89-72.dsl.telesp.net.br 0 2 97546 
189-19-133-34.dsl.telesp.net.br 0 2 97546 
189-19-29-162.dsl.telesp.net.br 0 2 97546 
189-110-232-223.dsl.telesp.net.br 0 2 97546 
189-015-163-131.xd-dynamic.ctbcnetsuper.com.br 0 1 0 
201-92-218-103.dsl.telesp.net.br 0 2 97546 
189-54-194-141-nd.cpe.vivax.com.br 0 1 7657 
189.102.218.194 0 1 33125 
bd66c56a.virtua.com.br 0 1 33125 
120.2.226.200.in-addr.arpa.ig.com.br 0 2 97546 
201-0-155-69.dial-up.telesp.net.br 0 5 33125 
adsl-76-237-231-114.dsl.rcsntx.sbcglobal.net 0 2 97546 
200.245.65.25 0 2 97546 
18778117067.telemar.net.br 0 2 97546 
200-158-217-2.dsl.telesp.net.br 0 1 33125 
189-19-28-190.dsl.telesp.net.br 0 2 97546 
static-208-80-193-42.as13448.com 3 3 4734 20091118223315
201-1-105-26.dsl.telesp.net.br 0 2 97546 
201-95-205-30.dsl.telesp.net.br 0 4 97546 
201-43-185-25.dsl.telesp.net.br 0 1 7657 
71-15-121-8.dhcp.ftwo.tx.charter.com 0 2 97546 
72-48-21-252.dyn.grandenetworks.net 0 14 390184 
cpe-76-187-15-152.tx.res.rr.com 0 2 97546 
ip-189-96-200-41.user.vivozap.com.br 1 5 858817 20091119142313
201-74-62-16-sa.cpe.vivax.com.br 0 2 97546 
89.30.47.187.isp.timbrasil.com.br 0 1 33125 
187-3-99-158-sa.cpe.vivax.com.br 0 2 97546 
201.44.225.25 0 6 195092 
cpe-76-183-209-219.tx.res.rr.com 0 2 97546 
dns2.grupomazzaferro.com.br 0 1 7657 
189-18-251-76.dsl.telesp.net.br 0 2 0 
189.58.164.123.static.host.gvt.net.br 2 7 335334 20091125054421
189-46-134-145.dsl.telesp.net.br 0 3 66250 
200-158-48-231.dsl.telesp.net.br 0 2 97546 
189-8-20-2.ded.unitelco.com.br 0 2 97546 
201.53.128.99 3 10 1136528 20091104074054
static-208-80-193-30.as13448.com 1 1 1578 20091123012100
201-13-87-246.dsl.telesp.net.br 2 7 895145 20091101180902
201-93-140-126.dsl.telesp.net.br 2 6 578950 20091113081706
201-26-98-210.dsl.telesp.net.br 0 1 7657 
189-110-206-152.dsl.telesp.net.br 0 2 97546 
189-110-218-250.dsl.telesp.net.br 0 2 97546 
cache2.pop.com.br 0 1 0 
669622069.hostnoc.net 2 2 3156 20091117213821
189-68-19-61.dsl.telesp.net.br 0 2 97546 
201009209018.user.veloxzone.com.br 1 5 35730 20091127125231
189.121.88.218 2 6 578950 20091127063229
c9521ffc.virtua.com.br 0 2 97546 
201-95-193-44.dsl.telesp.net.br 0 2 97546 
201-74-75-129-so.cpe.vivax.com.br 3 9 578950 20091126130346
201-43-188-190.dsl.telesp.net.br 0 4 0 
201-42-181-64.dsl.telesp.net.br 0 6 7657 
189-54-30-140-nd.cpe.vivax.com.br 0 1 7657 
189-54-216-36-nd.cpe.vivax.com.br 0 2 97546 
187-2-162-70-ma.cpe.vivax.com.br 0 66 893228 
201-1-27-51.dsl.telesp.net.br 0 2 97546 
201-13-84-191.dsl.telesp.net.br 0 2 97546 
201-26-171-26.dial-up.telesp.net.br 2 8 1019084 20091117061447
187-10-198-54.dsl.telesp.net.br 0 2 7657 
189-47-171-24.dsl.telesp.net.br 0 2 97546 
c950449f.virtua.com.br 2 6 578950 20091113135421
bd79bc2f.virtua.com.br 0 2 97546 
189-69-23-128.dsl.telesp.net.br 0 2 97546 
189.103.193.229 1 4 216672 20091104101727
189.109.224.26 2 7 846510 20091109072047
187-3-61-5-sa.cpe.vivax.com.br 0 2 97546 
189-54-150-168-nd.cpe.vivax.com.br 0 4 97546 
host40-253-dynamic.8-87-r.retail.telecomitalia.it 0 2 97546 
189-47-160-68.dsl.telesp.net.br 0 2 97546 
187-11-36-228.dsl.telesp.net.br 0 4 97546 
201-1-20-73.dsl.telesp.net.br 0 3 15314 
189-46-19-230.dsl.telesp.net.br 0 2 97546 
201-43-185-28.dsl.telesp.net.br 0 2 97546 
167.118.234.200.in-addr.arpa.ig.com.br 0 2 97546 
187-34-135-215.dsl.telesp.net.br 0 2 97546 
host-c-246.mwsu.edu 0 2 97546 
65-71-242-254.msuresnet.net 0 2 97546 
133.252.47.187.isp.timbrasil.com.br 0 2 97546 
200-207-67-91.dsl.telesp.net.br 0 10 125776 
c906fbc5.virtua.com.br 2 57 938829 20091112074634
187-3-24-96-sa.cpe.vivax.com.br 0 2 97546 
189-8-5-133.ded.unitelco.com.br 2 6 73538 20091104104032
189-110-199-89.dsl.telesp.net.br 0 2 97546 
18777032241.telemar.net.br 0 4 97546 
inet1.petrobras.com.br 0 1 7657 
c9539fde.virtua.com.br 0 1 33125 
187-3-1-10-sa.cpe.vivax.com.br 0 2 0 
189-015-101-139.xd-dynamic.ctbcnetsuper.com.br 0 2 33125 
189-68-17-22.dsl.telesp.net.br 0 4 97546 
189-28-246-74.clientes.cilnet.com.br 0 2 33125 
189-47-170-158.dsl.telesp.net.br 1 5 891942 20091112100907
200-158-243-84.dsl.telesp.net.br 0 4 97546 
201-34-148-70.fnsce704.dsl.brasiltelecom.net.br 3 7 578950 20091116111406
189-69-161-106.dial-up.telesp.net.br 0 1 7657 
bd787103.virtua.com.br 0 4 195092 
189.16.16.221 0 2 66250 
189-18-163-58.dsl.telesp.net.br 0 2 97546 
201-26-113-210.dsl.telesp.net.br 0 2 97546 
18971105009.user.veloxzone.com.br 0 1 33125 
189-29-210-171-nd.cpe.vivax.com.br 0 2 97546 
redondo.milnegocios.com.br 0 1 33125 
189-110-224-238.dsl.telesp.net.br 0 2 0 
12.99.47.187.isp.timbrasil.com.br 0 5 200656 
189-110-234-111.dsl.telesp.net.br 0 2 97546 
200-158-79-90.dsl.telesp.net.br 2 7 586607 20091112134718
189037066135.res-com.wayinternet.com.br 0 1 33125 
189-110-250-136.dsl.telesp.net.br 0 14 0 
201-13-82-247.dsl.telesp.net.br 0 2 97546 
187-3-183-129-sa.cpe.vivax.com.br 0 2 97546 
189-93-59-179.3g.claro.net.br 1 3 18654 20091127133325
72.14.192.65 0 2 297729 
201-3-198-163.bnut3702.dsl.brasiltelecom.net.br 0 2 0 
200-171-32-122.dsl.telesp.net.br 0 4 195092 
bd2064e4.virtua.com.br 2 6 578950 20091104103407
189-110-214-180.dsl.telesp.net.br 0 2 97546 
189-110-225-41.dsl.telesp.net.br 0 29 30628 
187-3-56-69-sa.cpe.vivax.com.br 0 2 7657 
rosmail3.rosset.com.br 0 1 7657 
189-111-165-238.dsl.telesp.net.br 0 2 97546 
189-78-142-106.dsl.telesp.net.br 2 7 607192 20091121061542
bd7901e5.virtua.com.br 0 2 97546 
189.42.108.2 0 1 33125 
201-74-33-209-sa.cpe.vivax.com.br 0 2 97546 
c906c1b9.virtua.com.br 0 5 195092 
187-10-205-239.dsl.telesp.net.br 0 3 0 
201-74-42-202-sa.cpe.vivax.com.br 0 1 0 
200-148-81-20.dsl.telesp.net.br 1 2 0 20091105193106
189-54-125-117-nd.cpe.vivax.com.br 0 4 195092 
189-29-158-182-nd.cpe.vivax.com.br 0 4 97546 
201-95-221-15.dsl.telesp.net.br 0 1 91982 
187-3-92-189-sa.cpe.vivax.com.br 0 2 97546 
201-1-31-165.dsl.telesp.net.br 0 2 97546 
189-54-82-153-nd.cpe.vivax.com.br 0 2 97546 
187-34-133-156.dsl.telesp.net.br 0 2 0 
187-9-75-26.customer.tdatabrasil.net.br 1 1 351 20091106082155
200-206-220-178.dsl.telesp.net.br 0 1 7657 
189-54-33-182-nd.cpe.vivax.com.br 0 2 97546 
200.186.251.201 2 10 1165413 20091112102737
bd21437e.virtua.com.br 0 2 97546 
189-110-247-244.dsl.telesp.net.br 0 2 97546 
201-42-80-232.dsl.telesp.net.br 0 2 97546 
189.120.145.112 0 2 97546 
200-206-220-215.dsl.telesp.net.br 0 2 97546 
189-47-140-215.dsl.telesp.net.br 0 3 22971 
189-54-173-130-nd.cpe.vivax.com.br 0 2 97546 
20129156232.user.veloxzone.com.br 1 4 216672 20091103075956
41.138.182.139 0 1 7657 
200-207-84-91.dsl.telesp.net.br 0 2 97546 
201-93-177-100.dsl.telesp.net.br 0 3 0 
189-110-81-252.dsl.telesp.net.br 0 1 7657 
189-54-223-60-nd.cpe.vivax.com.br 0 2 97546 
189-110-196-100.dsl.telesp.net.br 0 2 97546 
189-110-202-29.dsl.telesp.net.br 0 2 0 
189-79-73-34.dsl.telesp.net.br 3 31 1388345 20091125115656
ip-189-96-215-183.user.vivozap.com.br 0 1 7657 
189-29-155-149-nd.cpe.vivax.com.br 0 2 97546 
187-2-51-14-am.cpe.vivax.com.br 1 1 1578 20091113032723
187.88.96.100 0 1 7657 
200.140.140.230 1 1 1578 20091130105045
189-18-98-171.dsl.telesp.net.br 0 2 0 
bot.linguee.com 2 2 1578 20091127191319
201-74-11-62-sc.cpe.vivax.com.br 0 2 97546 
187-3-175-166-sa.cpe.vivax.com.br 0 1 7657 
187-3-29-120-sa.cpe.vivax.com.br 0 2 97546 
c-155-226.fox.com.br 1 6 271501 20091113053529
201.7.229.10 0 1 15687 
201-13-84-22.dsl.telesp.net.br 0 2 97546 
cache4.pop.com.br 0 1 5564 
bd3cb24d.virtua.com.br 0 2 97546 
189-11-190-193.dsl.fnsce703.brasiltelecom.net.br 1 3 18654 20091123161748
189-46-195-28.dsl.telesp.net.br 0 2 97546 
189.102.172.155 0 1 33125 
189-110-243-171.dsl.telesp.net.br 0 2 97546 
187-3-52-171-sa.cpe.vivax.com.br 0 8 390184 
cache1.pop.com.br 0 1 91982 
189-46-234-55.dsl.telesp.net.br 0 2 0 
189-19-134-136.dsl.telesp.net.br 0 2 97546 
201-1-153-237.dsl.telesp.net.br 0 1 7657 
201-27-239-162.dsl.telesp.net.br 0 2 97546 
201-27-214-36.dsl.telesp.net.br 0 2 97546 
ip-174-142-82-15.static.privatedns.com 2 4 16443 20091111210957
189.62.188.60 0 1 7657 
200-158-10-158.dsl.telesp.net.br 0 1 7657 
187-3-84-202-sa.cpe.vivax.com.br 0 2 97546 
200-168-57-213.speedyterra.com.br 0 1 33125 
201009248245.user.veloxzone.com.br 1 1 1578 20091118065423
189-110-221-226.dsl.telesp.net.br 0 2 97546 
189-18-246-252.dsl.telesp.net.br 0 2 97546 
201-41-205-178.jvece702.dsl.brasiltelecom.net.br 0 1 33125 
c80-217-40-154.bredband.comhem.se 0 2 297729 
cpe-76-185-28-228.tx.res.rr.com 0 2 97546 
201-27-72-29.dsl.telesp.net.br 0 2 97546 
189-110-212-190.dsl.telesp.net.br 0 2 0 
187-3-161-59-sa.cpe.vivax.com.br 0 2 97546 
189-18-95-112.dsl.telesp.net.br 0 2 97546 
200-168-30-131.speedyterra.com.br 1 6 858817 20091123031334
201009189225.user.veloxzone.com.br 4 9 775794 20091126085909
200-187-90-5.clientes.cilnet.com.br 0 1 33125 
189-19-140-189.dsl.telesp.net.br 0 1 7657 
200-171-147-72.speedyterra.com.br 0 2 97546 
189-19-141-12.dsl.telesp.net.br 0 2 97546 
187-3-177-47-sa.cpe.vivax.com.br 1 3 18654 20091127093813
201-68-41-141.dsl.telesp.net.br 0 2 97546 
189-108-184-210.customer.tdatabrasil.net.br 0 3 33125 
189-45-37-124.caiweb.com.br 0 1 33125 
200-207-114-200.speedyterra.com.br 0 1 33125 
189107024164.user.veloxzone.com.br 2 6 578950 20091130074132
189-19-138-170.dsl.telesp.net.br 0 2 97546 
189-54-26-127-nd.cpe.vivax.com.br 0 2 97546 
200.142.194.21 0 1 7657 
201-69-217-88.dial-up.telesp.net.br 0 6 0 
201-74-52-60-sa.cpe.vivax.com.br 0 2 7657 
sao341gw.yrbrands.com 0 2 97546 
187-3-44-159-sa.cpe.vivax.com.br 0 4 97546 
189-110-238-165.dsl.telesp.net.br 0 2 0 
189-110-217-23.dsl.telesp.net.br 0 2 0 
cpe-76-186-2-9.tx.res.rr.com 0 4 97546 
201-93-234-60.dsl.telesp.net.br 0 1 7657 
187-3-39-60-sa.cpe.vivax.com.br 0 2 97546 
200-100-74-189.dial-up.telesp.net.br 0 6 97546 
187.88.229.1 0 1 7657 
201-26-134-136.dial-up.telesp.net.br 4 12 578950 20091124051130
189-110-206-250.dsl.telesp.net.br 0 4 0 
c9152d62.virtua.com.br 0 3 99375 
ns1.cpb.com.br 0 2 97546 
189-95-45-242.3g.claro.net.br 0 8 61256 
host169-16-dynamic.20-79-r.retail.telecomitalia.it 0 2 97546 
189-19-29-91.dsl.telesp.net.br 2 7 1136528 20091110080047
189-19-132-52.dsl.telesp.net.br 0 2 97546 
189-110-227-28.dsl.telesp.net.br 0 2 97546 
webmail.fcl.com.br 2 6 578950 20091113030928
200-158-10-154.dsl.telesp.net.br 0 4 195092 
189-29-188-118-nd.cpe.vivax.com.br 0 4 97546 
187-3-67-99-sa.cpe.vivax.com.br 0 2 97546 
187.88.13.195 0 1 7657 
c95111b5.virtua.com.br 0 2 33125 
200-161-62-2.dsl.telesp.net.br 0 2 97546 
201-27-97-187.dsl.telesp.net.br 0 4 97546 
cpe-24-175-72-28.tx.res.rr.com 0 2 97546 
bd66d15d.virtua.com.br 0 1 7657 
2.136.186.200.sta.impsat.net.br 0 1 7657 
static-208-80-193-43.as13448.com 2 2 3156 20091120180805
189-29-150-28-nd.cpe.vivax.com.br 0 2 38770 
201.86.187.206.dynamic.adsl.gvt.net.br 0 1 33125 
189.26.103.114.dynamic.adsl.gvt.net.br 0 1 33125 
187-34-132-43.dsl.telesp.net.br 0 4 97546 
187.88.16.58 0 1 7657 
ip-189-96-74-224.user.vivozap.com.br 2 6 147998 20091122192615
189-110-25-84.dsl.telesp.net.br 0 2 97546 
189-110-198-134.dsl.telesp.net.br 0 2 97546 
189-110-207-172.dsl.telesp.net.br 0 4 0 
svr-abad.abad.com.br 0 1 7657 
189-54-139-116-nd.cpe.vivax.com.br 0 2 97546 
189.62.149.142 0 1 33125 
189-47-203-82.dsl.telesp.net.br 1 2 13862 20091113060955
187-3-178-231-sa.cpe.vivax.com.br 0 2 97546 
187-3-124-204-sa.cpe.vivax.com.br 0 2 97546 
bd21e692.virtua.com.br 0 1 7657 
187-3-128-29-sa.cpe.vivax.com.br 0 4 97546 
201-95-183-237.dsl.telesp.net.br 0 2 97546 
c906f58d.static.virtua.com.br 0 4 195092 
187-3-182-73-sa.cpe.vivax.com.br 2 10 974225 20091114114731
189-69-164-134.dial-up.telesp.net.br 0 1 7657 
201-27-130-160.dsl.telesp.net.br 0 2 97546 
201.22.60.132.dynamic.adsl.gvt.net.br 2 6 578950 20091118053148
189.62.126.160 0 2 97546 
189.115.25.250 2 6 578950 20091115193745
201.87.80.97 0 1 7657 
189-110-217-88.dsl.telesp.net.br 0 6 195092 
189-110-214-218.dsl.telesp.net.br 0 2 97546 
189-29-187-126-nd.cpe.vivax.com.br 0 2 97546 
189-110-210-167.dsl.telesp.net.br 0 4 0 
189-47-13-27.dsl.telesp.net.br 2 6 555314 20091110153922
189.38.208.87.user.ajato.com.br 0 1 33125 
189-54-46-12-nd.cpe.vivax.com.br 0 4 97546 
189-110-215-14.dsl.telesp.net.br 0 2 0 
187-26-240-152.3g.claro.net.br 0 4 116336 
static-208-80-193-31.as13448.com 3 3 4734 20091124201053
201-74-55-12-sa.cpe.vivax.com.br 0 6 97546 
ip-189-98-47-146.user.vivozap.com.br 2 6 578950 20091125091341
189-19-38-24.dsl.telesp.net.br 0 1 7657 
static-208-80-193-40.as13448.com 3 3 4734 20091121001055
187-3-30-164-sa.cpe.vivax.com.br 4 15 2039330 20091110113744
200.164.107.2 2 6 578950 20091112103818
189-110-206-186.dsl.telesp.net.br 0 6 292638 
187-3-140-175-sa.cpe.vivax.com.br 0 2 7657 
189-110-213-52.dsl.telesp.net.br 0 2 97546 
99.160.116.189.isp.timbrasil.com.br 0 4 195092 
189-54-121-85-nd.cpe.vivax.com.br 0 2 97546 
189-54-64-213-nd.cpe.vivax.com.br 0 2 97546 
200-161-143-116.dsl.telesp.net.br 0 2 97546 
201.67.234.149 2 6 578950 20091123040515
bttelecom-f1-0-1-acc03.spomb.embratel.net.br 0 2 97546 
18924054133.user.veloxzone.com.br 0 2 97546 
201-92-244-201.dsl.telesp.net.br 0 4 97546 
201-27-238-217.dsl.telesp.net.br 0 4 97546 
189.20.216.235 0 2 97546 
187-11-24-167.dsl.telesp.net.br 0 2 97546 
201-27-173-87.dsl.telesp.net.br 0 2 97546 
216.104.15.142 1 1 1715 20091117052437
187-3-34-172-sa.cpe.vivax.com.br 0 1 7657 
187-26-62-238.3g.claro.net.br 0 2 0 
bd66f0c7.virtua.com.br 0 2 97546 
189.121.123.180 0 1 33125 
187-3-174-1-sa.cpe.vivax.com.br 0 12 97546 
201-1-147-35.dsl.telesp.net.br 0 2 97546 
189-110-212-167.dsl.telesp.net.br 0 2 0 
189-110-199-30.dsl.telesp.net.br 0 2 0 
200-100-75-81.dial-up.telesp.net.br 0 2 97546 
187-3-25-142-sa.cpe.vivax.com.br 1 3 2488158 20091110072706
201-74-12-239-sc.cpe.vivax.com.br 0 2 97546 
187-2-167-254-ma.cpe.vivax.com.br 0 2 97546 
201-13-83-184.dsl.telesp.net.br 0 2 97546 
189.58.135.215.static.host.gvt.net.br 0 1 33125 
189-19-40-187.dsl.telesp.net.br 0 4 97546 
201-13-99-139.dsl.telesp.net.br 0 2 97546 
187-3-142-53-sa.cpe.vivax.com.br 0 2 97546 
187-27-103-87.3g.claro.net.br 0 2 97546 
187-3-137-181-sa.cpe.vivax.com.br 0 2 97546 
189-29-214-37-nd.cpe.vivax.com.br 0 4 97546 
187-26-245-249.3g.claro.net.br 0 2 97546 
189-110-213-129.dsl.telesp.net.br 0 4 22971 
201-0-139-215.dial-up.telesp.net.br 0 3 79017 
189-19-128-120.dsl.telesp.net.br 0 2 97546 
bd21ccac.virtua.com.br 0 2 97546 
201-1-148-235.dsl.telesp.net.br 0 4 97546 
189.102.147.12 0 1 33125 
mail.diarioregional.com.br 2 8 829906 20091103080012
187-3-24-18-sa.cpe.vivax.com.br 0 4 97546 
189-18-185-166.dsl.telesp.net.br 0 2 0 
bb436b37.virtua.com.br 4 14 2273056 20091117111944
200-148-81-89.dsl.telesp.net.br 2 6 113562 20091103084322
187-5-185-60.fnses700.e.brasiltelecom.net.br 2 4 20369 20091122154313
static-208-80-193-39.as13448.com 1 1 1578 20091130223618
189-110-236-152.dsl.telesp.net.br 0 4 195092 
187-2-175-200-ma.cpe.vivax.com.br 0 2 97546 
189-19-134-210.dsl.telesp.net.br 0 2 97546 
189-68-210-67.dsl.telesp.net.br 0 3 7657 
74-38-100-225.dr01.wotn.mn.frontiernet.net 0 2 297729 
187-10-192-222.dsl.telesp.net.br 0 2 7657 
189-110-220-155.dsl.telesp.net.br 0 2 0 
c9510ac7.virtua.com.br 0 1 33125 
187-27-195-220.3g.claro.net.br 1 3 18654 20091119120015
201-92-163-15.dsl.telesp.net.br 0 2 97546 
189-29-210-57-nd.cpe.vivax.com.br 0 2 97546 
201-26-114-17.dsl.telesp.net.br 0 8 97546 
189-110-248-46.dsl.telesp.net.br 0 2 0 
201.54.12.36.dedicated.neoviatelecom.com.br 0 1 7657 
201009067078.user.veloxzone.com.br 1 3 18654 20091113082437
187.50.70.66 4 13 1165557 20091124104622
200.251.183.67 2 6 255289 20091117054900
189-54-145-146-nd.cpe.vivax.com.br 0 8 97546 
189-110-224-235.dsl.telesp.net.br 0 2 0 
bd67ca55.virtua.com.br 0 1 12773 
189-29-189-49-nd.cpe.vivax.com.br 2 6 578950 20091107045620
201-95-23-182.dsl.telesp.net.br 0 2 97546 
189-110-249-57.dsl.telesp.net.br 0 4 0 
189-55-255-111-nd.cpe.vivax.com.br 0 1 0 
189-38-253-190.static-corp.ajato.com.br 0 8 390184 
c9536989.virtua.com.br 0 1 7657 
200-158-80-34.dsl.telesp.net.br 0 1 7657 
187-34-129-194.dsl.telesp.net.br 0 2 97546 
200-161-110-116.dsl.telesp.net.br 0 2 97546 
18777056147.telemar.net.br 0 1 7657 
cpe-76-187-186-98.tx.res.rr.com 0 2 97546 
bd23daba.virtua.com.br 3 10 1653999 20091130103803
201-92-155-200.dsl.telesp.net.br 0 2 97546 
187-3-71-31-sa.cpe.vivax.com.br 0 2 97546 
187-5-212-146.nhoce701.e.brasiltelecom.net.br 0 1 33125 
187-26-33-70.3g.claro.net.br 0 3 22971 
c953d541.virtua.com.br 0 1 7657 
187-2-167-243-ma.cpe.vivax.com.br 0 2 97546 
189-110-194-84.dsl.telesp.net.br 0 6 0 
189-29-239-133-nd.cpe.vivax.com.br 0 8 97546 
201-27-166-184.dsl.telesp.net.br 0 2 0 
189.102.105.77 0 1 7657 
200-161-8-110.dsl.telesp.net.br 0 1 7657 
200-161-186-69.dsl.telesp.net.br 0 1 33125 
201-43-203-113.dsl.telesp.net.br 0 4 195092 
201-74-35-211-sa.cpe.vivax.com.br 0 2 97546 
infomail.infoabc.com.br 2 6 578950 20091126083121
201-93-234-240.dsl.telesp.net.br 0 2 97546 
189-19-254-198.dsl.telesp.net.br 0 2 7657 
201-43-144-51.dsl.telesp.net.br 0 2 97546 
200-171-162-6.dsl.telesp.net.br 0 2 15314 
201-68-222-71.dsl.telesp.net.br 0 2 15314 
200-171-169-33.dsl.telesp.net.br 0 1 33125 
200-100-74-1.dial-up.telesp.net.br 0 4 97546 
201-13-110-159.dsl.telesp.net.br 1 3 183547 20091101092815
201-92-148-245.dsl.telesp.net.br 0 2 97546 
ppp-67-64-145-106.dialup.rcsntx.swbell.net 0 2 97546 
187-3-153-129-sa.cpe.vivax.com.br 0 2 97546 
201-95-189-121.dsl.telesp.net.br 0 18 195092 
inetserver.disolle.com.br 0 1 33125 
187-3-177-49-sa.cpe.vivax.com.br 0 2 97546 
r256-pr-encantado.ibys.com.br 0 1 33125 
200191109004-dial-user-ecp.acessonet.com.br 0 2 18330 
cpe-72-181-206-167.tx.res.rr.com 0 2 97546 
201-1-68-177.dsl.telesp.net.br 0 1 7657 
189-68-13-251.dsl.telesp.net.br 0 2 97546 
201.23.90.98.dedicated.neoviatelecom.com.br 0 1 33125 
189-19-91-189.dsl.telesp.net.br 0 8 15314 
c9060860.spo.static.virtua.com.br 0 2 97546 
189-55-250-120-nd.cpe.vivax.com.br 0 2 97546 
189-95-6-59.3g.claro.net.br 0 1 33125 
bb259167.virtua.com.br 2 6 249442 20091130132948
200-158-97-18.dsl.telesp.net.br 1 3 18654 20091130090734
201-75-134-70-sa.cpe.vivax.com.br 4 32 1388345 20091112062947
189-19-134-164.dsl.telesp.net.br 0 2 97546 
201-27-236-254.dsl.telesp.net.br 0 2 97546 
189.102.209.93 0 3 15314 
189-015-87-135.xd-dynamic.ctbcnetsuper.com.br 0 1 33125 
189-19-136-51.dsl.telesp.net.br 0 1 0 
201-95-189-246.dsl.telesp.net.br 0 2 97546 
189.27.116.194.dynamic.adsl.gvt.net.br 0 1 33125 
189.62.62.250 0 1 7657 
201-92-111-6.dsl.telesp.net.br 0 4 15314 
200-158-249-43.dsl.telesp.net.br 0 2 97546 
200-171-161-96.dsl.telesp.net.br 0 8 61256 
smtp2.centraloffices.com.br 2 7 622694 20091111102123
200-204-87-201.dsl.telesp.net.br 0 1 7657 
18777027238.telemar.net.br 0 2 97546 
189-54-11-121-nd.cpe.vivax.com.br 0 4 97546 
c9062ade.virtua.com.br 0 1 7657 
189-19-136-201.dsl.telesp.net.br 0 2 97546 
201-92-161-218.dsl.telesp.net.br 0 2 97546 
189-110-202-94.dsl.telesp.net.br 0 2 0 
cpe-76-187-24-41.tx.res.rr.com 0 2 97546 
201-1-146-188.dsl.telesp.net.br 0 2 0 
187-3-153-191-sa.cpe.vivax.com.br 0 2 97546 
c906fa39.virtua.com.br 2 6 143071 20091112114509
200-207-92-190.dsl.telesp.net.br 1 3 825692 20091110110547
201-1-50-20.dsl.telesp.net.br 0 2 97546 
200-100-90-247.dial-up.telesp.net.br 0 2 97546 
189-54-64-167-nd.cpe.vivax.com.br 0 2 97546 
189-54-9-108-nd.cpe.vivax.com.br 0 2 97546 
187-2-169-200-ma.cpe.vivax.com.br 1 3 18654 20091114030514
189-69-154-195.dial-up.telesp.net.br 0 2 97546 
201-13-86-229.dsl.telesp.net.br 0 2 0 
189-69-161-143.dial-up.telesp.net.br 0 2 15314 
189-110-203-79.dsl.telesp.net.br 0 2 97546 
189-110-204-119.dsl.telesp.net.br 0 2 97546 
18742238104.3g.telemar.net.br 0 4 97546 
200-207-67-95.dsl.telesp.net.br 0 2 97546 
189-19-44-26.dsl.telesp.net.br 0 2 97546 
c951a766.virtua.com.br 1 4 858817 20091118113144
189-110-244-244.dsl.telesp.net.br 0 4 0 
200-153-151-23.dsl.telesp.net.br 0 2 0 
189-95-70-161.3g.claro.net.br 0 1 0 
189-54-13-222-nd.cpe.vivax.com.br 0 2 97546 
200-158-80-158.dsl.telesp.net.br 0 1 7657 
189-55-217-18-nd.cpe.vivax.com.br 0 2 297729 
200-140-86-36.bsace705.dsl.brasiltelecom.net.br 0 2 97546 
189-19-138-143.dsl.telesp.net.br 0 4 97546 
189-110-234-216.dsl.telesp.net.br 0 6 292638 
187-3-194-138-sa.cpe.vivax.com.br 0 2 97546 
189-29-159-179-nd.cpe.vivax.com.br 0 2 97546 
pool-173-74-125-38.dllstx.fios.verizon.net 0 2 97546 
201-26-114-56.dsl.telesp.net.br 0 8 195092 
189-19-142-219.dsl.telesp.net.br 0 2 97546 
201009255042.user.veloxzone.com.br 2 6 578950 20091119150922
201-92-132-207.dsl.telesp.net.br 0 2 97546 
189-110-202-203.dsl.telesp.net.br 0 4 195092 
201-27-44-236.dsl.telesp.net.br 0 1 33125 
189-46-216-98.dsl.telesp.net.br 0 8 97546 
189-18-204-214.dsl.telesp.net.br 0 2 97546 
200.97.107.51 1 4 216672 20091101174929
201-27-214-201.dsl.telesp.net.br 0 2 97546 
187.90.31.9 0 2 297729 
189-110-143-198.dsl.telesp.net.br 0 2 7657 
bd22672a.virtua.com.br 1 3 18654 20091103110311
189-29-163-226-nd.cpe.vivax.com.br 0 2 97546 
201-0-151-78.dial-up.telesp.net.br 0 1 33125 
189-54-216-26-nd.cpe.vivax.com.br 0 1 0 
189-47-143-38.dsl.telesp.net.br 2 12 560439 20091128070848
189-110-218-84.dsl.telesp.net.br 0 2 0 
bd788d5b.virtua.com.br 0 2 97546 
200-171-244-6.customer.telesp.net.br 0 5 132500 
189-015-158-057.xd-dynamic.ctbcnetsuper.com.br 0 1 16427 
189-29-186-183-nd.cpe.vivax.com.br 0 2 297729 
200-207-106-134.dsl.telesp.net.br 0 2 297729 
201-13-141-231.dial-up.telesp.net.br 0 2 97546 
201-74-39-115-sa.cpe.vivax.com.br 0 2 97546 
189-8-53-154.ded.unitelco.com.br 0 2 33125 
189-54-182-13-nd.cpe.vivax.com.br 0 2 97546 
189-19-143-27.dsl.telesp.net.br 0 2 97546 
189-19-134-9.dsl.telesp.net.br 0 2 97546 
201-93-248-115.dsl.telesp.net.br 2 6 578950 20091117051720
187-3-170-55-sa.cpe.vivax.com.br 0 4 97546 
189-110-204-222.dsl.telesp.net.br 0 8 390184 
189-78-218-84.dsl.telesp.net.br 0 1 7657 
189-110-242-137.dsl.telesp.net.br 0 2 97546 
189-110-210-178.dsl.telesp.net.br 0 2 97546 
187.88.173.195 0 2 25546 
187-9-94-34.customer.tdatabrasil.net.br 0 3 33125 
200.217.168.131 1 1 1578 20091130031248
bb253670.virtua.com.br 2 8 705273 20091125063646
187.37.150.27 3 10 702889 20091106055651
201-43-63-207.dsl.telesp.net.br 0 2 97546 
189-110-202-159.dsl.telesp.net.br 0 4 195092 
200.162.63.140 0 31 443068 
189-110-199-99.dsl.telesp.net.br 0 14 195092 
201-95-131-91.dsl.telesp.net.br 0 2 97546 
216.104.15.130 1 1 1578 20091113135548
18983206114.user.veloxzone.com.br 0 2 66250 
mail.unikey.ind.br 0 1 31481 
189-110-202-111.dsl.telesp.net.br 0 2 0 
216.52.180.252 0 2 97546 
189-110-228-162.dsl.telesp.net.br 0 2 0 
189-69-160-217.dial-up.telesp.net.br 0 1 7657 
189-110-222-127.dsl.telesp.net.br 0 2 97546 
187.9.171.121 0 2 97546 
201-95-36-124.dsl.telesp.net.br 0 4 97546 
200-171-235-119.customer.telesp.net.br 0 2 97546 
201-63-149-50.vrtelecom.com.br 0 3 33125 
bd3dc143.virtua.com.br 0 1 12773 
static-208-80-193-26.as13448.com 1 1 1578 20091101160510
201-27-12-141.dsl.telesp.net.br 0 1 7657 
201-92-161-73.dsl.telesp.net.br 0 2 97546 
189-54-2-98-nd.cpe.vivax.com.br 0 1 7657 
189-73-67-175.dsl.bnut3700.brasiltelecom.net.br 1 4 211411 20091103052028
201-27-202-40.dsl.telesp.net.br 0 2 97546 
static-208-80-193-34.as13448.com 4 4 6312 20091125021547
200-171-183-99.speedyterra.com.br 0 1 33125 
201-0-170-210.dial-up.telesp.net.br 0 1 33125 
200-207-88-20.dsl.telesp.net.br 0 2 97546 
189-46-229-87.dsl.telesp.net.br 0 2 97546 
189-54-30-60-nd.cpe.vivax.com.br 0 1 7657 
189.121.180.89 0 1 33125 
189-110-242-89.dsl.telesp.net.br 0 18 292638 
208.50.101.152 1 1 2006734 20091126102905
200-232-123-90.customer.tdatabrasil.net.br 0 2 97546 
189-19-55-147.dsl.telesp.net.br 1 4 858817 20091113024254
189-69-167-224.dial-up.telesp.net.br 0 1 7657 
189-29-173-102-nd.cpe.vivax.com.br 0 2 97546 
200.201.194.21 0 1 12773 
201-0-41-226.dsl.telesp.net.br 0 2 97546 
200-206-221-209.dsl.telesp.net.br 0 2 97546 
200.162.132.231 0 1 7657 
201-13-84-212.dsl.telesp.net.br 0 2 97546 
201-63-22-82.customer.tdatabrasil.net.br 0 1 148506 
201-13-162-220.dial-up.telesp.net.br 0 2 97546 
201-43-188-77.dsl.telesp.net.br 0 2 97546 
65.89.98.13 0 2 97546 
201-75-133-153-sa.cpe.vivax.com.br 0 2 97546 
189.38.199.184.user.ajato.com.br 2 8 876679 20091108164426
189.120.147.209 0 2 0 
189-19-133-63.dsl.telesp.net.br 0 6 195092 
189-110-234-30.dsl.telesp.net.br 0 8 0 
187-3-43-175-sa.cpe.vivax.com.br 0 6 292638 
187-3-197-75-sa.cpe.vivax.com.br 1 1 3996518 20091113090427
bd211341.virtua.com.br 0 2 97546 
201009095021.user.veloxzone.com.br 1 3 18654 20091105063546
187-3-143-193-sa.cpe.vivax.com.br 0 4 195092 
200-207-67-48.dsl.telesp.net.br 0 2 97546 
201-27-72-249.dsl.telesp.net.br 0 2 97546 
201-42-212-193.dsl.telesp.net.br 0 2 97546 
189-29-153-190-nd.cpe.vivax.com.br 3 9 578950 20091127192219
189-93-38-114.3g.claro.net.br 0 2 97546 
END_VISITOR

# Date - Pages - Hits - Bandwidth - Visits
BEGIN_DAY 30
20091101 5 80 3735592 4
20091102 1 56 2057701 1
20091103 36 325 9319782 16
20091104 33 194 5628917 9
20091105 26 210 4398791 9
20091106 48 157 2723557 8
20091107 6 48 2436811 4
20091108 2 47 2345433 1
20091109 36 265 8178130 13
20091110 44 223 15355995 13
20091111 45 256 4516239 10
20091112 50 286 11565811 13
20091113 45 195 10861919 17
20091114 4 37 1790139 3
20091115 4 44 2504575 3
20091116 15 151 3461537 6
20091117 44 178 8771051 14
20091118 23 156 5710299 9
20091119 16 124 3062182 6
20091120 1 41 1546332 1
20091121 3 22 1209360 2
20091122 5 50 1738338 3
20091123 22 121 3100433 6
20091124 43 161 4901026 10
20091125 31 212 7035371 14
20091126 54 154 8624201 12
20091127 13 83 3092496 8
20091128 6 40 2252690 3
20091129 8 79 2461519 3
20091130 61 211 11326952 14
END_DAY

# Session range - Number of visits
BEGIN_SESSION 7
1h+ 17
5mn-15mn 13
30s-2mn 19
2mn-5mn 4
15mn-30mn 9
0s-30s 161
30mn-1h 12
END_SESSION

# URL - Pages - Bandwidth - Entry - Exit
# The 10 first Pages must be first (order not required for others)
BEGIN_SIDER 17
/ 255 224076 158 58
/site.html 228 156065 3 92
/webmail/ 140 21762 38 45
/eventos/ 48 53165 24 28
/eventos/habasit_abtcp/ 26 8575 4 3
/eventos/helsten_abtcp/ 6 1715 0 0
/eventos/helsten_tubotech/ 4 1715 0 0
/eventos/helsten/ 4 1059 0 0
/eventos/helsten_ccmetais/ 4 1715 0 0
/clips/07/clips_07.html 3 12306 0 2
/clips/06/clips_06.html 2 11168 1 1
/iesa/flyer_2010_final.rar 2 4069123 2 1
/iesa/faixa_meio_ambiente_final.rar 2 2656316 1 1
/clips/01/clips_01.html 1 2871 0 0
/alpha/site.html 1 1253 0 1
/alpha/ 1 1700 1 0
/iesa/outdoor_4_final.rar 3 4161576 3 3
END_SIDER
