AWSTATS DATA FILE 6.4 (build 1.814)
# If you remove this file, all statistics for date 2010-11 will be lost/reset.

# Position (offset in bytes) in this file of beginning of each section for
# direct I/O access. If you made changes somewhere in this file, you should
# also remove completely the MAP section (AWStats will rewrite it at next
# update).
BEGIN_MAP 27
POS_GENERAL 1865                
POS_TIME 2549                
POS_VISITOR 11474               
POS_DAY 42360               
POS_DOMAIN 3316                
POS_LOGIN 3645                
POS_ROBOT 3800                
POS_WORMS 4153                
POS_EMAILSENDER 4284                
POS_EMAILRECEIVER 4427                
POS_SESSION 43194               
POS_SIDER 43405               
POS_FILETYPES 4562                
POS_OS 4708                
POS_BROWSER 4851                
POS_SCREENSIZE 5220                
POS_UNKNOWNREFERER 5294                
POS_UNKNOWNREFERERBROWSER 5697                
POS_ORIGIN 5968                
POS_SEREFERRALS 6112                
POS_PAGEREFS 6290                
POS_SEARCHWORDS 9856                
POS_KEYWORDS 10446               
POS_MISC 2212                
POS_ERRORS 10910               
POS_CLUSTER 3501                
POS_SIDER_404 11024               
END_MAP

# LastLine    = Date of last record processed - Last record line number in last log - Last record offset in last log - Last record signature value
# FirstTime   = Date of first visit for history file
# LastTime    = Date of last visit for history file
# LastUpdate  = Date of last update - Nb of parsed records - Nb of parsed old records - Nb of parsed new records - Nb of parsed corrupted - Nb of parsed dropped
# TotalVisits = Number of visits
# TotalUnique = Number of unique visitors
# MonthHostsKnown   = Number of hosts known
# MonthHostsUnKnown = Number of hosts unknown
BEGIN_GENERAL 8
LastLine 20101201003829 17129 4163588 74709357461
FirstTime 20101101042145
LastTime 20101130181256
LastUpdate 20101201045758 249 0 248 0 0
TotalVisits 373                 
TotalUnique 257                 
MonthHostsKnown 542                 
MonthHostsUnknown 101                 
END_GENERAL

# Misc ID - Pages - Hits - Bandwidth
BEGIN_MISC 10
QuickTimeSupport 0 0 0
JavaEnabled 0 0 0
JavascriptDisabled 0 0 0
PDFSupport 0 0 0
WindowsMediaPlayerSupport 0 0 0
AddToFavourites 0 83 0
RealPlayerSupport 0 0 0
TotalMisc 0 0 0
DirectorSupport 0 0 0
FlashSupport 0 0 0
END_MISC

# Hour - Pages - Hits - Bandwidth - Not viewed Pages - Not viewed Hits - Not viewed Bandwidth
BEGIN_TIME 24
0 3 3 1578 13 13 4734
1 13 57 2552719 5 5 1930
2 26 97 4295475 29 29 9832
3 29 118 4125905 12 13 7021
4 48 191 7637924 20 23 261001
5 110 384 11471556 22 24 410580
6 57 230 4860368 14 14 3338
7 72 369 13101963 24 26 235353
8 79 362 23305764 26 28 474229
9 63 370 23258120 20 21 201771
10 57 308 15923842 12 13 116735
11 63 248 7816113 12 15 261147
12 41 149 4665360 8 8 2986
13 19 55 791872 2 2 352
14 24 65 1193434 12 12 4916
15 32 101 3492182 7 9 209215
16 25 68 2518716 6 6 2282
17 22 62 1105387 6 6 352
18 31 87 1529622 8 8 352
19 19 42 455276 9 9 5086
20 4 9 258403 9 9 3293
21 5 9 1578 6 6 0
22 8 12 1578 9 9 1578
23 5 9 258403 4 4 0
END_TIME

# Domain - Pages - Hits - Bandwidth
# The 10 first Pages must be first (order not required for others)
BEGIN_DOMAIN 8
br 678 2917 110140716
com 90 96 352302
ip 85 379 23172450
org 1 2 2718
net 1 5 359494
pt 0 4 595458
cn 0 1 0
fr 0 1 0
END_DOMAIN

# Cluster ID - Pages - Hits - Bandwidth
BEGIN_CLUSTER 0
END_CLUSTER

# Login - Pages - Hits - Bandwidth - Last visit
# The 10 first Pages must be first (order not required for others)
BEGIN_LOGIN 0
END_LOGIN

# Robot ID - Hits - Bandwidth - Last visit - Hits on robots.txt
# The 10 first Hits must be first (order not required for others)
BEGIN_ROBOT 7
googlebot 25 8164 20101130173245 0
yandex 10 15780 20101120003620 0
jeeves 9 14202 20101128150733 0
slurp 6 9468 20101127165259 0
robot 6 0 20101128023055 0
msnbot 1 1578 20101104063656 0
netcraft 1 1578 20101103152002 0
END_ROBOT

# Worm ID - Hits - Bandwidth - Last visit
# The 5 first Hits must be first (order not required for others)
BEGIN_WORMS 0
END_WORMS

# EMail - Hits - Bandwidth - Last visit
# The 20 first Hits must be first (order not required for others)
BEGIN_EMAILSENDER 0
END_EMAILSENDER

# EMail - Hits - Bandwidth - Last visit
# The 20 first hits must be first (order not required for others)
BEGIN_EMAILRECEIVER 0
END_EMAILRECEIVER

# Files type - Hits - Bandwidth - Bandwidth without compression - Bandwidth after compression
BEGIN_FILETYPES 5
html 855 611521 0 0
js 254 209672 0 0
jpg 2059 83896364 0 0
gif 3 157001 0 0
swf 234 49748580 0 0
END_FILETYPES

# OS ID - Hits
BEGIN_OS 10
macintosh 1
winlong 160
winxp 2679
win2000 3
winnt 437
linux 5
macosx 42
winme 2
win2003 14
Unknown 62
END_OS

# Browser ID - Hits
BEGIN_BROWSER 22
msie6.0 1313
firefox2.0.0.20 2
firefox3.6.11 3
firefox3.6.6 1
firefox3.5.15 6
firefox3.5.3 1
lotus\-notes 4
firefox3.0.5 1
msie8.0 657
firefox3.5.5 3
mozilla 84
msie7.0 882
firefox3.0.6 3
firefox3.6.12 210
firefox3.6.3 5
msie9.0 10
firefox3.6.10 12
firefox3.5.11 9
firefox3.0.19 23
Unknown 5
firefox3.6.8 1
safari 170
END_BROWSER

# Screen size - Hits
BEGIN_SCREENSIZE 0
END_SCREENSIZE

# Unknown referer OS - Last visit date
BEGIN_UNKNOWNREFERER 6
Mozilla/5.0_(compatible;_bingbot/2.0;__http://www.bing.com/bingbot.htm) 20101130181256
GbPlugin 20101124052414
ClamAV_0.95.3 20101122053122
GeoHasher/Nutch-1.0_(GeoHasher_Web_Search_Engine;_geohasher.gotdns.org;_geo_hasher_at_yahoo_*_com) 20101114050416
Mozilla/3.0_(compatible) 20101111055435
Eudora 20101126102747
END_UNKNOWNREFERER

# Unknown referer Browser - Last visit date
BEGIN_UNKNOWNREFERERBROWSER 4
GbPlugin 20101124052414
ClamAV_0.95.3 20101122053122
GeoHasher/Nutch-1.0_(GeoHasher_Web_Search_Engine;_geohasher.gotdns.org;_geo_hasher_at_yahoo_*_com) 20101114050416
Eudora 20101126102747
END_UNKNOWNREFERERBROWSER

# Origin - Pages - Hits 
BEGIN_ORIGIN 6
From0 717 1440
From1 0 0
From2 52 60
From3 18 667
From4 68 1238
From5 0 0
END_ORIGIN

# Search engine referers ID - Pages - Hits
BEGIN_SEREFERRALS 3
google 48 56
search 2 2
yahoo 2 2
END_SEREFERRALS

# External page referers - Pages - Hits
# The 10 first Pages must be first (order not required for others)
BEGIN_PAGEREFS 63
http://www.bing.com/search 3 3
http://www.atsblindados.com.br/site.swf 2 2
http://www.dentalis.com.br/marketing-consultorio-odontologia.html 2 2
http://www.ferpak.com.br/intro.swf 2 2
http://www.dentalis.com.br/flash/hotsite_7.swf 1 1
http://www.mognomarcenaria.com.br/site.swf 1 1
http://www.ebblindados.com.br 1 1
http://mnconsultoria.com.br/site.swf 1 1
http://dnserro.brasiltelecom.com.br/search.php 1 1
http://www.newmind.com.br 1 1
http://webmail.trapp.com.br 0 1
http://br.mc455.mail.yahoo.com/mc/welcome 0 1
http://bl152w.blu152.mail.live.com/mail/InboxLight.aspx 0 1
http://71.6.217.131/mail/writemail.html 0 415
http://webmail.hommer.com.br/webmail/ 0 1
http://webmail.prateando.com.br/webmail.php 0 5
http://gscomunicacao.blogspot.com 0 6
http://gscomunicacao.blogspot.com/2009/05/vestibular-de-moda-fefisa.html 0 7
http://sn108w.snt108.mail.live.com/mail/InboxLight.aspx 0 3
http://br.mg2.mail.yahoo.com/dc/launch 0 1
http://webmail.wplsk4.com.br/Main/frmReadMail_body.aspx 0 1
http://br.mc458.mail.yahoo.com/mc/showFolder 0 1
http://mail.uol.com.br/main/message 0 1
http://sn120w.snt120.mail.live.com/mail/InboxLight.aspx 0 2
http://mail.terra.com.br/95trr/compose.php 0 1
http://sn126w.snt126.mail.live.com/mail/InboxLight.aspx 0 8
http://webmail.aboutshoes.com.br/webmail.php 0 1
http://webmail03.redehost.com.br/Main/frmPreview.aspx 0 1
http://mail.alpenfix.com.br/Session/3309431-IovIw8Q4vo7fR5LnOOQc-aodhsue/webmail.wssp 0 1
http://gscomunicacao.blogspot.com/2010/06/o-grupo-bimbo-do-brasil-e-sucesso-na.html 0 18
http://mail.terra.com.br/95trr/sendmail.php 0 1
http://mail.aogaucho.com.br/cgi-bin/webmail/webmail-view.pl 0 1
http://webmail.heladri.com/cgi-bin/webmail/webmail-view.pl 0 1
http://mail.terra.com.br/95trr/reademail.php 0 7
http://co117w.col117.mail.live.com/mail/InboxLight.aspx 0 3
http://by130w.bay130.mail.live.com/mail/InboxLight.aspx 0 2
http://71.6.217.131/mail/viewaction.html 0 46
http://by154w.bay154.mail.live.com/mail/InboxLight.aspx 0 1
http://co107w.col107.mail.live.com/mail/InboxLight.aspx 0 5
http://sn117w.snt117.mail.live.com/mail/InboxLight.aspx 0 1
http://br.mc564.mail.yahoo.com/mc/welcome 0 2
http://71.6.217.131/mail/view.html 0 58
http://sn108w.snt108.mail.live.com/mail/RteFrame.html 0 1
http://mail.mailig.ig.com.br/mail/ 0 10
http://co113w.col113.mail.live.com/mail/InboxLight.aspx 0 1
http://co115w.col115.mail.live.com/mail/InboxLight.aspx 0 1
http://co117w.col117.mail.live.com/mail/RteFrame.html 0 1
http://webmail.phytoessencefragrancias.com.br/Session/755377-pez2EQshfe1Y0jQcSlY3-aodhstx/message.wssp 0 1
http://pop.greatidiomas.com.br/Session/54049-hk4t9qTHQLA7cHAJhwxr-aodhstv/MessagePart/Spam/1389-02-B.html 0 1
http://bmail.uol.com.br/main/message 0 1
http://webmail.deepessoas.com.br/cgi-bin/webmail/webmail-write.pl 0 1
http://webmail.heladri.com/cgi-bin/webmail/webmail-write.pl 0 1
http://www.easyfor.com.br/site.swf 1 1
http://sn118w.snt118.mail.live.com/mail/InboxLight.aspx 0 3
http://www.stampspumas.com.br/novo/ 1 16
http://sn123w.snt123.mail.live.com/mail/InboxLight.aspx 0 1
http://sn116w.snt116.mail.live.com/mail/InboxLight.aspx 0 1
http://mail.feituverava.com.br/webmail/ 0 1
http://mail.globo.com/mail/ 0 1
http://co104w.col104.mail.live.com/mail/InboxLight.aspx 1 2
http://webmail.heladri.com.br/cgi-bin/webmail/webmail-read.pl 0 1
http://webmail.nat.ind.br/zimbra/ 0 1
http://pop.xanfer.com.br/cgi-bin/webmail/webmail-view.pl 0 1
END_PAGEREFS

# Search keyphrases - Number of search
# The 10 first number of search must be first (order not required for others)
BEGIN_SEARCHWORDS 18
gs+comunica%c3%a7%c3%a3o 13
gs+comunica%c3%a7%c3%b5es 9
gscomunicacao 4
gscomunica%c3%a7%c3%a3o 4
www.gscomunicacao.com.br 3
gs+comunica%c3%a7oes 3
gs+comunicacao 3
gscomunica%c3%a7%c3%b5es 2
gscomunicacao.com.br 2
gs+comunica%c3%87ao 1
site+gs+comunica%c3%a7ao 1
wwww.gscomunicacao.com.br 1
gscomunica%c3%a7%c3%a3o.com+br 1
gs+comunica%c3%a7%c3%b5es+sc 1
gcomunicacao 1
gs+comunicao+s%2fs+ltda 1
gs+comunicacoe+s 1
gscomunica%c3%a7ao 1
END_SEARCHWORDS

# Search keywords - Number of search
# The 10 first number of search must be first (order not required for others)
BEGIN_KEYWORDS 24
gs 33
comunica%c3%a7%c3%a3o 13
comunica%c3%a7%c3%b5es 10
gscomunicacao 4
gscomunica%c3%a7%c3%a3o 4
www.gscomunicacao.com.br 3
comunicacao 3
comunica%c3%a7oes 3
gscomunica%c3%a7%c3%b5es 2
gscomunicacao.com.br 2
sc 1
comunicao 1
wwww.gscomunicacao.com.br 1
comunicacoe 1
gscomunica%c3%a7%c3%a3o.com 1
comunica%c3%87ao 1
gcomunicacao 1
br 1
s 1
ltda 1
site 1
comunica%c3%a7ao 1
gscomunica%c3%a7ao 1
s%2fs 1
END_KEYWORDS

# Errors - Hits - Bandwidth
BEGIN_ERRORS 3
206 16 2123689
404 114 0
301 124 43624
END_ERRORS

# URL with 404 errors - Hits - Last URL referer
BEGIN_SIDER_404 5
/stamp 1 -
/agenda 1 -
/robots.txt 109 -
/clips/06/Scripts/AC_ActiveX.js 1 http://www.gscomunicacao.com.br/clips/06/clips_06.html
/logs/ 2 -
END_SIDER_404

# Host - Pages - Hits - Bandwidth - Last visit date - [Start date of last visit] - [Last page of last visit]
# [Start date of last visit] and [Last page of last visit] are saved only if session is not finished
# The 10 first Hits must be first (order not required for others)
BEGIN_VISITOR 643
201.23.69.242.dynamic.neoviatelecom.com.br 326 1203 4123931 20101130090042
201-74-46-8-sa.cpe.vivax.com.br 26 69 259543 20101107124036
201-34-142-238.fnses700.e.brasiltelecom.net.br 12 26 1227087 20101109102021
static-208-80-194-29.as13448.com 11 11 17358 20101130081021
187.107.90.105 11 44 2494048 20101111015705
201-74-46-215-sa.cpe.vivax.com.br 9 21 0 20101129192224
201-75-141-112-sa.cpe.vivax.com.br 9 28 7657 20101122193320
static-208-80-194-26.as13448.com 8 8 12624 20101127063048
200-215-93-145.cuace700.e.brasiltelecom.net.br 8 22 564280 20101122024636
ip-187-88-208-100.user.vivozap.com.br 6 16 1345126 20101108161757
187-51-156-228.customer.tdatabrasil.net.br 0 4 868245 
201-92-164-163.dsl.telesp.net.br 0 1 7657 
msnbot-65-52-110-65.search.msn.com 1 1 0 20101104165651
c9347e55.virtua.com.br 0 1 289415 
186-201-208-114.customer.tdatabrasil.net.br 1 5 1486477 20101123104202
bb698418.virtua.com.br 0 1 7657 
200-138-240-107.fnsce703.dsl.brasiltelecom.net.br 2 6 223592 20101102114229
187.16.241.3 0 1 289415 
200-102-59-47.fnsce702.dsl.brasiltelecom.net.br 2 6 193766 20101119101909
189.58.68.80.dynamic.adsl.gvt.net.br 0 2 297729 
c9528b14.virtua.com.br 0 1 67681 
200.241.191.72 0 1 289415 
189-111-232-41.dsl.telesp.net.br 0 2 578830 
msnbot-207-46-195-232.search.msn.com 2 2 0 20101128194935
200-206-213-140.dsl.telesp.net.br 0 10 355665 
beirario186.static.gvt.net.br 0 1 289415 
189.121.136.234 0 6 15314 
bd7ac2d3.virtua.com.br 0 1 33125 
189-31-123-248.bnut3700.dsl.brasiltelecom.net.br 0 1 0 
189-75-3-194.fnses700.dsl.brasiltelecom.net.br 2 6 256825 20101122162425
208.80.194.32 1 1 1578 20101106082052
mail.adlweb.com.br 0 2 232581 
189-56-11-3.customer.tdatabrasil.net.br 2 6 256825 20101129071354
201-87-123-80.static-corp.ajato.com.br 0 4 0 
189-18-217-65.dsl.telesp.net.br 0 1 251097 
189-110-27-245.dsl.telesp.net.br 1 4 8008 20101125152656
200.237.249.88 1 3 18554 20101101045035
200-215-220-49.commcorp.com.br 0 1 289415 
201-92-215-88.dsl.telesp.net.br 0 1 7657 
msnbot-207-46-195-233.search.msn.com 1 1 0 20101115052159
189-47-12-136.dsl.telesp.net.br 1 5 1487480 20101129080543
20119213254.user.veloxzone.com.br 1 4 0 20101103063519
189106019025.user.veloxzone.com.br 0 2 0 
189.115.24.83.static.gvt.net.br 1 3 18654 20101116052739
correio.cabovel.com.br 0 1 289415 
201-89-144-4.nhoce701.dsl.brasiltelecom.net.br 0 1 289415 
msnbot-207-46-195-231.search.msn.com 1 1 0 20101130074255
189-79-62-166.dsl.telesp.net.br 0 1 289415 
dial-b1-229-170.telepac.pt 0 2 297729 
200-153-78-197.customer.tdatabrasil.net.br 2 4 20369 20101129084416
200-161-175-243.dsl.telesp.net.br 0 2 578830 
187.113.70.8.static.host.gvt.net.br 0 2 297729 
12.4.26.248 0 1 289415 
c9347204.virtua.com.br 0 3 7657 
inet91.unilever.com 0 5 7657 
200-161-84-12.dsl.telesp.net.br 0 1 7657 
200-158-231-146.dsl.telesp.net.br 3 10 1577826 20101125112909
201-27-237-185.dsl.telesp.net.br 0 2 0 
189-47-143-207.dsl.telesp.net.br 0 24 868245 
187.52.157.227 3 9 18654 20101116141150
200-207-77-125.dsl.telesp.net.br 0 1 12765 
187-10-176-157.dsl.telesp.net.br 0 1 289415 
189.43.70.130 1 2 1196059 20101103063425
msnbot-207-46-204-193.search.msn.com 1 1 0 20101116215818
201-35-223-90.fnsce701.dsl.brasiltelecom.net.br 2 7 294231 20101105115109
189-111-148-67.dsl.telesp.net.br 0 1 289415 
201.67.205.160 1 3 18654 20101117150157
189-19-218-89.dsl.telesp.net.br 0 1 289415 
189-72-126-28.dsl.fnses700.brasiltelecom.net.br 5 10 262973 20101101091903
189-18-102-244.dsl.telesp.net.br 0 1 7657 
msnbot-65-52-110-55.search.msn.com 1 1 0 20101130181256
201-92-227-207.dsl.telesp.net.br 0 1 289415 
189-18-241-64.dsl.telesp.net.br 0 2 66250 
187-4-220-177.fnses700.dsl.brasiltelecom.net.br 3 7 121429 20101104081810
smtp.ci.inapel.com.br 0 1 289415 
187-74-91-65.dsl.telesp.net.br 3 11 511430 20101117102539
189-19-60-245.dsl.telesp.net.br 0 3 868245 
189-30-69-109.fnses700.dsl.brasiltelecom.net.br 1 3 18654 20101124145839
badce17e.virtua.com.br 0 1 0 
c93431f6.virtua.com.br 0 8 22971 
201-43-92-58.dsl.telesp.net.br 0 2 7657 
187-35-208-214.dsl.telesp.net.br 0 1 289415 
static-208-80-194-33.as13448.com 5 5 7890 20101130112111
189-54-98-110-nd.cpe.vivax.com.br 0 1 7657 
201-74-38-170-sa.cpe.vivax.com.br 4 12 0 20101119014455
187.107.83.54 1 9 351896 20101111081253
bd78248a.virtua.com.br 0 1 33125 
200.211.66.226 0 1 33125 
dial-b1-224-95.telepac.pt 0 2 297729 
187-101-30-78.dsl.telesp.net.br 0 2 578830 
bd04ef3e.virtua.com.br 0 2 66250 
201-43-196-89.dsl.telesp.net.br 0 1 7657 
189.88.3.224 0 1 24343 
189-78-127-205.dsl.telesp.net.br 0 1 289415 
187.39.147.104 2 6 256825 20101129092656
msnbot-65-52-110-51.search.msn.com 2 2 1578 20101120025953
200-171-153-130.dial-up.telesp.net.br 0 1 289415 
c951f498.virtua.com.br 0 1 33125 
200-168-129-23.dsl.telesp.net.br 0 1 289415 
189-19-44-19.dsl.telesp.net.br 0 1 289415 
msnbot-207-46-13-97.search.msn.com 1 1 0 20101108220652
bd79294e.virtua.com.br 0 2 15314 
200-170-196-186.core01.spo.ifx.net.br 0 1 7657 
187-8-206-77.customer.tdatabrasil.net.br 0 1 289415 
c953d06b.virtua.com.br 0 2 578830 
msnbot-65-52-109-61.search.msn.com 1 1 0 20101128170705
200-171-161-34.speedyterra.com.br 0 1 289415 
189-19-39-119.dsl.telesp.net.br 0 1 289415 
intranet.fenaconline.com 0 1 289415 
189-110-115-218.dsl.telesp.net.br 0 1 33125 
189-47-149-194.dsl.telesp.net.br 0 1 0 
187.105.244.26 0 1 289415 
msnbot-207-46-199-37.search.msn.com 1 1 0 20101109202423
201-42-221-133.dsl.telesp.net.br 0 1 289415 
187.55.15.253 1 5 255247 20101109104055
c9539359.virtua.com.br 0 1 289415 
189-72-125-116.dsl.fnses700.brasiltelecom.net.br 1 3 18654 20101112172637
201-74-36-104-sa.cpe.vivax.com.br 1 1 0 20101109172312
189-46-39-252.dsl.telesp.net.br 0 2 315176 
187-121-194-218.sta.lancernet.com.br 0 1 289415 
18741124063.user.veloxzone.com.br 4 12 1094039 20101123073916
bd67a05a.virtua.com.br 0 1 33125 
msnbot-207-46-13-100.search.msn.com 1 1 0 20101127034125
189.21.188.153 0 1 7657 
189-54-58-171-nd.cpe.vivax.com.br 0 2 578830 
200-171-245-210.customer.telesp.net.br 0 1 289415 
189.115.16.30.static.host.gvt.net.br 3 7 198133 20101127103349
msnbot-207-46-199-51.search.msn.com 1 1 0 20101114224854
189-18-44-97.dsl.telesp.net.br 0 1 7657 
189-39-81-162.reverso.wideway.net.br 0 1 33125 
187-11-114-12.dsl.telesp.net.br 0 1 289415 
201-74-38-249-sa.cpe.vivax.com.br 4 8 0 20101105180904
187-3-112-24-sa.cpe.vivax.com.br 0 1 7657 
201-92-65-60.dsl.telesp.net.br 5 15 650008 20101105051703
186-201-125-154.customer.tdatabrasil.net.br 0 1 289415 
201-26-146-235.dial-up.telesp.net.br 0 1 289415 
186.204.4.188 0 1 33125 
corporativo.gvt.net.br 0 4 1157660 
189.72.55.185 0 3 25546 
201.47.220.47.static.host.gvt.net.br 0 2 15314 
189.121.166.133 0 1 0 
201-74-46-11-sa.cpe.vivax.com.br 2 4 0 20101104182706
c9534460.virtua.com.br 0 1 289415 
201.22.13.160.dynamic.adsl.gvt.net.br 3 14 738091 20101104111614
189-19-42-119.dsl.telesp.net.br 0 1 289415 
201.33.206.180 0 3 578830 
www2.kuhn.fr 0 1 0 
200.237.249.87 2 6 256825 20101123040808
189.115.17.146.static.host.gvt.net.br 2 6 256825 20101109145437
200-143-137-18.ded.unitelco.com.br 0 1 289415 
187.82.118.105 0 3 7657 
187-75-164-59.dsl.telesp.net.br 0 1 289415 
badce535.virtua.com.br 0 8 7657 
200-158-125-161.dsl.telesp.net.br 0 6 30628 
187.113.209.119.static.host.gvt.net.br 0 1 289415 
200-189-82-50-sne.pme.vivax.com.br 0 2 289415 
189.8.110.5 0 2 66250 
200-138-233-182.fnses700.dsl.brasiltelecom.net.br 2 6 251896 20101103084500
mail.quimicanastacio.com.br 0 2 322540 
200-168-120-3.dsl.telesp.net.br 0 8 337854 
189-69-128-129.dial-up.telesp.net.br 0 6 868245 
189-31-65-195.dsl.fnses700.brasiltelecom.net.br 1 3 0 20101101103042
187-032-004-138.static.ctbctelecom.com.br 0 1 7657 
189.115.23.20.static.host.gvt.net.br 2 6 256825 20101112121207
200-233-221-184.static.ctbctelecom.com.br 0 3 537067 
201.67.200.120 2 5 21372 20101115082435
msnbot-207-46-195-225.search.msn.com 1 1 0 20101115103457
msnbot-65-52-108-14.search.msn.com 1 1 0 20101111193843
200-138-213-7.fnsce702.dsl.brasiltelecom.net.br 4 12 256825 20101114150858
200-161-114-88.dsl.telesp.net.br 0 4 893934 
badc3c42.virtua.com.br 2 6 256825 20101105023223
187.17.169.8 0 1 289415 
189-46-45-100.dsl.telesp.net.br 0 1 289415 
imss01.tecondi.com.br 0 3 289415 
187-75-178-33.dsl.telesp.net.br 0 1 289415 
bd213652.virtua.com.br 0 1 33125 
201-27-68-77.dsl.telesp.net.br 0 2 578830 
187.55.1.62 2 6 256825 20101101123300
200-150-183-173.static-corp.ajato.com.br 0 1 289415 
189-29-211-19-nd.cpe.vivax.com.br 0 1 289415 
201-95-96-106.dsl.telesp.net.br 0 1 289415 
201-0-163-81.dial-up.telesp.net.br 0 4 22971 
msnbot-207-46-13-137.search.msn.com 1 1 0 20101121055323
189-47-137-234.dsl.telesp.net.br 0 6 38285 
189.115.19.122.static.host.gvt.net.br 1 3 18654 20101112083856
200-101-194-155.bnut3702.dsl.brasiltelecom.net.br 0 2 66250 
187.103.178.1 0 1 289415 
201-68-2-184.dsl.telesp.net.br 0 1 289415 
static-208-80-194-32.as13448.com 1 1 1578 20101116060257
189-54-6-112-nd.cpe.vivax.com.br 2 6 256825 20101108093718
189-19-208-235.dsl.telesp.net.br 0 1 289415 
msnbot-207-46-13-140.search.msn.com 2 2 0 20101118052049
mail.habasit.com.br 0 26 15314 
msnbot-207-46-204-243.search.msn.com 1 1 0 20101112141912
msnbot-207-46-199-40.search.msn.com 1 1 0 20101103032144
189-78-126-220.dsl.telesp.net.br 0 1 289415 
200.219.163.82 1 3 1197062 20101125082359
187-101-74-148.dsl.telesp.net.br 0 3 289415 
189-19-65-14.dsl.telesp.net.br 0 1 289415 
laibel.com.br 1 7 94492 20101122091930
static-208-80-194-28.as13448.com 1 1 1578 20101125174640
c934371b.virtua.com.br 0 1 289415 
189-039-046-004.static.spo.ctbc.com.br 0 3 12773 
187.55.2.70 2 6 241682 20101123154605
189-18-106-208.dsl.telesp.net.br 0 1 7657 
msnbot-207-46-199-49.search.msn.com 1 1 0 20101125183125
189-31-76-25.fnses700.dsl.brasiltelecom.net.br 2 5 21372 20101107155107
189-108-118-114.customer.tdatabrasil.net.br 0 1 289415 
187-75-170-91.dsl.telesp.net.br 0 1 0 
200.175.100.19.static.gvt.net.br 2 9 279796 20101108091812
187.55.14.99 1 3 18654 20101101114830
ip-187-117-97-191.user.vivozap.com.br 0 1 72321 
187-93-146-171.customer.tdatabrasil.net.br 0 1 289415 
dianneli.com.br 1 4 1230187 20101122050951
200-158-28-4.dsl.telesp.net.br 0 1 0 
189-109-6-90.customer.tdatabrasil.net.br 0 1 72117 
189-47-184-123.dsl.telesp.net.br 1 6 1296437 20101103052953
189-30-107-61.dsl.fnses700.brasiltelecom.net.br 2 7 49144 20101103080131
201-74-14-240-sc.cpe.vivax.com.br 0 1 289415 
187.58.233.103.static.host.gvt.net.br 0 1 289415 
201-24-90-120.fnsce702.dsl.brasiltelecom.net.br 0 1 33125 
201-74-43-195-sa.cpe.vivax.com.br 2 4 0 20101123085651
201-88-122-145.gnace703.dsl.brasiltelecom.net.br 0 2 33125 
189-47-156-4.dsl.telesp.net.br 0 2 322540 
18912170225.user.veloxzone.com.br 1 4 715057 20101129055000
200-206-46-82.customer.tdatabrasil.net.br 0 35 84227 
123.207.64.189.isp.timbrasil.com.br 0 1 33125 
187.55.0.55 2 6 256825 20101129150926
bd237e43.virtua.com.br 0 2 0 
189-19-65-122.dsl.telesp.net.br 0 1 289415 
201-24-57-83.pvoce701.dsl.brasiltelecom.net.br 0 2 210077 
tvc.tv221.static.gvt.net.br 6 18 550958 20101126043615
201-27-113-27.dsl.telesp.net.br 0 1 289415 
ip-189-98-173-209.user.vivozap.com.br 0 1 0 
msnbot-207-46-13-84.search.msn.com 2 2 0 20101127223826
201-74-2-63-sc.cpe.vivax.com.br 0 1 289415 
201-40-61-2.gnace703.dsl.brasiltelecom.net.br 0 1 289415 
msnbot-207-46-204-192.search.msn.com 1 1 0 20101129181704
189-69-19-75.dsl.telesp.net.br 0 1 0 
189-75-40-172.fnses700.dsl.brasiltelecom.net.br 1 3 18654 20101106102724
189-29-193-28-nd.cpe.vivax.com.br 0 1 7657 
187-3-135-200-sa.cpe.vivax.com.br 0 2 7657 
201.87.52.167 0 1 240088 
c9348919.virtua.com.br 0 8 0 
ip-189-99-65-100.user.vivozap.com.br 0 1 33125 
200.237.249.74 1 3 18654 20101105154922
200-170-216-111.static.spo.ifx.net.br 0 1 289415 
201-67-155.fnsce303.ipd.brasiltelecom.net.br 1 3 18654 20101118072944
201-68-34-65.dsl.telesp.net.br 0 3 0 
mail.platodiesel.com.br 0 1 289415 
200-193-110-168.fnses700.dsl.brasiltelecom.net.br 2 6 256825 20101109161242
201.47.155.26.static.gvt.net.br 0 2 578830 
msnbot-207-46-13-87.search.msn.com 2 2 0 20101113004924
187.23.25.115 2 9 631799 20101114181509
c9348818.virtua.com.br 0 2 0 
20119211190.user.veloxzone.com.br 0 1 1003 
201-0-202-215.dial-up.telesp.net.br 1 2 8008 20101104120905
201-75-139-95-sa.cpe.vivax.com.br 3 7 351 20101111193528
bb25ec92.virtua.com.br 0 1 7657 
189-73-79-191.dsl.fnses700.brasiltelecom.net.br 2 6 256825 20101101102910
201-25-211-252.fnsce702.dsl.brasiltelecom.net.br 2 6 256825 20101122105534
187.59.85.243.static.host.gvt.net.br 1 3 18654 20101113134123
189.115.23.184.static.host.gvt.net.br 1 3 18654 20101105080449
201009122039.user.veloxzone.com.br 0 1 289415 
201.33.194.33 0 1 269144 
189-10-157-20.nhoce701.dsl.brasiltelecom.net.br 0 1 289415 
187-27-231-245.3g.claro.net.br 0 2 0 
201-24-64-151.fnsce702.dsl.brasiltelecom.net.br 5 11 1453887 20101121171856
189-111-226-219.dsl.telesp.net.br 0 1 289415 
189.62.242.238 0 1 289415 
189.8.132.249 1 3 18654 20101101140330
200-171-179-89.dsl.telesp.net.br 0 1 289415 
mail.tecnicor.ind.br 0 1 289415 
187.112.170.77.static.host.gvt.net.br 3 5 21810 20101101093624
200.247.88.122 0 1 289415 
c906fbc5.virtua.com.br 0 47 84227 
189-11-176-218.fnses700.dsl.brasiltelecom.net.br 1 3 18654 20101130072135
189.38.215.250.user.ajato.com.br 0 8 15314 
201.67.229.46 1 3 18654 20101129105005
bd7974f1.virtua.com.br 2 7 360023 20101117093231
187.112.211.250.static.host.gvt.net.br 1 3 18654 20101103164756
correio.mgi.com.br 0 2 289415 
187.55.14.218 2 4 20232 20101107184009
static-208-80-194-55.as13448.com 1 1 1578 20101102134150
ip-189-96-31-4.user.vivozap.com.br 2 6 256825 20101122065435
static-208-80-194-36.as13448.com 1 1 1578 20101114120340
189-039-009-220.static.spo.ctbc.com.br 0 1 7657 
20158094071.user.veloxzone.com.br 0 4 585927 
189-30-125-163.dsl.fnses700.brasiltelecom.net.br 1 1 1578 20101102060753
187-5-135-191.fnsce704.e.brasiltelecom.net.br 2 6 256825 20101121172934
187-35-169-64.dsl.telesp.net.br 0 2 7657 
201-2-192-169.fnsce702.dsl.brasiltelecom.net.br 1 3 18654 20101101121231
189-68-132-80.dsl.telesp.net.br 2 6 256825 20101119024318
187-27-181-32.3g.claro.net.br 0 1 7657 
187-27-2-147.3g.claro.net.br 0 1 289415 
189-73-91-120.fnses700.e.brasiltelecom.net.br 2 6 256825 20101106072352
189.126.20.250 0 1 289415 
189-18-4-70.dsl.telesp.net.br 2 6 256825 20101108102229
189.115.19.239.static.host.gvt.net.br 1 3 18654 20101110024211
mail.tecnitubo.com.br 2 2 3293 20101122053122
201.90.227.162 0 12 61256 
msnbot-207-46-204-182.search.msn.com 1 1 0 20101122162720
msnbot-207-46-195-236.search.msn.com 1 1 0 20101101141610
201.47.57.113.static.gvt.net.br 0 4 289415 
msnbot-207-46-13-89.search.msn.com 1 1 0 20101125081826
189-46-190-48.dsl.telesp.net.br 0 2 289415 
200.228.122.130 3 10 395848 20101117092419
189104031088.user.veloxzone.com.br 0 2 25546 
201.90.162.178 0 1 289415 
187-50-77-250.customer.tdatabrasil.net.br 0 1 289415 
187-71-69-227.3g.claro.net.br 1 3 18654 20101112173435
189.115.23.191.static.host.gvt.net.br 2 6 256825 20101122054728
187.7.8.177 2 6 256825 20101108030122
200-207-144-129.dsl.telesp.net.br 0 2 297729 
187.55.12.138 0 2 236456 
189-19-37-187.dsl.telesp.net.br 0 1 0 
189106093186.user.veloxzone.com.br 0 1 7657 
187-93-93-122.customer.tdatabrasil.net.br 0 1 289415 
189-47-164-191.dsl.telesp.net.br 0 1 289415 
ftp.alfatest.com.br 0 2 457008 
201.55.84.146 0 2 66250 
189.38.220.62.corp.ajato.com.br 0 1 33125 
187.104.102.62 0 2 15314 
189-72-113-198.fnses700.dsl.brasiltelecom.net.br 2 6 256825 20101109024845
187-9-75-26.customer.tdatabrasil.net.br 1 8 0 20101130025904
201-24-124-153.fnsce703.dsl.brasiltelecom.net.br 0 2 66250 
201.76.10.84 2 6 256825 20101122032034
187.59.84.80.static.host.gvt.net.br 2 6 256825 20101101133059
201-74-44-49-sa.cpe.vivax.com.br 2 5 0 20101103182638
201-26-70-125.dsl.telesp.net.br 0 8 15314 
189-72-125-26.dsl.fnses700.brasiltelecom.net.br 1 3 18654 20101124064525
187.55.43.212 1 3 18654 20101128172855
187.55.3.118 2 6 235168 20101119084403
msnbot-207-46-195-107.search.msn.com 2 2 0 20101119193253
201-93-177-100.dsl.telesp.net.br 0 2 15314 
187-101-3-230.dsl.telesp.net.br 0 1 33125 
200-193-111-225.fnsce701.dsl.brasiltelecom.net.br 1 3 18654 20101103172931
187-11-229-162.dsl.telesp.net.br 0 2 289415 
187.104.81.134 2 7 546240 20101130083246
mail.emfils.com.br 2 9 835655 20101112023320
187-4-193-57.fnses700.e.brasiltelecom.net.br 1 3 18654 20101101095522
bb171d34.virtua.com.br 0 1 289415 
187.52.157.130 3 9 238171 20101101051514
201-95-63-197.dsl.telesp.net.br 0 4 578830 
187.55.3.3 2 6 208286 20101101104048
201-43-36-52.dsl.telesp.net.br 0 1 7657 
201-27-17-28.dsl.telesp.net.br 0 3 22971 
static-208-80-194-53.as13448.com 1 1 1578 20101102092807
firewall01.tractebelenergia.com.br 1 3 18654 20101112153517
static-208-80-194-35.as13448.com 1 1 1578 20101108133724
201-68-135-78.dsl.telesp.net.br 0 6 0 
www.motocana.com.br 0 3 753655 
189-18-136-221.dsl.telesp.net.br 0 2 289415 
201-95-35-177.dsl.telesp.net.br 0 1 7657 
187-3-64-7-sa.cpe.vivax.com.br 0 1 289415 
187-35-214-230.dsl.telesp.net.br 0 1 289415 
msnbot-207-46-13-146.search.msn.com 1 1 0 20101120213753
201-75-128-123-sa.cpe.vivax.com.br 4 8 0 20101125133914
186.220.229.53 0 13 0 
187.54.11.221 0 1 289415 
189.61.226.2 0 1 7657 
20119211208.user.veloxzone.com.br 0 2 0 
189-45-48-210.static.stech.net.br 0 1 289415 
189-31-76-91.fnses700.dsl.brasiltelecom.net.br 2 6 180698 20101103145526
msnbot-207-46-13-136.search.msn.com 1 1 0 20101103035343
187.23.96.67 0 2 289415 
lider.gwmnet.net 0 2 340840 
badc0024.virtua.com.br 0 1 7657 
200.248.185.2 1 4 1486477 20101129093934
187.7.30.24 1 3 18654 20101125084328
189-47-147-146.dsl.telesp.net.br 0 1 289415 
189.22.149.130 0 1 33125 
200-158-81-26.dsl.telesp.net.br 0 1 0 
mda35.mda.gov.br 0 1 289415 
189.115.17.221.static.host.gvt.net.br 2 6 256825 20101123030714
bd640458.virtua.com.br 0 1 289415 
msnbot-207-46-204-238.search.msn.com 1 1 0 20101106045820
201-25-202-254.fnsce702.dsl.brasiltelecom.net.br 0 1 64425 
187-3-44-19-sa.cpe.vivax.com.br 0 1 7657 
ip-ebt-189-43-151-34.paraisonet.com.br 0 1 289415 
189-11-176-73.fnses700.dsl.brasiltelecom.net.br 1 3 18654 20101119150417
189-19-53-203.dsl.telesp.net.br 0 1 289415 
201-35-132-121.cslce701.dsl.brasiltelecom.net.br 0 1 289415 
sjdc-wtp-gs-maya2.sdi.trendnet.org 1 2 2718 20101123151434
187.7.10.28 2 6 45314 20101108171757
189-72-119-130.jvece702.dsl.brasiltelecom.net.br 0 1 289415 
187.52.178.99 3 7 20369 20101105114255
187-10-135-196.dsl.telesp.net.br 1 3 18654 20101126075209
189-041-130-181.xd-dynamic.ctbcnetsuper.com.br 0 4 289415 
201-27-220-56.dsl.telesp.net.br 0 4 30628 
187-71-6-148.3g.claro.net.br 0 1 12773 
201-68-114-100.dsl.telesp.net.br 0 2 15314 
badc4595.virtua.com.br 0 2 66250 
189105195106.user.veloxzone.com.br 0 1 12773 
200-204-199-73.speedyterra.com.br 0 1 289415 
18715095217.user.veloxzone.com.br 2 6 118852 20101110080213
189.72.79.157 0 1 33125 
mail.diariodosul.com.br 6 14 256825 20101122113049
201-33-247-20.conectcor.com.br 0 1 289415 
201-67-162-237.fnsce703.dsl.brasiltelecom.net.br 1 3 18654 20101102193427
201.14.224.105.e.brasiltelecom.net.br 0 1 289415 
189-47-183-205.dsl.telesp.net.br 0 1 0 
mail.pivot.com.br 0 1 289415 
c9066bc8.static.spo.virtua.com.br 0 1 289415 
200-101-242-63.bnut3702.dsl.brasiltelecom.net.br 0 1 0 
200-161-203-26.dsl.telesp.net.br 0 1 289415 
200.203.108.250 0 1 12773 
189-30-105-35.dsl.fnses700.brasiltelecom.net.br 2 6 164726 20101101154101
187.55.14.209 1 3 18654 20101128052902
189-72-126-32.dsl.fnses700.brasiltelecom.net.br 5 16 526800 20101106031746
intra.lagoa.com.br 0 1 289415 
201-74-35-182-sa.cpe.vivax.com.br 3 5 0 20101130123403
200-171-153-73.dial-up.telesp.net.br 0 1 33125 
201-28-69-250.customer.tdatabrasil.net.br 0 2 15314 
201-74-35-17-sa.cpe.vivax.com.br 2 6 0 20101121185700
186.220.0.36 0 1 7657 
mail.standardnet.com.br 0 1 289415 
189-30-127-213.dsl.fnses700.brasiltelecom.net.br 1 3 18654 20101101180139
c953396e.virtua.com.br 0 1 7657 
187-50-190-18.customer.tdatabrasil.net.br 0 1 289415 
msnbot-207-46-13-138.search.msn.com 2 2 0 20101117063617
bd79c7bf.virtua.com.br 0 5 578830 
189.16.57.98 2 6 256825 20101129075224
lesell-f1-1-4-140-gacc01.sne.embratel.net.br 0 1 12767 
ip-187-116-8-164.user.vivozap.com.br 0 1 7657 
200-171-103-73.dsl.telesp.net.br 0 2 66250 
200-193-27-111.fnsce701.dsl.brasiltelecom.net.br 0 1 289415 
189-18-52-134.dsl.telesp.net.br 0 1 289415 
189-68-129-244.dsl.telesp.net.br 0 1 289415 
189-74-239-4.paemt705.e.brasiltelecom.net.br 0 1 289415 
201-91-133-250.customer.tdatabrasil.net.br 3 9 1453887 20101126084140
187.112.170.170.static.host.gvt.net.br 1 3 18654 20101126054311
200.162.59.150 0 2 66250 
200.237.249.82 2 6 37538 20101118141117
189-18-46-96.dsl.telesp.net.br 0 1 7657 
189-78-218-40.dsl.telesp.net.br 0 1 33125 
187.55.1.220 1 3 18654 20101103151451
200-171-37-36.dsl.telesp.net.br 0 2 289415 
137.133.17.187.redenetworks.net.br 0 1 289415 
c93487c1.virtua.com.br 0 7 7657 
201-87-101-135.static-corp.ajato.com.br 0 1 289415 
187.107.90.26 1 9 351896 20101125154412
mq233-65.ararangua.ufsc.br 2 6 256825 20101104060423
189-041-135-060.xd-dynamic.ctbcnetsuper.com.br 0 1 289415 
189.51.128.242 0 1 289415 
201-25-255-151.fnsce703.dsl.brasiltelecom.net.br 1 1 1578 20101107135526
static-208-80-194-31.as13448.com 2 2 3156 20101128222857
200-204-197-168.speedyterra.com.br 0 1 33125 
187-71-8-84.3g.claro.net.br 3 8 21372 20101113124032
mail.gehaka.com.br 0 1 289415 
187.112.169.124.static.host.gvt.net.br 2 6 256825 20101126123655
201-74-32-147-sa.cpe.vivax.com.br 2 6 0 20101101211203
msnbot-207-46-195-224.search.msn.com 1 1 0 20101127092235
mx02.pampili.com.br 0 1 289415 
187.7.42.171 1 3 18654 20101102102845
189-015-242-191.xd-dynamic.ctbcnetsuper.com.br 0 1 289415 
187.66.73.45 0 1 289415 
142.117.62.58.broad.gz.gd.dynamic.163data.com.cn 0 1 0 
187.108.130.30 0 2 297729 
static-208-80-194-34.as13448.com 1 1 1578 20101108090053
msnbot-207-46-13-42.search.msn.com 1 1 0 20101109030855
200-232-166-19.dsl.telesp.net.br 0 1 7657 
ns1.corttex.com.br 0 3 99375 
186.212.49.151.static.host.gvt.net.br 0 1 33125 
201-42-220-203.dsl.telesp.net.br 0 2 15314 
187-072-104-017.static.ctbctelecom.com.br 0 3 868245 
189-30-120-43.dsl.fnses700.brasiltelecom.net.br 2 6 46394 20101103082803
189-041-132-175.xd-dynamic.ctbcnetsuper.com.br 2 8 349927 20101111084636
91.193.45.7 0 1 289415 
200-207-95-31.dsl.telesp.net.br 0 1 289415 
201-74-46-109-sa.cpe.vivax.com.br 6 12 0 20101102060426
c9348be0.virtua.com.br 0 4 0 
192.193.171.214 0 1 12773 
189-72-114-73.fnses700.dsl.brasiltelecom.net.br 2 6 256825 20101102170853
189.38.228.221 0 2 289415 
201-74-34-189-sa.cpe.vivax.com.br 2 6 0 20101108190245
189-75-3-159.fnses700.dsl.brasiltelecom.net.br 1 3 18654 20101108160616
badccb82.virtua.com.br 0 2 15314 
200-161-124-119.dsl.telesp.net.br 0 1 33125 
201-43-187-250.dsl.telesp.net.br 0 1 7657 
201-68-120-104.dsl.telesp.net.br 0 3 15314 
189-111-175-5.dsl.telesp.net.br 0 1 289415 
64.184.179.89 1 1 1578 20101128100147
msnbot-65-52-110-64.search.msn.com 1 1 0 20101116052218
200-193-110-96.fnses700.dsl.brasiltelecom.net.br 2 6 256825 20101101183117
bd642ae9.virtua.com.br 0 1 289415 
lwdc.br05.gi9-48.host1.24187.americanis.net 1 3 18654 20101116055230
189-19-222-2.dsl.telesp.net.br 0 1 289415 
189-75-3-218.fnses700.dsl.brasiltelecom.net.br 1 3 18654 20101113100733
bd217516.virtua.com.br 0 1 33125 
201-0-20-250.dsl.telesp.net.br 0 1 289415 
189-38-241-25.static-corp.ajato.com.br 6 19 4137426 20101130085932
189-75-2-166.fnses700.dsl.brasiltelecom.net.br 2 6 95030 20101129025610
189-19-70-190.dsl.telesp.net.br 0 1 289415 
201-92-156-208.dsl.telesp.net.br 0 1 12773 
bb6b4620.virtua.com.br 2 6 256825 20101108162700
201-43-98-169.dsl.telesp.net.br 0 1 289415 
badc0a84.virtua.com.br 0 7 7657 
189.38.209.196.user.ajato.com.br 0 1 289415 
201-26-200-120.dsl.telesp.net.br 0 1 289415 
201-42-19-174.dsl.telesp.net.br 0 1 289415 
187-75-178-227.dsl.telesp.net.br 0 1 289415 
200.247.168.58 0 1 33125 
189-19-254-198.dsl.telesp.net.br 0 4 22971 
pvcmail.pvcbrazil.com.br 0 1 289415 
base-gt2.lideraviacao.com.br 0 1 289415 
187-5-185-157.fnses700.e.brasiltelecom.net.br 1 3 18654 20101106152908
187-35-140-37.dsl.telesp.net.br 0 1 289415 
bd214171.virtua.com.br 5 25 2327999 20101108100444
189-18-102-243.dsl.telesp.net.br 0 2 15314 
189.58.199.92.dynamic.adsl.gvt.net.br 3 9 275479 20101101152337
201-91-198-50.customer.tdatabrasil.net.br 0 1 183796 
187-56-251-77.dsl.telesp.net.br 2 6 68578 20101123085947
201-67-169-18.fnsce703.dsl.brasiltelecom.net.br 1 3 18654 20101106120159
189-31-76-22.fnses700.dsl.brasiltelecom.net.br 2 6 256825 20101101084140
baccc490.virtua.com.br 0 1 33125 
189-72-126-143.dsl.fnses700.brasiltelecom.net.br 4 12 1453887 20101103125501
138.253.67.189.isp.timbrasil.com.br 0 1 289415 
189-19-70-33.dsl.telesp.net.br 0 1 289415 
187-10-242-155.dsl.telesp.net.br 2 6 256825 20101128233816
200.180.193.200 0 1 289415 
189-46-14-198.dsl.telesp.net.br 0 11 0 
tvc.tv222.static.gvt.net.br 2 6 256825 20101121113514
187-3-12-25-sa.cpe.vivax.com.br 0 1 7657 
201.67.221.108 0 3 33125 
187.55.196.170 0 1 289415 
189106085103.user.veloxzone.com.br 0 2 0 
189-11-189-186.dsl.fnsce703.brasiltelecom.net.br 1 3 18654 20101130142905
tvc.tv69.static.host.gvt.net.br 1 3 18654 20101108074910
201.64.141.67 0 4 22971 
200-168-188-238.copercana.com.br 0 2 45784 
200-204-140-29.dsl.telesp.net.br 0 1 14225 
187-4-219-243.fnses700.dsl.brasiltelecom.net.br 2 6 242662 20101101060220
200-102-59-199.fnsce702.dsl.brasiltelecom.net.br 2 6 152122 20101120171725
200-163-92-7.gnace703.dsl.brasiltelecom.net.br 0 2 322540 
200-138-233-218.fnses700.dsl.brasiltelecom.net.br 1 3 18654 20101103175921
msnbot-207-46-12-239.search.msn.com 2 2 0 20101118080019
187-3-190-12-sa.cpe.vivax.com.br 0 1 7657 
200-161-27-41.netpoint.com.br 0 1 289415 
189.115.22.11.static.host.gvt.net.br 1 3 18654 20101129032024
20158123242.user.veloxzone.com.br 1 3 18654 20101112073931
ws190.udop.com.br 0 2 33125 
187.7.9.249 2 6 256825 20101123040351
187-3-25-206-sa.cpe.vivax.com.br 0 1 7657 
bd79a685.virtua.com.br 0 1 0 
200.175.215.160.dynamic.adsl.gvt.net.br 0 1 7657 
187-71-53-124.3g.claro.net.br 3 7 258403 20101128140116
200-161-61-15.dsl.telesp.net.br 0 1 289415 
201-25-244-139.fnsce703.dsl.brasiltelecom.net.br 1 3 18654 20101128100142
201-1-78-76.dsl.telesp.net.br 0 3 22971 
200.155.107.227 0 2 15314 
201-68-139-61.dsl.telesp.net.br 0 2 15314 
200-138-240-105.fnsce703.dsl.brasiltelecom.net.br 2 6 256825 20101121115127
189.2.138.98 0 1 289415 
169.239.46.187.isp.timbrasil.com.br 0 2 15314 
201-67-182-138.fnsce702.dsl.brasiltelecom.net.br 2 6 256825 20101102084426
110.238.186.200.static.impsat.net.br 0 1 289415 
187.7.5.2 2 6 256825 20101107181852
187.93.65.34 2 6 256825 20101129103309
201-74-42-46-sa.cpe.vivax.com.br 0 1 289415 
189-18-242-40.dsl.telesp.net.br 0 1 289415 
bd64e589.virtua.com.br 0 2 15314 
200-168-106-96.dsl.telesp.net.br 0 1 289415 
187-74-69-140.dsl.telesp.net.br 0 2 297729 
201-92-149-152.dsl.telesp.net.br 0 4 15314 
201-92-164-101.dsl.telesp.net.br 2 6 256825 20101118115004
189-55-6-78-nd.cpe.vivax.com.br 1 1 1578 20101111055435
bb26da0b.virtua.com.br 2 6 256825 20101130093625
201-74-129-158-sj.cpe.vivax.com.br 0 1 289415 
200-158-79-55.dsl.telesp.net.br 0 1 12765 
200-206-222-158.dsl.telesp.net.br 0 1 7657 
189-19-162-193.dsl.telesp.net.br 0 8 45942 
smtp2.compextec.com.br 0 2 7657 
201-92-102-139.dsl.telesp.net.br 2 7 427036 20101125194702
200.162.136.197 0 2 301280 
150.70.64.197 1 4 1154485 20101129113452
189-11-189-126.dsl.fnsce703.brasiltelecom.net.br 1 3 18654 20101113161715
bd64ab7a.virtua.com.br 0 1 7657 
netserver.klin.com.br 0 1 0 
189-30-126-217.dsl.fnses700.brasiltelecom.net.br 1 3 18654 20101109153319
msnbot-65-52-109-59.search.msn.com 2 2 0 20101121090853
200-205-98-148.customer.tdatabrasil.net.br 0 1 289415 
200-170-150-105.static.ctbctelecom.com.br 0 1 12773 
201.22.227.67.static.gvt.net.br 0 1 289415 
msnbot-65-52-108-60.search.msn.com 1 1 0 20101127101735
189-19-1-201.dsl.telesp.net.br 0 2 297729 
200-143-139-90.ded.unitelco.com.br 0 2 449768 
187-35-150-132.dsl.telesp.net.br 0 1 289415 
201-95-10-118.dsl.telesp.net.br 0 2 139136 
201-14-251-182.paemt704.dsl.brasiltelecom.net.br 0 1 3023 
201.55.94.250 0 3 539544 
187-92-158-250.customer.tdatabrasil.net.br 0 2 0 
189-30-85-60.fnsce703.dsl.brasiltelecom.net.br 1 3 238171 20101111140424
189-79-200-212.dsl.telesp.net.br 0 1 33125 
187-71-223-49.3g.claro.net.br 0 1 7657 
189-55-3-30-nd.cpe.vivax.com.br 0 1 33125 
200-138-204-179.fnsce702.dsl.brasiltelecom.net.br 1 3 18654 20101109165538
msnbot-207-46-12-241.search.msn.com 1 1 0 20101124093030
187-74-20-251.dsl.telesp.net.br 0 5 289415 
bhe201062154162.res-com.wayinternet.com.br 0 1 7657 
189.26.161.41.dynamic.adsl.gvt.net.br 0 1 289415 
linux.bigmidia-safira.com.br 1 1 1578 20101111060848
msnbot-207-46-204-179.search.msn.com 1 1 0 20101122234820
msnbot-207-46-13-47.search.msn.com 1 1 0 20101111003715
189-112-113-153.static.ctbctelecom.com.br 0 2 289415 
mail.viseu.com.br 0 1 0 
msnbot-207-46-199-38.search.msn.com 1 1 0 20101118152949
201-13-196-96.dial-up.telesp.net.br 0 1 7657 
189-47-164-158.dsl.telesp.net.br 0 1 289415 
189-39-83-20.reverso.wideway.net.br 0 1 289415 
186.220.10.132 0 1 0 
msnbot-65-52-108-58.search.msn.com 1 1 0 20101130073156
201-92-112-241.dsl.telesp.net.br 0 1 24105 
msnbot-207-46-13-131.search.msn.com 1 1 0 20101124064456
msnbot-65-52-110-68.search.msn.com 2 2 0 20101113031655
200.183.193.28 0 3 578830 
189-29-212-192-nd.cpe.vivax.com.br 0 2 7657 
jmc.jmcprod.com.br 0 11 38285 
201-75-137-157-sa.cpe.vivax.com.br 2 4 0 20101104132034
187-11-139-137.dsl.telesp.net.br 0 1 289415 
187.7.8.114 1 1 1578 20101123081532
2a.4b.79ae.static.theplanet.com 1 1 1578 20101114050416
187.55.40.28 1 3 18654 20101130153547
189-30-120-201.dsl.fnses700.brasiltelecom.net.br 1 3 18654 20101101165537
msnbot-207-46-13-50.search.msn.com 1 1 0 20101124042456
200-153-133-33.dsl.telesp.net.br 0 3 569472 
189-69-150-93.dial-up.telesp.net.br 0 1 289415 
c9539688.virtua.com.br 0 1 289415 
201-24-98-168.fnsce703.dsl.brasiltelecom.net.br 1 3 18654 20101101060801
187.52.160.215 0 1 33125 
msnbot-65-52-110-66.search.msn.com 1 1 0 20101115113055
186.213.156.37.static.host.gvt.net.br 0 1 289415 
201-0-20-127.dsl.telesp.net.br 0 1 239065 
189-69-131-66.dial-up.telesp.net.br 1 4 1486477 20101126091524
platao.henso.com.br 1 4 1198065 20101111100931
187-3-42-243-sa.cpe.vivax.com.br 0 1 289415 
189-46-201-33.dsl.telesp.net.br 0 1 289415 
187.112.171.214.static.host.gvt.net.br 1 3 18654 20101126172317
msnbot-207-46-13-94.search.msn.com 1 1 0 20101121224751
189-041-168-009.xd-dynamic.ctbcnetsuper.com.br 0 1 289415 
200.247.106.2 1 3 18654 20101103035943
200-206-225-30.dsl.telesp.net.br 0 1 0 
200.237.249.50 1 1 1578 20101101115928
END_VISITOR

# Date - Pages - Hits - Bandwidth - Visits
BEGIN_DAY 30
20101101 44 128 2949160 27
20101102 18 40 779284 10
20101103 53 202 5166354 21
20101104 39 119 1754010 14
20101105 34 121 2200868 11
20101106 30 64 1102988 13
20101107 24 69 623730 8
20101108 55 208 6258332 22
20101109 48 138 2895727 15
20101110 33 146 2052423 7
20101111 45 313 18748479 16
20101112 28 99 1620322 16
20101113 10 23 77334 8
20101114 15 41 1170613 9
20101115 5 10 329141 4
20101116 24 74 591610 9
20101117 32 117 2616517 10
20101118 16 71 1035324 8
20101119 25 96 1815565 10
20101120 4 10 167436 3
20101121 18 40 2227518 11
20101122 44 161 3960951 20
20101123 36 156 7140848 14
20101124 18 86 1206349 8
20101125 31 107 4445292 13
20101126 28 206 21763797 13
20101127 9 17 539800 7
20101128 13 30 898464 10
20101129 44 255 22568798 21
20101130 32 258 15916104 15
END_DAY

# Session range - Number of visits
BEGIN_SESSION 7
1h+ 13
5mn-15mn 17
15mn-30mn 9
2mn-5mn 4
30s-2mn 15
0s-30s 304
30mn-1h 11
END_SESSION

# URL - Pages - Bandwidth - Entry - Exit
# The 10 first Pages must be first (order not required for others)
BEGIN_SIDER 8
/ 437 337692 318 166
/site.html 276 193795 4 137
/webmail/ 105 7020 32 43
/eventos/ 29 44590 17 22
/clips/01/clips_01.html 3 8613 0 1
/clips/03/clips_03.html 3 11247 2 3
/clips/06/clips_06.html 1 5584 0 0
/clips/02/clips_02.html 1 2980 0 1
END_SIDER
