AWSTATS DATA FILE 6.4 (build 1.814)
# If you remove this file, all statistics for date 2009-09 will be lost/reset.

# Position (offset in bytes) in this file of beginning of each section for
# direct I/O access. If you made changes somewhere in this file, you should
# also remove completely the MAP section (AWStats will rewrite it at next
# update).
BEGIN_MAP 27
POS_GENERAL 1865                
POS_TIME 2549                
POS_VISITOR 10739               
POS_DAY 27649               
POS_DOMAIN 3320                
POS_LOGIN 3669                
POS_ROBOT 3824                
POS_WORMS 4213                
POS_EMAILSENDER 4344                
POS_EMAILRECEIVER 4487                
POS_SESSION 28470               
POS_SIDER 28681               
POS_FILETYPES 4622                
POS_OS 4787                
POS_BROWSER 4914                
POS_SCREENSIZE 5234                
POS_UNKNOWNREFERER 5308                
POS_UNKNOWNREFERERBROWSER 5660                
POS_ORIGIN 5831                
POS_SEREFERRALS 5975                
POS_PAGEREFS 6143                
POS_SEARCHWORDS 9047                
POS_KEYWORDS 9604                
POS_MISC 2212                
POS_ERRORS 9984                
POS_CLUSTER 3525                
POS_SIDER_404 10097               
END_MAP

# LastLine    = Date of last record processed - Last record line number in last log - Last record offset in last log - Last record signature value
# FirstTime   = Date of first visit for history file
# LastTime    = Date of last visit for history file
# LastUpdate  = Date of last update - Nb of parsed records - Nb of parsed old records - Nb of parsed new records - Nb of parsed corrupted - Nb of parsed dropped
# TotalVisits = Number of visits
# TotalUnique = Number of unique visitors
# MonthHostsKnown   = Number of hosts known
# MonthHostsUnKnown = Number of hosts unknown
BEGIN_GENERAL 8
LastLine 20091001041040 39441 9149523 52045310539
FirstTime 20090901031903
LastTime 20090930113311
LastUpdate 20091001052801 151 0 150 0 0
TotalVisits 256                 
TotalUnique 148                 
MonthHostsKnown 315                 
MonthHostsUnknown 50                  
END_GENERAL

# Misc ID - Pages - Hits - Bandwidth
BEGIN_MISC 10
QuickTimeSupport 0 0 0
JavaEnabled 0 0 0
JavascriptDisabled 0 0 0
PDFSupport 0 0 0
WindowsMediaPlayerSupport 0 0 0
AddToFavourites 0 43 0
RealPlayerSupport 0 0 0
TotalMisc 0 0 0
DirectorSupport 0 0 0
FlashSupport 0 0 0
END_MISC

# Hour - Pages - Hits - Bandwidth - Not viewed Pages - Not viewed Hits - Not viewed Bandwidth
BEGIN_TIME 24
0 2 3 232198 6 8 30297
1 4 5 13969 1 1 0
2 8 12 569752 0 0 0
3 5 8 15547 2 2 0
4 3 31 685185 5 6 5345
5 63 239 10949153 38 42 13012
6 105 393 16312519 46 47 25245
7 63 357 8832050 17 19 140920
8 87 375 14183248 16 21 1167320
9 89 298 11072274 22 31 11239
10 53 287 10386381 18 20 7346
11 54 352 11450027 8 11 318730
12 64 421 17540445 16 18 1151840
13 54 268 12782440 27 39 304279
14 32 191 7461809 8 12 188161
15 15 105 3410100 11 14 113149
16 18 56 3916022 11 11 5790
17 14 38 1819297 5 5 2634
18 8 36 2385772 2 2 0
19 10 27 762520 4 5 487906
20 11 25 1757249 4 4 352
21 13 38 2337134 11 11 5784
22 3 14 1614404 2 3 54211
23 1 2 388153 1 1 0
END_TIME

# Domain - Pages - Hits - Bandwidth
# The 10 first Pages must be first (order not required for others)
BEGIN_DOMAIN 9
br 660 3154 120288626
ip 64 364 19302880
com 51 52 88135
net 2 4 395810
cn 1 2 388153
no 1 1 1578
org 0 2 7657
uy 0 1 392044
ve 0 1 12765
END_DOMAIN

# Cluster ID - Pages - Hits - Bandwidth
BEGIN_CLUSTER 0
END_CLUSTER

# Login - Pages - Hits - Bandwidth - Last visit
# The 10 first Pages must be first (order not required for others)
BEGIN_LOGIN 0
END_LOGIN

# Robot ID - Hits - Bandwidth - Last visit - Hits on robots.txt
# The 10 first Hits must be first (order not required for others)
BEGIN_ROBOT 8
googlebot 13 89379 20090930002232 0
robot 9 0 20090927140312 0
slurp 6 9468 20090930212626 0
yandex 6 9468 20090929061539 0
baiduspider 6 9468 20090928145406 0
ia_archiver 2 3293 20090926152526 0
jeeves 1 1578 20090906071650 0
myweb 1 7657 20090911070752 0
END_ROBOT

# Worm ID - Hits - Bandwidth - Last visit
# The 5 first Hits must be first (order not required for others)
BEGIN_WORMS 0
END_WORMS

# EMail - Hits - Bandwidth - Last visit
# The 20 first Hits must be first (order not required for others)
BEGIN_EMAILSENDER 0
END_EMAILSENDER

# EMail - Hits - Bandwidth - Last visit
# The 20 first hits must be first (order not required for others)
BEGIN_EMAILRECEIVER 0
END_EMAILRECEIVER

# Files type - Hits - Bandwidth - Bandwidth without compression - Bandwidth after compression
BEGIN_FILETYPES 6
zip 2 253276 0 0
rar 2 5813942 0 0
html 775 731307 0 0
js 238 267859 0 0
jpg 2214 25622213 0 0
swf 350 108189051 0 0
END_FILETYPES

# OS ID - Hits
BEGIN_OS 9
macosx 53
winlong 296
winxp 3143
win2003 4
win2000 2
winnt 5
win98 3
Unknown 71
linux 4
END_OS

# Browser ID - Hits
BEGIN_BROWSER 18
msie6.0 2038
firefox3.0.14 183
firefox3.0.11 15
firefox3.5.2 29
firefox3.5.3 100
lotus\-notes 2
firefox2.0.0.13 7
firefox3.0.5 8
msie8.0 265
firefox2.0.0.11 2
firefox2.0.0.14 3
mozilla 30
netscape5.0 3
firefox2.0.0.9 6
msie7.0 682
firefox3.0.13 52
Unknown 66
safari 90
END_BROWSER

# Screen size - Hits
BEGIN_SCREENSIZE 0
END_SCREENSIZE

# Unknown referer OS - Last visit date
BEGIN_UNKNOWNREFERER 6
Mozilla/5.0_(compatible;_MJ12bot/v1.2.5;_http://www.majestic12.co.uk/bot.php?_) 20090921122203
- 20090930080435
GbPlugin 20090930085225
Mozilla/4.0_(compatible;) 20090905174007
Mozilla/3.0_(compatible) 20090924134656
OutlookConnector/1.9_(TmstmpExt) 20090928121830
END_UNKNOWNREFERER

# Unknown referer Browser - Last visit date
BEGIN_UNKNOWNREFERERBROWSER 3
- 20090930080435
GbPlugin 20090930085225
OutlookConnector/1.9_(TmstmpExt) 20090928121830
END_UNKNOWNREFERERBROWSER

# Origin - Pages - Hits 
BEGIN_ORIGIN 6
From0 626 1534
From1 0 0
From2 50 64
From3 23 785
From4 80 1198
From5 0 0
END_ORIGIN

# Search engine referers ID - Pages - Hits
BEGIN_SEREFERRALS 2
google 49 63
search 1 1
END_SEREFERRALS

# External page referers - Pages - Hits
# The 10 first Pages must be first (order not required for others)
BEGIN_PAGEREFS 53
http://www.radarbit.com/site/gscomunicacao.com.br 3 3
http://www.dentalis.com.br/dentalis_mkt.swf 3 3
http://www.daniloleite.net 3 3
http://www.iesa.edu.br/Resultado_16112009.php 2 2
http://www.dadaarquitetura.com.br/load.swf 2 2
http://www.dentalis.com.br/mkt.asp 2 2
http://espacodoblindado.com.br/site.html 1 1
http://www.conceptone.com.br/clientes.asp 1 1
http://www.espacodoblindado.com.br/site.swf 1 1
http://www.easyfor.com.br 1 1
http://71.6.217.131/mail/writemail.html 0 347
http://br.mc511.mail.yahoo.com/mc/welcome 0 1
http://gscomunicacao.blogspot.com 0 32
http://webmail.connexion.com.br/horde/imp/message.php 0 1
http://sn103w.snt103.mail.live.com/mail/InboxLight.aspx 0 1
http://br.mg2.mail.yahoo.com/dc/launch 0 19
http://br.mg2.mail.yahoo.com/dc/blank.html 0 1
http://pop.lcmmidia.com.br/cgi-bin/webmail/webmail-view.pl 0 1
http://gscomunicacao.blogspot.com/2009/08/anuncio-eb-blindados.html 0 1
http://br.mc564.mail.yahoo.com/mc/showFolder 0 1
http://br.mc448.mail.yahoo.com/mc/welcome 0 1
http://curtasfefisa.blogspot.com/2009/08/como-postar-videos-no-youtube.html 0 2
http://pop.cless.com.br/cgi-bin/webmail/webmail-read.pl 0 1
http://www.blogger.com/display 0 2
http://webmail.coraldent.com.br/cgi-bin/webmail/webmail-read.pl 0 1
http://webmail.coraldent.com.br/cgi-bin/webmail/webmail-view.pl 0 1
http://gscomunicacao.blogspot.com/2009/05/concorrencia-gooc.html 0 6
http://webmail.sppromo.com.br/cgi-bin/webmail/webmail-read.pl 0 1
http://iesafaculdade.blogspot.com 0 24
http://sn115w.snt115.mail.live.com/mail/InboxLight.aspx 0 1
http://10.119.43.5:10001/cgi/webmail/cgi-bin/openwebmail/openwebmail-send.pl 0 1
http://71.6.217.131/mail/viewaction.html 0 113
http://webmail.helsten.com.br/src/read_body.php 0 3
http://webmail.phytotratha.com.br/cgi-bin/webmail/webmail-view.pl 0 1
http://br.mc302.mail.yahoo.com/mc/welcome 0 2
http://10.119.43.5:10001/cgi/webmail/cgi-bin/openwebmail/openwebmail-read.pl 0 3
http://br.mc564.mail.yahoo.com/mc/welcome 0 5
http://71.6.217.131/mail/view.html 0 147
http://webmailajax.consultoria.com.br/src/read_body.php 0 1
http://bl117w.blu117.mail.live.com/mail/InboxLight.aspx 0 1
http://curtasfefisa.blogspot.com 0 8
http://mail2.terra.com.br/78trr/reademail.php 0 1
http://webmail.cbmpublicidade.com.br/src/read_body.php 0 1
http://ferpak.com.br/site.swf 1 1
http://mail2.terra.com.br/79trr/reademail.php 0 2
http://sn105w.snt105.mail.live.com/mail/InboxLight.aspx 0 1
http://www.easyfor.com.br/site.swf 1 1
http://sn118w.snt118.mail.live.com/mail/InboxLight.aspx 0 5
http://www.stampspumas.com.br/novo/ 1 12
http://webmail.dipro.com.br/cgi-bin/webmail/webmail-view.pl 0 1
http://mail.globo.com/mail/ 0 9
http://www.ebblindados.com.br/site.swf 1 1
http://mail.terra.com.br/78trr/reademail.php 0 1
END_PAGEREFS

# Search keyphrases - Number of search
# The 10 first number of search must be first (order not required for others)
BEGIN_SEARCHWORDS 15
gs+comunica%c3%a7%c3%a3o 20
gs+comunica%c3%a7%c3%b5es 7
gs+comunicacao 6
gscomunica%c3%a7%c3%a3o 3
gs+comunica%c3%87%c3%95es 3
g+s+comunica%c3%a7%c3%b5es 2
gs+comunica%c3%87%c3%83o 1
www.gscomunicacao.com.br 1
gs+cominicacao 1
site+de+gs+comunica%c3%87oes 1
adesivos+gs+comunica%c3%a7oes 1
gs+comunica%c3%a7%c3%a3o+florian%c3%b3polis 1
gs+comunica%c3%a7oes 1
gs+comunicacoes 1
www.gwcomunicacao.com.br 1
END_SEARCHWORDS

# Search keywords - Number of search
# The 10 first number of search must be first (order not required for others)
BEGIN_KEYWORDS 19
gs 43
comunica%c3%a7%c3%a3o 21
comunica%c3%a7%c3%b5es 9
comunicacao 6
gscomunica%c3%a7%c3%a3o 3
comunica%c3%87%c3%95es 3
s 2
comunica%c3%a7oes 2
g 2
adesivos 1
florian%c3%b3polis 1
comunica%c3%87oes 1
www.gwcomunicacao.com.br 1
www.gscomunicacao.com.br 1
comunica%c3%87%c3%83o 1
cominicacao 1
site 1
de 1
comunicacoes 1
END_KEYWORDS

# Errors - Hits - Bandwidth
BEGIN_ERRORS 3
206 36 3836408
404 63 0
301 190 66841
END_ERRORS

# URL with 404 errors - Hits - Last URL referer
BEGIN_SIDER_404 10
/_vti_bin/owssvr.dll 2 -
/robots.txt 40 -
/clips/07/Scripts/AC_ActiveX.js 4 http://www.gscomunicacao.com.br/clips/07/clips_07.html
/helsten/Helsten.rar 2 -
/skyscraper_2.jpg 1 -
/iesa/Scripts/AC_RunActiveContent.js 8 http://gscomunicacao.com.br/iesa/hot_700.html
/email_7.jpg 2 -
/site.swf 1 -
/MSOffice/cltreq.asp 2 -
/WEBMAIL 1 -
END_SIDER_404

# Host - Pages - Hits - Bandwidth - Last visit date - [Start date of last visit] - [Last page of last visit]
# [Start date of last visit] and [Last page of last visit] are saved only if session is not finished
# The 10 first Hits must be first (order not required for others)
BEGIN_VISITOR 365
201.23.69.242.dynamic.neoviatelecom.com.br 433 1688 55616954 20090930112440
200-138-233-186.fnses700.dsl.brasiltelecom.net.br 21 44 263231 20090928085805
189.57.26.65 18 97 3663896 20090930085720
201008252113.user.veloxzone.com.br 13 17 578950 20090915094647
64.214.233.100 8 17 1694106 20090916140342
static-208-80-195-47.as13448.com 5 5 7890 20090916063038
189.115.22.81.static.host.gvt.net.br 4 9 601628 20090929065808
201-75-156-113-nd.cpe.vivax.com.br 4 9 1017598 20090917152749
201-1-148-179.dsl.telesp.net.br 4 12 0 20090904115845
bd79131d.virtua.com.br 4 10 599182 20090930103746
201-68-120-180.dsl.telesp.net.br 0 9 0 
201.195.83.190 0 2 784088 
187-3-156-206-sa.cpe.vivax.com.br 0 5 30628 
32.59.1.230 2 7 690962 20090901070158
200-171-234-19.customer.telesp.net.br 0 1 7657 
189-29-163-157-nd.cpe.vivax.com.br 0 1 7657 
201-43-208-105.dsl.telesp.net.br 0 2 7657 
bd663966.virtua.com.br 0 1 0 
201-63-114-238.frsp.org 0 2 7657 
c953211e.virtua.com.br 0 2 45658 
187-26-194-205.3g.claro.net.br 2 7 591723 20090929211343
smtp.uniabc.br 0 1 7657 
201-28-114-34.customer.tdatabrasil.net.br 0 1 12773 
201-13-81-69.dsl.telesp.net.br 0 1 7657 
187-26-85-33.3g.claro.net.br 0 1 7657 
201-26-134-196.dial-up.telesp.net.br 0 3 22971 
187-26-94-71.3g.claro.net.br 0 1 7657 
201009145004.user.veloxzone.com.br 2 6 93020 20090918142327
189-19-36-2.dsl.telesp.net.br 0 2 7657 
201-43-95-160.dsl.telesp.net.br 0 8 0 
201-74-39-225-sa.cpe.vivax.com.br 2 8 635435 20090924060928
200-158-10-158.dsl.telesp.net.br 0 2 15314 
fgvsp.br 0 2 7657 
189-95-105-249.3g.claro.net.br 0 2 0 
162-148-220.directweb.com.br 0 1 7657 
201-74-10-43-sc.cpe.vivax.com.br 3 11 868830 20090923144126
static-208-80-193-41.as13448.com 1 1 1578 20090928054457
static-208-80-193-37.as13448.com 2 2 3156 20090929074504
static-208-80-195-44.as13448.com 1 1 1578 20090914041010
189.75.254.181 2 10 1174408 20090924055509
200-168-71-185.dsl.telesp.net.br 0 1 7657 
201-92-135-163.dsl.telesp.net.br 2 6 578950 20090929094705
201-92-96-247.dsl.telesp.net.br 0 14 0 
bb16b510.virtua.com.br 0 4 7657 
c93498bc.virtua.com.br 0 1 94547 
200-160-80-29.static-user.ajato.com.br 3 11 110319 20090909120613
200-155-169-182.static.spo.ifx.net.br 2 7 895145 20090915091910
201-1-151-134.dsl.telesp.net.br 3 8 286147 20090915210405
bd647c67.virtua.com.br 0 2 15314 
189-31-109-55.dsl.fnses700.brasiltelecom.net.br 2 6 560284 20090930022532
200.159.32.151 3 33 1447080 20090909051657
static-208-80-195-55.as13448.com 2 2 3156 20090916124717
189.100.85.209 0 1 7657 
201-93-202-115.dsl.telesp.net.br 0 2 0 
208.80.195.43 3 3 4734 20090911004823
39.144.70.222.broad.xw.sh.dynamic.163data.com.cn 0 1 386575 
189.120.67.99 2 11 560439 20090910132430
201-43-19-192.dsl.telesp.net.br 0 1 7657 
189-110-136-191.dsl.telesp.net.br 0 2 7657 
200-161-180-43.dsl.telesp.net.br 2 6 578950 20090929093511
187-3-142-60-sa.cpe.vivax.com.br 2 6 578950 20090919122721
201-26-115-42.dsl.telesp.net.br 0 2 7657 
host26.rodobens.com.br 2 7 1136528 20090915054427
189.27.4.193.dynamic.adsl.gvt.net.br 0 1 12773 
189.27.9.120.dynamic.adsl.gvt.net.br 0 1 12773 
201009198149.user.veloxzone.com.br 2 6 578950 20090925053853
189-46-131-54.dsl.telesp.net.br 0 6 0 
200.212.77.9 0 1 0 
bd78532d.virtua.com.br 0 1 7657 
adsl-99-4-76-105.dsl.pltn13.sbcglobal.net 1 1 1578 20090927205147
static-208-80-195-36.as13448.com 1 1 1578 20090903093944
189-19-142-107.dsl.telesp.net.br 2 6 578950 20090924065306
201-1-149-209.dsl.telesp.net.br 2 7 285796 20090917214033
187-3-135-242-sa.cpe.vivax.com.br 0 1 7657 
201.86.6.53.dynamic.adsl.gvt.net.br 1 3 18654 20090914175903
201009038064.user.veloxzone.com.br 2 6 578950 20090921120327
189-29-195-45-nd.cpe.vivax.com.br 2 6 578950 20090917092711
200.183.70.131 0 1 7657 
201-75-186-51-nd.cpe.vivax.com.br 2 6 578950 20090901112227
201-27-238-111.dsl.telesp.net.br 0 2 7657 
187-26-80-66.3g.claro.net.br 0 1 0 
200-148-81-35.dsl.telesp.net.br 2 6 578950 20090908203926
brtc-a0-0-0-373-ctame301.brasiltelecom.net.br 2 6 578950 20090914071008
216.104.15.138 1 1 1578 20090910125601
200-207-124-45.dsl.telesp.net.br 0 2 15314 
c9062949.virtua.com.br 0 14 22971 
c95324e7.virtua.com.br 0 1 32891 
static-208-80-195-54.as13448.com 2 2 3156 20090908214328
189.26.101.97.dynamic.adsl.gvt.net.br 0 1 7657 
189.121.8.191 0 6 15314 
200-207-66-165.dsl.telesp.net.br 0 1 0 
189-54-122-79-nd.cpe.vivax.com.br 0 1 7657 
187-3-198-114-sa.cpe.vivax.com.br 0 5 22971 
189-46-144-190.dsl.telesp.net.br 0 1 7657 
201-1-62-219.dsl.telesp.net.br 0 1 7657 
189-79-33-91.dsl.telesp.net.br 2 6 578950 20090910160204
201-1-144-158.dsl.telesp.net.br 3 17 2754206 20090901215530
200-171-41-42.dsl.telesp.net.br 0 1 7657 
201-26-68-112.dsl.telesp.net.br 0 1 7657 
static-208-80-193-31.as13448.com 2 2 3156 20090924020626
189.102.163.181 0 1 7657 
201-95-67-208.dsl.telesp.net.br 0 2 0 
201-26-113-188.dsl.telesp.net.br 0 1 7657 
200-158-58-6.dsl.telesp.net.br 0 1 7657 
static-208-80-193-40.as13448.com 3 3 4734 20090930033527
static-208-80-195-40.as13448.com 2 2 3156 20090914101207
201-42-13-218.dsl.telesp.net.br 0 1 0 
187-3-89-249-sa.cpe.vivax.com.br 0 3 22971 
201-43-34-58.dsl.telesp.net.br 0 1 0 
201009140054.user.veloxzone.com.br 1 3 18654 20090927163101
18777243141.telemar.net.br 2 6 578950 20090914054939
201-42-181-34.dsl.telesp.net.br 0 6 0 
bb16e222.virtua.com.br 1 1 1578 20090910162047
201-92-116-145.dsl.telesp.net.br 0 1 12773 
189-78-144-118.dsl.telesp.net.br 0 3 7657 
bd21524c.virtua.com.br 2 8 876679 20090921115320
189-110-196-108.dsl.telesp.net.br 2 6 578950 20090910130557
189-110-86-145.dsl.telesp.net.br 0 1 7657 
201.86.29.27.dynamic.adsl.gvt.net.br 0 1 229042 
200-206-164-224.speedyterra.com.br 0 2 297729 
201-43-62-42.dsl.telesp.net.br 2 6 578950 20090928051416
189-19-55-96.dsl.telesp.net.br 0 1 7657 
200-158-46-116.dsl.telesp.net.br 2 6 0 20090909175433
201-26-114-133.dsl.telesp.net.br 0 1 7657 
200-204-197-168.speedyterra.com.br 0 1 7657 
static-208-80-195-41.as13448.com 2 2 3156 20090902123316
189.38.20.36 0 1 7657 
187-3-65-109-sa.cpe.vivax.com.br 0 1 0 
200-207-91-82.dsl.telesp.net.br 0 6 15314 
187-3-67-144-sa.cpe.vivax.com.br 0 1 7657 
201-43-21-197.dsl.telesp.net.br 0 44 0 
201-43-95-102.dsl.telesp.net.br 0 3 0 
18741187190.user.veloxzone.com.br 1 3 18654 20090923085904
smtp.band.com.br 2 6 578950 20090923103447
rev-200-40-137-220.static.netgate.com.uy 0 1 392044 
201-75-150-182-sc.cpe.vivax.com.br 0 11 53599 
200-207-77-250.dsl.telesp.net.br 2 9 1291456 20090911104230
201.55.87.202 0 8 15314 
c953648e.virtua.com.br 0 1 7657 
189-46-121-107.dsl.telesp.net.br 2 7 1136528 20090908185440
201-43-97-51.dsl.telesp.net.br 0 15 0 
201-43-192-252.dsl.telesp.net.br 0 2 0 
mail.diarioregional.com.br 0 4 7657 
187-34-131-72.dsl.telesp.net.br 3 15 1134485 20090924125009
201-27-214-194.dsl.telesp.net.br 2 6 578950 20090915112015
187.37.137.148 0 1 7657 
189-46-6-171.dsl.telesp.net.br 1 1 1578 20090908145908
bd3e6b56.virtua.com.br 0 1 7657 
201-74-40-57-sa.cpe.vivax.com.br 0 2 7657 
static-208-80-193-39.as13448.com 1 1 1578 20090927035555
p50916c09.dip.t-dialin.net 0 1 386575 
static-208-80-193-29.as13448.com 2 2 3156 20090926214639
189-47-170-194.dsl.telesp.net.br 2 6 578950 20090924042231
bd214bed.virtua.com.br 2 14 2188620 20090901112453
200-102-60-80.fnsce702.dsl.brasiltelecom.net.br 2 6 578950 20090913173526
200-161-87-93.dsl.telesp.net.br 0 1 7657 
189-30-109-89.dsl.fnses700.brasiltelecom.net.br 2 6 578950 20090908060032
201-43-253-15.dsl.telesp.net.br 0 2 0 
187-3-128-225-sa.cpe.vivax.com.br 0 2 15314 
187.50.70.66 2 8 586607 20090917070815
static-208-80-195-50.as13448.com 3 3 4734 20090918160611
200.18.248.103 0 2 297729 
200-160-73-119.static-user.ajato.com.br 2 6 54558 20090908173511
189-78-110-13.dsl.telesp.net.br 0 15 15314 
c9067e55.static.spo.virtua.com.br 0 1 7657 
mx.bbcimoveis.com.br 3 15 2188620 20090911082708
187.37.141.129 0 1 12767 
oi-196.csn.com.br 0 1 229042 
189-19-222-2.dsl.telesp.net.br 0 2 7657 
187-3-126-208-sa.cpe.vivax.com.br 0 1 7657 
189-19-45-150.dsl.telesp.net.br 0 1 294706 
187-26-218-72.3g.claro.net.br 2 6 578950 20090913172355
static-208-80-195-46.as13448.com 3 3 4734 20090917080750
189-11-95-162.mganm702.dsl.brasiltelecom.net.br 2 6 254750 20090928141045
c906de90.virtua.com.br 0 2 52924 
189-47-232-9.dsl.telesp.net.br 0 1 7657 
189-69-175-43.dial-up.telesp.net.br 0 1 0 
200-207-88-172.speedyterra.com.br 0 2 7657 
200.18.248.102 1 4 305737 20090918150429
201009037241.user.veloxzone.com.br 3 7 580528 20090923160544
201-92-184-63.dsl.telesp.net.br 0 1 7657 
201-35-254-3.fnses700.dsl.brasiltelecom.net.br 1 3 18654 20090921063247
200.140.127.20 2 6 34118 20090928111441
srv.neoband.com.br 0 4 7657 
189-54-114-132-nd.cpe.vivax.com.br 0 1 7657 
200.160.20.205 2 6 578950 20090911132927
mail.habasit.com.br 2 134 624892 20090908105629
200-207-105-24.dsl.telesp.net.br 0 1 7657 
187-26-28-82.3g.claro.net.br 0 1 7657 
201-42-13-106.dsl.telesp.net.br 0 1 7657 
187.3.89.249 0 1 7657 
189.114.18.56.static.host.gvt.net.br 0 4 12773 
187-3-94-143-sa.cpe.vivax.com.br 0 2 7657 
200-171-162-6.dsl.telesp.net.br 0 1 7657 
187-3-49-28-sa.cpe.vivax.com.br 3 9 578950 20090909122118
252.50.134.219.broad.sz.gd.dynamic.163data.com.cn 1 1 1578 20090927202854
200-171-172-94.dsl.telesp.net.br 0 1 7657 
bb16b412.virtua.com.br 0 1 7657 
200-171-168-99.dsl.telesp.net.br 0 1 7657 
bb16ae35.virtua.com.br 1 1 1578 20090922030858
bd3e2d61.virtua.com.br 0 2 15314 
189-29-239-181-nd.cpe.vivax.com.br 3 7 165100 20090903195708
189-47-234-247.dsl.telesp.net.br 0 1 7657 
200-193-12-113.fnsce701.dsl.brasiltelecom.net.br 2 6 372362 20090927164546
189-69-174-165.dial-up.telesp.net.br 0 2 7657 
201-13-136-4.dial-up.telesp.net.br 0 32 0 
189-95-48-119.3g.claro.net.br 0 2 15314 
200.245.65.25 0 1 7657 
201-63-210-2.customer.tdatabrasil.net.br 0 3 102204 
200.165.160.42 0 1 229042 
201-75-184-127-nd.cpe.vivax.com.br 0 1 7657 
201009255201.user.veloxzone.com.br 2 6 578950 20090921060255
189-78-137-228.dsl.telesp.net.br 0 10 22971 
static-208-80-193-42.as13448.com 1 1 1578 20090923195953
189-19-91-189.dsl.telesp.net.br 0 10 45942 
189-29-153-76-nd.cpe.vivax.com.br 0 1 7657 
mlsrj200152101p044.static.mls.com.br 0 1 7657 
bb16e1c3.virtua.com.br 1 1 1578 20090908020204
189.100.84.120 0 2 15314 
200-207-88-118.speedycti.com.br 0 2 102204 
200-148-81-1.dsl.telesp.net.br 0 2 297729 
static-208-80-195-53.as13448.com 2 2 3156 20090918093740
189-19-219-74.dsl.telesp.net.br 0 1 0 
192.85.47.12 1 3 18654 20090921105106
mail.harty.com.br 0 1 44051 
201-92-111-113.dsl.telesp.net.br 0 6 15314 
200-171-161-96.dsl.telesp.net.br 0 6 22971 
189-78-97-195.dsl.telesp.net.br 0 1 7657 
201-26-115-138.dsl.telesp.net.br 0 1 0 
18714160228.user.veloxzone.com.br 2 6 578950 20090914050345
static-208-80-193-30.as13448.com 1 1 1578 20090919201742
201-27-145-116.dsl.telesp.net.br 0 1 7657 
www.timavo.com.br 0 1 7657 
201-27-164-122.dsl.telesp.net.br 0 3 0 
18741172135.user.veloxzone.com.br 0 1 229042 
189-54-114-141-nd.cpe.vivax.com.br 0 1 7657 
200-168-56-245.dsl.telesp.net.br 0 3 22971 
189-95-86-79.3g.claro.net.br 0 1 0 
201-27-75-90.dsl.telesp.net.br 0 2 297729 
187-4-220-6.fnses700.dsl.brasiltelecom.net.br 2 6 578950 20090929160656
187.22.182.119 0 1 0 
189.102.39.246 0 7 0 
189-55-234-101-nd.cpe.vivax.com.br 0 1 7657 
189-19-44-106.dsl.telesp.net.br 0 12 74178 
189-30-218-80.adsl.brasiltelecom.net.br 1 3 18654 20090911092424
119.145.13.225 1 5 577372 20090927202903
200-171-32-175.dsl.telesp.net.br 2 6 0 20090902180523
189-29-33-209-ac.cpe.vivax.com.br 1 3 18654 20090913112024
187-26-75-16.3g.claro.net.br 0 1 7657 
c91551eb.virtua.com.br 1 3 18654 20090924054915
200-19-92-58.mackenzie.br 2 8 594264 20090908110053
static-208-80-193-33.as13448.com 1 1 1578 20090921172718
189.186.204.68.cfl.res.rr.com 0 1 7657 
201-27-238-214.dsl.telesp.net.br 0 1 0 
18714006179.user.veloxzone.com.br 0 2 297729 
201.53.227.138 2 6 578950 20090909101924
20158024251.user.veloxzone.com.br 0 2 297729 
189.121.19.90 2 8 1144185 20090923122259
201-42-13-179.dsl.telesp.net.br 0 1 0 
200-206-220-174.dsl.telesp.net.br 0 1 0 
201009165167.user.veloxzone.com.br 2 6 578950 20090917191119
189-94-142-139.3g.claro.net.br 0 1 229042 
189.62.201.227 0 1 0 
201-68-120-232.dsl.telesp.net.br 0 3 0 
200-158-80-158.dsl.telesp.net.br 0 2 0 
189.102.54.63 0 1 7657 
200-207-67-91.dsl.telesp.net.br 0 1 0 
c906fbc5.virtua.com.br 0 41 168454 
189-19-245-50.dsl.telesp.net.br 0 1 15553 
201.90.217.130 0 2 7657 
200.162.128.146 0 1 7657 
conjunto.lunender.com.br 2 12 1397179 20090924064829
c906d9fb.virtua.com.br 0 2 15314 
187-26-193-98.3g.claro.net.br 2 7 895145 20090917053703
200-204-36-88.dsl.telesp.net.br 1 1 1578 20090901061106
static-208-80-195-121.as13448.com 2 2 3156 20090903181751
static-208-80-195-56.as13448.com 1 1 1578 20090915052659
189-78-110-228.dsl.telesp.net.br 0 3 0 
bd662e15.virtua.com.br 0 1 7657 
c9340c93.virtua.com.br 0 1 7657 
189.77.184.135 3 8 578950 20090929101811
c906dca0.virtua.com.br 0 3 22971 
189-110-48-58.dsl.telesp.net.br 0 1 7657 
201-27-149-189.dsl.telesp.net.br 0 2 15314 
201-27-179-32.dsl.telesp.net.br 0 1 7657 
s200-189-188-173.ipb.diveo.net.br 0 2 15314 
201-95-109-42.dsl.telesp.net.br 0 3 0 
201.87.91.219 0 1 7657 
201-92-247-74.dsl.telesp.net.br 0 9 68913 
mail.paranapanema.com.br 0 1 33205 
201-3-221-118.fnsce701.dsl.brasiltelecom.net.br 4 8 578950 20090928070150
189-54-105-7-nd.cpe.vivax.com.br 2 6 578950 20090904074942
18912131191.user.veloxzone.com.br 0 1 7657 
187-26-30-7.3g.claro.net.br 0 1 0 
s200-189-165-173.ipb.diveo.net.br 2 6 232678 20090921105023
189.127.138.132 2 7 1136528 20090902060039
201-13-83-214.dsl.telesp.net.br 3 10 0 20090907191122
189.38.218.124.user.ajato.com.br 1 1 5495178 20090924122133
189-47-140-176.dsl.telesp.net.br 0 108 22971 
189-55-69-53-nd.cpe.vivax.com.br 1 1 1578 20090916220234
bd07594e.virtua.com.br 0 1 7657 
211.42.215.92 0 1 229042 
200.162.63.140 2 16 1415316 20090904082022
189-19-206-110.dsl.telesp.net.br 0 1 7657 
sls-gb15p2.dca2.superb.net 1 1 0 20090928201514
200-204-147-95.dsl.telesp.net.br 0 1 12773 
200-206-224-217.dsl.telesp.net.br 2 14 1558477 20090917093222
189-54-220-115-nd.cpe.vivax.com.br 0 2 7657 
189.121.178.82 0 8 0 
static-208-80-195-39.as13448.com 1 1 1578 20090904125458
static-208-80-193-26.as13448.com 4 4 6312 20090930094201
189-68-178-215.dsl.telesp.net.br 0 2 15314 
189.62.109.154 0 1 7657 
102.246.119.189.isp.timbrasil.com.br 1 3 18654 20090930113311
static-208-80-193-34.as13448.com 1 1 1578 20090926020859
c906facf.virtua.com.br 0 1 7657 
200-207-87-235.speedyterra.com.br 0 1 7657 
bd65c3bc.virtua.com.br 2 6 578950 20090911070024
189-20-184-210.customer.tdatabrasil.net.br 2 8 1155114 20090901124912
bd21c977.virtua.com.br 2 8 594264 20090902125532
201-42-221-11.dsl.telesp.net.br 0 6 0 
201-27-236-166.dsl.telesp.net.br 0 1 0 
201-0-161-41.dial-up.telesp.net.br 0 1 7657 
c9069191.static.virtua.com.br 0 4 15314 
189.114.207.185.dynamic.adsl.gvt.net.br 3 7 578950 20090911174103
200-148-82-15.dsl.telesp.net.br 0 1 7657 
187.7.9.185 2 6 578950 20090922200125
189-30-125-71.dsl.fnses700.brasiltelecom.net.br 2 10 1230774 20090912184614
189-19-253-10.dsl.telesp.net.br 0 1 7657 
189-55-13-128-nd.cpe.vivax.com.br 2 2 3156 20090924134656
189-19-212-64.dsl.telesp.net.br 0 1 7657 
200.135.6.170 2 6 578950 20090917065801
201009231244.user.veloxzone.com.br 4 11 1127412 20090921085034
c950d9ca.virtua.com.br 0 1 7657 
200.162.5.50 0 2 7657 
187-9-75-26.customer.tdatabrasil.net.br 0 1 7657 
201-234-238.static.impsat.net.ve 0 1 12765 
189-18-233-168.dsl.telesp.net.br 0 1 7657 
mobile-032-161-228-082.mycingular.net 0 1 7657 
201-74-46-12-sa.cpe.vivax.com.br 0 1 7657 
static-208-80-195-45.as13448.com 1 1 1578 20090910050446
200.162.132.231 0 36 252681 
18983053098.user.veloxzone.com.br 2 10 1249845 20090902074625
c9531e0b.virtua.com.br 0 3 27973 
187-26-83-79.3g.claro.net.br 0 1 7657 
bd663a11.virtua.com.br 0 1 0 
201-93-143-146.dsl.telesp.net.br 0 1 7657 
189.26.73.247.dynamic.adsl.gvt.net.br 2 9 1161535 20090929115708
201-63-22-82.customer.tdatabrasil.net.br 0 25 1007661 
201009073011.user.veloxzone.com.br 2 6 115358 20090914113054
201-13-138-32.dial-up.telesp.net.br 0 3 0 
201009131174.user.veloxzone.com.br 2 6 578950 20090917051432
201-74-33-132-sa.cpe.vivax.com.br 0 1 7657 
200-207-1-165.dsl.telesp.net.br 0 1 7657 
static-208-80-193-28.as13448.com 1 1 1578 20090919124026
5.221.34.95.customer.cdi.no 1 1 1578 20090921122203
150.70.84.43 1 1 1578 20090911064929
201008098161.user.veloxzone.com.br 3 9 578950 20090909161833
201-34-143-54.fnses700.e.brasiltelecom.net.br 2 6 578950 20090916113136
189-95-10-221.3g.claro.net.br 0 2 15314 
18741237030.user.veloxzone.com.br 2 6 578950 20090924101618
200-207-69-184.dsl.telesp.net.br 0 1 0 
187.3.156.206 0 3 0 
201009021196.user.veloxzone.com.br 2 6 578950 20090923115538
static-208-80-195-30.as13448.com 3 3 4734 20090917141929
END_VISITOR

# Date - Pages - Hits - Bandwidth - Visits
BEGIN_DAY 30
20090901 32 276 10997024 12
20090902 26 169 3205297 9
20090903 21 141 1839470 6
20090904 20 137 2028940 6
20090905 2 4 10813 2
20090906 2 2 3156 2
20090907 5 13 10813 3
20090908 58 188 5172299 14
20090909 31 197 4733755 10
20090910 32 186 5690612 10
20090911 37 202 10263869 15
20090912 4 13 1241587 3
20090913 7 18 1192483 5
20090914 28 124 3700426 12
20090915 76 262 10903228 10
20090916 28 135 6911571 11
20090917 42 172 8999067 15
20090918 26 145 4039537 7
20090919 4 10 811148 3
20090920 2 4 300885 2
20090921 37 119 4688804 14
20090922 36 163 9795455 7
20090923 43 200 11191653 14
20090924 37 140 14138610 16
20090925 11 64 1318436 5
20090926 2 7 18470 2
20090927 8 19 974700 7
20090928 59 185 3153653 12
20090929 34 146 5858363 13
20090930 29 140 7683524 9
END_DAY

# Session range - Number of visits
BEGIN_SESSION 7
1h+ 20
5mn-15mn 13
30s-2mn 16
2mn-5mn 4
15mn-30mn 8
0s-30s 179
30mn-1h 16
END_SESSION

# URL - Pages - Bandwidth - Entry - Exit
# The 10 first Pages must be first (order not required for others)
BEGIN_SIDER 10
/ 317 366096 211 81
/site.html 276 270970 5 127
/webmail/ 138 31239 36 39
/iesa/hot_700.html 21 21105 0 3
/iesa/ 12 16630 1 0
/alpha/site.html 4 3759 0 1
/clips/07/clips_07.html 4 16408 0 3
/alpha/ 3 5100 2 0
/helsten/an_helsten.rar 2 5813942 1 2
/iesa/jornal_final.zip 2 253276 0 0
END_SIDER
