AWSTATS DATA FILE 6.4 (build 1.814)
# If you remove this file, all statistics for date 2013-03 will be lost/reset.

# Position (offset in bytes) in this file of beginning of each section for
# direct I/O access. If you made changes somewhere in this file, you should
# also remove completely the MAP section (AWStats will rewrite it at next
# update).
BEGIN_MAP 27
POS_GENERAL 1865                
POS_TIME 2547                
POS_VISITOR 12928               
POS_DAY 54944               
POS_DOMAIN 3389                
POS_LOGIN 3861                
POS_ROBOT 4016                
POS_WORMS 4486                
POS_EMAILSENDER 4617                
POS_EMAILRECEIVER 4760                
POS_SESSION 55819               
POS_SIDER 56021               
POS_FILETYPES 4895                
POS_OS 5025                
POS_BROWSER 5148                
POS_SCREENSIZE 5587                
POS_UNKNOWNREFERER 5661                
POS_UNKNOWNREFERERBROWSER 6751                
POS_ORIGIN 7002                
POS_SEREFERRALS 7145                
POS_PAGEREFS 7313                
POS_SEARCHWORDS 11646               
POS_KEYWORDS 12090               
POS_MISC 2210                
POS_ERRORS 12391               
POS_CLUSTER 3717                
POS_SIDER_404 12514               
END_MAP

# LastLine    = Date of last record processed - Last record line number in last log - Last record offset in last log - Last record signature value
# FirstTime   = Date of first visit for history file
# LastTime    = Date of last visit for history file
# LastUpdate  = Date of last update - Nb of parsed records - Nb of parsed old records - Nb of parsed new records - Nb of parsed corrupted - Nb of parsed dropped
# TotalVisits = Number of visits
# TotalUnique = Number of unique visitors
# MonthHostsKnown   = Number of hosts known
# MonthHostsUnKnown = Number of hosts unknown
BEGIN_GENERAL 8
LastLine 20130401014030 25306 6410552 37181428120
FirstTime 20130301014458
LastTime 20130331170519
LastUpdate 20130401042433 17 0 16 0 0
TotalVisits 301                 
TotalUnique 248                 
MonthHostsKnown 833                 
MonthHostsUnknown 110                 
END_GENERAL

# Misc ID - Pages - Hits - Bandwidth
BEGIN_MISC 10
QuickTimeSupport 0 0 0
JavaEnabled 0 0 0
JavascriptDisabled 0 0 0
PDFSupport 0 0 0
WindowsMediaPlayerSupport 0 0 0
AddToFavourites 0 24 0
RealPlayerSupport 0 0 0
TotalMisc 0 0 0
DirectorSupport 0 0 0
FlashSupport 0 0 0
END_MISC

# Hour - Pages - Hits - Bandwidth - Not viewed Pages - Not viewed Hits - Not viewed Bandwidth
BEGIN_TIME 24
0 3 7 258403 7 8 128673
1 8 24 4289331 10 14 209163
2 7 80 8781076 13 15 123673
3 19 284 23991151 11 12 6312
4 24 542 54862787 8 12 106190
5 36 655 35875839 11 16 271805
6 36 674 40326261 14 21 843669
7 39 672 33201233 17 20 302430
8 21 526 21965310 14 18 217512
9 25 587 54530096 21 31 577693
10 27 606 47705595 13 17 283867
11 30 576 26061020 23 37 898711
12 31 646 56474188 16 24 613151
13 26 876 37621020 17 34 748709
14 22 416 15635962 9 21 581900
15 26 218 4436751 14 18 990446
16 20 103 7013987 16 26 597451
17 9 100 4040985 11 13 255105
18 12 76 1861750 14 25 1583097
19 6 27 1057023 12 18 5078499
20 16 32 899189 13 21 2109630
21 5 16 769679 13 20 328326
22 7 10 11457 13 14 432179
23 3 11 597327 8 8 3156
END_TIME

# Domain - Pages - Hits - Bandwidth
# The 10 first Pages must be first (order not required for others)
BEGIN_DOMAIN 17
br 284 7017 393575065
com 77 149 18236494
ip 52 450 49961346
net 21 105 1280960
mx 8 8 12624
lt 5 5 7890
sjdc 4 9 7398308
de 3 3 4871
ua 1 1 1578
ch 1 3 3697006
pt 0 2 297729
tr 0 2 67869
jp 0 1 236174
org 0 3 3696294
pl 1 1 1578
ar 0 2 94628
iad1 1 3 3697006
END_DOMAIN

# Cluster ID - Pages - Hits - Bandwidth
BEGIN_CLUSTER 0
END_CLUSTER

# Login - Pages - Hits - Bandwidth - Last visit
# The 10 first Pages must be first (order not required for others)
BEGIN_LOGIN 0
END_LOGIN

# Robot ID - Hits - Bandwidth - Last visit - Hits on robots.txt
# The 10 first Hits must be first (order not required for others)
BEGIN_ROBOT 10
googlebot 136 13387731 20130331193951 0
python 10 340964 20130327094033 0
baiduspider 10 1715 20130330121111 0
robot 10 9468 20130325185237 0
msnbot 7 75905 20130329020341 0
yandex 6 9468 20130318120318 0
surveybot 3 4734 20130325031144 0
legs 3 4734 20130331062046 0
ia_archiver 1 1578 20130323220505 0
netcraft 1 1578 20130308184801 0
END_ROBOT

# Worm ID - Hits - Bandwidth - Last visit
# The 5 first Hits must be first (order not required for others)
BEGIN_WORMS 0
END_WORMS

# EMail - Hits - Bandwidth - Last visit
# The 20 first Hits must be first (order not required for others)
BEGIN_EMAILSENDER 0
END_EMAILSENDER

# EMail - Hits - Bandwidth - Last visit
# The 20 first hits must be first (order not required for others)
BEGIN_EMAILRECEIVER 0
END_EMAILRECEIVER

# Files type - Hits - Bandwidth - Bandwidth without compression - Bandwidth after compression
BEGIN_FILETYPES 4
html 458 701749 0 0
js 211 208624 0 0
jpg 6859 82758339 0 0
swf 236 398598708 0 0
END_FILETYPES

# OS ID - Hits
BEGIN_OS 8
winxp 1510
winlong 97
winnt 5676
symbian 2
linux 71
macosx 316
win2003 1
Unknown 91
END_OS

# Browser ID - Hits
BEGIN_BROWSER 29
msie6.0 77
firefox20.0 9
firefox3.0.7 2
firefox3.6 1
firefox17.0 6
opera 3
firefox18.0 5
firefox4.0 3
lynx 5
firefox7.0.1 1
firefox12.0 2
firefox3.5.3 4
lotus\-notes 2
msie8.0 166
firefox13.0.1 3
mozilla 367
firefox14.0.1 11
msie7.0 5934
firefox16.0 3
firefox5.0.1 1
msie10.0 13
firefox9.0.1 1
firefox3.6.3 3
msie9.0 216
firefox19.0 113
firefox8.0.1 4
Unknown 6
firefox11.0 12
safari 791
END_BROWSER

# Screen size - Hits
BEGIN_SCREENSIZE 0
END_SCREENSIZE

# Unknown referer OS - Last visit date
BEGIN_UNKNOWNREFERER 14
Mozilla/5.0_(compatible;_MJ12bot/v1.4.3;_http://www.majestic12.co.uk/bot.php?_) 20130331170519
GbPlugin 20130308045435
Mozilla/5.0_(compatible;_SiteExplorer/1.0b;__http://siteexplorer.info/) 20130324081812
Mozilla/5.0_(compatible;_MSIE_9.0;_Windows_Phone_OS_7.5;_Trident/5.0;_IEMobile/9.0;_SAMSUNG;_SGH-i677) 20130317063304
Lynx/2.8.5rel.1_libwww-FM/2.15FC_SSL-MM/1.4.1c_OpenSSL/0.9.7e-dev 20130320153524
EventMachine_HttpClient 20130322095514
Mozilla/5.0_(compatible;_WBSearchBot/1.1;__http://www.warebay.com/bot.html) 20130324155108
- 20130331140831
Mozilla/5.0_(compatible;_Ezooms/1.0;_ezooms.bot@gmail.com) 20130317170125
facebookexternalhit/1.1_(_http://www.facebook.com/externalhit_uatext.php) 20130302131838
Mozilla/5.0_(compatible;_bingbot/2.0;__http://www.bing.com/bingbot.htm) 20130331015757
Mozilla/4.0_(compatible;) 20130329034211
Mozilla/4.0_(compatible;_Synapse) 20130324201459
Mozilla/5.0_(compatible;_SearchmetricsBot;_http://www.searchmetrics.com/en/searchmetrics-bot/) 20130316221003
END_UNKNOWNREFERER

# Unknown referer Browser - Last visit date
BEGIN_UNKNOWNREFERERBROWSER 4
- 20130331140831
facebookexternalhit/1.1_(_http://www.facebook.com/externalhit_uatext.php) 20130302131838
GbPlugin 20130308045435
EventMachine_HttpClient 20130322095514
END_UNKNOWNREFERERBROWSER

# Origin - Pages - Hits 
BEGIN_ORIGIN 6
From0 308 6696
From1 0 0
From2 42 44
From3 22 281
From4 86 743
From5 0 0
END_ORIGIN

# Search engine referers ID - Pages - Hits
BEGIN_SEREFERRALS 2
google 37 38
search 5 6
END_SEREFERRALS

# External page referers - Pages - Hits
# The 10 first Pages must be first (order not required for others)
BEGIN_PAGEREFS 75
http://www.griffestands.com.br 3 3
http://www.easyfor.com.br/site.swf 3 3
http://www.ferpak.com.br 3 3
http://www.feirasdobrasil.com.br/2013/expositoresdobrasil_lista.asp 2 2
http://www.atsblindados.com.br/site.swf 2 2
http://www.atsblindados.com.br/site.html 2 2
http://www.facebook.com/l.php 1 1
http://webmail.notguilty.com.br 1 1
http://mail.uol.com.br/main/message 1 11
http://mail.terra.com.br/105.0trr/reademail.php 1 35
http://webmail.sbu.org.br/ultramail/main.php 0 1
http://mail.rainbowid.com.br/webmail.php 0 2
http://gscomunicacao.blogspot.com.br 0 22
http://gscomunicacao.blogspot.com.br/2012/06/habibs-ragazzo-loja-box-30-abf-2012.html 0 11
http://mail.batori.com.br 0 2
http://gscomunicacao.blogspot.com.ar/2010/06/o-grupo-bimbo-do-brasil-e-sucesso-na.html 0 2
http://br-mg5.mail.yahoo.com/neo/launch 0 10
http://by172w.bay172.mail.live.com/mail/InboxLight.aspx 0 1
http://gscomunicacao.blogspot.com/2012/07/box-30-habibs-ragazzo-sucesso-em-campos.html 0 2
http://mail.terra.com.br/mail/index.php 0 2
http://gscomunicacao.blogspot.com.br/2009/06/anuncio-de-revista-para-helsten.html 0 4
http://webmail.bcef.com.br 0 2
http://gscomunicacao.blogspot.com.br/2011/02/santiago-e-cintra-na-mundo-geo-connect.html 0 2
http://gscomunicacao.blogspot.com.br/2010/01/sebo-o-leitor.html 0 5
http://mail.mailig.ig.com.br/mail/ 0 1
http://webmail.woopybrasil.com 0 2
http://gscomunicacao.blogspot.com.br/2009/05/vestibular-de-moda-fefisa.html 0 2
http://gscomunicacao.blogspot.com.br/2013/03/gs-vence-concorrencia-do-grupo-santiago.html 0 2
http://gscomunicacao.blogspot.com.br/2012/10/box-30-habibs-ragazzo-na-abf-rio-de.html 0 12
http://gscomunicacao.blogspot.com.br/2011/05/easy-for-e-sucesso-na-cards-2011.html 0 2
http://gscomunicacao.blogspot.com.br/2013/02/trident-e-tdb-sucesso-garantido-ciosp.html 0 4
http://vm05/zimbra/ 0 2
http://consultoraimaginarium.blogspot.com.br 0 1
http://webmail.brinox.com.br/zimbra/ 0 2
http://webmail.inec.org.br 0 2
http://webmail.cardapioitalia.com.br:32000/webmail/ 0 2
http://gscomunicacao.blogspot.com.br/2012/02/nanno-na-hair-brasil-2012.html 0 2
http://mail.globo.com/mail/ 0 2
http://gscomunicacao.blogspot.com.br/2009/08/anuncio-eb-blindados.html 0 2
http://mail.gscomunicacao.com.br/Main/frmCompose.aspx 0 16
http://webmail.wastecmaquinas.com.br 0 4
http://br.mg3.mail.yahoo.com/neo/launch 0 2
http://br-mg6.mail.yahoo.com/neo/launch 0 3
http://webmail.onda.com.br/atmail/reademail.php 0 4
http://by170w.bay170.mail.live.com/default.aspx 0 1
http://mail.portoriogrande.com.br/zimbra/ 1 9
http://webmail.masespanol.com.br/cgi-bin/webmailView.cgi 0 3
http://gscomunicacao.blogspot.com.br/2012/07/box-30-habibs-ragazzo-sucesso-em-campos.html 0 14
http://webmail.draftz.com.br 0 2
http://beta.locamail.com.br 0 2
http://gscomunicacao.blogspot.pt/2012/06/habibs-ragazzo-loja-box-30-abf-2012.html 0 2
http://webmail.italiancoffee.com.br 0 2
http://gscomunicacao.blogspot.com.br/2009_05_01_archive.html 0 2
http://webmail.vbtec.com.br/webmail.php 0 2
http://gscomunicacao.blogspot.com.br/2010/11/prol.html 0 2
http://pop.modamercatto.com.br/zimbra/ 0 2
http://gscomunicacao.blogspot.de/2012/10/box-30-habibs-ragazzo-na-abf-rio-de.html 0 2
http://webmail.italinoxmetais.com.br/mod_perl/inmail.pl 0 2
http://gscomunicacao.blogspot.com.br/2011/02/imagens-stand-trident-2011.html 0 2
http://mail.terra.com.br/105.0trr/sendmail.php 0 2
http://mail.gscomunicacao.com.br/Main/frmMessage.aspx 0 2
http://webmail.grupoprotorque.com.br/105.0trr/reademail.php 0 2
http://webmail.jhm.com.br 0 2
http://sn134w.snt134.mail.live.com/mail/InboxLight.aspx 0 2
http://gscomunicacao.blogspot.com.br/2010/04/rotary-club.html 0 4
http://evuln.com/tools/malware-scanner/www.gscomunicacao.com.br/ 1 1
http://mail.terra.com.br/105.0trr/compose.php 0 2
http://sensualimport.com.br:2095/3rdparty/roundcube/ 0 2
http://sameid.net/domain/www.gscomunicacao.com.br/ 1 1
http://gscomunicacao.blogspot.com.br/2011/05/gross-cargo-na-intermodal-2011.html 0 2
http://10.1.1.250/zimbra/ 0 2
http://webmail.digirati.com.br/ultramail/main.php 0 2
http://webmail.jbnegrini.com.br/webmail.php 0 2
http://exchange.ferrarinet.com.br/owa/ 0 2
http://webmail.portatti.com/webmail/ 0 2
END_PAGEREFS

# Search keyphrases - Number of search
# The 10 first number of search must be first (order not required for others)
BEGIN_SEARCHWORDS 11
gs+comunica%c3%a7%c3%a3o 13
web 3
gs+comunica%c3%a7%c3%b5es 2
www.gscomunicacao.com.br 1
www.gscomunicacao.com.br+80 1
gs+communica%c3%a7ao 1
www.gs+comunica%c3%a7%c3%a3o.com.br 1
http+//gscomunicacao.com.br/ 1
gscomonica%c3%87%c3%83o+.com 1
gs+comunicacao 1
gs+comunica%c3%a7%c3%a3o+site 1
END_SEARCHWORDS

# Search keywords - Number of search
# The 10 first number of search must be first (order not required for others)
BEGIN_KEYWORDS 15
gs 18
comunica%c3%a7%c3%a3o 14
web 3
www.gscomunicacao.com.br 2
comunica%c3%a7%c3%b5es 2
80 1
.com 1
//gscomunicacao.com.br/ 1
www.gs 1
communica%c3%a7ao 1
comunicacao 1
site 1
http 1
gscomonica%c3%87%c3%83o 1
comunica%c3%a7%c3%a3o.com.br 1
END_KEYWORDS

# Errors - Hits - Bandwidth
BEGIN_ERRORS 4
206 76 3442292
405 1 328
301 31 10852
404 168 0
END_ERRORS

# URL with 404 errors - Hits - Last URL referer
BEGIN_SIDER_404 3
/apple-touch-icon-precomposed.png 2 -
/wp-login.php 1 http://www.gscomunicacao.com.br/
/robots.txt 165 -
END_SIDER_404

# Host - Pages - Hits - Bandwidth - Last visit date - [Start date of last visit] - [Last page of last visit]
# [Start date of last visit] and [Last page of last visit] are saved only if session is not finished
# The 10 first Hits must be first (order not required for others)
BEGIN_VISITOR 943
msnbot-157-55-33-253.search.msn.com 10 10 15780 20130310074714
kuka-roboter.com.br.static.gvt.net.br 8 18 744602 20130307091244
dsl-189-132-141-17-dyn.prod-infinitum.com.mx 8 8 12624 20130324201459
189.115.24.193.stat.gvt.net.br 7 22 4574187 20130325073936
cl-78-158-11-226.fastlink.lt 5 5 7890 20130320153524
189-11-189-65.dsl.fnsce703.brasiltelecom.net.br 5 13 513650 20130305070126
189-109-24-162.customer.tdatabrasil.net.br 5 42 410642 20130312064536
msnbot-157-55-32-237.search.msn.com 5 5 7890 20130326205625
200.178.208.249 5 14 4677435 20130312075842
177-177-232-19.user.veloxzone.com.br 4 10 259543 20130311051918
189.72.79.105 1 9 3900613 20130319045700
201-11-76-252.jvece7004.e.brasiltelecom.net.br 0 4 135738 
186.213.180.140.static.host.gvt.net.br 0 2 67869 
c951421f.virtua.com.br 0 7 34744 
ec2-107-22-13-152.compute-1.amazonaws.com 1 1 1578 20130307005646
c90641dd.virtua.com.br 0 2 67869 
mpollo170.static.host.gvt.net.br 0 16 135738 
189-38-254-159.static-corp.ajato.com.br 0 11 67869 
mx2.indumak.com.br 0 4 135738 
mail.reitz.com.br 0 14 135738 
200.183.157.210 2 7 287091 20130305031109
200-171-184-204.dsl.telesp.net.br 0 353 34744 
187-121-85-232.corp.ajato.com.br 3 33 4561385 20130301065342
177.18.223.250.static.host.gvt.net.br 3 17 6018899 20130321080136
177.133.220.12.dynamic.adsl.gvt.net.br 0 12 0 
baded467.virtua.com.br 0 4 135738 
187-8-21-106.customer.tdatabrasil.net.br 0 32 322328 
179-165-55-117.user.vivozap.com.br 0 3 0 
tractebelenergia-s3-2-0-1-3-2-3-0-gacc02.fns.embratel.net.br 1 1 1578 20130301053753
201-51-9-214.user.veloxzone.com.br 0 2 67869 
ip-177-61-61-17.user.vivozap.com.br 0 1 34744 
189-19-223-150.dsl.telesp.net.br 0 2 67869 
msnbot-131-253-24-64.search.msn.com 1 1 1578 20130321050656
189-57-38-114.customer.tdatabrasil.net.br 0 2 69488 
200-204-162-49.dsl.telesp.net.br 2 6 256825 20130301134356
c95139ac.virtua.com.br 0 4 67869 
187-11-215-136.dsl.telesp.net.br 0 2 67869 
200.198.136.106 0 2 67869 
b121a146.virtua.com.br 0 1 34744 
b18f6e07.virtua.com.br 0 16 339345 
186-201-172-44.customer.tdatabrasil.net.br 1 6 7459163 20130305123138
baddaea5.virtua.com.br 0 2 67869 
201-95-211-101.dsl.telesp.net.br 0 1 34744 
bd053206.virtua.com.br 0 14 203607 
189.26.26.89.dynamic.adsl.gvt.net.br 0 2 67869 
177-59-93-180.3g.claro.net.br 0 2 67869 
10-137-10-177.static.bluephone.com.br 0 2 67869 
bd3feb66.virtua.com.br 3 6 22950 20130327040553
189-38-242-30.static-corp.ajato.com.br 0 2 67869 
bd3e44bd.virtua.com.br 0 4 67869 
177.97.239.dynamic.adsl.gvt.net.br 0 7 341328 
189-19-141-64.dsl.telesp.net.br 0 2 67869 
201.81.119.214 0 2 67869 
c9344afe.virtua.com.br 0 2 297729 
186.235.96.94 0 2 67869 
bb034776.virtua.com.br 0 54 938088 
b1503994.virtua.com.br 0 1 34744 
200.166.188.194 0 4 101875 
201.87.18.44.user.ajato.com.br 0 34 195247 
217.111.64.3 0 2 67869 
mail.bras.com.br 0 2 67869 
c9529477.virtua.com.br 1 15 3697006 20130328124156
187-11-235-8.dsl.telesp.net.br 0 3 118562 
187-101-71-205.dsl.telesp.net.br 0 3 104232 
201-27-11-29.dsl.telesp.net.br 0 2 67869 
189-72-104-3.fnsce704.e.brasiltelecom.net.br 1 3 18654 20130308092728
arke.static.gvt.net.br 0 2 67869 
187-7-36-134.fnsce704.e.brasiltelecom.net.br 0 2 59055 
static.5-9-7-208.clients.your-server.de 1 1 1578 20130310152542
wrls-cnp-184-33.rpo.convex.com.br 0 4 0 
177.97.236.dynamic.adsl.gvt.net.br 0 1 3023 
187-121-43-177.user.ajato.com.br 0 1 12767 
177-103-228-235.dsl.telesp.net.br 1 13 3764875 20130306023613
b18cf4f6.virtua.com.br 0 2 67869 
201-51-52-132.user.veloxzone.com.br 0 4 135738 
177-103-192-166.dsl.telesp.net.br 3 9 3953831 20130325125036
187-74-128-57.dsl.telesp.net.br 0 1 34744 
bb266106.virtua.com.br 0 1 91982 
b150fb75.virtua.com.br 0 1 34744 
router-3.tvnet.if.ua 1 1 1578 20130304135406
tvc.tv178.static.host.gvt.net.br 1 3 18654 20130304151333
177.159.243.162.dynamic.adsl.gvt.net.br 1 3 3697006 20130317122758
177.16.222.9.static.host.gvt.net.br 3 9 3953831 20130306074623
187-34-80-169.dsl.telesp.net.br 0 2 67869 
b18c4067.virtua.com.br 0 2 67869 
179.174.195.200.static.copel.net 0 1 68530 
msnbot-157-56-92-164.search.msn.com 2 2 3156 20130315102349
65.49.14.71 2 6 256825 20130302050845
201-9-255-75.user.veloxzone.com.br 0 2 0 
msnbot-65-55-217-242.search.msn.com 0 2 15608 
bd36f43e.virtua.com.br 0 2 67869 
187-121-89-253.corp.ajato.com.br 0 2 0 
ec2-107-22-7-16.compute-1.amazonaws.com 1 1 1578 20130322095514
dslb-178-011-227-060.pools.arcor-ip.net 1 1 1578 20130331170519
200-158-84-25.dsl.telesp.net.br 0 2 67869 
bb03391f.virtua.com.br 0 4 69488 
b1515e68.virtua.com.br 0 26 34744 
177.133.216.96.dynamic.adsl.gvt.net.br 0 4 0 
201-35-215-238.fnsce703.dsl.brasiltelecom.net.br 2 6 256825 20130312062423
177-139-156-99.dsl.telesp.net.br 0 2 67869 
c9528e2d.virtua.com.br 0 2 67869 
ks206121.kimsufi.com 1 1 1578 20130328174649
202.46.62.30 1 1 1578 20130321115928
187-56-50-244.dsl.telesp.net.br 0 2 66250 
201-26-255-97.dsl.telesp.net.br 0 1 3023 
b1503244.virtua.com.br 0 2 297729 
186-210-023-165.xd-dynamic.ctbcnetsuper.com.br 0 2 67869 
186-210-222-154.xd-dynamic.ctbcnetsuper.com.br 0 2 67869 
bacc1296.virtua.com.br 0 2 67869 
bd6418b1.virtua.com.br 0 6 67869 
c9117648.virtua.com.br 0 2 297729 
189-19-207-70.dsl.telesp.net.br 0 4 67869 
122-147-252-5.static.sparqnet.net 0 1 33125 
177.126.0.210 0 2 67869 
bd21f0f8.virtua.com.br 0 2 297729 
201-95-53-115.dsl.telesp.net.br 0 4 93043 
187.115.25.24.static.gvt.net.br 0 3 100994 
bd21ddb6.virtua.com.br 2 18 634520 20130315112433
186-193-226-74.dedicated.cti.com.br 0 2 67869 
177-102-218-18.dsl.telesp.net.br 0 1 34744 
msnbot-65-55-52-114.search.msn.com 2 2 1578 20130323021444
187-8-232-154.customer.tdatabrasil.net.br 0 10 203607 
bd36b46f.virtua.com.br 0 1 34744 
189-69-42-76.dsl.telesp.net.br 1 3 3697006 20130319160515
b18df455.virtua.com.br 0 2 67869 
200.160.149.18 0 2 67869 
mail.clamper.com.br 0 6 0 
177.133.176.162.dynamic.adsl.gvt.net.br 0 2 67869 
adimarco.dh.com.br 0 2 67869 
201-91-135-34.clark.com.br 0 2 67869 
200.146.78.93.static.gvt.net.br 0 3 100994 
201-68-20-121.dsl.telesp.net.br 0 2 67869 
177.43.7.95.static.host.gvt.net.br 3 16 256825 20130305090412
smtp-gw.urano.com.br 0 2 67869 
187-10-26-32.dsl.telesp.net.br 0 8 67869 
bb033347.virtua.com.br 0 3 104232 
bb2792ec.virtua.com.br 0 2 0 
ip-177-77-3-230.user.vivozap.com.br 1 4 70587 20130313204657
187-34-202-225.dsl.telesp.net.br 0 1 0 
201-13-57-153.dsl.telesp.net.br 0 2 297729 
189.2.180.113 0 7 104232 
200-161-59-113.dsl.telesp.net.br 0 4 67869 
atenaonline.com.br 0 6 203607 
badc8e7d.virtua.com.br 2 13 401426 20130315113201
187-94-232-6.asbyte.com.br 0 4 67869 
177-169-80-203.user.vivozap.com.br 2 6 256825 20130319004802
c9534252.virtua.com.br 0 2 67869 
msnbot-131-253-24-76.search.msn.com 1 1 1578 20130321020452
187-24-87-165.3g.claro.net.br 0 2 67869 
177.29.60.166 0 2 32566 
187-93-67-10.customer.tdatabrasil.net.br 0 79 1236670 
177.111.229.139 0 2 67869 
189.58.248.19 0 2 67869 
bd78dad5.virtua.com.br 0 2 0 
189-47-137-216.dsl.telesp.net.br 0 6 67869 
server.florestal.com 1 4 3697006 20130312072002
c9348cb8.virtua.com.br 2 5 21372 20130303182759
201-23-162-65.gprs.claro.net.br 0 2 50128 
mail.mitutoyo.com.br 0 8 135738 
gatec10.static.host.gvt.net.br 0 4 138976 
bb256866.virtua.com.br 0 2 67869 
b150eebe.virtua.com.br 0 6 0 
187-11-169-117.dsl.telesp.net.br 0 2 67869 
189-111-136-219.dsl.telesp.net.br 1 51 3968482 20130321060453
206.228.222.38 0 1 34744 
bb687045.virtua.com.br 0 4 67869 
brma.centroprojekt-brasil.com.br 0 2 67869 
201-14-38-180.ctame705.dsl.brasiltelecom.net.br 0 2 67869 
187-93-133-170.customer.tdatabrasil.net.br 0 1 33125 
201-0-202-229.dial-up.telesp.net.br 1 24 3935357 20130301043504
email.alcrisa.com.br 1 11 3832744 20130312040153
bb25e76c.virtua.com.br 0 2 67869 
187-52-158-6.jvece702.e.brasiltelecom.net.br 0 2 51526 
d-ip22-170.cti.com.br 0 1 33125 
corporativo.gvt.net.br 0 2 297729 
c937ec90.virtua.com.br 0 2 67869 
75.grupoartelecom.com.br 0 7 135738 
bd3df740.virtua.com.br 1 6 3765878 20130306095423
portoriogrande106.static.host.gvt.net.br 1 11 4039292 20130305093046
200-158-226-161.dsl.telesp.net.br 0 2 67869 
bb033930.virtua.com.br 0 41 0 
119.63.193.132 1 1 1578 20130321160519
bd1d2b9d.virtua.com.br 0 4 135738 
189-20-244-9.customer.tdatabrasil.net.br 1 5 3764875 20130313042908
ispkon.kone.com.br 0 2 67869 
12.208.167.242 0 1 34744 
187-121-81-158.corp.ajato.com.br 0 4 135738 
186-210-179-221.xd-dynamic.ctbcnetsuper.com.br 0 8 135738 
187.115.125.69.static.gvt.net.br 0 2 67869 
nipro170.static.gvt.net.br 0 6 0 
177.99.149.dynamic.adsl.gvt.net.br 0 3 136399 
201-58-16-42.user.veloxzone.com.br 0 2 0 
177-189-208-44.dsl.telesp.net.br 0 12 0 
187.115.154.31.static.gvt.net.br 0 10 135738 
92.138.195.200.static.copel.net 0 2 67869 
177-139-152-254.dsl.telesp.net.br 0 2 67869 
s200-189-173-149.ipb.diveo.net.br 0 4 135738 
179.187.65.189.isp.timbrasil.com.br 0 2 67869 
37.1.207.114 1 1 1578 20130325170936
ftp.attps.com.br 0 2 25534 
186.236.73.46.nipbr.com 1 4 30801 20130311103739
201-048-179-025.static.ctbc.com.br 0 76 208464 
189-46-203-129.dsl.telesp.net.br 2 6 256825 20130311193235
187.103.253.58 0 6 203607 
bb02b49a.virtua.com.br 2 6 120258 20130324012358
177.16.126.32.static.host.gvt.net.br 2 6 256825 20130313062829
201-19-175-9.user.veloxzone.com.br 0 1 33125 
pool-74-111-23-38.syrcny.fios.verizon.net 1 1 1578 20130319163317
b18d5ec1.virtua.com.br 1 19 3900613 20130307055400
189-47-82-38.dsl.telesp.net.br 0 2 67869 
b123c86a.virtua.com.br 1 5 3764875 20130321043559
201-23-160-171.gprs.claro.net.br 0 2 67869 
177-103-187-33.dsl.telesp.net.br 0 2 67869 
wtp-g3-maya6.sjdc 2 4 3698721 20130312103034
187.82.46.239 0 1 34744 
177.156.252.18.dynamic.adsl.gvt.net.br 0 2 67869 
bb6a70a4.virtua.com.br 0 2 69488 
177.134.153.75.dynamic.adsl.gvt.net.br 0 2 67869 
201-54-232-194-dns-bre.linktel.net.br 0 2 67869 
c9535967.virtua.com.br 0 2 67869 
177-103-176-14.dsl.telesp.net.br 0 10 135738 
bd645615.virtua.com.br 0 1 34744 
sharepoint.attps.com.br 0 21 254675 
201-95-128-219.dsl.telesp.net.br 0 2 67869 
189-31-80-58.fnsce702.dsl.brasiltelecom.net.br 1 3 18654 20130323165044
187-072-238-179.static.ctbctelecom.com.br 0 2 25318 
host31-53-183-181.range31-53.btcentralplus.com 1 1 1578 20130313154628
bacc910f.virtua.com.br 0 1 34744 
gate1.ip2.net.br 0 15 271476 
badc94dc.virtua.com.br 0 2 67869 
177.205.66.57.dynamic.adsl.gvt.net.br 0 2 297729 
200.212.245.60 1 9 3764875 20130322124015
177.72.112.41 0 13 182510 
bd3e06fa.virtua.com.br 0 2 67869 
badc8341.virtua.com.br 0 6 203607 
177.3.141.34 2 7 492278 20130328082313
pg-cin-px7.pg.com 0 3 0 
bd3e8ed1.virtua.com.br 0 2 67869 
bd785157.virtua.com.br 0 2 67869 
mail.tecmaes.com.br 1 5 69584 20130305120148
bb033923.virtua.com.br 0 24 0 
189-106-83-174.user.veloxzone.com.br 0 2 67869 
55.27.116.189.isp.timbrasil.com.br 0 2 67869 
200-185-231-156.user.ajato.com.br 0 2 67869 
189-82-110-252.user.veloxzone.com.br 0 2 67869 
bb41f619.virtua.com.br 0 4 135738 
2.67.116.189.isp.timbrasil.com.br 0 2 67869 
177.133.135.157.dynamic.adsl.gvt.net.br 0 20 100994 
201-79-19-51.user.veloxzone.com.br 1 21 3832744 20130306101121
bb14ce2d.virtua.com.br 0 27 67869 
c95217d8.virtua.com.br 0 6 67869 
69.58.178.58 1 1 1578 20130321144109
mvx-187-102-162-146.mundivox.com 0 2 67869 
201.67.210.119 3 6 22950 20130309182345
201-79-25-237.user.veloxzone.com.br 0 2 0 
ks380405.kimsufi.com 3 3 4734 20130325173528
mail.habasit.com.br 0 7 34744 
187-121-27-157.user.ajato.com.br 3 12 4058063 20130327115359
msnbot-157-56-92-160.search.msn.com 4 4 6860 20130324222711
189-78-89-253.dsl.telesp.net.br 0 1 34744 
badc9e53.virtua.com.br 0 10 67869 
bb257529.virtua.com.br 0 2 67869 
c953a1c6.virtua.com.br 0 2 67869 
187-7-40-105.fnses700.dsl.brasiltelecom.net.br 3 7 81962 20130318103058
kraftfoods90.static.gvt.net.br 0 105 486416 
186-228-6-31.ded.intelignet.com.br 0 4 93187 
srv2.acovisa.com.br 0 2 67869 
187-69-30-255.3g.claro.net.br 0 2 67869 
201.56.26.146 0 2 117551 
bd220f34.virtua.com.br 1 7 3697006 20130306054947
178.33.178.14 1 1 1578 20130303044037
200.251.64.130 0 4 67869 
201-0-208-188.dial-up.telesp.net.br 2 13 6111583 20130313103240
189-31-93-50.fnses700.dsl.brasiltelecom.net.br 2 7 492278 20130330152211
177.18.109.212.static.host.gvt.net.br 0 2 67869 
177-9-182-165.dsl.telesp.net.br 0 1 34744 
187-35-145-161.dsl.telesp.net.br 0 2 67869 
201-13-204-126.dial-up.telesp.net.br 0 2 67869 
189.2.139.130 0 4 67869 
mail2.terraviva.agr.br 2 6 256825 20130328030645
msnbot-157-55-33-181.search.msn.com 2 2 3156 20130331015757
187-1-233-233.user.vivozap.com.br 0 2 67869 
as28165-187-62-210-202.wcs.net.br 0 8 67869 
mvx-177-124-195-106.mundivox.com 0 13 34744 
187-16-229-174.certelnet.com.br 0 2 67869 
bb687592.virtua.com.br 0 2 67869 
187.17.175.25 0 2 67869 
badc267f.virtua.com.br 0 4 67869 
200-232-63-98.customer.tdatabrasil.net.br 0 4 135738 
bb16c6ef.virtua.com.br 1 3 3697006 20130325040139
187-35-145-208.dsl.telesp.net.br 0 4 67869 
177-102-102-115.dsl.telesp.net.br 3 9 256825 20130316014418
187.108.40.82 0 2 67869 
hosted-by.buyurl.net 2 2 3156 20130310122212
201-69-21-124.dial-up.telesp.net.br 0 4 135738 
083143141012.warszawa.vectranet.pl 1 1 1578 20130328171344
114.77.150.200.static.copel.net 0 2 67869 
210.129-254.106.199.200.telemar.net.br 0 2 67869 
177.96.176.226.dynamic.adsl.gvt.net.br 0 1 0 
ip-177-25-141-46.user.vivozap.com.br 0 2 67869 
201.56.198.226 0 2 67869 
200-233-168-144.xf-static.ctbcnetsuper.com.br 0 4 135738 
b18e04e3.virtua.com.br 0 2 67869 
bd36d1f2.virtua.com.br 0 44 136399 
187-10-13-25.dsl.telesp.net.br 0 2 297729 
c94b9986.virtua.com.br 0 2 67869 
187-70-106-105.3g.claro.net.br 0 2 0 
bd641298.virtua.com.br 1 3 3697006 20130314124623
bacc34c4.virtua.com.br 0 2 67869 
8.33.29.177.isp.timbrasil.com.br 0 1 34744 
bd78a536.virtua.com.br 1 17 3832744 20130306052735
as28165-200-229-231-74.wcs.net.br 0 2 67869 
acenet137.acenet.com.br 0 2 67869 
smtp.snd.com.br 0 2 67869 
187-072-184-125.static.ctbctelecom.com.br 1 4 70587 20130323035048
host-177-52-250-61.ipwave.com.br 0 6 203607 
ip-187-119-85-49.user.vivozap.com.br 0 1 34744 
193.169.204.11 0 4 135738 
201-27-7-102.dsl.telesp.net.br 0 2 67869 
b15028ca.virtua.com.br 0 1 34744 
187-52-252-35.3g.brasiltelecom.net.br 2 5 21372 20130305153928
ip-177-63-92-21.user.vivozap.com.br 0 2 67869 
66.249.82.182 0 2 297729 
201005092078.userdial.telemar.net.br 1 9 3697006 20130315113150
189-11-108-52.ctaje701.dsl.brasiltelecom.net.br 0 2 67869 
b18db95c.virtua.com.br 0 4 67869 
189-69-222-74.dial-up.telesp.net.br 0 1 34744 
177-103-186-53.dsl.telesp.net.br 0 2 67869 
189-041-246-095.xdsl-dinamico.ctbcnetsuper.com.br 0 2 297729 
187-10-176-67.dsl.telesp.net.br 0 2 297729 
ns1.toledobrasil.com.br 0 4 135738 
b120cd29.virtua.com.br 0 6 67869 
206.228.220.38 0 1 34744 
200-171-180-222.dsl.telesp.net.br 4 14 3866263 20130304055630
host-213-131-41-98-customer.wanex.net 1 1 0 20130319151808
179-244-37-178.user.vivozap.com.br 0 1 34744 
bb03115b.virtua.com.br 0 1 34744 
c9502446.virtua.com.br 0 2 67869 
186-209-34-242.netturbointernet.net.br 0 2 67869 
8-3-231-201.fibertel.com.ar 0 2 94628 
ip-177-27-51-169.user.vivozap.com.br 0 1 0 
187-101-168-162.dsl.telesp.net.br 0 2 67869 
189.33.221.182 0 2 67869 
189-19-248-88.dsl.telesp.net.br 0 2 67869 
187-122-106-218.cpebre.viaembratel.net.br 0 6 69488 
200-185-230-132.user.ajato.com.br 0 4 67869 
200-168-212-122.customer.tdatabrasil.net.br 0 2 67869 
187-27-245-44.3g.claro.net.br 0 6 0 
173.193.205.248-static.reverse.softlayer.com 1 1 1578 20130309111501
bb14cba4.virtua.com.br 0 2 67869 
187-5-140-141.ccoce700.e.brasiltelecom.net.br 0 2 67869 
201-42-167-49.dsl.telesp.net.br 0 6 135738 
200-161-97-252.dsl.telesp.net.br 0 4 104232 
b1533ce8.virtua.com.br 0 2 67869 
177-139-146-64.dsl.telesp.net.br 2 6 256825 20130316050327
bb430de8.virtua.com.br 0 6 67869 
186.213.102.140.static.host.gvt.net.br 0 2 137060 
mvx-201-76-186-190.mundivox.com 0 2 297729 
201.90.106.194 3 11 4196052 20130301123059
187-11-125-210.dsl.telesp.net.br 0 2 297729 
msnbot-65-55-211-199.search.msn.com 1 1 1578 20130301014458
186.214.27.207.dynamic.adsl.gvt.net.br 0 2 67869 
b1215d1d.virtua.com.br 0 1 34744 
177.159.78.84.dynamic.adsl.gvt.net.br 0 1 0 
b18d44a6.virtua.com.br 0 4 135738 
157.55.131.216 0 11 449756 
177.166.78.73 0 1 34744 
c9346913.virtua.com.br 0 2 67869 
187-25-157-140.3g.claro.net.br 0 2 67869 
177-139-190-106.dsl.telesp.net.br 0 3 136399 
177-68-57-56.dsl.telesp.net.br 0 2 67869 
177.219.56.239 0 2 67869 
badc25e1.virtua.com.br 0 1 34744 
201.20.212.215.user.ajato.com.br 1 3 3697006 20130306104034
177.42.139.213.static.host.gvt.net.br 0 2 67869 
bd67ab13.virtua.com.br 0 16 138976 
santiagoecintra58.static.gvt.net.br 0 3 34744 
177.97.156.dynamic.adsl.gvt.net.br 0 1 68530 
179-160-150-147.user.vivozap.com.br 0 2 67869 
b18de96d.virtua.com.br 0 68 405013 
200.217.247.250 0 2 67869 
mail1.rodcar.com.br 0 2 67869 
ip-189-98-235-179.user.vivozap.com.br 2 6 256825 20130328192053
189-19-40-5.dsl.telesp.net.br 0 4 135738 
multi.imap.com.br 1 5 3764875 20130325134607
202.46.57.63 1 1 1578 20130321160420
201.23.93.42.dedicated.neoviatelecom.com.br 0 2 67869 
msnbot-157-56-93-49.search.msn.com 1 1 1715 20130326163640
65.55.143.25 0 1 34744 
177.19.230.39.static.gvt.net.br 0 8 67869 
201.81.66.31 0 1 34744 
as28165-187-62-214-130.wcs.net.br 0 4 118168 
16.219.186.114.static.nqt.com.br 0 4 113459 
187-126-23-7.user.veloxzone.com.br 1 5 3764875 20130306062516
187-072-151-230.static.ctbctelecom.com.br 0 4 135738 
187-48-62-130.ded.intelignet.com.br 1 14 4067857 20130307051743
200-185-249-67.user.ajato.com.br 0 6 67869 
bd36afec.virtua.com.br 0 6 135738 
c9519420.virtua.com.br 0 2 67869 
189-31-77-224.fnses700.dsl.brasiltelecom.net.br 0 2 67869 
177-103-229-165.dsl.telesp.net.br 0 1 34744 
177-163-47-247.user.vivozap.com.br 0 2 69488 
b151399b.virtua.com.br 0 1 34744 
mail.brinox.com.br 0 2 67869 
186-225-11-226.formatto.net 0 6 67869 
189-039-019-135.static.spo.ctbc.com.br 0 2 67869 
189-69-131-67.dial-up.telesp.net.br 0 1 34744 
201-24-97-129.fnsce703.dsl.brasiltelecom.net.br 4 13 619179 20130309124433
bd076ac6.virtua.com.br 0 2 67869 
201-27-85-32.dsl.telesp.net.br 1 7 3764875 20130301122729
201-29-198-117.user.veloxzone.com.br 0 2 67869 
b18d44c9.virtua.com.br 1 7 3807929 20130311123714
bacfe3e1.virtua.com.br 0 2 67869 
200-153-229-142.dsl.telesp.net.br 1 6 3765878 20130305124436
200-158-147-21.dsl.telesp.net.br 0 2 137060 
183.62.46.83 0 2 67869 
189.22.52.155 1 7 1453572 20130326132024
179-172-156-129.user.vivozap.com.br 0 2 67869 
200-215-12-194.fnsce302.ipd.brasiltelecom.net.br 0 4 101875 
bb6b4c42.virtua.com.br 0 2 297729 
msnbot-157-55-33-47.search.msn.com 1 1 1715 20130310100715
189-111-174-127.dsl.telesp.net.br 0 5 139128 
201-23-162-112.gprs.claro.net.br 0 2 67869 
bd795482.virtua.com.br 0 2 67869 
187-95-181-41.vianet.net.br 0 2 67869 
189-18-245-14.dsl.telesp.net.br 0 2 67869 
baram116.static.gvt.net.br 0 14 135738 
mail1.sondaengineering.com 0 12 67869 
200.175.81.109.dynamic.adsl.gvt.net.br 0 2 67869 
c94a6918.virtua.com.br 0 4 67869 
187-9-13-90.customer.tdatabrasil.net.br 0 6 67869 
200-161-109-169.dsl.telesp.net.br 0 8 203607 
msnbot-157-56-93-193.search.msn.com 4 4 6312 20130319114047
b18d93ca.virtua.com.br 0 2 67869 
187-11-51-132.dsl.telesp.net.br 0 1 68530 
201-35-255-221.fnses700.dsl.brasiltelecom.net.br 3 10 305799 20130324075620
189-31-109-140.dsl.fnses700.brasiltelecom.net.br 3 9 3953831 20130330075720
msnbot-65-55-210-250.search.msn.com 1 1 1578 20130315102355
bb0318f4.virtua.com.br 0 2 297729 
roma.tramontina.net 0 2 67869 
65.55.157.154 0 7 243208 
b12e8708.dynamic.spo.dsl.tesa.net.br 0 6 135738 
186.197.205.189 0 2 43478 
200-148-27-158.dsl.telesp.net.br 0 6 135738 
211.100.47.131 1 1 1578 20130319151811
201-23-162-82.gprs.claro.net.br 0 2 47403 
164.41.18.190 2 6 256825 20130320121348
210-59-251-36.hinet-ip.hinet.net 0 3 102613 
mail3.dnautomacao.com.br 0 8 93259 
ip-177-26-53-139.user.vivozap.com.br 0 2 67869 
187-11-136-223.dsl.telesp.net.br 0 2 67869 
189-73-123-135.jvece702.dsl.brasiltelecom.net.br 0 2 0 
bb2661f4.virtua.com.br 1 52 3936679 20130306092110
ns.attps.com.br 0 2 25534 
177.97.154.dynamic.adsl.gvt.net.br 3 9 3839952 20130306091241
200-168-7-103.dsl.telesp.net.br 1 34 4040295 20130315103107
google-proxy-66-249-82-222.google.com 0 8 1190916 
189-25-122-185.user.veloxzone.com.br 0 2 67869 
b15066e9.virtua.com.br 0 4 67869 
179-227-36-98.user.vivozap.com.br 0 2 32806 
177.72.37.23 1 9 3900613 20130312135005
177-139-160-30.dsl.telesp.net.br 0 4 67869 
187-35-124-242.dsl.telesp.net.br 2 14 7459163 20130318095416
187-35-141-21.dsl.telesp.net.br 0 410 69488 
187-56-167-93.dsl.telesp.net.br 0 4 135738 
b18d9d97.virtua.com.br 0 2 67869 
201-95-136-150.dsl.telesp.net.br 0 1 34744 
186.214.26.139.dynamic.adsl.gvt.net.br 0 1 0 
p3nlhg1046.shr.prod.phx3.secureserver.net 2 2 3156 20130331140831
201-2-132-172.smace700.dsl.brasiltelecom.net.br 0 2 67869 
bb022910.virtua.com.br 1 16 3834066 20130304062453
187-75-164-22.dsl.telesp.net.br 0 4 135738 
bb6a33c7.virtua.com.br 0 4 135738 
200.146.84.238.static.gvt.net.br 1 5 3697006 20130301043317
giraffas.static.gvt.net.br 0 15 205226 
189-19-240-211.dsl.telesp.net.br 0 2 67869 
fortimail.vilaporto.com 2 6 256825 20130304123604
187-4-193-141.fnses700.e.brasiltelecom.net.br 2 6 33686 20130309045642
b18cacc2.virtua.com.br 0 12 69488 
r242-pw-iratim.ibys.com.br 0 2 67869 
187-69-137-186.3g.claro.net.br 0 1 34744 
badc5033.virtua.com.br 0 2 69488 
206.228.220.37 0 1 34744 
xxxdnn1316.locaweb.com.br 0 2 67869 
c91590b1.virtua.com.br 0 13 0 
97.26.179.207.virtela.net 0 50 34744 
201-19-182-103.user.veloxzone.com.br 0 2 67869 
sr.srembalagens.com.br 0 2 67869 
bd791614.virtua.com.br 1 11 3764875 20130320041015
189-25-230-231.user.veloxzone.com.br 0 2 297729 
189-112-060-033.static.ctbctelecom.com.br 0 22 374089 
bd36abbe.virtua.com.br 0 2 67869 
201-27-231-134.dsl.telesp.net.br 0 2 67869 
201-79-239-193.user.veloxzone.com.br 0 2 297729 
201.56.36.3 4 31 755239 20130321073525
c951d7d0.virtua.com.br 0 1 294706 
187.115.52.87.static.gvt.net.br 1 49 3901274 20130304084008
199.231.236.252 0 2 67869 
bb033a0a.virtua.com.br 0 25 138976 
189.115.16.29.static.host.gvt.net.br 2 6 86318 20130328154132
177-069-032-050.static.ctbctelecom.com.br 0 6 436752 
177.157.149.222.dynamic.adsl.gvt.net.br 4 10 3972639 20130327070051
b120de84.virtua.com.br 0 120 272798 
bb034566.virtua.com.br 0 2 69488 
186.212.80.242.static.host.gvt.net.br 0 28 135738 
177.18.223.12.static.host.gvt.net.br 0 1 34744 
200-161-81-144.dsl.telesp.net.br 0 2 0 
177.42.24.125.static.host.gvt.net.br 1 3 3697006 20130326135836
177.156.83.164.dynamic.adsl.gvt.net.br 0 8 67869 
177.97.120.dynamic.adsl.gvt.net.br 0 2 67869 
mx.centenario.com.br 0 2 67869 
sksfc.sakura.com.br 0 2 34744 
189-039-012-041.static.spo.ctbc.com.br 0 1 34744 
bb680165.virtua.com.br 0 22 67869 
189-38-252-45.static-corp.ajato.com.br 0 2 67869 
177.97.139.dynamic.adsl.gvt.net.br 0 2 67869 
189.51.2.70 1 9 3900613 20130304092027
bb03871d.virtua.com.br 0 2 297729 
201-27-5-140.dsl.telesp.net.br 0 2 69488 
177-185-051-081.turbosp.com.br 2 6 256825 20130328064102
b151920a.virtua.com.br 0 14 135738 
187.52.95.8 0 2 67869 
b1b4c21d.virtua.com.br 1 6 4242235 20130305085226
badcac9b.virtua.com.br 0 2 67869 
b1206c90.virtua.com.br 0 1 34744 
187.51.66.218 1 7 3764875 20130311035355
65.55.183.185 0 17 584172 
201-67-127-214.pvoce702.dsl.brasiltelecom.net.br 0 2 297729 
bd64fd52.virtua.com.br 0 4 67869 
200.149.25.106 0 2 67869 
iad1-wtp-gd-maya6.sdi.trendnet.org 0 3 3696294 
c94a09ee.virtua.com.br 0 2 67869 
201-34-141-10.fnsce704.e.brasiltelecom.net.br 0 4 135738 
115.154.125.189.static.impsat.net.br 2 10 428678 20130313132500
187-11-52-144.dsl.telesp.net.br 0 1 40282 
201.31.172.194 0 2 67869 
mx2.trapp.com.br 1 3 3697006 20130304095641
b18df86a.virtua.com.br 0 1 12767 
us194px01-pat.tycoelectronics.net 0 1 34744 
177.97.122.dynamic.adsl.gvt.net.br 0 1 68530 
201.23.118.205.dedicated.neoviatelecom.com.br 0 8 67869 
201-58-76-72.user.veloxzone.com.br 0 2 0 
b121b603.virtua.com.br 2 6 189756 20130305113027
177-103-186-129.dsl.telesp.net.br 0 12 200610 
bb25eeef.virtua.com.br 1 4 3698009 20130305100149
177.157.146.170.dynamic.adsl.gvt.net.br 1 3 18654 20130315080606
mail.plastwal.com.br 0 4 135738 
187-57-163-52.dsl.telesp.net.br 1 3 3697006 20130305143848
bb6a3d22.virtua.com.br 0 2 67869 
177.43.213.212.static.gvt.net.br 2 8 7461881 20130312102809
b18e91e2.virtua.com.br 0 2 69488 
187-34-124-190.dsl.telesp.net.br 0 4 136399 
badc84da.virtua.com.br 0 1 34744 
201.31.248.40 0 2 67869 
177.19.198.34.static.gvt.net.br 0 2 67869 
177-139-224-32.dsl.telesp.net.br 0 2 67869 
189-78-218-52.dsl.telesp.net.br 0 2 67869 
187-56-4-253.dsl.telesp.net.br 1 16 2309438 20130313064458
150-70-172-241.trendmicro.com 0 1 236174 
173.192.235.226-static.reverse.softlayer.com 1 1 1578 20130324081812
189-48-216-4.user.veloxzone.com.br 0 2 67869 
177-0-239-20.fnses700.dsl.brasiltelecom.net.br 2 6 256825 20130329133622
189.2.225.180 0 3 86491 
c9115d34.virtua.com.br 0 3 136399 
9.191.254.186.isp.timbrasil.com.br 0 2 67869 
201.81.87.209 0 2 67869 
static.121.0.9.176.clients.your-server.de 2 2 3293 20130316221003
187-34-158-88.dsl.telesp.net.br 0 6 67869 
bacc3f01.virtua.com.br 0 2 67869 
187.113.195.95.static.host.gvt.net.br 0 4 135738 
187-75-226-78.dsl.telesp.net.br 0 2 67869 
ns4.bettanin.com.br 0 2 34744 
186-209-57-85.netturbointernet.net.br 0 2 67869 
b12039d9.virtua.com.br 4 13 3965978 20130313085736
msnbot-157-56-92-149.search.msn.com 1 1 1715 20130314075444
endian.refrimate.com.br 0 2 67869 
bd7938fc.virtua.com.br 0 3 0 
189-73-91-101.fnses700.e.brasiltelecom.net.br 1 4 30801 20130309141025
202.46.55.59 1 1 1578 20130329075436
201-58-36-241.user.veloxzone.com.br 0 2 67869 
229.n9.netell.net.br 0 4 135738 
75.186.28.177.isp.timbrasil.com.br 0 2 67869 
189-79-42-198.dsl.telesp.net.br 0 4 67869 
187.112.180.245.static.host.gvt.net.br 0 2 67869 
179-164-8-102.user.vivozap.com.br 0 2 67869 
bd368c10.virtua.com.br 2 6 256825 20130318065946
186.213.100.203.static.host.gvt.net.br 1 3 3697006 20130304111058
c90631f7.virtua.com.br 0 1 34744 
201-14-169-165.fnses700.dsl.brasiltelecom.net.br 3 10 308703 20130321163910
189-79-54-10.dsl.telesp.net.br 0 2 67869 
200-181-84-245.bsace705.dsl.brasiltelecom.net.br 0 2 67869 
bd640550.virtua.com.br 0 2 297729 
msnbot-157-56-92-176.search.msn.com 4 4 6860 20130327163802
177.133.217.93.dynamic.adsl.gvt.net.br 0 8 0 
bb6ac7c1.virtua.com.br 0 4 67869 
177.16.139.54.static.host.gvt.net.br 0 6 34744 
c950c379.virtua.com.br 0 2 67869 
201.44.151.133 1 3 3697006 20130318134231
65.55.227.217 0 2 67869 
187.112.245.50.static.host.gvt.net.br 0 2 67869 
200.174.10.130 0 6 67869 
bb038466.virtua.com.br 0 1 34744 
201.12.110.90 1 7 154392 20130314135201
200.220.135.34.nipcable.com 3 11 3970907 20130315073805
201-68-252-142.dsl.telesp.net.br 0 2 67869 
c94a9828.virtua.com.br 0 8 67869 
201-43-254-13.dsl.telesp.net.br 0 4 69488 
ip-27-208-241-80.static.contabo.net 4 4 6449 20130309102736
187.54.128.75 0 2 67869 
201-92-149-143.dsl.telesp.net.br 2 7 492999 20130302234024
b151437d.virtua.com.br 0 10 135738 
200-138-214-99.fnsce702.dsl.brasiltelecom.net.br 2 6 256825 20130303164620
189-111-94-125.dsl.telesp.net.br 0 3 80456 
bacc4782.virtua.com.br 0 6 0 
c906e479.virtua.com.br 0 1 34744 
ip-177-60-33-48.user.vivozap.com.br 0 2 67869 
b1202abe.virtua.com.br 0 7 104232 
177-68-77-129.dsl.telesp.net.br 0 2 67869 
200.210.101.117 0 2 67869 
cnc.schuler.com.br 0 1 34744 
201-24-124-103.fnsce703.dsl.brasiltelecom.net.br 2 6 256825 20130322075025
177.151.208.84 0 2 67869 
187.33.32.90 0 2 48812 
bd79ba37.virtua.com.br 0 6 67869 
b151e0a2.virtua.com.br 1 20 4377679 20130314090215
bb030bbf.virtua.com.br 0 2 69488 
bd66b6b4.virtua.com.br 0 2 67869 
189-47-135-65.dsl.telesp.net.br 0 2 67869 
bb268623.virtua.com.br 0 2 67869 
b1b4dbcf.virtua.com.br 0 4 135738 
us194px00-pat.tycoelectronics.net 0 1 68530 
b1b4d90e.virtua.com.br 0 2 297729 
b18d1a56.virtua.com.br 0 2 67869 
186.224.184.129 0 2 67869 
c952cb96.virtua.com.br 0 2 67869 
200.250.103.150 0 2 0 
89-145-108-206.as29017.net 3 4 39889 20130321153522
177.17.126.17.static.host.gvt.net.br 0 11 194936 
65.55.39.110 0 2 67869 
bd64fb36.virtua.com.br 0 8 0 
msnbot-157-55-35-38.search.msn.com 3 4 240598 20130316184451
bb42745f.virtua.com.br 0 2 67869 
c915a7c0.virtua.com.br 0 8 0 
189-107-233-234.user.veloxzone.com.br 0 3 592435 
177-139-182-150.dsl.telesp.net.br 0 1 34744 
189-44-168-154.customer.tdatabrasil.net.br 0 2 48894 
187-7-10-143.fnses700.dsl.brasiltelecom.net.br 2 6 256825 20130316172256
177-102-219-7.dsl.telesp.net.br 0 1 34744 
ip-177-77-120-136.user.vivozap.com.br 0 10 67869 
189-30-86-79.fnsce703.dsl.brasiltelecom.net.br 2 6 256825 20130308150648
187.112.136.18.static.host.gvt.net.br 0 1 34744 
201.54.5.26.dedicated.neoviatelecom.com.br 0 4 135738 
201-0-213-131.dial-up.telesp.net.br 0 1 34744 
189.115.80.116.static.host.gvt.net.br 0 2 64696 
bade2b4a.virtua.com.br 1 4 30801 20130328050705
bd78edb7.virtua.com.br 0 2 0 
189.115.161.189.static.gvt.net.br 0 10 135738 
bd647859.virtua.com.br 0 2 0 
189-72-114-178.fnses700.dsl.brasiltelecom.net.br 1 3 18654 20130302143733
b1b6baf1.virtua.com.br 0 2 67869 
201-23-159-86.sercomtel.com.br 0 2 297729 
195.3.145.46 1 1 1578 20130324201435
b18d4e91.virtua.com.br 0 3 0 
200-102-59-28.fnsce702.dsl.brasiltelecom.net.br 2 6 256825 20130306152646
bb25c290.virtua.com.br 0 18 0 
bd787221.virtua.com.br 0 7 0 
189.2.157.114 0 7 69488 
177.216.92.152 0 2 58680 
150-70-172-125.trendmicro.com 3 5 7393584 20130321031051
ip33.itau.com.br 3 7 258403 20130318110918
189-111-142-99.dsl.telesp.net.br 0 6 125523 
177.97.237.dynamic.adsl.gvt.net.br 2 11 690953 20130319084009
bacca488.virtua.com.br 0 4 135738 
189-110-31-126.dsl.telesp.net.br 0 1 34744 
189-19-42-150.dsl.telesp.net.br 0 2 67869 
187-68-42-113.3g.claro.net.br 0 1 34744 
201-95-183-43.dsl.telesp.net.br 1 3 3697006 20130313013305
liauhotels.static.gvt.net.br 3 30 181854 20130322142901
173.225.17.50 1 1 1578 20130326094102
201-51-61-120.user.veloxzone.com.br 0 2 67869 
50.22.199.170-static.reverse.softlayer.com 1 1 1578 20130301200519
b1513cfe.virtua.com.br 1 6 3765878 20130314103609
34.113.150.200.static.copel.net 0 4 67869 
189-78-160-196.dsl.telesp.net.br 0 3 34744 
177-069-225-113.static.ctbctelecom.com.br 0 2 67869 
177.133.164.235.dynamic.adsl.gvt.net.br 1 8 3901274 20130320085551
189-111-172-210.dsl.telesp.net.br 1 9 3832744 20130319131759
bd3e101a.virtua.com.br 0 2 67869 
www.attps.com.br 0 42 508587 
b150b31e.virtua.com.br 0 2 34744 
177.134.213.9.dynamic.adsl.gvt.net.br 3 11 3970907 20130314110243
bb028960.virtua.com.br 0 2 67869 
200-206-172-33.dsl.telesp.net.br 0 2 297729 
c951d6ac.virtua.com.br 0 4 67869 
189-25-88-40.user.veloxzone.com.br 0 6 203607 
187-34-80-61.dsl.telesp.net.br 0 2 67869 
177.167.147.7 0 2 24238 
177.49.100.165 0 2 67869 
189-109-217-74.customer.tdatabrasil.net.br 0 1 0 
177.18.182.64.static.host.gvt.net.br 1 9 3764875 20130312134147
189.22.57.180 0 4 135738 
189-31-110-195.fnses700.dsl.brasiltelecom.net.br 2 6 47114 20130313182442
177-169-9-161.user.vivozap.com.br 0 1 34744 
189.51.4.18 0 6 135738 
b1506086.virtua.com.br 0 1 34744 
badcad8b.virtua.com.br 0 4 0 
b18d45a1.virtua.com.br 0 8 135738 
177.96.11.240.dynamic.adsl.gvt.net.br 2 6 125522 20130301154329
p11193-ipngn201yosida.nagano.ocn.ne.jp 0 1 236174 
189-93-126-220.3g.claro.net.br 0 2 67869 
200-168-46-41.dsl.telesp.net.br 0 4 67869 
b120aa47.virtua.com.br 0 2 0 
177.19.224.7.static.gvt.net.br 0 22 69488 
187-24-133-184.3g.claro.net.br 0 2 67869 
177-103-177-61.dsl.telesp.net.br 0 2 67869 
177.42.17.181.static.host.gvt.net.br 0 6 0 
189-30-109-227.fnses700.dsl.brasiltelecom.net.br 3 7 45492 20130309144135
189-112-168-005.static.ctbctelecom.com.br 0 16 135738 
187-35-73-109.dsl.telesp.net.br 0 2 67869 
200-171-166-28.dsl.telesp.net.br 0 4 135738 
208.115.113.91 2 2 3156 20130317170125
201.87.156.242 0 8 271476 
bb25d766.virtua.com.br 0 1 68530 
2261ob.scansafe.net 0 4 135738 
b1210325.virtua.com.br 0 2 67869 
mail.tdb.com.br 0 2 67869 
189-112-169-001.static.ctbctelecom.com.br 0 6 135738 
r249-pw-paraiba.ibys.com.br 1 5 3764875 20130308042103
msnbot-157-56-93-209.search.msn.com 2 2 3156 20130313042614
msnbot-157-55-36-39.search.msn.com 2 2 3430 20130308034017
201.54.3.210.dedicated.neoviatelecom.com.br 0 2 67869 
poly-vac.com.br 0 4 135738 
iq120-21.teletech.com.br 0 17 509002 
189-12-188-155.user.veloxzone.com.br 0 6 67869 
187-126-136-38.user.veloxzone.com.br 0 2 297729 
177-069-129-033.static.ctbctelecom.com.br 0 4 67869 
bb264e31.virtua.com.br 0 2 56091 
187-11-174-97.dsl.telesp.net.br 0 3 0 
201.67.216.128 0 2 34744 
mail.carmensteffens.com.br 0 2 67869 
200-185-231-140.user.ajato.com.br 0 2 67869 
189-015-150-043.xd-dynamic.ctbcnetsuper.com.br 0 2 297729 
baccf58a.virtua.com.br 0 6 135738 
bb424ce1.virtua.com.br 0 4 135738 
189-31-125-80.fnses700.dsl.brasiltelecom.net.br 1 3 18654 20130302131839
b1200776.virtua.com.br 0 2 67869 
119.63.193.195 2 2 3156 20130329075515
187-56-67-126.dsl.telesp.net.br 0 2 297729 
201-40-117-43.ctame302.ipd.brasiltelecom.net.br 0 2 67869 
177.65.92.159 0 4 67869 
bb267788.virtua.com.br 0 10 67869 
wtp-g8-maya3.iad1 1 3 3697006 20130311142852
doriaserver.doriassociados.com.br 0 2 69488 
bb16e62a.virtua.com.br 0 2 297729 
200.245.118.2 0 16 135738 
b18c8846.virtua.com.br 0 2 67869 
179-231-100-220.user.vivozap.com.br 0 5 135738 
201-41-170-238.ctaje701.dsl.brasiltelecom.net.br 2 6 65990 20130325053518
201-34-149-8.jvece702.dsl.brasiltelecom.net.br 0 2 67869 
200-102-14-105.fnsce703.dsl.brasiltelecom.net.br 1 3 18654 20130309111626
bb6a292e.virtua.com.br 0 2 67869 
b121f491.virtua.com.br 0 2 67869 
176.31.14.30 1 1 1578 20130322062623
183.148.142.74 0 2 67869 
router.cobraembalagens.com.br 1 5 3764875 20130321030847
msnbot-65-55-210-255.search.msn.com 1 1 1578 20130309154717
201-63-165-11.customer.tdatabrasil.net.br 0 2 67869 
baccad0b.virtua.com.br 0 2 67869 
186.214.61.138.static.host.gvt.net.br 0 2 67869 
206.228.222.37 0 2 69488 
c9067784.static.spo.virtua.com.br 0 4 102613 
198.208.159.20 1 4 18654 20130306081611
bd79b5d1.virtua.com.br 0 2 67869 
nat-dc5.es.bluecoat.com 1 1 1715 20130318110918
2.194.21.177.miragetelecom.com.br 0 2 34744 
64.254.141.37 0 7 172101 
c934b1ce.virtua.com.br 0 4 135738 
187-70-108-6.3g.claro.net.br 0 2 67869 
bb030aa1.virtua.com.br 0 1 34744 
177-069-220-023.static.ctbctelecom.com.br 0 6 135738 
bb430e49.virtua.com.br 0 18 0 
b1c22e71.virtua.com.br 0 4 67869 
186.215.145.175.static.gvt.net.br 0 12 135738 
207.194.226.176 0 1 34744 
89-145-108-208.as29017.net 4 4 6860 20130320090929
bb033a2b.virtua.com.br 2 45 639274 20130325090158
bd211866.virtua.com.br 0 16 69488 
187-75-128-21.dsl.telesp.net.br 0 10 181251 
155-16.195-178.cust.bluewin.ch 1 3 3697006 20130310043729
187-26-38-78.3g.claro.net.br 0 1 34744 
189-19-72-145.dsl.telesp.net.br 0 2 25534 
162.168.73.187.axtelecom.com.br 0 2 67869 
bd202f5d.virtua.com.br 0 9 104232 
201-048-250-188.static.ctbc.com.br 0 6 138018 
mvx-200-196-59-214.mundivox.com 0 2 297729 
hosted-by.leaseweb.com 2 2 3156 20130324155108
grupotrigo.static.gvt.net.br 0 48 67869 
badc0e1e.virtua.com.br 0 2 67869 
c9151de7.virtua.com.br 0 2 67869 
200.162.239.219.static-user.ajato.com.br 0 2 67869 
189-110-203-56.dsl.telesp.net.br 0 2 67869 
bd3e522d.virtua.com.br 0 11 168863 
bb3121bc.maxiweb.com.br 0 4 135738 
201-92-201-92.dsl.telesp.net.br 0 4 67869 
b1503a48.virtua.com.br 2 6 256825 20130305181829
b18d557e.virtua.com.br 0 2 67869 
200-148-63-209.dsl.telesp.net.br 0 6 0 
kraft18.static.host.gvt.net.br 0 43 69488 
mxt.geoposition.com.br 0 9 138976 
b1224c20.virtua.com.br 1 5 3764875 20130305100817
187-74-247-12.dsl.telesp.net.br 0 2 69488 
187-35-84-129.dsl.telesp.net.br 0 2 25534 
187-8-235-146.customer.tdatabrasil.net.br 0 4 135738 
stedwnet.santaedwiges.com 0 5 104232 
177.99.151.dynamic.adsl.gvt.net.br 2 7 256825 20130318060230
177.156.163.200.dynamic.adsl.gvt.net.br 0 2 67869 
189.2.233.119 0 4 67869 
187.120.12.29 0 2 67869 
66.85.185.54 1 1 1578 20130307140645
bb268682.virtua.com.br 0 2 297729 
bd04f732.virtua.com.br 0 3 300752 
bb147815.virtua.com.br 0 2 67869 
189-11-176-190.fnses700.dsl.brasiltelecom.net.br 4 12 1745287 20130311055650
200-150-178-163.static-corp.ajato.com.br 0 10 203607 
186.214.31.118.dynamic.adsl.gvt.net.br 1 3 1176990 20130325075028
189.115.18.143.static.host.gvt.net.br 2 6 256825 20130309144024
189-79-97-94.dsl.telesp.net.br 0 4 67869 
34-176-229-200.user.nitro.qnet.com.br 1 3 3697006 20130304094439
146.130.28.177.isp.timbrasil.com.br 0 2 67869 
66.249.82.222 0 4 595458 
179-168-138-119.user.vivozap.com.br 0 2 67869 
189.115.17.198.static.host.gvt.net.br 2 6 256825 20130319075220
187-121-106-79.corp.ajato.com.br 0 2 67869 
bd66a31b.virtua.com.br 0 16 67869 
b121f361.virtua.com.br 0 2 67869 
189-73-91-131.fnses700.e.brasiltelecom.net.br 3 7 258540 20130307115705
187-35-84-135.dsl.telesp.net.br 0 2 67869 
187-68-219-100.3g.claro.net.br 0 2 69488 
bd1d392e.virtua.com.br 0 2 50128 
logtecsistemas.com.br 2 6 256825 20130320134444
187.8.117.15 2 14 2834002 20130318165908
baccb3f7.virtua.com.br 1 13 3900613 20130306105035
bb2609bd.virtua.com.br 0 4 135738 
187-126-146-15.user.veloxzone.com.br 0 2 67869 
200.208.185.162 0 13 34744 
189-19-68-216.dsl.telesp.net.br 0 16 135738 
200.148.214.106 0 4 67869 
bb0351bd.virtua.com.br 1 7 4010523 20130315074759
201-048-079-020.static.ctbc.com.br 0 2 67869 
177-069-196-194.static.ctbctelecom.com.br 2 10 7461881 20130318044027
200-206-177-152.dsl.telesp.net.br 0 14 93403 
187-121-31-26.corp.ajato.com.br 0 2 67869 
177-113-168-3.user.vivozap.com.br 0 2 67869 
189.115.16.203.static.host.gvt.net.br 1 3 18654 20130312150020
177.187.152.205 0 2 67869 
200-170-181-233.xf-static.ctbcnetsuper.com.br 1 37 4108119 20130322044328
189-106-1-44.user.veloxzone.com.br 0 2 67869 
200-168-212-226.customer.tdatabrasil.net.br 0 4 93187 
bd79adf6.virtua.com.br 0 11 104232 
173.252.110.115 1 1 0 20130302131838
177.19.232.98.static.gvt.net.br 0 2 57411 
bl24-173-133.dsl.telepac.pt 0 2 297729 
bb1701f7.virtua.com.br 0 4 135738 
150.70.196.83 0 2 262962 
bb256b31.virtua.com.br 0 2 67869 
200-160-76-152.static-user.ajato.com.br 1 75 4186839 20130319074726
186-193-232-158.dedicated.cti.com.br 1 5 3764875 20130326065314
187-50-19-130.customer.tdatabrasil.net.br 0 2 67869 
177-64-86-60.cpebre.viaembratel.net.br 2 6 256825 20130307101607
kraftfoods98.static.gvt.net.br 0 673 1111808 
mx2.tangarafoods.com.br 0 4 135738 
214-29-225-186.smarttelecom.com.br 0 1 34744 
c93448a8.virtua.com.br 0 4 135738 
177.133.164.22.dynamic.adsl.gvt.net.br 1 7 409314 20130304055737
150-70-64-194.trendmicro.com 1 2 237031 20130313063221
c953e35e.virtua.com.br 0 2 67869 
201-048-157-065.static.ctbctelecom.com.br 1 3 18654 20130322041107
baccd2c8.virtua.com.br 1 3 3697006 20130319065625
187-11-236-23.dsl.telesp.net.br 0 2 67869 
189-11-190-110.fnses700.dsl.brasiltelecom.net.br 2 6 117500 20130307145800
bd799df8.virtua.com.br 0 4 0 
200-171-77-232.dsl.telesp.net.br 0 2 67869 
200-232-73-234.galutti.com.br 2 7 239814 20130318055209
host-166-50-230-24.midco.net 1 1 1578 20130322171730
186-227-100-196.users.certto.com.br 1 3 3697006 20130307064243
201.18.93.210 0 4 135738 
201-0-163-28.dial-up.telesp.net.br 0 2 67869 
gw-wllserver-10.50.tro.contato.net 2 6 101618 20130325213447
187-54-255-40.bsace703.e.brasiltelecom.net.br 3 9 324694 20130314050015
c953f043.virtua.com.br 0 16 67869 
187.60.153.189 0 2 245408 
189-19-29-149.dsl.telesp.net.br 0 4 135738 
mail2.houter.com.br 0 2 67869 
177.16.157.89.static.host.gvt.net.br 0 4 135738 
177.97.248.dynamic.adsl.gvt.net.br 2 6 256825 20130314033349
badc9fab.virtua.com.br 0 36 67869 
189-1-182-133.customer.ntelecom.com.br 0 2 67869 
177-139-45-89.dsl.telesp.net.br 0 10 271476 
189-108-56-20.customer.tdatabrasil.net.br 0 2 67869 
187-11-123-17.dsl.telesp.net.br 0 2 67869 
187-072-172-045.static.ctbctelecom.com.br 0 2 67869 
201-14-164-109.fnsce703.dsl.brasiltelecom.net.br 1 3 18654 20130317080746
bd79a1f8.virtua.com.br 0 4 135738 
189-039-053-179.static.spo.ctbc.com.br 0 2 67869 
201-24-69-181.fnsce701.dsl.brasiltelecom.net.br 0 2 69488 
186-194-106-4.cliente.sumicity.com.br 0 8 67869 
187-6-43-249.3g.brasiltelecom.net.br 0 2 297729 
bd21bafa.virtua.com.br 0 2 67869 
187.58.217.6.static.host.gvt.net.br 1 3 3697006 20130306090003
mail.raumak.com.br 0 4 67869 
p3e9eed78.dip.t-dialin.net 0 2 297729 
187-34-45-134.dsl.telesp.net.br 0 2 67869 
200-180-67-33.jvece702.dsl.brasiltelecom.net.br 1 10 4139849 20130306033013
187-75-164-186.dsl.telesp.net.br 0 1 34744 
186-244-40-7.user.veloxzone.com.br 0 2 67869 
b18c1f80.virtua.com.br 0 2 67869 
msnbot-65-55-210-166.search.msn.com 1 1 1578 20130303061000
189-19-214-153.dsl.telesp.net.br 1 7 3832744 20130318134954
bd37cac3.virtua.com.br 4 9 395848 20130301060047
187-49-207-118.outcenter.com.br 0 30 68530 
wtp-g3-maya9.sjdc 2 5 3699587 20130304123837
bacca850.virtua.com.br 0 2 67869 
201-0-70-17.dsl.telesp.net.br 0 4 135738 
metaltypo114.static.host.gvt.net.br 0 2 67869 
badc384c.virtua.com.br 0 1 34744 
212.156.221.100.static.ttnet.com.tr 0 2 67869 
3.95.152.200.expressnet.com.br 0 2 297729 
kraftfoodscompany.static.gvt.net.br 0 958 1406763 
bd66088d.virtua.com.br 0 8 67869 
200.203.133.5 1 5 3764875 20130320090252
186.214.31.73.dynamic.adsl.gvt.net.br 0 1 68530 
msnbot-157-56-92-173.search.msn.com 4 4 3430 20130329163758
179-246-211-72.user.vivozap.com.br 0 2 67869 
189-72-105-228.fnses700.e.brasiltelecom.net.br 2 6 38282 20130311055338
200-232-252-68.dsl.telesp.net.br 1 3 3697006 20130318103947
bb43a39e.virtua.com.br 0 2 67869 
187-35-97-171.dsl.telesp.net.br 1 3 1079202 20130327052910
177.157.146.126.dynamic.adsl.gvt.net.br 1 3 3697006 20130322114820
187-121-27-35.user.ajato.com.br 0 18 0 
189-79-44-89.dsl.telesp.net.br 0 2 67869 
187-45-103-118.mhnet.com.br 0 18 135738 
ip28.itau.com.br 2 4 20232 20130321140904
unimap.static.gvt.net.br 0 2 67869 
END_VISITOR

# Date - Pages - Hits - Bandwidth - Visits
BEGIN_DAY 31
20130301 26 420 29802706 17
20130302 14 32 926239 10
20130303 8 24 1421803 6
20130304 16 262 29748146 12
20130305 26 278 35448990 16
20130306 24 495 57199044 18
20130307 27 825 20182476 13
20130308 10 490 12189178 9
20130309 23 66 1533740 11
20130310 9 42 8678777 6
20130311 17 495 20737568 9
20130312 16 307 27768344 11
20130313 19 408 27153641 13
20130314 13 439 20489950 8
20130315 15 239 19009714 12
20130316 12 52 2505772 7
20130317 6 18 4164192 5
20130318 21 434 31046420 12
20130319 17 362 24667218 13
20130320 10 384 14352758 7
20130321 25 331 24431738 19
20130322 12 264 15112702 9
20130323 3 11 125563 3
20130324 21 37 851921 10
20130325 16 273 15854430 11
20130326 10 300 11404906 10
20130327 12 260 12335832 5
20130328 14 163 6791301 9
20130329 7 24 1361591 5
20130330 5 21 4616591 2
20130331 4 8 354169 3
END_DAY

# Session range - Number of visits
BEGIN_SESSION 6
5mn-15mn 5
0s-30s 273
2mn-5mn 4
30s-2mn 16
15mn-30mn 2
30mn-1h 1
END_SESSION

# URL - Pages - Bandwidth - Entry - Exit
# The 10 first Pages must be first (order not required for others)
BEGIN_SIDER 3
/ 214 312444 176 100
/eventos/ 127 210945 112 122
/site.html 117 178360 13 79
END_SIDER
