AWSTATS DATA FILE 6.4 (build 1.814)
# If you remove this file, all statistics for date 2012-10 will be lost/reset.

# Position (offset in bytes) in this file of beginning of each section for
# direct I/O access. If you made changes somewhere in this file, you should
# also remove completely the MAP section (AWStats will rewrite it at next
# update).
BEGIN_MAP 27
POS_GENERAL 1865                
POS_TIME 2547                
POS_VISITOR 13230               
POS_DAY 48677               
POS_DOMAIN 3395                
POS_LOGIN 3782                
POS_ROBOT 3937                
POS_WORMS 4446                
POS_EMAILSENDER 4577                
POS_EMAILRECEIVER 4720                
POS_SESSION 49560               
POS_SIDER 49768               
POS_FILETYPES 4855                
POS_OS 4986                
POS_BROWSER 5109                
POS_SCREENSIZE 5518                
POS_UNKNOWNREFERER 5592                
POS_UNKNOWNREFERERBROWSER 6728                
POS_ORIGIN 7154                
POS_SEREFERRALS 7299                
POS_PAGEREFS 7485                
POS_SEARCHWORDS 11605               
POS_KEYWORDS 12200               
POS_MISC 2210                
POS_ERRORS 12596               
POS_CLUSTER 3638                
POS_SIDER_404 12710               
END_MAP

# LastLine    = Date of last record processed - Last record line number in last log - Last record offset in last log - Last record signature value
# FirstTime   = Date of first visit for history file
# LastTime    = Date of last visit for history file
# LastUpdate  = Date of last update - Nb of parsed records - Nb of parsed old records - Nb of parsed new records - Nb of parsed corrupted - Nb of parsed dropped
# TotalVisits = Number of visits
# TotalUnique = Number of unique visitors
# MonthHostsKnown   = Number of hosts known
# MonthHostsUnKnown = Number of hosts unknown
BEGIN_GENERAL 8
LastLine 20121101005830 3199 760372 32587025062
FirstTime 20121001001342
LastTime 20121031234003
LastUpdate 20121101042208 168 0 167 0 0
TotalVisits 404                 
TotalUnique 336                 
MonthHostsKnown 618                 
MonthHostsUnknown 91                  
END_GENERAL

# Misc ID - Pages - Hits - Bandwidth
BEGIN_MISC 10
QuickTimeSupport 0 0 0
JavaEnabled 0 0 0
JavascriptDisabled 0 0 0
PDFSupport 0 0 0
WindowsMediaPlayerSupport 0 0 0
AddToFavourites 0 46 0
RealPlayerSupport 0 0 0
TotalMisc 0 0 0
DirectorSupport 0 0 0
FlashSupport 0 0 0
END_MISC

# Hour - Pages - Hits - Bandwidth - Not viewed Pages - Not viewed Hits - Not viewed Bandwidth
BEGIN_TIME 24
0 8 9 15975 12 13 117332
1 4 4 3156 19 23 6312
2 6 33 4343702 19 40 1135448
3 16 132 31008946 26 30 684789
4 25 159 19084649 56 63 61293
5 35 200 13234435 41 61 1772790
6 40 238 22445541 12 35 1557162
7 46 190 8734598 21 33 589560
8 32 208 19127506 16 25 522540
9 43 270 21082011 25 40 826216
10 43 325 33422200 17 37 3713896
11 54 340 42747019 11 26 342527
12 64 437 57342245 11 32 1375780
13 50 319 42018641 12 25 853345
14 58 178 8014066 17 34 1018150
15 26 96 5640438 19 26 552163
16 37 160 6752188 15 25 574541
17 22 62 3062484 15 25 1282749
18 36 114 6282084 7 19 966061
19 25 66 2625237 14 25 1610946
20 8 30 8875462 19 26 1153964
21 9 21 4313851 12 16 679241
22 6 12 334823 10 10 4734
23 11 13 82208 18 21 575339
END_TIME

# Domain - Pages - Hits - Bandwidth
# The 10 first Pages must be first (order not required for others)
BEGIN_DOMAIN 11
br 476 2971 301350683
com 144 164 4988004
ip 60 425 33597459
net 14 35 4947402
sjdc 5 11 14787596
no 1 1 1578
iad1 1 2 2718
de 1 3 847000
be 1 1 1578
at 1 1 1578
fr 0 2 67869
END_DOMAIN

# Cluster ID - Pages - Hits - Bandwidth
BEGIN_CLUSTER 0
END_CLUSTER

# Login - Pages - Hits - Bandwidth - Last visit
# The 10 first Pages must be first (order not required for others)
BEGIN_LOGIN 0
END_LOGIN

# Robot ID - Hits - Bandwidth - Last visit - Hits on robots.txt
# The 10 first Hits must be first (order not required for others)
BEGIN_ROBOT 11
googlebot 192 11342459 20121031202601 0
msnbot 31 50363 20121031041713 0
baiduspider 27 0 20121031083240 0
yandex 12 18936 20121031045430 0
phantom 10 263274 20121009092527 0
robot 7 3156 20121027143532 0
turnitinbot 6 9468 20121028012657 0
python 2 67869 20121025103409 0
surveybot 2 3156 20121023062214 0
ia_archiver 1 1578 20121022203738 0
netcraft 1 1578 20121008093601 0
END_ROBOT

# Worm ID - Hits - Bandwidth - Last visit
# The 5 first Hits must be first (order not required for others)
BEGIN_WORMS 0
END_WORMS

# EMail - Hits - Bandwidth - Last visit
# The 20 first Hits must be first (order not required for others)
BEGIN_EMAILSENDER 0
END_EMAILSENDER

# EMail - Hits - Bandwidth - Last visit
# The 20 first hits must be first (order not required for others)
BEGIN_EMAILRECEIVER 0
END_EMAILRECEIVER

# Files type - Hits - Bandwidth - Bandwidth without compression - Bandwidth after compression
BEGIN_FILETYPES 4
html 704 1017982 0 0
js 261 260785 0 0
jpg 2349 52059316 0 0
swf 302 307255382 0 0
END_FILETYPES

# OS ID - Hits
BEGIN_OS 8
macosx 135
winlong 55
winxp 976
win2003 1
symbian 4
winnt 2236
Unknown 161
linux 48
END_OS

# Browser ID - Hits
BEGIN_BROWSER 26
firefox3.6.24 2
msie6.0 31
firefox3.5.6 17
firefox15.0 6
firefox4.0.1 6
firefox17.0 19
firefox10.0 9
ibrowse 6
opera 3
firefox10.0.1 2
firefox4.0 3
firefox3.6.26 1
firefox12.0 5
msie8.0 251
firefox13.0.1 10
mozilla 266
firefox14.0.1 24
msie7.0 1470
firefox16.0 51
firefox6.0 3
firefox3.6.3 1
msie9.0 226
Unknown 81
firefox11.0 2
firefox15.0.1 131
safari 990
END_BROWSER

# Screen size - Hits
BEGIN_SCREENSIZE 0
END_SCREENSIZE

# Unknown referer OS - Last visit date
BEGIN_UNKNOWNREFERER 16
Mozilla/5.0_(compatible;_MJ12bot/v1.4.3;_http://www.majestic12.co.uk/bot.php?_) 20121030074630
Mozilla/5.0_(Series40;_Nokia201/11.21;_Profile/MIDP-2.1_Configuration/CLDC-1.1)_Gecko/20100401_S40OviBrowser/2.2.0.0.33 20121027131225
GbPlugin 20121030042309
Mozilla/5.0_(compatible;_DCPbot/1.2;__http://domains.checkparams.com/) 20121001143041
EventMachine_HttpClient 20121016134817
Microsoft_Office_Existence_Discovery 20121010124905
Mozilla/5.0_(compatible;_MJ12bot/v1.4.2;_http://www.majestic12.co.uk/bot.php?_) 20121012033149
MS_Internet_Explorer 20121018204624
Mozilla/5.0_(compatible;_WBSearchBot/1.1;__http://www.warebay.com/bot.html) 20121004094813
Mozilla/5.0_(compatible;_Ezooms/1.0;_ezooms.bot@gmail.com) 20121030131311
- 20121030064154
Mozilla/5.0_(compatible;_bingbot/2.0;__http://www.bing.com/bingbot.htm) 20121031234003
facebookexternalhit/1.0_(_http://www.facebook.com/externalhit_uatext.php) 20121031162628
Mozilla/4.0_(compatible;) 20121029051847
nutch-1.4/Nutch-1.4 20121024194327
CamelHttpStream/1.0_Evolution/2.32.2 20121030115138
END_UNKNOWNREFERER

# Unknown referer Browser - Last visit date
BEGIN_UNKNOWNREFERERBROWSER 8
- 20121030064154
GbPlugin 20121030042309
facebookexternalhit/1.0_(_http://www.facebook.com/externalhit_uatext.php) 20121031162628
EventMachine_HttpClient 20121016134817
nutch-1.4/Nutch-1.4 20121024194327
Microsoft_Office_Existence_Discovery 20121010124905
MS_Internet_Explorer 20121018204624
CamelHttpStream/1.0_Evolution/2.32.2 20121030115138
END_UNKNOWNREFERERBROWSER

# Origin - Pages - Hits 
BEGIN_ORIGIN 6
From0 426 2124
From1 0 0
From2 95 95
From3 24 260
From4 159 1137
From5 0 0
END_ORIGIN

# Search engine referers ID - Pages - Hits
BEGIN_SEREFERRALS 4
google 85 85
search 8 8
ask 1 1
yahoo 1 1
END_SEREFERRALS

# External page referers - Pages - Hits
# The 10 first Pages must be first (order not required for others)
BEGIN_PAGEREFS 66
http://start.funmoods.com/results.php 4 4
http://www.griffestands.com.br 2 2
http://36ohk6dgmcd1n-c.c.yom.mail.yahoo.net/om/api/1.0/openmail.app.invoke/36ohk6dgmcd1n/11/1.0.35/br/pt-BR/view.html/0 2 2
http://www.griffestands.com.br/index.php 1 1
http://www.easyfor.com.br/site.html 1 1
http://www.sitedossier.com/site/gscomunicacao.com.br 1 1
http://domains.checkparams.com/index.php 1 1
http://bl172w.blu172.mail.live.com/default.aspx 1 5
http://www.atsblindados.com.br/site.html 1 1
http://br.bing.com/search 1 1
http://gscomunicacao.blogspot.com.br 0 6
http://gscomunicacao.blogspot.com.br/2012/06/habibs-ragazzo-loja-box-30-abf-2012.html 0 44
http://mail.uol.com.br/main/message 0 3
http://mail.terra.com.br/105.0trr/reademail.php 0 11
http://gscomunicacao.blogspot.com/2012/02/nanno-na-hair-brasil-2012.html 0 2
http://gscomunicacao.blogspot.com.br/2012/04/nanno-faz-sucesso-na-hair-brasil-2012.html 0 4
http://gscomunicacao.blogspot.com.br/2012/07/box-30-habibs-ragazzo-sucesso-em-campos.html 0 14
http://webmail.aiha.com.br 0 2
http://webmail.consultorlopes.com.br 0 1
http://127.0.0.1:49308/desktop/login.jsp 0 2
http://127.0.0.1:49206/desktop/login.jsp 0 2
http://sn131w.snt131.mail.live.com/mail/InboxLight.aspx 0 14
http://webmail.aditek.com.br 1 1
http://by171w.bay171.mail.live.com/mail/InboxLight.aspx 0 1
http://sn115w.snt115.mail.live.com/mail/InboxLight.aspx 1 3
http://www.facebook.com 1 1
http://gscomunicacao.blogspot.com.br/2009/05/eb-blindados.html 0 4
http://gscomunicacao.blogspot.com.br/2009_05_01_archive.html 0 2
http://71.6.217.131/mail/viewaction.html 0 1
http://lx4.letti.com.br/uebimiau/show_body.php 0 2
http://192.168.2.252/zimbra/h/search 1 1
http://busca.gvt.com.br/main 1 1
http://201.89.225.93:83/zimbra/ 1 11
http://gscomunicacao.blogspot.com.es/2012/06/habibs-ragazzo-loja-box-30-abf-2012.html 0 2
http://gscomunicacao.blogspot.com.br/2011/02/imagens-stand-trident-2011.html 0 4
http://gscomunicacao.blogspot.com.br/2012/06/habibs-e-ragazzo-na-17-edicao-do-nestle.html 0 2
http://gscomunicacao.blogspot.com.br/2011/02/santiago-e-cintra-na-mundo-geo-connect.html 0 13
http://mnconsultoria.com.br 1 1
http://71.6.217.131/mail/view.html 0 5
http://bl156w.blu156.mail.live.com/mail/InboxLight.aspx 0 1
http://gscomunicacao.blogspot.com.br/2010/01/sebo-o-leitor.html 0 2
http://sn145w.snt145.mail.live.com/default.aspx 0 1
http://gscomunicacao.blogspot.com.br/2009/05/vestibular-de-moda-fefisa.html 0 4
http://by151w.bay151.mail.live.com/mail/InboxLight.aspx 0 6
http://gscomunicacao.blogspot.com.br/2010/06/o-grupo-bimbo-do-brasil-e-sucesso-na.html 0 10
http://gscomunicacao.blogspot.com.br/2011/05/easy-for-e-sucesso-na-cards-2011.html 0 2
http://sn145w.snt145.mail.live.com/mail/InboxLight.aspx 0 2
http://gscomunicacao.blogspot.com.br/2010/10/gs-no-mega-evento-da-nutricao.html 0 4
http://server:8090/webmail/main.php 0 2
http://www.easyfor.com.br/site.swf 1 1
http://sn131w.snt131.mail.live.com/default.aspx 0 1
http://sm65.verticalip.net:9000/sm-user/mail-relmessages-corpo-digest.cgi 0 2
http://gscomunicacao.blogspot.com.br/2011/05/gross-cargo-na-intermodal-2011.html 0 7
http://bl169w.blu169.mail.live.com/mail/InboxLight.aspx 0 2
http://gscomunicacao.blogspot.com.br/2011/07/bimbo-faz-sucesso-no-evento-fispal-food.html 0 4
http://gscomunicacao.blogspot.com.br/2012/02/nanno-na-hair-brasil-2012.html 0 6
http://gscomunicacao.blogspot.com.br/2012/04/grupo-bimbo-do-brasil-inaugura-em.html 0 2
http://gscomunicacao.blogspot.com.br/2010/12/escola-great-idiomas-especializada-em.html 0 2
http://www.ferpak.com.br 1 1
http://36ohk6dgmcd1n-c.c.yom.mail.yahoo.net/om/api/1.0/openmail.app.invoke/36ohk6dgmcd1n/11/1.0.35/br/pt-BR/controller.html/0 0 7
http://webmail.telbrasrs.com.br 0 2
http://co104w.col104.mail.live.com/mail/InboxLight.aspx 0 1
http://br.mg5.mail.yahoo.com/neo/launch 0 2
http://sn102w.snt102.mail.live.com/mail/InboxLight.aspx 0 2
http://sn131w.snt131.mail.live.com/m/messages.m/ 0 1
http://hedwig.sede/zimbra/ 0 4
END_PAGEREFS

# Search keyphrases - Number of search
# The 10 first number of search must be first (order not required for others)
BEGIN_SEARCHWORDS 18
gs+comunica%c3%a7%c3%a3o 41
gs+comunica%c3%a7%c3%b5es 4
gs+comunica%c3%a7ao 4
web 2
gs+comunicacao 2
gscominca%c3%a7%c3%a3o 2
empresa+gs+comunica%c3%a7%c3%a3o 1
g.s+comunica%c3%a7%c3%b5es 1
gscomunica%c3%a7%c3%a3o 1
gscomunicacao.com.br 1
gscomunica%c3%a7%c3%a3o+com 1
gscomunicacao.com 1
gs+comunica%c3%87%c3%83o 1
gs+comunicacoes+br 1
gscomunica%c3%a7ao.com.br 1
gs+comunicao 1
g+s+coelho+comunica%c3%a7%c3%a3o 1
gs+comunica%c3%a7%c3%b5s 1
END_SEARCHWORDS

# Search keywords - Number of search
# The 10 first number of search must be first (order not required for others)
BEGIN_KEYWORDS 22
gs 56
comunica%c3%a7%c3%a3o 43
comunica%c3%a7%c3%b5es 5
comunica%c3%a7ao 4
gscomunica%c3%a7%c3%a3o 2
comunicacao 2
web 2
gscominca%c3%a7%c3%a3o 2
comunica%c3%a7%c3%b5s 1
g.s 1
comunicao 1
empresa 1
gscomunicacao.com.br 1
g 1
gscomunicacao.com 1
coelho 1
br 1
comunica%c3%87%c3%83o 1
s 1
gscomunica%c3%a7ao.com.br 1
comunicacoes 1
com 1
END_KEYWORDS

# Errors - Hits - Bandwidth
BEGIN_ERRORS 3
206 120 10205949
404 273 0
301 26 9092
END_ERRORS

# URL with 404 errors - Hits - Last URL referer
BEGIN_SIDER_404 8
/blog//wp-login.php 1 -
/site//wp-login.php 1 -
/robots.txt 266 -
//wp-login.php 1 -
/administrator/ 1 -
/wp//wp-login.php 1 -
/eventos/emailjpg 1 http://71.6.217.131/mail/view.html
/wordpress//wp-login.php 1 -
END_SIDER_404

# Host - Pages - Hits - Bandwidth - Last visit date - [Start date of last visit] - [Last page of last visit]
# [Start date of last visit] and [Last page of last visit] are saved only if session is not finished
# The 10 first Hits must be first (order not required for others)
BEGIN_VISITOR 709
www2.easymailing.com.br 26 26 44590 20121030064154
msnbot-157-55-35-53.search.msn.com 10 10 1578 20121008130626
189.115.24.193.stat.gvt.net.br 9 27 4486135 20121027142948
msnbot-157-55-32-164.search.msn.com 8 8 4734 20121015223234
bb26a3c8.virtua.com.br 5 25 4109801 20121018060201
189-44-82-146.customer.tdatabrasil.net.br 5 13 256825 20121009052038
lx1.letti.com.br 5 10 167951 20121016145912
msnbot-157-56-93-215.search.msn.com 5 5 7890 20121017170420
200.237.249.180 5 15 2507445 20121008160620
msnbot-157-55-112-207.search.msn.com 5 5 7890 20121003162255
p3nlhg899.shr.prod.phx3.secureserver.net 2 2 3156 20121001062916
187-35-145-4.dsl.telesp.net.br 0 2 67869 
177-069-130-035.static.ctbctelecom.com.br 0 2 67869 
187-51-156-228.customer.tdatabrasil.net.br 0 25 172101 
200-138-204-101.fnsce702.dsl.brasiltelecom.net.br 2 7 269499 20121030075645
177.3.143.197 1 3 18654 20121016182928
bb68c82f.virtua.com.br 0 2 297729 
201-23-188-73.gprs.claro.net.br 0 1 12659 
mx2.indumak.com.br 1 3 3697006 20121017100803
189-75-41-52.fnses700.dsl.brasiltelecom.net.br 2 6 201026 20121025095556
69.171.237.10 0 1 4929 
189-73-80-49.fnses700.dsl.brasiltelecom.net.br 3 9 158918 20121010184437
187-53-213-85.nhoce701.e.brasiltelecom.net.br 2 6 256825 20121016080435
187.113.216.131.static.host.gvt.net.br 3 9 256825 20121017044950
200-138-241-60.fnses700.dsl.brasiltelecom.net.br 2 6 256825 20121009091825
p3nlhg896.shr.prod.phx3.secureserver.net 2 2 3156 20121001062907
189.115.46.249.static.gvt.net.br 2 5 3697006 20121019035006
201.47.213.69.dynamic.adsl.gvt.net.br 0 2 297729 
189.115.17.93.static.host.gvt.net.br 2 6 256825 20121010113809
c915de1d.virtua.com.br 0 1 34744 
187.58.108.150.static.host.gvt.net.br 0 2 67869 
187-072-138-237.static.ctbctelecom.com.br 1 3 1446330 20121018103404
200.178.219.170 0 1 34744 
201-35-222-73.fnsce701.dsl.brasiltelecom.net.br 2 7 119424 20121022184107
187-55-0-42.fnses700.dsl.brasiltelecom.net.br 3 9 3676491 20121012142001
69.171.224.1 0 1 4929 
200-180-66-73.fnses700.dsl.brasiltelecom.net.br 2 6 256825 20121014120110
mvx-187-16-87-40.mundivox.com 0 2 297729 
187.115.237.177.static.host.gvt.net.br 0 4 0 
201-23-177-166.gprs.claro.net.br 0 2 0 
147ob.scansafe.net 0 2 67869 
201.41.59.142 0 4 135738 
189-110-252-17.dsl.telesp.net.br 0 1 34744 
187-55-0-49.fnses700.dsl.brasiltelecom.net.br 3 6 22950 20121025145759
187.113.54.78.static.host.gvt.net.br 0 2 297729 
msnbot-65-55-208-37.search.msn.com 3 3 4734 20121008140742
200.247.36.130 0 2 67869 
c9346a68.virtua.com.br 0 2 67869 
201.67.201.63 3 7 258540 20121009061630
ip-177-25-155-34.user.vivozap.com.br 2 8 273901 20121012131822
187.112.245.244.static.host.gvt.net.br 0 2 67869 
189-70-173-194.user.veloxzone.com.br 1 2 14252 20121026095542
187-78-126-139.user.veloxzone.com.br 0 2 17603 
189-015-138-063.xd-dynamic.ctbcnetsuper.com.br 0 4 595458 
187-7-8-127.fnses700.dsl.brasiltelecom.net.br 2 6 121166 20121027055120
bd786a98.virtua.com.br 0 1 34744 
177.2.57.26 2 6 256825 20121030165352
200.192.77.54 2 4 20232 20121004150236
187.59.84.243.static.host.gvt.net.br 2 5 21372 20121027140158
189-110-191-18.dsl.telesp.net.br 0 2 297729 
187-9-117-235.customer.tdatabrasil.net.br 0 2 46891 
189-31-111-29.fnsce704.dsl.brasiltelecom.net.br 3 7 44210 20121027133310
18624661238.user.veloxzone.com.br 0 2 297729 
189-111-124-225.dsl.telesp.net.br 0 2 67869 
c951aa76.virtua.com.br 0 2 297729 
187-122-207-176.cpeoco.viaembratel.net.br 0 36 34744 
189-94-128-200.3g.claro.net.br 0 2 297729 
201.47.255.175.static.gvt.net.br 0 6 198880 
msnbot-65-55-24-214.search.msn.com 2 2 3430 20121028043600
bd786ae4.virtua.com.br 0 7 34744 
bb4249de.virtua.com.br 0 4 113653 
187-75-194-94.dsl.telesp.net.br 0 1 33125 
189-38-242-217.static-corp.ajato.com.br 0 4 135738 
177.99.140.dynamic.adsl.gvt.net.br 0 2 67869 
wtp-gs-maya8.sjdc 2 4 3698721 20121018213431
189.115.19.40.static.host.gvt.net.br 1 4 30801 20121016080433
renna218.static.gvt.net.br 1 11 3890398 20121015130608
187.123.232.241 0 2 67869 
69.171.237.8 0 1 4929 
200-232-102-162.customer.tdatabrasil.net.br 0 2 0 
177-139-157-10.dsl.telesp.net.br 2 6 71798 20121002135555
201-79-243-75.user.veloxzone.com.br 0 2 67869 
186.214.28.200.dynamic.adsl.gvt.net.br 1 3 3697006 20121017085732
b120372f.virtua.com.br 3 7 256825 20121004095315
201-23-177-207.gprs.claro.net.br 0 1 34744 
bd23e8b9.virtua.com.br 0 4 135738 
201-93-196-174.dsl.telesp.net.br 0 2 67869 
187.112.23.180.static.host.gvt.net.br 0 2 69488 
187-101-78-111.dsl.telesp.net.br 1 1 351 20121025075537
201-10-98-158.mganm702.dsl.brasiltelecom.net.br 2 6 87770 20121007080918
b1b655ea.virtua.com.br 0 2 67869 
189-69-250-77.dial-up.telesp.net.br 0 1 34744 
189-110-238-181.dsl.telesp.net.br 0 2 69488 
187-55-1-6.fnses700.dsl.brasiltelecom.net.br 2 6 256825 20121003115453
69.171.237.0 0 3 14787 
1774756123.tvninternet.com.br 0 2 297729 
bacc9163.virtua.com.br 1 3 3697006 20121017113806
187-11-116-247.dsl.telesp.net.br 0 2 67869 
177.18.217.26.static.host.gvt.net.br 0 1 0 
zein.138.static.host.gvt.net.br 0 2 25534 
189-107-246-227.user.veloxzone.com.br 0 2 297729 
200-102-84-187.nhoce701.dsl.brasiltelecom.net.br 0 4 67869 
200-204-161-131.dsl.telesp.net.br 2 14 174140 20121008125438
server.florestal.com 1 5 3764875 20121024115213
lx4.letti.com.br 3 6 107484 20121016145915
187-4-202-181.fnses700.e.brasiltelecom.net.br 2 4 20232 20121011200923
187.121.64.200 0 1 34744 
wyda106.static.host.gvt.net.br 3 65 1257925 20121015125237
b150547a.virtua.com.br 0 1 34744 
189-110-197-49.dsl.telesp.net.br 0 1 34744 
tvc.tv130.static.host.gvt.net.br 2 6 256825 20121030122854
189-110-186-11.dsl.telesp.net.br 2 6 109514 20121023111329
187-55-14-57.fnses700.dsl.brasiltelecom.net.br 1 3 18654 20121019081025
177-147-238-140.user.vivozap.com.br 0 2 25318 
201-35-224-33.fnses700.dsl.brasiltelecom.net.br 2 6 108098 20121008082204
177-119-215-250.user.vivozap.com.br 0 1 34744 
proxy.manikraft.com.br 0 4 135738 
187-75-182-82.dsl.telesp.net.br 0 1 294706 
189-12-170-85.user.veloxzone.com.br 0 2 25390 
189-108-173-154.customer.tdatabrasil.net.br 1 5 3764875 20121009124843
177.3.141.203 2 4 20232 20121028162929
201-67-162-188.fnses700.dsl.brasiltelecom.net.br 3 12 274904 20121009092554
189-041-139-152.xd-dynamic.ctbcnetsuper.com.br 2 6 180690 20121002191033
187-072-046-193.static.ctbctelecom.com.br 0 2 67869 
177.97.225.dynamic.adsl.gvt.net.br 3 5 73238 20121003141319
177.99.48.dynamic.adsl.gvt.net.br 0 4 135738 
187-55-5-55.fnsce704.dsl.brasiltelecom.net.br 2 6 256825 20121027163603
189-110-222-22.dsl.telesp.net.br 0 2 297729 
www2.kuhn.fr 0 2 67869 
201-63-44-84.customer.tdatabrasil.net.br 0 2 297729 
c925f874.virtua.com.br 0 2 67869 
189.115.16.223.static.host.gvt.net.br 2 6 138590 20121006085843
189-11-181-216.fnsce702.dsl.brasiltelecom.net.br 1 3 18654 20121007152836
201-35-225-236.fnsce701.dsl.brasiltelecom.net.br 2 6 256825 20121011155317
189-69-52-182.dsl.telesp.net.br 3 10 4068169 20121011092305
200.135.6.34 1 3 18654 20121018155017
189-81-123-248.user.veloxzone.com.br 0 2 297729 
187-78-127-23.user.veloxzone.com.br 0 1 12147 
mx.proeletronic.com.br 0 2 67869 
host-177-52-250-65.ipwave.com.br 0 18 135738 
200-180-76-68.fnsce701.dsl.brasiltelecom.net.br 2 6 256825 20121015184703
201-67-167-161.fnses700.dsl.brasiltelecom.net.br 2 6 256825 20121012122758
bacd43dc.virtua.com.br 0 2 297729 
177.97.238.dynamic.adsl.gvt.net.br 0 1 34744 
187.120.46.179 0 2 67869 
177-139-173-14.dsl.telesp.net.br 4 18 7754453 20121016071238
189-30-74-124.fnses700.dsl.brasiltelecom.net.br 2 7 268972 20121027165633
smtp.newage.tur.br 0 2 67869 
netherfield.didici.be 1 1 1578 20121030074630
ip-187-119-45-7.user.vivozap.com.br 0 2 67869 
bd786b72.virtua.com.br 0 1 34744 
static-75-249.lhr.nokia.net 0 1 1003 
wtp-g3-maya6.sjdc 2 4 7392006 20121030033454
static.88-198-25-25.clients.your-server.de 1 1 1578 20121006102458
msnbot-65-55-208-19.search.msn.com 2 2 3156 20121031021703
msnbot-65-55-208-26.search.msn.com 2 2 3156 20121016072806
65.55.85.174 0 1 34744 
187-26-84-116.3g.claro.net.br 0 2 297729 
mail.csm.ind.br 0 2 67869 
200-170-98-82.ind.ajato.com.br 0 2 67869 
201.49.64.195 0 3 67869 
69.171.228.245 0 2 9858 
bb02ec73.virtua.com.br 0 2 67869 
201-87-126-169.static-corp.ajato.com.br 0 2 67869 
177.48.213.180 0 1 11759 
186-241-155-82.user.veloxzone.com.br 0 2 297729 
201-66-184-71.smace700.dsl.brasiltelecom.net.br 0 2 67869 
177-102-168-115.dsl.telesp.net.br 0 2 297729 
venus2.cromus.com.br 1 5 3764875 20121009135906
200.182.173.229 2 7 268972 20121002062309
187-4-227-196.fnses700.e.brasiltelecom.net.br 2 6 256825 20121010073746
189-68-195-157.dsl.telesp.net.br 0 2 297729 
se-connect122.static.host.gvt.net.br 4 8 256825 20121030053737
pg-cin-px7.pg.com 0 3 0 
bd789a70.virtua.com.br 0 2 297729 
msnbot-65-55-208-115.search.msn.com 2 2 3156 20121009171211
177.17.55.163.static.host.gvt.net.br 0 6 69488 
187-84-220.114.static.stech.net.br 1 8 5070216 20121001124657
189.115.19.80.static.host.gvt.net.br 2 6 38402 20121018061828
bacc3bf4.virtua.com.br 0 2 67869 
ip-189-0-52-78.user.vivozap.com.br 0 1 34744 
194.120.150.200.static.copel.net 0 2 67869 
dns1.scorpios.com.br 0 2 297729 
gw.fornodeminas.com.br 1 7 3764875 20121024120944
189-18-49-187.dsl.telesp.net.br 0 2 297729 
wiremorro2.engeplus.com.br 1 3 18654 20121001183654
mx.ecp.com.br 0 2 67869 
mail.habasit.com.br 0 30 104232 
177.17.75.157.static.host.gvt.net.br 0 2 297729 
189-110-237-159.dsl.telesp.net.br 0 1 34744 
177.157.216.215.dynamic.adsl.gvt.net.br 0 6 0 
177-106-028-100.xd-dynamic.ctbcnetsuper.com.br 0 2 0 
189-93-46-189.3g.claro.net.br 0 2 67869 
177.17.72.28.static.host.gvt.net.br 0 2 69488 
b18df7b1.virtua.com.br 0 38 168067 
200-232-77-235.tbline.com.br 0 1 0 
173.252.100.119 0 1 4929 
200.222.72.76 0 2 0 
177.97.229.dynamic.adsl.gvt.net.br 0 1 68530 
189-48-170-117.user.veloxzone.com.br 1 2 2718 20121026095544
189-38-17-130.dedicated.cti.com.br 0 1 34744 
wtp-gb-maya3.sjdc 0 1 3694288 
201.89.225.92 1 17 4172089 20121025032118
177-103-229-116.dsl.telesp.net.br 0 4 135738 
177-102-146-254.dsl.telesp.net.br 1 2 35095 20121011143442
177.41.145.127.dynamic.adsl.gvt.net.br 0 2 297729 
187.115.148.92.static.gvt.net.br 1 3 3697006 20121030080341
177-0-249-99.fnses700.dsl.brasiltelecom.net.br 2 6 256825 20121009133833
blumsg1100118.voice.messenger.msn.com 0 1 34744 
186.215.174.162.static.host.gvt.net.br 1 7 3796249 20121023035236
177.5.180.136 0 1 34744 
c94a745d.virtua.com.br 0 2 67869 
ip-186.251.18-30.seanet.com.br 3 25 3451368 20121005154915
mx2.criativar.com.br 0 8 67869 
200-159-74-242.customer.tdatabrasil.net.br 0 2 297729 
186.212.56.182.static.host.gvt.net.br 0 2 67869 
200.240.235.116 0 2 67869 
177.132.103.153.dynamic.adsl.gvt.net.br 2 6 256825 20121003073228
187-52-172-103.ccoce700.e.brasiltelecom.net.br 0 2 34744 
177.18.216.105.static.host.gvt.net.br 0 1 34744 
baccb450.virtua.com.br 0 2 67869 
msnbot-65-55-208-39.search.msn.com 2 2 3156 20121010040944
177.96.30.80.dynamic.adsl.gvt.net.br 0 2 33814 
177.156.216.129.dynamic.adsl.gvt.net.br 0 2 67869 
189-112-135-109.static.ctbctelecom.com.br 0 4 135738 
187-71-147-74.3g.claro.net.br 2 6 38354 20121010181020
webems.gnatus.com.br 3 9 256825 20121024111737
bd645009.virtua.com.br 0 2 67869 
ns1.gtsdobrasil.com.br 1 3 3697006 20121001123126
189.86.42.65 1 31 321738 20121018113048
mail2.prosyst.com.br 1 13 3916906 20121003130258
177.19.64.13.static.host.gvt.net.br 2 6 256825 20121001062418
msnbot-157-55-33-22.search.msn.com 3 3 5145 20121031130617
valmont.com.br 1 5 3764875 20121002114510
189.58.62.75.dynamic.adsl.gvt.net.br 0 2 67869 
187-9-11-205.customer.tdatabrasil.net.br 0 2 67869 
189.51.3.15 0 2 67869 
189-111-228-186.dsl.telesp.net.br 0 2 67869 
cnv01.bruno.com.br 0 71 840101 
201-0-151-154.dial-up.telesp.net.br 0 4 84725 
linuxserver.jmbzeppelin.com.br 0 2 67869 
189-75-47-26.fnses700.dsl.brasiltelecom.net.br 1 3 18654 20121012154949
177-103-186-53.dsl.telesp.net.br 0 2 67869 
189-041-254-235.xdsl-dinamico.ctbcnetsuper.com.br 0 2 67869 
186.199.194.229 2 4 20232 20121027211245
186-210-020-133.xd-dynamic.ctbcnetsuper.com.br 0 2 67869 
201-42-169-65.dsl.telesp.net.br 0 2 297729 
177-106-156-051.xd-dynamic.ctbcnetsuper.com.br 0 2 297729 
201-92-155-123.dsl.telesp.net.br 2 6 193468 20121031135421
187-34-241-37.dsl.telesp.net.br 0 2 297729 
189.115.212.62.dynamic.host.gvt.net.br 0 2 34744 
201.23.96.194.dedicated.neoviatelecom.com.br 0 2 67869 
189.86.254.134 0 2 67869 
189-75-255-183.cscgo702.e.brasiltelecom.net.br 0 2 67869 
187-55-254-113.fnses700.e.brasiltelecom.net.br 2 7 299271 20121027133818
186-247-168-118.user.veloxzone.com.br 0 1 102698 
msnbot-65-55-208-21.search.msn.com 1 1 1578 20121001001342
187-14-159-209.user.veloxzone.com.br 1 1 1578 20121003142940
200-138-233-71.fnses700.dsl.brasiltelecom.net.br 2 6 37778 20121012203848
201.85.85.123 0 2 67869 
200-168-212-122.customer.tdatabrasil.net.br 0 2 67869 
200-138-195-106.bnut3300.ipd.brasiltelecom.net.br 2 6 256825 20121011093405
177.21.220.17 3 25 4021700 20121024100918
201-14-162-230.fnses700.dsl.brasiltelecom.net.br 2 6 50018 20121026101006
mail.sunnyvale.com.br 0 7 341328 
187.120.33.233 0 8 135738 
200-161-97-252.dsl.telesp.net.br 0 6 138976 
46.165.197.142 1 1 1578 20121026182750
bb6a616a.virtua.com.br 0 4 135738 
187.59.84.212.static.host.gvt.net.br 1 3 18654 20121006101948
b18dcd3a.virtua.com.br 0 4 135738 
189.120.236.214 0 1 34744 
177.41.186.156.static.host.gvt.net.br 3 9 11091018 20121018064152
177.40.215.35.static.host.gvt.net.br 2 6 256825 20121017130210
200-160-255-179.cyberspo.brasiltelecom.net.br 0 2 67869 
145.253.185.59 0 1 34744 
189-92-19-128.3g.claro.net.br 0 1 34744 
c8ecd1f6.dynamic.shd.tesa.net.br 3 6 22950 20121023062923
189-72-104-81.fnsce704.e.brasiltelecom.net.br 1 5 3764875 20121004041209
189-75-5-215.fnsce704.dsl.brasiltelecom.net.br 2 6 256825 20121003165219
189-8-50-186.ded.unitelco.com.br 1 5 3764875 20121030101907
bd05cb3c.virtua.com.br 0 2 67869 
201.22.15.8.dynamic.adsl.gvt.net.br 0 2 297729 
177.18.170.54.static.host.gvt.net.br 2 6 33938 20121020220100
msnbot-157-55-32-96.search.msn.com 3 3 0 20121023203215
ti0031a380-dhcp1121.bb.online.no 1 1 1578 20121015034842
177-069-248-122.static.ctbctelecom.com.br 1 5 3764875 20121004091408
201-11-84-248.fnsce701.e.brasiltelecom.net.br 2 6 63318 20121003050756
177.97.231.dynamic.adsl.gvt.net.br 0 1 68530 
88.135.201.228 1 1 1578 20121006020153
187-126-203-214.user.veloxzone.com.br 0 2 297729 
malta178.static.gvt.net.br 1 3 3697006 20121031052116
187-27-225-45.3g.claro.net.br 2 6 67698 20121028141722
69.171.228.247 0 2 9858 
b150d33a.virtua.com.br 2 6 210778 20121024123807
201-35-229-10.fnsce703.dsl.brasiltelecom.net.br 2 8 314117 20121012145105
187.59.85.39.static.host.gvt.net.br 3 9 275479 20121008181500
189-69-103-143.dsl.telesp.net.br 0 2 44266 
201-67-183-178.bnut3703.dsl.brasiltelecom.net.br 0 2 297729 
200-158-223-112.dsl.telesp.net.br 0 2 67869 
186-193-200-9.byteweb.com.br 1 5 3764875 20121016123737
189.109.217.74 0 5 0 
201.90.34.194 3 15 4193029 20121029100552
200-171-151-202.dsl.telesp.net.br 0 4 135738 
static-75-180.lhr.nokia.net 0 1 4929 
177.51.33.186 0 2 67869 
18777019170.telemar.net.br 2 6 256825 20121015170541
186.214.82.8.static.host.gvt.net.br 0 2 67869 
badfa7fb.virtua.com.br 0 2 297729 
fw.auroraalimentos.com.br 0 2 0 
200-215-93-147.fnses700.e.brasiltelecom.net.br 1 3 18654 20121006154409
201-49-101-106.itake.net.br 0 4 135738 
189.27.118.138.dynamic.adsl.gvt.net.br 1 5 3766494 20121017123338
200-193-90-132.fnsce701.dsl.brasiltelecom.net.br 2 6 62738 20121009124620
200-215-12-194.fnsce302.ipd.brasiltelecom.net.br 0 2 67869 
189-19-255-135.dsl.telesp.net.br 0 231 486416 
bd2182ea.virtua.com.br 1 3 3697006 20121030050540
189-47-187-176.dsl.telesp.net.br 0 13 67869 
186.214.80.21.static.host.gvt.net.br 1 4 68220 20121022054232
r262-pr-furuba.ibys.com.br 0 2 67869 
189-11-180-147.fnses700.dsl.brasiltelecom.net.br 1 3 18654 20121023114713
189-78-184-135.dsl.telesp.net.br 2 6 256825 20121019084555
187.55.122.80 0 2 69488 
111-70-250-186.blv.net.br 0 4 93259 
200-232-92-202.customer.tdatabrasil.net.br 0 2 67869 
189-38-101-100.itake.net.br 0 8 203607 
189-106-36-29.user.veloxzone.com.br 0 2 56756 
186.212.86.245.static.host.gvt.net.br 0 2 297729 
187-55-61-13.fnses700.dsl.brasiltelecom.net.br 2 6 37308 20121016162314
177.0.208.84 2 7 268972 20121028161954
201-19-164-80.user.veloxzone.com.br 0 2 297729 
177.97.154.dynamic.adsl.gvt.net.br 0 2 69488 
msnbot-65-55-208-140.search.msn.com 2 2 3156 20121025115347
201-2-218-215.bnut3702.dsl.brasiltelecom.net.br 2 7 492278 20121031122332
200.186.205.247 0 54 138976 
187-11-253-193.dsl.telesp.net.br 0 4 135738 
187-4-193-57.fnses700.e.brasiltelecom.net.br 2 6 256825 20121008055826
189-20-198-198.customer.tdatabrasil.net.br 0 2 67869 
b18d4409.virtua.com.br 2 13 502855 20121017131421
177.18.254.134.static.host.gvt.net.br 1 2 33125 20121015094154
200-204-35-74.dial-up.telesp.net.br 2 20 3832744 20121029062914
201-25-205-6.fnsce701.dsl.brasiltelecom.net.br 2 7 272403 20121015185911
200.19.200.3 2 6 256825 20121012080721
201-41-238-162.fnsce703.dsl.brasiltelecom.net.br 2 6 204112 20121027124545
baddd4af.virtua.com.br 0 2 47511 
189-30-105-164.dsl.fnses700.brasiltelecom.net.br 3 8 268972 20121002143256
177.19.100.53.static.host.gvt.net.br 1 3 3697006 20121017105010
177-55-200-88.cliente.sumicity.com.br 0 2 297729 
189-73-78-60.fnses700.dsl.brasiltelecom.net.br 2 6 256825 20121027121518
bd64ffa7.virtua.com.br 0 2 297729 
badc818c.virtua.com.br 0 2 0 
201-26-134-51.dial-up.telesp.net.br 0 6 34744 
189.51.119.24 0 2 297729 
msnbot-207-46-199-193.search.msn.com 4 4 6312 20121030052334
200-206-23-82.louvernet.com.br 0 4 135738 
200-150-178-164.static-corp.ajato.com.br 0 10 347440 
69.171.237.6 0 1 4929 
87-52-130-58.bnut3700.e.brasiltelecom.net.br 1 16 3764875 20121003130153
187-4-37-185.paebv701.e.brasiltelecom.net.br 4 17 694222 20121023121448
177-112-185-121.user.vivozap.com.br 0 2 67869 
177.40.136.210.static.host.gvt.net.br 0 16 203607 
173.252.100.114 0 1 4929 
201-016-220-241.static.ctbctelecom.com.br 0 2 67869 
186.214.87.187.static.host.gvt.net.br 0 1 34744 
200-180-107-118.fnsce701.e.brasiltelecom.net.br 2 6 256825 20121020143623
msnbot-157-55-33-113.search.msn.com 2 2 3430 20121025180404
187.112.184.226.static.host.gvt.net.br 0 12 67869 
ks200667.kimsufi.com 2 2 3156 20121024043351
mail.unicinco.com.br 2 4 20369 20121031145905
201-27-5-140.dsl.telesp.net.br 0 2 69488 
189-78-175-249.dsl.telesp.net.br 0 1 34744 
c9533332.virtua.com.br 3 11 3764875 20121024102206
189.115.17.124.static.host.gvt.net.br 2 6 256825 20121011110952
200.149.25.106 0 2 67869 
187-35-146-182.dsl.telesp.net.br 0 1 33125 
69.171.234.2 0 2 9858 
msnbot-65-55-208-119.search.msn.com 3 3 4734 20121029110330
b121e50c.virtua.com.br 3 11 487818 20121015061403
200-185-230-169.user.ajato.com.br 0 2 34744 
177-64-130-26.cpeblm.viaembratel.net.br 0 2 297729 
187-122-218-159.cpeoco.viaembratel.net.br 0 2 0 
c9514088.virtua.com.br 2 9 3833747 20121015085326
65.55.72.110 0 2 67869 
200-101-234-235.fnsce7003.e.brasiltelecom.net.br 2 5 21372 20121014113633
msnbot-65-55-208-67.search.msn.com 4 4 6312 20121018122016
mail2.assintecal.org.br 0 2 67869 
189-112-246-220.static.ctbcnetsuper.com.br 0 2 67869 
177.97.226.dynamic.adsl.gvt.net.br 1 3 3697006 20121003115247
201-41-246-113.fnsce703.dsl.brasiltelecom.net.br 3 9 3953831 20121003120337
177-67-61-249.as.ultra.com.br 0 6 67869 
189.115.18.223.static.host.gvt.net.br 2 6 256825 20121004120706
189.84.220.142 0 6 67869 
201.90.235.10 2 7 492278 20121030061128
189.8.94.114 0 6 203607 
200.175.4.182.static.gvt.net.br 0 30 69488 
177.4.231.134 0 2 297729 
189-79-8-253.dsl.telesp.net.br 0 2 67869 
201-89-253-43.cscgo701.dsl.brasiltelecom.net.br 0 2 297729 
ns4.bettanin.com.br 0 12 271476 
187-55-210-155.bnut3700.e.brasiltelecom.net.br 2 4 3697006 20121017101307
bb42340d.virtua.com.br 0 2 67869 
186.251.224.214 1 13 4132092 20121026021041
c953d05b.virtua.com.br 0 24 203607 
177.97.84.dynamic.adsl.gvt.net.br 1 3 3697006 20121017105439
186-224-114-9.insidesign.com.br 1 3 2941694 20121022102506
bb25d196.virtua.com.br 0 2 67869 
200-138-205-178.fnsce702.dsl.brasiltelecom.net.br 2 6 117400 20121012075844
201.87.5.28.user.ajato.com.br 1 5 3764875 20121029125050
logtelecom.cua.gvt.net.br 3 8 40026 20121028081344
177.3.141.196 3 7 256825 20121030180207
c9066e3f.virtua.com.br 0 2 297729 
bb267149.virtua.com.br 2 5 21372 20121012164956
mold230.static.host.gvt.net.br 3 12 524716 20121025052158
201-23-177-145.gprs.claro.net.br 0 1 34744 
msnbot-157-56-229-88.search.msn.com 1 1 1715 20121007072625
msnbot-157-56-92-176.search.msn.com 2 2 3156 20121003142813
static-75-220.lhr.nokia.net 1 1 1578 20121027131224
12.195.186.5 0 2 69488 
bd65e79a.virtua.com.br 2 6 256825 20121007195945
200.182.197.130 0 6 127193 
msnbot-157-55-112-205.search.msn.com 4 4 6312 20121014082329
189-111-115-175.dsl.telesp.net.br 1 3 3697006 20121015112533
bd1d313c.virtua.com.br 1 5 3764875 20121025032747
msnbot-65-55-208-105.search.msn.com 4 4 6312 20121008002052
177-103-196-12.dsl.telesp.net.br 0 2 67869 
187.59.84.32.static.host.gvt.net.br 2 6 256825 20121011045043
201-23-177-202.gprs.claro.net.br 4 9 24802 20121012075822
189-30-126-63.fnses700.dsl.brasiltelecom.net.br 2 6 256825 20121001104433
187-55-41-234.fnses700.dsl.brasiltelecom.net.br 1 3 18302 20121010173016
186.215.116.48.static.gvt.net.br 2 6 256825 20121030054827
200-138-240-210.fnses700.dsl.brasiltelecom.net.br 2 8 134898 20121008163340
177-170-255-56.user.vivozap.com.br 0 2 67869 
189-75-3-90.fnses700.dsl.brasiltelecom.net.br 2 7 269499 20121012145506
187-42-20-198.user3g.veloxzone.com.br 0 2 297729 
189-72-105-37.fnses700.e.brasiltelecom.net.br 1 3 18654 20121004113551
187-11-237-93.dsl.telesp.net.br 2 9 291569 20121001052704
201-58-0-95.user.veloxzone.com.br 0 2 0 
msnbot-65-55-24-245.search.msn.com 1 1 1715 20121013105804
201.65.198.138 0 1 34744 
186.214.69.145.static.host.gvt.net.br 0 1 34744 
177.158.96.58.dynamic.adsl.gvt.net.br 0 2 297729 
187-55-51-204.fnses700.e.brasiltelecom.net.br 4 10 3953831 20121001091042
189-74-230-41.smace701.e.brasiltelecom.net.br 0 2 67869 
bd79abe5.virtua.com.br 2 8 663210 20121017132801
189-73-120-180.fnsce702.dsl.brasiltelecom.net.br 2 8 299437 20121005161753
cottonbaby186.static.gvt.net.br 0 2 67869 
brasilis-200-170-174-215.static.ctbctelecom.com.br 0 2 67869 
msnbot-157-55-35-38.search.msn.com 1 1 1715 20121027083601
ns.lepper.com.br 3 9 7461881 20121024033653
187.59.84.25.static.host.gvt.net.br 2 6 256825 20121008052026
msnbot-65-55-52-95.search.msn.com 1 1 0 20121020172738
177.16.164.154.static.host.gvt.net.br 1 13 3764875 20121005112731
ip-177-24-5-62.user.vivozap.com.br 2 5 32516 20121006162206
b152896f.virtua.com.br 1 3 18654 20121003160711
200-138-214-120.fnsce702.dsl.brasiltelecom.net.br 2 6 38402 20121014070703
177-139-156-242.dsl.telesp.net.br 2 6 141494 20121016063620
189-015-217-127.xd-dynamic.ctbcnetsuper.com.br 1 6 3765878 20121018205312
177.97.153.dynamic.adsl.gvt.net.br 0 2 297729 
msnbot-65-55-208-83.search.msn.com 1 1 1578 20121030135635
bd7b49c6.virtua.com.br 0 2 67869 
189-30-125-76.dsl.fnses700.brasiltelecom.net.br 2 6 109550 20121028143338
177.97.158.dynamic.adsl.gvt.net.br 1 3 33125 20121005094403
186.215.145.221.static.gvt.net.br 0 2 67869 
ec2-107-20-110-180.compute-1.amazonaws.com 1 1 1578 20121016134817
201-0-213-131.dial-up.telesp.net.br 0 1 0 
187-26-138-77.3g.claro.net.br 2 6 256825 20121014103923
201-11-103-232.jvece7001.e.brasiltelecom.net.br 0 6 118649 
189-30-74-52.fnses700.dsl.brasiltelecom.net.br 2 6 256825 20121004102022
200-180-66-139.fnses700.dsl.brasiltelecom.net.br 3 9 996947 20121029174654
200-148-244-202.customer.tdatabrasil.net.br 0 2 67869 
186.215.112.209.static.host.gvt.net.br 1 3 18654 20121012184907
189-112-220-019.static.ctbctelecom.com.br 0 4 135738 
177.137.172.10 0 3 311954 
177-75-176-13.juntotelecom.com.br 0 2 297729 
msnbot-157-56-93-230.search.msn.com 2 2 3156 20121004230248
ns2.ceramicaportoferreira.com.br 0 5 172101 
msnbot-157-56-93-221.search.msn.com 2 2 3156 20121003141817
wtp-g8-maya7.iad1 1 2 2718 20121030031907
187-7-31-49.fnses700.dsl.brasiltelecom.net.br 2 7 492278 20121007122746
177.97.217.dynamic.adsl.gvt.net.br 0 2 67869 
177.3.142.52 1 3 18654 20121011163014
69.171.228.244 0 1 4929 
187-52-175-227.bnut3700.e.brasiltelecom.net.br 0 1 33125 
177.55.180.239 0 1 0 
badfd0db.virtua.com.br 0 6 34744 
189-79-46-2.dsl.telesp.net.br 0 2 67869 
200-180-66-32.fnses700.dsl.brasiltelecom.net.br 2 6 256825 20121018174433
bd04feba.virtua.com.br 0 1 34744 
201-23-160-172.gprs.claro.net.br 0 4 67869 
mail.jaguare.com.br 0 2 67869 
189-108-9-42.customer.tdatabrasil.net.br 0 2 67869 
200-158-2-26.dsl.telesp.net.br 0 2 67869 
177.133.161.45.dynamic.adsl.gvt.net.br 1 8 4063265 20121023085740
201-35-252-161.fnses700.dsl.brasiltelecom.net.br 2 6 256825 20121011085303
187.113.151.161.dynamic.adsl.gvt.net.br 0 2 67869 
189-73-88-149.e.ccoce700.brasiltelecom.net.br 0 2 297729 
host-57-53-230-24.midco.net 1 1 1578 20121027044248
187-13-132-137.user.veloxzone.com.br 0 2 27128 
200-236-229-6.desktop.com.br 0 4 67628 
200-233-54-183.user.ajato.com.br 0 2 67869 
201-67-169-253.fnses700.dsl.brasiltelecom.net.br 2 6 256825 20121013092236
187.115.122.210.static.host.gvt.net.br 3 7 256825 20121009105431
189-30-125-49.dsl.fnses700.brasiltelecom.net.br 2 6 256825 20121024154336
201.67.211.86 2 6 44778 20121006123014
baccde2f.virtua.com.br 0 1 34744 
bd79f2dc.virtua.com.br 0 2 297729 
189.22.57.180 0 2 31110 
189-110-29-192.dsl.telesp.net.br 2 4 68571 20121016070752
189-68-254-219.dsl.telesp.net.br 0 2 69488 
187.59.84.59.static.host.gvt.net.br 2 6 144818 20121024182530
texas.casasfretta.com.br 3 9 131612 20121018061114
187-35-73-109.dsl.telesp.net.br 1 1 1715 20121011111242
b1b687f7.virtua.com.br 0 2 67869 
208.115.113.91 2 2 3156 20121030131311
webmail.estrada.com.br 0 2 67869 
msnbot-157-56-229-138.search.msn.com 2 2 3156 20121022180337
177-163-166-27.user.vivozap.com.br 2 6 256825 20121021101431
189-112-169-001.static.ctbctelecom.com.br 0 1 34744 
187.7.5.71 2 6 239196 20121022115641
msnbot-65-55-208-97.search.msn.com 2 2 3156 20121006095738
mvx-189-91-66-11.mundivox.com 2 12 720440 20121022073233
msnbot-65-55-208-186.search.msn.com 2 2 3156 20121026234728
177.99.137.dynamic.adsl.gvt.net.br 3 4 0 20121002055349
mail.bioagriambiental.com.br 0 1 34744 
189-72-86.fnses700.dsl.brasiltelecom.net.br 1 3 18654 20121011121834
msnbot-157-55-33-98.search.msn.com 2 2 0 20121001092132
187-55-4-65.fnsce704.dsl.brasiltelecom.net.br 2 6 38402 20121023183505
msnbot-65-55-208-87.search.msn.com 1 1 1578 20121015192509
187-55-2-211.fnses700.dsl.brasiltelecom.net.br 1 3 18654 20121005172426
69.171.234.4 0 1 4929 
189.115.16.81.static.host.gvt.net.br 2 6 256825 20121001165313
189-31-92-232.fnses700.dsl.brasiltelecom.net.br 2 6 256825 20121005180028
187-121-112-173.corp.ajato.com.br 0 4 135738 
bd66d7df.virtua.com.br 0 2 297729 
msnbot-157-56-93-214.search.msn.com 2 2 3156 20121021143533
mail.tonederm.com.br 1 71 3900613 20121030031359
177.2.63.249 1 3 18654 20121009071048
msnbot-157-56-92-172.search.msn.com 2 2 3156 20121007215938
201.55.86.202 0 11 0 
msnbot-207-46-199-24.search.msn.com 3 3 4734 20121006103309
bd79e029.virtua.com.br 5 9 26243 20121003193727
201-35-226-163.fnsce701.dsl.brasiltelecom.net.br 2 6 61578 20121004193133
msnbot-65-55-208-49.search.msn.com 2 2 3156 20121018112932
static-75-181.lhr.nokia.net 0 1 12147 
187.59.84.31.static.host.gvt.net.br 3 6 22950 20121004155703
bd79b2bd.virtua.com.br 3 9 3953831 20121004112914
abcd-burst2.yasni.de 0 2 845422 
msnbot-65-55-208-161.search.msn.com 2 2 3156 20121020145235
186.225.29.210 2 5 71611 20121009064929
186.215.149.44.static.gvt.net.br 0 2 67869 
msnbot-157-55-33-86.search.msn.com 5 5 3156 20121031234003
177.133.163.42.dynamic.adsl.gvt.net.br 0 2 0 
187.59.84.148.static.host.gvt.net.br 2 6 256825 20121029095817
177.3.143.164 2 6 168474 20121022175426
177.157.211.28.dynamic.adsl.gvt.net.br 0 6 204268 
tvc.tv222.static.gvt.net.br 5 15 532304 20121009154106
189.115.16.112.static.host.gvt.net.br 1 3 18654 20121004165116
187-11-148-188.dsl.telesp.net.br 0 1 3023 
187-55-14-158.fnses700.dsl.brasiltelecom.net.br 2 6 256825 20121006135805
186.214.25.189.dynamic.adsl.gvt.net.br 4 4 0 20121010071402
189.115.24.115.stat.gvt.net.br 2 7 268972 20121028112133
177-102-192-54.dsl.telesp.net.br 0 6 104232 
189-30-105-137.dsl.fnses700.brasiltelecom.net.br 5 13 269975 20121014125952
bd05142c.virtua.com.br 0 2 297729 
69.28.58.70 1 1 1578 20121024194327
177.18.252.49.static.host.gvt.net.br 0 2 69488 
177.18.75.14.static.host.gvt.net.br 0 3 592435 
189.100.104.30 0 2 69488 
b18ce7c5.virtua.com.br 0 2 69488 
187-123-137-162.cpegta.eviaembratel.net.br 0 2 297729 
187-11-253-221.dsl.telesp.net.br 0 8 0 
bb686760.virtua.com.br 0 2 67869 
out-ar4.tfbnw.net 0 2 9858 
bb27283d.virtua.com.br 2 6 88138 20121028193630
bd22e78d.virtua.com.br 2 6 256825 20121006112005
hosted-by.leaseweb.com 2 2 3156 20121004094813
201-92-184-171.dsl.telesp.net.br 0 2 297729 
angraex.com.br 0 7 206548 
177-103-220-177.dsl.telesp.net.br 0 2 67869 
69.171.229.118 0 2 9858 
177-0-124-134.gnace704.dsl.brasiltelecom.net.br 0 2 297729 
200-225-216-217.static.ctbctelecom.com.br 0 5 118878 
177.55.181.128 0 3 0 
mail.guararemahotel.com.br 2 9 631799 20121010072038
187-52-173-131.bnut3703.e.brasiltelecom.net.br 0 4 67869 
msnbot-157-55-35-87.search.msn.com 2 2 0 20121026031557
server187162.santrex.net 1 1 1578 20121002143916
c934dd1f.virtua.com.br 0 3 0 
r241-pw-piqueri.ibys.com.br 0 2 67869 
200.231.24.3 0 1 34744 
177-9-252-229.dsl.telesp.net.br 0 1 34744 
200-157-145-222.ded.intelignet.com.br 1 29 3764875 20121010124915
177.99.151.dynamic.adsl.gvt.net.br 1 11 3994735 20121029130144
201-14-168-245.fnsce701.dsl.brasiltelecom.net.br 2 6 211780 20121004104207
201-23-188-64.gprs.claro.net.br 0 2 0 
msnbot-65-55-210-194.search.msn.com 2 2 3156 20121010034532
189-11-190-115.fnses700.dsl.brasiltelecom.net.br 2 6 253532 20121008183455
mail.acinh.com.br 1 6 4243618 20121030042252
189-041-192-109.xd-dynamic.ctbcnetsuper.com.br 0 2 67869 
200.185.144.65 0 2 297729 
mail.webassist.com.br 1 3 3697006 20121003132751
200.152.69.114 0 2 67869 
177.98.36.dynamic.adsl.gvt.net.br 0 2 67869 
187.59.119.80.static.host.gvt.net.br 0 1 34744 
189-30-108-52.dsl.fnses700.brasiltelecom.net.br 2 5 21372 20121003183217
177-139-153-97.dsl.telesp.net.br 0 34 208464 
186-201-15-93.customer.tdatabrasil.net.br 0 3 137060 
ks387326.kimsufi.com 1 1 1578 20121012033149
b1c010df.virtua.com.br 0 2 297729 
189-041-25-178.xd-dynamic.ctbcnetsuper.com.br 0 2 67869 
200-232-75-226.albnet.com.br 0 2 67869 
msnbot-65-55-208-101.search.msn.com 1 1 1578 20121001141911
vpn.morelli.com.br 0 8 0 
187.112.251.161.static.host.gvt.net.br 2 6 256825 20121002044933
189-72-124-191.fnses700.dsl.brasiltelecom.net.br 1 3 18654 20121005111023
65.49.14.75 2 6 256825 20121003084700
unknown.hwng.net 2 6 256825 20121005053433
177.18.248.73.static.host.gvt.net.br 1 5 719235 20121008105557
189-48-169-185.user.veloxzone.com.br 0 1 75110 
177.40.102.190.static.host.gvt.net.br 2 9 638525 20121003104542
msnbot-65-52-111-214.search.msn.com 3 3 4734 20121008001717
msnbot-157-55-16-95.search.msn.com 2 2 3156 20121012043231
177.157.148.249.dynamic.adsl.gvt.net.br 1 3 3697006 20121018185850
webserver.ceramicaportoferreira.com.br 0 1 34744 
69.171.247.1 0 1 4929 
bb03ca3f.virtua.com.br 0 2 297729 
177-069-196-194.static.ctbctelecom.com.br 0 2 67869 
189-110-199-59.dsl.telesp.net.br 0 1 34744 
69.171.237.2 0 1 4929 
177.18.211.121.static.host.gvt.net.br 0 2 67869 
c906fb37.virtua.com.br 0 2 50354 
189-110-205-111.dsl.telesp.net.br 0 2 69488 
189-110-233-33.dsl.telesp.net.br 0 2 67869 
bb254c5a.virtua.com.br 0 2 69488 
189-73-79-219.fnses700.dsl.brasiltelecom.net.br 0 2 297729 
189-19-191-127.dsl.telesp.net.br 1 3 64886 20121005114350
189-78-109-7.dsl.telesp.net.br 0 2 297729 
bb429d7f.virtua.com.br 0 1 34744 
badcb521.virtua.com.br 0 1 17003 
184-22-183-114.static.hostnoc.net 0 1 422711 
b1218c19.virtua.com.br 0 2 67869 
177-0-224-99.fnses700.dsl.brasiltelecom.net.br 1 3 18654 20121005072120
201-93-57-185.dial-up.telesp.net.br 0 2 297729 
server8.mkm.net.br 1 3 0 20121002072616
201-14-169-15.fnses700.dsl.brasiltelecom.net.br 2 6 256825 20121004153347
187-121-88-127.res.ajato.com.br 0 1 0 
msnbot-157-56-229-187.search.msn.com 1 1 0 20121026071220
ns39641.ovh.net 1 1 1578 20121003015102
187-74-224-191.dsl.telesp.net.br 0 4 67869 
sls-gb15p2.dca2.superb.net 1 1 0 20121018204624
173.252.100.113 0 1 4929 
189-30-108-215.dsl.fnses700.brasiltelecom.net.br 2 6 118262 20121025161000
static-75-245.lhr.nokia.net 0 1 25670 
189-95-43-188.3g.claro.net.br 0 2 67869 
189-92-31-56.3g.claro.net.br 0 6 201988 
200-102-14-40.fnsce703.dsl.brasiltelecom.net.br 4 8 256825 20121016142551
189-041-55-178.xd-dynamic.ctbcnetsuper.com.br 0 2 67869 
177.97.235.dynamic.adsl.gvt.net.br 0 2 67869 
201-29-117-226.user.veloxzone.com.br 2 7 269499 20121023070648
mail.facilcardplus.com.br 0 2 67869 
200-215-64-79.fnsce701.dsl.brasiltelecom.net.br 2 6 61298 20121025125409
160.red-213-99-202.dynamicip.rima-tde.net 0 2 297729 
msnbot-207-46-193-48.search.msn.com 1 1 1578 20121030062452
bacc45a9.virtua.com.br 0 6 104232 
187-50-41-58.customer.tdatabrasil.net.br 0 4 135738 
187.59.85.113.static.host.gvt.net.br 1 3 18654 20121025181946
msnbot-65-55-208-51.search.msn.com 1 1 1578 20121029010613
186.214.118.217.static.host.gvt.net.br 0 4 595458 
static-75-243.lhr.nokia.net 1 1 1715 20121027131225
187-27-148-2.3g.claro.net.br 0 1 11867 
201-25-202-43.fnsce702.dsl.brasiltelecom.net.br 2 6 206834 20121004062309
200.99.7.194 1 3 3697006 20121030131336
200-236-230-208.desktop.com.br 1 9 3764875 20121015131208
bb41e670.virtua.com.br 0 2 67869 
msnbot-157-55-35-44.search.msn.com 5 5 0 20121019095911
jmc.jmcprod.com.br 0 1 34744 
bd1d934e.virtua.com.br 0 1 34744 
177.18.223.87.static.host.gvt.net.br 5 27 6414743 20121008111108
189-110-242-35.dsl.telesp.net.br 0 3 102613 
200-153-197-97.dsl.telesp.net.br 0 10 203607 
c950c56c.virtua.com.br 0 4 103274 
fw1.mannes.com.br 0 2 67869 
as28165-187-62-214-243.wcs.net.br 0 2 67869 
pool-71-176-122-244.syrcny.fios.verizon.net 1 1 1578 20121009022137
200.162.199.196 2 8 326313 20121002165558
mx1.gyotoku.com.br 0 2 67869 
mail.stara.com.br 1 7 3832744 20121001125631
189-20-53-101.customer.tdatabrasil.net.br 0 2 67869 
187-35-144-185.dsl.telesp.net.br 0 14 0 
msnbot-157-55-32-82.search.msn.com 4 4 1578 20121010034435
wtp-g3-maya9.sjdc 1 2 2581 20121009073746
177-64-10-142.tec_oco.viaembratel.net.br 0 8 138976 
85.195.101.146 1 1 1578 20121001143041
177.41.254.97.static.host.gvt.net.br 2 6 256825 20121002092314
187-79-93-206.user.veloxzone.com.br 0 2 297729 
200-168-46-245.speedyterra.com.br 0 4 135738 
189-110-194-44.dsl.telesp.net.br 0 1 34744 
msnbot-157-56-93-251.search.msn.com 2 2 3156 20121005190455
142-158-154-149.static.edis.at 1 1 1578 20121021042237
b12004f3.virtua.com.br 0 2 67869 
a.ns.coltex.com.br 1 6 138456 20121018130956
msnbot-157-56-92-173.search.msn.com 2 2 3156 20121004231616
187-52-136-234.fnses700.e.brasiltelecom.net.br 2 6 256825 20121008130206
69.171.237.5 0 1 4929 
200-195-176-52.static.copel.net 1 5 3764875 20121031044317
acesso2.hobart.com.br 0 4 135738 
msnbot-157-56-93-212.search.msn.com 2 2 3156 20121024173941
69.171.224.6 0 1 4929 
200.242.128.222 1 11 3764875 20121025035609
END_VISITOR

# Date - Pages - Hits - Bandwidth - Visits
BEGIN_DAY 31
20121001 25 196 19215259 15
20121002 24 122 11078758 13
20121003 53 214 24319829 26
20121004 33 149 14236927 18
20121005 24 143 9782478 16
20121006 22 57 1716694 14
20121007 12 30 1194449 8
20121008 40 220 12852916 18
20121009 32 179 11486267 17
20121010 22 116 6163221 11
20121011 23 78 6400513 14
20121012 30 85 5656650 16
20121013 9 16 3996602 6
20121014 17 44 1445169 6
20121015 30 164 26032086 19
20121016 30 114 10889612 16
20121017 27 121 26174811 15
20121018 30 156 34014881 21
20121019 8 44 5078993 6
20121020 8 19 628107 5
20121021 5 24 1307947 3
20121022 14 104 5875357 8
20121023 22 146 15734372 11
20121024 23 133 21634529 13
20121025 22 121 14450414 14
20121026 11 75 8878850 9
20121027 24 73 3172578 14
20121028 17 45 882971 10
20121029 21 170 14560355 11
20121030 34 290 31354579 23
20121031 12 168 10377291 8
END_DAY

# Session range - Number of visits
BEGIN_SESSION 7
1h+ 2
5mn-15mn 5
0s-30s 337
30s-2mn 45
2mn-5mn 8
15mn-30mn 3
30mn-1h 4
END_SESSION

# URL - Pages - Bandwidth - Entry - Exit
# The 10 first Pages must be first (order not required for others)
BEGIN_SIDER 5
/ 385 516006 298 154
/site.html 175 291550 5 144
/eventos/ 127 205800 92 96
/webmail/ 16 1755 9 9
/clips/01/clips_01.html 1 2871 0 1
END_SIDER
