AWSTATS DATA FILE 6.4 (build 1.814)
# If you remove this file, all statistics for date 2011-08 will be lost/reset.

# Position (offset in bytes) in this file of beginning of each section for
# direct I/O access. If you made changes somewhere in this file, you should
# also remove completely the MAP section (AWStats will rewrite it at next
# update).
BEGIN_MAP 27
POS_GENERAL 1865                
POS_TIME 2547                
POS_VISITOR 14377               
POS_DAY 43082               
POS_DOMAIN 3324                
POS_LOGIN 3655                
POS_ROBOT 3810                
POS_WORMS 4199                
POS_EMAILSENDER 4330                
POS_EMAILRECEIVER 4473                
POS_SESSION 43951               
POS_SIDER 44159               
POS_FILETYPES 4608                
POS_OS 4774                
POS_BROWSER 4916                
POS_SCREENSIZE 5253                
POS_UNKNOWNREFERER 5327                
POS_UNKNOWNREFERERBROWSER 6242                
POS_ORIGIN 6764                
POS_SEREFERRALS 6907                
POS_PAGEREFS 7074                
POS_SEARCHWORDS 10708               
POS_KEYWORDS 11117               
POS_MISC 2210                
POS_ERRORS 11423               
POS_CLUSTER 3511                
POS_SIDER_404 11537               
END_MAP

# LastLine    = Date of last record processed - Last record line number in last log - Last record offset in last log - Last record signature value
# FirstTime   = Date of first visit for history file
# LastTime    = Date of last visit for history file
# LastUpdate  = Date of last update - Nb of parsed records - Nb of parsed old records - Nb of parsed new records - Nb of parsed corrupted - Nb of parsed dropped
# TotalVisits = Number of visits
# TotalUnique = Number of unique visitors
# MonthHostsKnown   = Number of hosts known
# MonthHostsUnKnown = Number of hosts unknown
BEGIN_GENERAL 8
LastLine 20110901040550 18581 4527993 80426987166
FirstTime 20110801022853
LastTime 20110831204719
LastUpdate 20110901045528 95 0 94 0 0
TotalVisits 383                 
TotalUnique 299                 
MonthHostsKnown 484                 
MonthHostsUnknown 103                 
END_GENERAL

# Misc ID - Pages - Hits - Bandwidth
BEGIN_MISC 10
QuickTimeSupport 0 0 0
JavaEnabled 0 0 0
JavascriptDisabled 0 0 0
PDFSupport 0 0 0
WindowsMediaPlayerSupport 0 0 0
AddToFavourites 0 81 0
RealPlayerSupport 0 0 0
TotalMisc 0 0 0
DirectorSupport 0 0 0
FlashSupport 0 0 0
END_MISC

# Hour - Pages - Hits - Bandwidth - Not viewed Pages - Not viewed Hits - Not viewed Bandwidth
BEGIN_TIME 24
0 7 7 7890 6 6 0
1 8 10 107014 14 15 3156
2 9 10 11046 7 7 0
3 16 36 6389667 14 14 352
4 18 66 9171051 17 19 39532
5 33 141 6238908 115 117 92832
6 46 294 25059604 15 18 111745
7 65 502 37967425 29 31 24888
8 33 230 18354523 6 6 2986
9 62 351 9130795 31 36 412000
10 40 292 26226862 19 22 124847
11 43 343 27177656 36 43 449864
12 42 392 24799132 13 15 238256
13 31 274 25174132 11 15 251120
14 15 72 7550142 5 7 218380
15 20 68 5322201 5 6 1579
16 26 88 3530134 5 15 346075
17 26 85 2492021 9 14 693339
18 36 86 2149325 4 9 313767
19 19 55 1565308 2 5 208441
20 7 12 250425 5 5 3156
21 20 42 5202488 6 7 2634
22 4 4 3156 3 3 0
23 4 4 6312 6 7 13725
END_TIME

# Domain - Pages - Hits - Bandwidth
# The 10 first Pages must be first (order not required for others)
BEGIN_DOMAIN 7
br 432 2703 182307657
ip 88 636 52292648
com 83 86 200367
org 14 18 64949
net 9 15 6047256
sjdc 3 5 2972762
uk 1 1 1578
END_DOMAIN

# Cluster ID - Pages - Hits - Bandwidth
BEGIN_CLUSTER 0
END_CLUSTER

# Login - Pages - Hits - Bandwidth - Last visit
# The 10 first Pages must be first (order not required for others)
BEGIN_LOGIN 0
END_LOGIN

# Robot ID - Hits - Bandwidth - Last visit - Hits on robots.txt
# The 10 first Hits must be first (order not required for others)
BEGIN_ROBOT 8
yandex 20 39168 20110831134346 0
googlebot 13 3293 20110830171140 0
slurp 4 6312 20110826203247 0
msnbot 2 13725 20110804183710 0
larbin 1 1578 20110814055806 0
msiecrawler 1 1578 20110811083901 0
netcraft 1 1578 20110824201635 0
robot 1 0 20110818051528 0
END_ROBOT

# Worm ID - Hits - Bandwidth - Last visit
# The 5 first Hits must be first (order not required for others)
BEGIN_WORMS 0
END_WORMS

# EMail - Hits - Bandwidth - Last visit
# The 20 first Hits must be first (order not required for others)
BEGIN_EMAILSENDER 0
END_EMAILSENDER

# EMail - Hits - Bandwidth - Last visit
# The 20 first hits must be first (order not required for others)
BEGIN_EMAILRECEIVER 0
END_EMAILRECEIVER

# Files type - Hits - Bandwidth - Bandwidth without compression - Bandwidth after compression
BEGIN_FILETYPES 6
html 629 794587 0 0
js 233 235725 0 0
jpg 2340 28750998 0 0
Unknown 1 1715 0 0
gif 2 144234 0 0
swf 259 213959958 0 0
END_FILETYPES

# OS ID - Hits
BEGIN_OS 10
winlong 189
winxp 2080
win2000 1
symbian 5
winnt 968
win98 1
linux 8
macosx 100
win2003 4
Unknown 108
END_OS

# Browser ID - Hits
BEGIN_BROWSER 22
msie6.0 808
firefox5.0 84
firefox4.0.1 8
firefox3.6 2
firefox7.0 6
opera 5
firefox4.0 8
msie5.5 1
lotus\-notes 1
msie8.0 701
firefox2.0.0.11 1
nokia 1
mozilla 109
firefox6.0.1 3
msie7.0 991
firefox5.0.1 8
firefox6.0 64
firefox3.6.18 49
firefox3.6.20 17
msie9.0 88
Unknown 29
safari 480
END_BROWSER

# Screen size - Hits
BEGIN_SCREENSIZE 0
END_SCREENSIZE

# Unknown referer OS - Last visit date
BEGIN_UNKNOWNREFERER 11
LG-KP570_Teleca/WAP2.0_MIDP-2.0/CLDC-1.1 20110811092134
Microsoft_Windows_Network_Diagnostics 20110825063408
Opera/9.80_(J2ME/MIDP;_Opera_Mini/4.1.15082/25.729;_U;_en)_Presto/2.5.25_Version/10.54 20110826014729
ZeenBot_(http://www.zeen.com.br) 20110831175739
SAMSUNG-GT-S3650/1.0_SHP/VPP/R5_Jasmine/1.0_Nextreaming_SMM-MMS/1.2.0_profile/MIDP-2.1_configuration/CLDC-1.1 20110823120708
- 20110807052808
Mozilla/5.0_(en-us)_AppleWebKit/534.14_(KHTML,_like_Gecko;_Google_Wireless_Transcoder)_Chrome/9.0.597_Safari/534.14 20110822122236
Mozilla/5.0_(compatible;_bingbot/2.0;__http://www.bing.com/bingbot.htm) 20110831150536
Mozilla/5.0_(compatible;_Purebot/1.1;__http://www.puritysearch.net/) 20110813090351
ClamAV_0.95.3 20110801111731
Mozilla/5.0_(compatible;_MJ12bot/v1.4.0;_http://www.majestic12.co.uk/bot.php?_) 20110831065933
END_UNKNOWNREFERER

# Unknown referer Browser - Last visit date
BEGIN_UNKNOWNREFERERBROWSER 7
- 20110807052808
LG-KP570_Teleca/WAP2.0_MIDP-2.0/CLDC-1.1 20110811092134
SAMSUNG-GT-S3650/1.0_SHP/VPP/R5_Jasmine/1.0_Nextreaming_SMM-MMS/1.2.0_profile/MIDP-2.1_configuration/CLDC-1.1 20110823120708
Microsoft_Windows_Network_Diagnostics 20110825063408
Microsoft_Office/14.0_(Windows_NT_6.1;_Microsoft_Outlook_14.0.5128;_Pro;_ms-office;_MSOffice_14) 20110816102228
ClamAV_0.95.3 20110801111731
ZeenBot_(http://www.zeen.com.br) 20110831175739
END_UNKNOWNREFERERBROWSER

# Origin - Pages - Hits 
BEGIN_ORIGIN 6
From0 487 1538
From1 0 0
From2 14 14
From3 37 981
From4 92 931
From5 0 0
END_ORIGIN

# Search engine referers ID - Pages - Hits
BEGIN_SEREFERRALS 2
google 13 13
yahoo 1 1
END_SEREFERRALS

# External page referers - Pages - Hits
# The 10 first Pages must be first (order not required for others)
BEGIN_PAGEREFS 62
http://www.dentalis.com.br/flash/hotsite_7.swf 4 4
http://www.easyfor.com.br/site.swf 4 4
http://br.bing.com/search 4 4
http://www.bing.com/search 3 3
http://www.newmind.com.br 2 2
http://www.ferpak.com.br/intro.swf 2 2
http://webmail.snakepro.com.br 1 1
http://by161w.bay161.mail.live.com/default.aspx 1 1
http://www.easyfor.com.br/site.html 1 1
http://beta.locamail.com.br 1 1
http://71.6.217.131/mail/writemail.html 0 373
http://gscomunicacao.blogspot.com/2009_10_01_archive.html 0 4
http://mail.terra.com.br/104.6trr/reademail.php 0 8
http://beta.locamail.com.br 0 1
http://gscomunicacao.blogspot.com 0 34
http://gscomunicacao.blogspot.com/2011/02/santiago-e-cintra-na-mundo-geo-connect.html 0 10
http://gscomunicacao.blogspot.com/2009/05/vestibular-de-moda-fefisa.html 0 2
http://sn121w.snt121.mail.live.com/mail/InboxLight.aspx 0 2
http://sn108w.snt108.mail.live.com/mail/InboxLight.aspx 0 3
http://webmail.fsyachts.com.br/3rdparty/roundcube/ 0 1
http://by162w.bay162.mail.live.com/mail/InboxLight.aspx 0 3
http://mail.terra.com.br/105.0trr/reademail.php 0 8
http://gscomunicacao.blogspot.com/2011/08/hitachi-na-broadcast-2011.html 0 4
http://gscomunicacao.blogspot.com/2010/06/o-grupo-bimbo-do-brasil-e-sucesso-na.html 0 18
http://mail.terra.com.br/104.6trr/compose.php 0 1
http://webmail.dsimport.com.br/Session/3855179-FJl4lgrDSN1CaF8JW33O-aoganjy/message.wssp 0 1
http://www.mnconsultoria.com.br/site.swf 1 1
http://gscomunicacao.blogspot.com/2010/04/rotary-club.html 0 2
http://www.ferpak.com.br 1 1
http://bl150w.blu150.mail.live.com/mail/InboxLight.aspx 0 8
http://gscomunicacao.blogspot.com/2011/08/primotech-21-na-broadcast-2011.html 0 2
http://gscomunicacao.blogspot.com/2011/05/gs-ganha-concorrencia-da-geo-position.html 0 4
http://gscomunicacao.blogspot.com/2011/07/geo-position-marca-presenca-em-evento.html 1 11
http://gscomunicacao.blogspot.com/2011/05/easy-for-e-sucesso-na-cards-2011.html 0 2
http://71.6.217.131/mail/viewaction.html 0 91
http://stampspumas.com.br/novo/ 0 1
http://www.mognomarcenaria.com.br/site.swf 1 1
http://webmail.novaerastands.com.br/mod_perl/inmail.pl 0 1
http://mnconsultoria.com.br 1 1
http://71.6.217.131/mail/view.html 1 296
http://gscomunicacao.blogspot.com/2011/05/gross-cargo-na-intermodal-2011.html 0 2
http://webmail.acrinil.com.br:32000/webmail/ 1 1
http://assist.babylon.com/babylonassista/dnsassist/main 1 1
http://mail.mailig.ig.com.br/mail/ 0 6
http://www.abazhur.com/Svetilniki-3/Lyustra-Xrustalnaya-60/ 1 1
http://gscomunicacao.blogspot.com/2009/07/e-nossa.html 0 4
http://www.newmind.com.br/portifolio6.swf 1 1
http://www.webmail.proactions.com.br/beta/mail/ 0 1
http://www.mnconsultoria.com.br 1 1
http://mail.terra.com.br/105.0trr/compose.php 0 1
http://36ohk6dgmcd1n.yom.mail.yahoo.net/om/api/1.0/openmail.app.invoke/36ohk6dgmcd1n/4/1.0.35/br/pt-BR/view.html 0 3
http://mail.terra.com.br/104.6trr/sendmail.php 0 1
http://www.stampspumas.com.br/novo/ 1 14
http://gscomunicacao.blogspot.com/2009/05/eb-blindados.html 0 2
http://gscomunicacao.blogspot.com/2009_05_01_archive.html 0 8
http://gscomunicacao.blogspot.com/2011/02/imagens-stand-trident-2011.html 0 4
http://co104w.col104.mail.live.com/mail/InboxLight.aspx 1 1
http://br.mg5.mail.yahoo.com/neo/launch 0 1
http://gscomunicacao.blogspot.com/2010/12/escola-great-idiomas-especializada-em.html 0 2
http://curtasfefisa.blogspot.com/2009/08/galeria-de-videos.html 0 6
http://www.newmind.com.br/index-2011.swf 1 1
http://www.makformas.com.br/webmail/readmsg.php 0 1
END_PAGEREFS

# Search keyphrases - Number of search
# The 10 first number of search must be first (order not required for others)
BEGIN_SEARCHWORDS 10
gs+comunica%c3%a7%c3%a3o 4
gs+comunicacao 2
http+//www.gscomunicacao.com.br/ 1
gs+comunica%c3%a7%c3%b5es 1
gs+comunica%c3%87%c3%83o 1
gsmcomunica%c3%87%c3%95es 1
gscomunica%c3%a7%c3%a3o 1
http+//gscomunicacao.com.br/ 1
gmcomuncacao 1
gscomunicacao.com.b 1
END_SEARCHWORDS

# Search keywords - Number of search
# The 10 first number of search must be first (order not required for others)
BEGIN_KEYWORDS 12
gs 8
comunica%c3%a7%c3%a3o 4
comunicacao 2
http 2
gsmcomunica%c3%87%c3%95es 1
//www.gscomunicacao.com.br/ 1
gscomunica%c3%a7%c3%a3o 1
comunica%c3%87%c3%83o 1
//gscomunicacao.com.br/ 1
gmcomuncacao 1
comunica%c3%a7%c3%b5es 1
gscomunicacao.com.b 1
END_KEYWORDS

# Errors - Hits - Bandwidth
BEGIN_ERRORS 3
206 51 3444742
301 135 40700
404 213 0
END_ERRORS

# URL with 404 errors - Hits - Last URL referer
BEGIN_SIDER_404 102
/email/faixa-e-mailjpg 2 http://71.6.217.131/mail/view.html
//phpMyAdmin-2.6.1-pl2/ 1 -
//mysqladmin/ 1 -
//phpMyAdmin-2.6.1-pl3/ 1 -
/robots.txt 108 -
//websql/ 1 -
//phpMyAdmin-2.6.0-alpha/ 1 -
//phpMyAdmin-3.0.1.1/ 1 -
//phpMyAdmin-2.11.9.4/ 1 -
//phpMyAdmin-2.5.6-rc1/ 1 -
//phpMyAdmin-3.1.2.0/ 1 -
//phpMyAdmin-2.8.2/ 1 -
//phpMyAdmin-2.11.9.0/ 1 -
/eventos/email.jpg] 1 -
//typo3/phpmyadmin/ 1 -
//phpMyAdmin-2.7.0-beta1/ 1 -
//phpMyAdmin-2.10.2.0/ 1 -
//phpMyAdmin-2.6.0-rc1/ 1 -
//phpMyAdmin-2.6.2-pl1/ 1 -
//phpMyAdmin-2.11.2.0/ 1 -
//phpMyAdmin-2.6.3-rc1/ 1 -
//phpMyAdmin-2.5.7-pl1/ 1 -
//webadmin/ 1 -
//phpMyAdmin-2.2.6/ 1 -
//pma2005/ 1 -
//phpMyAdmin-2.8.0.3/ 1 -
//phpmyadmin2/ 1 -
//phpMyAdmin-2.5.1/ 1 -
//phpMyAdmin-2.2.3/ 1 -
//phpMyAdmin-2.11.9.1/ 1 -
//xampp/phpmyadmin/ 1 -
//phpMyAdmin-2.11.1.2/ 1 -
//phpMyAdmin-2.11.2.2/ 1 -
//admn/ 1 -
//phpMyAdmin-2.6.4/ 1 -
//phpMyAdmin-2.6.0-beta2/ 1 -
//phpMyAdmin-2.5.5/ 1 -
//phpMyAdmin-2.6.4-pl1/ 1 -
//phpmy-admin/ 1 -
//phpMyAdmin-2.6.1/ 1 -
//phpMyAdmin-2.5.4/ 1 -
//phpMyAdmin-2.11.5.1/ 1 -
//phpMyAdmin-2.8.0/ 1 -
//pma2008/ 1 -
//p/m/a/ 1 -
//phpMyAdmin-3.0.2.0/ 1 -
//phpMyAdmin-2.5.5-rc2/ 1 -
//phpMyAdmin-2.6.0-pl2/ 1 -
//phpMyAdmin-2.11.0.0/ 1 -
//phpMyAdmin-2.6.0/ 1 -
//PMA2005/ 1 -
/wp-login.php 1 -
//phpMyAdmin-2.8.1/ 1 -
//phpMyAdmin-2.11.7.0/ 1 -
/V20xRmRRPT0K 1 -
//phpMyAdmin-3.0.0.0/ 1 -
//phpMyAdmin/ 2 -
//phpmyadmin1/ 1 -
//phpMyAdmin-2.6.4-pl2/ 1 -
//phpMyAdmin-3.4.3.1-all-languages/ 1 -
//pma/ 1 -
//phpMyAdmin-2.9.2/ 1 -
//phpMyAdmin-2.6.0-rc3/ 1 -
//phpMyAdmin-2.8.0.4/ 1 -
//phpMyAdmin-2.11.4.0/ 1 -
//phpMyAdmin-2.11.9.2/ 1 -
//pma2006/ 1 -
//phpMyAdmin-2.6.1-pl1/ 1 -
//phpMyAdmin-2.11.8.0/ 1 -
//phpMyAdmin-2.10.0.1/ 1 -
//phpMyAdmin-2.6.4-pl4/ 1 -
//phpMyAdmin-2.6.2/ 1 -
//mysql-admin/ 1 -
//phpMyAdmin-2.8.0-rc2/ 1 -
//phpMyAdmin-2.6.4-pl3/ 1 -
//phpMyAdmin-2.6.2-beta1/ 1 -
//phpMyAdmin-2.6.0-pl1/ 1 -
//phpMyAdmin-2.9.0-rc1/ 1 -
//phpMyAdmin-2.7.0-pl2/ 1 -
//pma2007/ 1 -
//phpMyAdmin-2.9.0.1/ 1 -
//phpMyAdmin-2.8.1-rc1/ 1 -
//mysqlmanager/ 1 -
//phpMyAdmin-2.5.5-pl1/ 1 -
//phpMyAdmin-3.1.1.0/ 1 -
//phpMyAdmin-3.1.3.0/ 1 -
//phpMyAdmin-3.4.3.1-english/ 1 -
//phpMyAdmin-3.4.3.1/ 1 -
//phpMyAdmin-2.11.7.1/ 1 -
//web/ 1 -
//phpMyAdmin-2.8.0-beta1/ 1 -
//phpMyAdmin-2.6.0-pl3/ 1 -
//phpMyAdmin-2.8.2.3/ 1 -
//phpmyadmin/ 2 -
//phpMyAdmin-2.9.0.2/ 1 -
//phpMyAdmin-2.11.1.0/ 1 -
//sqlmanager/ 1 -
//phpMyAdmin-2.5.5-rc1/ 1 -
//phpMyAdmin-2.6.0-alpha2/ 1 -
//webdb/ 1 -
//phpMyAdmin-2.6.2-rc1/ 2 -
//phpMyAdmin-2.11.6.0/ 1 -
END_SIDER_404

# Host - Pages - Hits - Bandwidth - Last visit date - [Start date of last visit] - [Last page of last visit]
# [Start date of last visit] and [Last page of last visit] are saved only if session is not finished
# The 10 first Hits must be first (order not required for others)
BEGIN_VISITOR 587
186.214.24.115.dynamic.adsl.gvt.net.br 24 91 719449 20110804122908
ateky34.static.host.gvt.net.br 18 40 2540178 20110806071946
186.214.84.130.static.host.gvt.net.br 15 91 173686 20110801130024
189.40.191.73 12 20 527096 20110823120708
static-208-80-194-29.as13448.com 11 11 17358 20110831204719
177-9-121-167.dsl.telesp.net.br 10 14 256825 20110822050532
187-4-193-141.fnses700.e.brasiltelecom.net.br 8 21 545323 20110816085526
msnbot-65-52-108-145.search.msn.com 8 8 11046 20110831150536
189-78-10-120.dsl.telesp.net.br 7 35 7769839 20110805124127
iad1-wtp-gd-maya9.sdi.trendnet.org 6 6 9879 20110825032609
186.214.25.15.dynamic.adsl.gvt.net.br 3 9 351 20110817135556
186.214.66.155.static.host.gvt.net.br 3 15 256825 20110811132606
131.233.189.200.sta.impsat.net.br 1 4 3002457 20110810122508
201-41-193-189.fnsce703.dsl.brasiltelecom.net.br 1 3 18654 20110826183550
201.90.111.18 1 5 3267061 20110801063656
189-110-184-49.dsl.telesp.net.br 0 2 0 
200-180-69-160.fnsce702.dsl.brasiltelecom.net.br 1 3 18654 20110828181057
186.227.67.26 1 3 2969332 20110803124854
201-95-122-244.dsl.telesp.net.br 0 1 7657 
177.25.28.207 2 10 535101 20110801173734
71.181.69.159 1 1 1578 20110830064109
bd2186b7.virtua.com.br 0 1 7657 
189-19-46-131.dsl.telesp.net.br 1 3 2969332 20110801034801
177.24.11.177 1 1 1715 20110829180807
v29-06.opera-mini.net 0 2 97546 
207.138.120.140 1 1 1715 20110812210644
189-47-232-32.dsl.telesp.net.br 0 2 297729 
201-87-125-75.static-corp.ajato.com.br 1 3 2969332 20110808084806
187.59.85.155.static.host.gvt.net.br 2 7 269499 20110817062357
italcomp90.static.gvt.net.br 0 3 33125 
187-7-35-25.jvece702.e.brasiltelecom.net.br 0 11 83844 
187126173104.user.veloxzone.com.br 0 2 45712 
201-14-185-175.fnsce701.dsl.brasiltelecom.net.br 2 7 257828 20110802165759
189-54-101-62-nd.cpe.vivax.com.br 0 41 38285 
189-95-67-46.3g.claro.net.br 1 1 351 20110818062726
187-69-59-54.3g.claro.net.br 0 1 7657 
189-30-109-1.dsl.fnses700.brasiltelecom.net.br 1 3 18654 20110818165841
177.16.166.158.static.host.gvt.net.br 0 2 297729 
177.17.54.126.static.host.gvt.net.br 0 2 297729 
linkmax250.static.gvt.net.br 2 6 247278 20110808080311
miracle.zensa.com.br 0 4 30628 
20112137205.aju.megazon.com.br 0 2 93168 
187-10-190-217.dsl.telesp.net.br 0 1 33125 
ip-187-91-229-55.user.vivozap.com.br 1 3 2969332 20110801111143
mail.grupotensor.com 0 2 66250 
187-19-89-197.customer.ntelecom.com.br 0 2 0 
200-150-183-147.static-corp.ajato.com.br 2 6 256825 20110830072831
bb26519b.virtua.com.br 1 1 1578 20110824191954
189-47-159-169.dsl.telesp.net.br 0 2 0 
93.217.98.177 1 1 1578 20110802222720
189.58.115.242.dynamic.adsl.gvt.net.br 0 1 0 
msnbot-65-52-110-55.search.msn.com 1 1 0 20110825033438
187.115.24.156.static.gvt.net.br 0 1 33125 
189-46-216-73.dsl.telesp.net.br 0 1 7657 
189.91.177.218 0 1 0 
c9068589.virtua.com.br 0 1 7657 
74.125.114.80 0 1 5564 
200-193-26-8.fnsce703.dsl.brasiltelecom.net.br 3 7 152018 20110824165000
201.47.232.254.static.gvt.net.br 1 3 2969332 20110801134457
ks206121.kimsufi.com 4 4 6312 20110825050021
189-18-242-87.dsl.telesp.net.br 0 1 7657 
mail.interativa.ind.br 0 1 33125 
static-208-80-194-33.as13448.com 3 3 4734 20110829200116
189-72-125-32.dsl.fnses700.brasiltelecom.net.br 3 9 3226157 20110822082023
200-170-103-62.static-corp.ajato.com.br 0 2 33125 
201.57.140.195 0 1 33125 
189-47-190-122.dsl.telesp.net.br 0 2 15314 
201-26-146-254.dial-up.telesp.net.br 0 1 33125 
200.186.201.247 0 124 199082 
msnbot-65-52-110-74.search.msn.com 1 1 0 20110812005441
200.210.92.130 0 2 15314 
189-54-131-31-nd.cpe.vivax.com.br 1 3 2969332 20110819053644
ip-189-99-3-63.user.vivozap.com.br 0 1 7657 
189-19-254-56.dsl.telesp.net.br 1 4 2970335 20110801120523
msnbot-65-52-109-61.search.msn.com 2 2 1578 20110810041233
201-42-182-242.dsl.telesp.net.br 0 23 0 
bacc68dd.virtua.com.br 2 6 256825 20110817130107
189.58.110.90.static.gvt.net.br 0 1 33125 
200-180-9-169.fnsce703.dsl.brasiltelecom.net.br 1 3 18654 20110807082933
189-68-14-199.dsl.telesp.net.br 0 1 7657 
bb2581cc.virtua.com.br 0 3 109312 
187-3-17-181-sa.cpe.vivax.com.br 1 3 2969332 20110811124146
186.213.166.236.static.host.gvt.net.br 3 23 3371294 20110827075148
189.114.201.213.dynamic.adsl.gvt.net.br 0 1 33125 
200-207-52-52.speedyterra.com.br 0 2 297729 
186.214.87.186.static.host.gvt.net.br 2 6 0 20110801050742
173.242.125.196 3 3 4734 20110831065933
186.214.31.120.dynamic.adsl.gvt.net.br 2 9 279654 20110803123422
189-110-118-35.dsl.telesp.net.br 2 6 256825 20110803044812
177.40.205.238.static.host.gvt.net.br 0 1 7657 
200.231.192.163 2 7 415711 20110803055728
msnbot-65-52-110-87.search.msn.com 1 1 0 20110821005739
177.31.47.151 0 1 33125 
187-75-249-98.dsl.telesp.net.br 1 3 97294 20110801115650
20119101186.user.veloxzone.com.br 0 1 33125 
201-35-253-161.fnses700.dsl.brasiltelecom.net.br 1 3 18654 20110829153522
brma.olivaimoveis.com.br 0 6 244092 
201.47.18.224.dynamic.adsl.gvt.net.br 0 1 33125 
20151246064.user.veloxzone.com.br 0 2 297729 
200-158-135-185.dsl.telesp.net.br 0 1 33125 
177.41.24.105.static.host.gvt.net.br 0 2 15314 
187-71-165-169.3g.claro.net.br 0 1 7657 
200.219.162.130 0 2 297729 
corporativo.gvt.net.br 0 1 33125 
186.214.85.250.static.host.gvt.net.br 0 40 297729 
189-30-105-234.dsl.fnses700.brasiltelecom.net.br 2 6 256825 20110809193853
186.214.83.234.static.host.gvt.net.br 0 11 0 
157.55.18.9 1 1 0 20110807013013
189.115.24.192.stat.gvt.net.br 2 6 256825 20110803064745
189-79-61-132.dsl.telesp.net.br 0 2 66250 
189.115.17.126.static.host.gvt.net.br 2 6 256825 20110805174307
200-138-237-63.fnsce703.dsl.brasiltelecom.net.br 3 9 256825 20110828170541
189.115.24.109.stat.gvt.net.br 4 10 401047 20110825075258
201-27-166-12.dsl.telesp.net.br 0 4 0 
189-30-124-81.dsl.fnses700.brasiltelecom.net.br 2 6 256825 20110824071122
200-158-125-161.dsl.telesp.net.br 0 1 7657 
201-67-79-17.bsaco701.e.brasiltelecom.net.br 0 2 15314 
200.162.36.66 0 2 15314 
201.83.34.108 2 6 256825 20110817115656
201-92-211-92.dsl.telesp.net.br 0 1 12587 
200.186.130.14 0 1 33125 
bb149ffb.virtua.com.br 0 2 297729 
187.7.10.184 1 3 18654 20110810184713
200.180.72.242 0 1 33125 
msnbot-65-52-110-77.search.msn.com 2 2 1578 20110811022911
201-34-142-159.fnses700.e.brasiltelecom.net.br 2 6 256825 20110801115130
64.184.179.85 1 1 1715 20110812210558
189-039-052-004.static.spo.ctbc.com.br 0 17 84227 
201.56.168.210 0 4 5076454 
201-42-182-231.dsl.telesp.net.br 0 2 0 
187-3-41-36-sa.cpe.vivax.com.br 4 12 348925 20110803192901
ipfixo81.unetvale.com.br 2 22 585182 20110804101949
msnbot-207-46-204-240.search.msn.com 1 1 0 20110808171343
bd219aec.virtua.com.br 0 1 7657 
189.31.76.92 2 7 257828 20110808170545
200-161-99-68.dsl.telesp.net.br 0 3 22971 
189-31-94-21.fnses700.dsl.brasiltelecom.net.br 2 6 256825 20110812211754
189-19-3-236.dsl.telesp.net.br 0 1 33125 
189.88.2.182 0 4 30628 
186.213.163.145.static.host.gvt.net.br 0 8 0 
186.214.67.100.static.host.gvt.net.br 1 39 33476 20110824090702
187-52-24-208.paebv701.e.brasiltelecom.net.br 2 2 3430 20110801042244
186.214.68.39.static.host.gvt.net.br 1 108 33476 20110829090531
201-68-224-120.dsl.telesp.net.br 2 6 256825 20110810111112
bd78c57f.virtua.com.br 1 4 3002457 20110819113941
201.55.94.82 0 8 15314 
ycar1.mobile.bf1.yahoo.com 1 1 1578 20110823204051
static-208-80-194-32.as13448.com 3 3 4734 20110811044324
173.242.125.191 2 2 3156 20110824043657
186.214.65.233.static.host.gvt.net.br 0 10 0 
ks380405.kimsufi.com 1 1 1578 20110819025807
201-95-114-167.dsl.telesp.net.br 0 2 297729 
static-208-80-194-28.as13448.com 4 4 6312 20110829213234
187-25-65-97.3g.claro.net.br 0 1 7657 
c934d449.virtua.com.br 1 1 1578 20110831175739
beta.bizz.com.br 2 6 256825 20110829092918
bd78e9a7.virtua.com.br 1 1 1578 20110819080632
186.214.69.10.static.host.gvt.net.br 1 1 0 20110831091753
186.215.148.45.static.gvt.net.br 0 10 99375 
static-208-80-194-37.as13448.com 3 3 4734 20110826212523
18912124028.user.veloxzone.com.br 0 1 0 
bb16a386.virtua.com.br 0 1 7657 
177-9-248-36.dsl.telesp.net.br 1 2 8008 20110826144835
187.7.11.151 2 6 256825 20110829183833
189-95-7-191.3g.claro.net.br 0 1 33125 
201-67-168-203.fnsce703.dsl.brasiltelecom.net.br 2 6 198712 20110830085631
correio.inflexion.com.br 2 6 256825 20110819062941
ns1.profarma.com.br 1 4 3002457 20110817124114
177.41.26.196.static.host.gvt.net.br 2 8 6236393 20110801140632
189-39-83-74.reverso.wideway.net.br 0 6 48439 
bd3fce79.virtua.com.br 0 2 66250 
189-041-106-239.xd-dynamic.ctbcnetsuper.com.br 0 1 33125 
baccdfc1.virtua.com.br 0 1 7657 
187-5-138-35.fnses700.e.brasiltelecom.net.br 1 3 18654 20110805150256
189.28.128.241 1 3 2969332 20110816153909
201-68-23-182.dsl.telesp.net.br 1 3 18654 20110820192011
msnbot-207-46-195-241.search.msn.com 1 1 0 20110808051236
187-52-174-63.fnses700.e.brasiltelecom.net.br 4 10 256825 20110803111413
mail.wam.com.br 0 12 107032 
tvc.tv221.static.gvt.net.br 4 12 320143 20110819152244
200-158-11-233.dsl.telesp.net.br 0 9 193812 
201-74-186-195-mc.cpe.vivax.com.br 0 3 0 
201.22.50.240.dynamic.adsl.gvt.net.br 0 1 12773 
186.204.22.200 0 1 7657 
187-3-12-38-sa.cpe.vivax.com.br 0 2 7657 
189.127.192.10 0 1 33125 
201.6.38.205 0 2 15314 
189-78-8-86.dsl.telesp.net.br 3 12 53716 20110809122538
201.23.99.123.dedicated.neoviatelecom.com.br 2 6 256825 20110819093804
host3.metal2.com.br 1 4 1413943 20110823112227
186.214.69.175.static.host.gvt.net.br 1 2 8008 20110831072501
cnv01.bruno.com.br 3 7 2974768 20110825090105
18983126202.user.veloxzone.com.br 0 1 33125 
msnbot-207-46-204-242.search.msn.com 1 1 1578 20110808075706
186.220.232.216 0 4 15314 
201.67.204.242 2 6 256825 20110829133512
static-208-80-194-27.as13448.com 1 1 1578 20110812173500
201-1-149-168.dsl.telesp.net.br 4 12 1392299 20110812210643
201.23.96.194.dedicated.neoviatelecom.com.br 0 1 33125 
msnbot-65-52-110-152.search.msn.com 2 2 1578 20110824090355
201.33.206.40 1 13 3035582 20110809071403
189-110-221-153.dsl.telesp.net.br 0 1 7657 
ip-187-119-240-243.user.vivozap.com.br 0 2 45892 
18983088072.user.veloxzone.com.br 1 3 2969332 20110801133409
lbsolda23-29.labsolda.ufsc.br 0 2 297729 
bd04a95e.virtua.com.br 0 1 33125 
201.64.109.229 0 2 33125 
200-168-101-105.dsl.telesp.net.br 0 1 33125 
177.60.193.193 0 2 40782 
189-111-239-98.dsl.telesp.net.br 0 1 33125 
189-30-68-214.fnses700.dsl.brasiltelecom.net.br 2 6 256825 20110802072427
187127212174.user.veloxzone.com.br 2 9 6073444 20110829074657
msnbot-65-52-108-146.search.msn.com 1 1 0 20110813043035
187.114.127.48.static.host.gvt.net.br 0 1 33125 
187.112.169.84.static.host.gvt.net.br 2 6 256825 20110820161736
sjdc-wtp-gb-maya6.sdi.trendnet.org 3 7 47180 20110825050259
mail2.primedobrasil.com.br 0 5 175562 
187-11-45-53.dsl.telesp.net.br 0 2 297729 
189-95-245-45.3g.claro.net.br 0 1 7657 
189-30-105-12.dsl.fnses700.brasiltelecom.net.br 2 6 256825 20110830064715
msnbot-65-52-110-153.search.msn.com 2 2 1578 20110821152826
200.162.226.84.static-user.ajato.com.br 0 2 231868 
bd052f24.virtua.com.br 0 9 83844 
msnbot-65-52-110-69.search.msn.com 1 1 0 20110817184328
177.60.18.152 1 4 35843 20110824192456
189-95-79-178.3g.claro.net.br 1 3 41133 20110808055042
201.90.227.162 0 24 22971 
189-110-150-221.dsl.telesp.net.br 1 3 2969332 20110806072103
186.214.81.121.static.host.gvt.net.br 3 20 1294858 20110816090947
12.68.215.214 1 3 2969332 20110815083523
189-47-167-201.dsl.telesp.net.br 0 2 15314 
200-232-60-58.customer.tdatabrasil.net.br 0 1 33125 
ip-187-88-150-190.user.vivozap.com.br 0 1 7657 
msnbot-65-52-110-91.search.msn.com 1 1 1578 20110822032409
186.214.25.237.dynamic.adsl.gvt.net.br 0 1 0 
187-032-127-209.static.ctbctelecom.com.br 1 5 440887 20110829132512
200.228.122.130 0 6 615482 
c95114bf.virtua.com.br 0 2 297729 
gw1.minasmaquinas.com.br 0 1 0 
157.55.16.57 1 1 1578 20110801040320
186.214.28.220.dynamic.adsl.gvt.net.br 1 6 0 20110810092520
186.213.162.69.static.host.gvt.net.br 0 4 0 
s1.960.clients.serverdeals.org 5 5 7890 20110828054620
157.55.18.11 1 1 0 20110802222707
189-041-180-219.xd-dynamic.ctbcnetsuper.com.br 0 1 289415 
c906f142.virtua.com.br 0 2 66250 
177.23.248.66 0 1 0 
189-31-77-105.fnses700.dsl.brasiltelecom.net.br 2 6 256825 20110827151251
bd66785d.virtua.com.br 0 2 297729 
189-47-142-176.dsl.telesp.net.br 0 1 24447 
205.209.190.116 2 2 3156 20110829060757
187-3-139-9-sa.cpe.vivax.com.br 0 2 297729 
r262-pr-furuba.ibys.com.br 0 2 0 
186.214.84.202.static.host.gvt.net.br 1 1 0 20110818140738
200.223.166.74 6 33 5816225 20110825050107
baccdac6.virtua.com.br 0 2 123688 
177.25.129.6 0 2 15314 
189-69-86-141.dsl.telesp.net.br 0 2 15314 
rps274.ovh.net 1 1 1578 20110807052808
ip-187-88-43-10.user.vivozap.com.br 0 1 7657 
bb2573ed.virtua.com.br 0 1 33125 
bd64bb1c.virtua.com.br 2 6 256825 20110822180259
187-53-234-34.paemt303.ipd.brasiltelecom.net.br 0 2 297729 
189-75-2-3.fnses700.dsl.brasiltelecom.net.br 1 3 18654 20110804184410
74.125.112.82 0 1 91982 
200-158-178-69.dsl.telesp.net.br 0 1 0 
187-072-042-225.static.ctbctelecom.com.br 1 5 2969332 20110831030033
200-206-210-146.speedyterra.com.br 0 1 0 
bd3e3dbd.virtua.com.br 0 1 7657 
201.76.10.84 4 12 272287 20110826103122
187-122-14-6.cpeoco.viaembratel.net.br 0 2 297729 
201-68-253-76.dsl.telesp.net.br 0 1 0 
189-68-134-29.dsl.telesp.net.br 0 2 297729 
201-1-168-53.dsl.telesp.net.br 0 2 0 
eiconbrasil91.static.host.gvt.net.br 0 2 15314 
msnbot-65-52-110-20.search.msn.com 1 1 1578 20110807042842
177.41.212.109.static.host.gvt.net.br 2 6 256825 20110810052405
187.112.42.219.static.host.gvt.net.br 0 2 297729 
geoposition.com.br 0 37 420241 
static-208-80-194-26.as13448.com 2 2 3156 20110830121802
host-76-186-107-208.midco.net 1 1 1578 20110822035932
201-93-177-100.dsl.telesp.net.br 0 5 15314 
c951733a.virtua.com.br 0 1 33125 
bd661178.virtua.com.br 0 5 0 
msnbot-207-46-199-48.search.msn.com 2 2 0 20110816090838
msnbot-207-46-204-186.search.msn.com 2 2 1578 20110813111118
186-201-126-114.customer.tdatabrasil.net.br 2 6 256825 20110801052608
200.180.241.250 0 1 0 
47.228.65.189.isp.timbrasil.com.br 0 2 102008 
201-2-210-68.fnsce702.dsl.brasiltelecom.net.br 2 6 58730 20110813090658
82.137.195.200.static.copel.net 1 3 2969332 20110830130310
189-11-189-198.dsl.fnsce703.brasiltelecom.net.br 1 3 18654 20110823182833
201.83.48.206 0 1 33125 
186.214.29.119.dynamic.adsl.gvt.net.br 0 3 0 
static-208-80-194-35.as13448.com 4 4 6312 20110828105715
177.62.233.32 0 1 33125 
187-19-89-185.customer.ntelecom.com.br 0 1 33125 
200-138-241-230.fnsce703.dsl.brasiltelecom.net.br 1 3 18654 20110801180354
crawl2.majestic12.co.uk 1 1 1578 20110820031643
80.94.164.141 1 1 1578 20110820013910
189.59.172.234.static.host.gvt.net.br 0 2 297729 
189.115.24.71.stat.gvt.net.br 1 5 255247 20110810072737
msnbot-207-46-195-237.search.msn.com 1 1 1578 20110820032226
201-2-202-99.fnsce701.dsl.brasiltelecom.net.br 2 6 256825 20110814180505
189-95-211-203.3g.claro.net.br 1 2 8008 20110815110747
189.16.128.82 0 12 76187 
186.214.84.54.static.host.gvt.net.br 1 41 7657 20110826090844
201.56.36.3 0 1 33125 
189-95-46-10.3g.claro.net.br 1 1 351 20110822122946
200-150-178-164.static-corp.ajato.com.br 0 14 45942 
64.233.172.18 0 4 395275 
187.59.85.55.static.host.gvt.net.br 2 6 62796 20110824112307
189-29-220-234-nd.cpe.vivax.com.br 0 2 297729 
187-56-174-81.dsl.telesp.net.br 0 2 66250 
189-46-250-43.dsl.telesp.net.br 0 2 297729 
187-3-56-38-sa.cpe.vivax.com.br 0 5 15314 
157.55.16.56 1 1 0 20110804105212
187-71-152-221.3g.claro.net.br 1 2 8008 20110830070324
189-111-118-27.dsl.telesp.net.br 0 4 132500 
160.33.66.121 0 1 33125 
189.115.17.83.static.host.gvt.net.br 2 6 256825 20110826061425
187-4-220-94.fnses700.dsl.brasiltelecom.net.br 2 6 83414 20110806140954
187-25-40-107.3g.claro.net.br 1 1 351 20110809172148
189-72-102-197.fnsce701.e.brasiltelecom.net.br 2 6 37922 20110804132331
189.42.146.230 0 2 0 
187-19-89-183.customer.ntelecom.com.br 0 2 0 
201.80.57.233 0 2 297729 
186.232.248.165 0 1 7657 
201.22.69.131.dynamic.adsl.gvt.net.br 0 2 297729 
187-19-89-254.customer.ntelecom.com.br 1 6 3335591 20110803064200
189-47-142-51.dsl.telesp.net.br 1 3 2969332 20110805141901
186.214.81.25.static.host.gvt.net.br 2 25 3010114 20110830103331
186.214.81.103.static.host.gvt.net.br 1 25 0 20110808090930
186.214.67.70.static.host.gvt.net.br 4 31 351 20110822090742
200.174.18.130 0 5 0 
18912098186.user.veloxzone.com.br 0 4 0 
189-72-105-72.fnses700.e.brasiltelecom.net.br 2 6 256825 20110815135908
200.178.61.114 0 4 15314 
c9067d7a.static.spo.virtua.com.br 3 9 561367 20110818060727
host-134-60-107-208-static.midco.net 3 3 4734 20110826051748
ycar12.mobile.bf1.yahoo.com 1 1 1578 20110826154831
173.242.125.206 2 2 3156 20110817023156
189-93-94-151.3g.claro.net.br 0 1 7657 
187-3-122-250-sa.cpe.vivax.com.br 4 11 268972 20110803192941
bb68920d.virtua.com.br 1 3 2969332 20110803065944
189-95-93-103.3g.claro.net.br 0 2 15314 
200.210.150.170 1 3 2101986 20110801120935
189.115.16.127.static.host.gvt.net.br 2 6 256825 20110831072135
186.214.87.132.static.host.gvt.net.br 4 20 28438 20110803091611
189-47-102-247.dsl.telesp.net.br 0 2 78968 
177.60.138.11 2 6 256825 20110813085842
187-3-137-113-sa.cpe.vivax.com.br 2 9 566701 20110815153018
187-75-160-189.dsl.telesp.net.br 0 10 499899 
smtp-gw.feva.com.br 1 3 950762 20110831162024
201.33.206.73 0 11 45820 
pxcta2.srv.volvo.com 0 1 33125 
200.175.100.139.static.gvt.net.br 1 3 2969332 20110801115240
bb6988ca.virtua.com.br 0 2 66250 
200-148-60-91.dsl.telesp.net.br 0 1 33125 
201.6.248.68 2 12 3050896 20110818115040
187-25-35-62.3g.claro.net.br 1 2 8008 20110803104558
isprj-as53211-186-233-224-40.isprj.com.br 0 3 7657 
207.138.120.144 1 1 1578 20110812210556
200-170-108-114.user.ajato.com.br 0 1 33125 
189.38.23.166 0 2 0 
186.214.66.195.static.host.gvt.net.br 6 34 274770 20110825090703
187-3-15-75-sa.cpe.vivax.com.br 0 4 595458 
ip-189-0-186-228.user.vivozap.com.br 0 1 7657 
189-111-216-170.dsl.telesp.net.br 1 3 2969332 20110801064415
msnbot-65-52-110-67.search.msn.com 1 1 1578 20110815123907
msnbot-65-52-110-35.search.msn.com 1 1 1578 20110817034042
dns2.mackenzie.com.br 0 1 33125 
mail.sicoobsc.com.br 2 6 113438 20110815065022
189.115.24.211.stat.gvt.net.br 1 3 1003 20110828160729
189-111-118-241.dsl.telesp.net.br 0 2 0 
189-47-137-36.dsl.telesp.net.br 1 3 2969332 20110801111804
177.17.35.218.static.host.gvt.net.br 0 9 38285 
186.214.31.179.dynamic.adsl.gvt.net.br 1 4 30801 20110830051529
exchange.teleponto.com.br 1 21 3086301 20110826063010
201-95-52-142.dsl.telesp.net.br 0 1 12773 
badcb286.virtua.com.br 0 2 15314 
bb25152b.virtua.com.br 2 6 256825 20110819120348
187-27-215-118.3g.claro.net.br 2 6 34118 20110828181955
186.213.58.163.static.host.gvt.net.br 0 1 0 
186.215.59.206.static.host.gvt.net.br 0 1 33125 
20178036138.user.veloxzone.com.br 0 6 76187 
186.214.25.80.dynamic.adsl.gvt.net.br 0 1 0 
200.146.117.9.dynamic.adsl.gvt.net.br 0 2 40782 
201.33.194.76 2 21 4528268 20110829100048
201-35-223-2.fnsce701.dsl.brasiltelecom.net.br 1 3 18654 20110822153816
c906f7cc.static.virtua.com.br 1 4 3002457 20110830074058
189-30-71-76.fnsce701.dsl.brasiltelecom.net.br 2 7 207892 20110817073010
187-75-172-204.dsl.telesp.net.br 0 2 297729 
mail.brusantin.com.br 0 1 33125 
c90626ba.virtua.com.br 1 8 3002457 20110827071220
201-35-207-195.cuace300.ipd.brasiltelecom.net.br 2 6 256825 20110811151207
187.59.85.227.static.host.gvt.net.br 1 5 255247 20110815115900
bd2194ab.virtua.com.br 1 3 2969332 20110802083818
201-0-213-131.dial-up.telesp.net.br 0 6 0 
189-111-238-50.dsl.telesp.net.br 0 2 66250 
static-208-80-194-31.as13448.com 1 1 1578 20110825020710
189.38.21.44 0 1 33125 
187-3-22-77-sa.cpe.vivax.com.br 1 4 3002457 20110822104303
18743219003.3g.telemar.net.br 0 1 68530 
201-11-103-232.jvece7001.e.brasiltelecom.net.br 0 2 45820 
189-31-124-240.fnses700.dsl.brasiltelecom.net.br 2 6 256825 20110804104606
136.166.250.100 1 72 3173242 20110830114029
201-27-128-27.dsl.telesp.net.br 0 10 7657 
c9064a0d.virtua.com.br 0 4 21526 
187-56-80-147.dsl.telesp.net.br 1 3 2969332 20110817130154
48.227.65.189.isp.timbrasil.com.br 1 3 18654 20110810053655
msnbot-207-46-204-234.search.msn.com 1 1 0 20110805225106
bb42de7c.virtua.com.br 0 5 38285 
189.121.155.141 0 6 38285 
200.211.167.201 1 8 3035582 20110819080648
148.177.95.254 0 32 81564 
static-208-80-194-34.as13448.com 2 2 3156 20110825065030
189-110-24-12.dsl.telesp.net.br 0 1 33125 
189-19-253-94.dsl.telesp.net.br 0 2 297729 
187.59.84.8.static.host.gvt.net.br 1 5 255247 20110830131343
200.135.6.53 2 4 20369 20110811155412
12.53.132.4 0 1 33125 
187.7.40.102 1 3 18654 20110816172241
200-148-150-107.vetnil.com.br 0 2 7657 
200-138-221-14.fnsce702.dsl.brasiltelecom.net.br 1 3 18654 20110823130248
187-25-192-249.3g.claro.net.br 0 1 7657 
201-35-225-208.fnsce701.dsl.brasiltelecom.net.br 2 6 256825 20110811171154
189.80.124.105 0 2 66250 
msnbot-207-46-195-235.search.msn.com 1 1 0 20110823192524
187-5-185-60.fnses700.e.brasiltelecom.net.br 3 7 256825 20110831184611
187-27-135-55.3g.claro.net.br 1 2 8008 20110809052218
186.214.84.76.static.host.gvt.net.br 4 21 805940 20110802101025
186.220.205.28 0 1 7657 
189-95-254-24.3g.claro.net.br 0 1 7657 
owa.vmtubes.com.br 0 1 68530 
200-102-28-133.fnsce701.dsl.brasiltelecom.net.br 1 3 18654 20110823090206
internet.mzm.com.br 3 9 494996 20110804085520
201-26-183-193.dial-up.telesp.net.br 0 1 0 
icetec.ind.br 2 6 256825 20110825085948
187.84.3.162 2 6 256825 20110819062133
189-75-11-145.fnsce704.e.brasiltelecom.net.br 1 3 18654 20110826073132
187-92-140-74.customer.tdatabrasil.net.br 0 1 12767 
ip-189-0-25-202.user.vivozap.com.br 6 14 3242737 20110828210828
msnbot-207-46-204-178.search.msn.com 1 1 1578 20110816064008
189-79-21-113.dsl.telesp.net.br 2 6 256825 20110803143609
201-42-17-205.dsl.telesp.net.br 0 2 0 
187-4-250-18.cuace300.ipd.brasiltelecom.net.br 2 6 256825 20110808123628
189-111-216-90.dsl.telesp.net.br 0 7 53599 
18778186165.telemar.net.br 0 2 297729 
mail.pichinin.com.br 1 3 2152150 20110823113542
bd799b8d.virtua.com.br 3 73 3394611 20110805071842
189-10-192-226.ipd.brasiltelecom.net.br 0 5 66250 
200-102-14-192.fnsce703.dsl.brasiltelecom.net.br 1 3 18654 20110816175037
201-93-132-48.dsl.telesp.net.br 0 1 33125 
186.214.66.23.static.host.gvt.net.br 2 103 2976989 20110818101000
187-3-217-163-sa.cpe.vivax.com.br 2 3 8359 20110818162021
189-29-173-113-nd.cpe.vivax.com.br 2 6 256825 20110804102838
host-182-85-2-96.midco.net 1 1 1578 20110804231645
202.80.150.200.static.copel.net 1 3 2969332 20110801105309
207.138.120.135 1 1 1578 20110812210518
186.214.81.211.static.host.gvt.net.br 1 21 66250 20110812072936
c934d7e0.virtua.com.br 1 1 1578 20110818180454
187-24-216-119.3g.claro.net.br 0 1 7657 
150.119.47.187.isp.timbrasil.com.br 2 6 234878 20110823204941
201-77-117-94.desktop.com.br 0 1 33125 
186.214.81.203.static.host.gvt.net.br 1 32 0 20110819090618
201-25-201-95.fnsce702.dsl.brasiltelecom.net.br 0 1 0 
200-171-235-97.customer.telesp.net.br 2 8 272139 20110812070732
201.22.249.81.static.gvt.net.br 0 1 33125 
189-29-174-24-nd.cpe.vivax.com.br 2 6 256825 20110805095715
doriaserver.doriassociados.com.br 2 10 264482 20110818131734
201-14-151-121.fnsce703.dsl.brasiltelecom.net.br 5 13 64178 20110812175715
189-30-120-90.dsl.fnses700.brasiltelecom.net.br 2 6 41378 20110812145022
smtp1.espm.br 0 21 0 
189-19-91-189.dsl.telesp.net.br 0 1 7657 
189-38-252-162.static-corp.ajato.com.br 0 8 15314 
201.55.87.250 0 1 33125 
189-1-179-173.customer.ntelecom.com.br 0 1 21227 
206.228.222.37 0 1 7657 
189.115.24.189.stat.gvt.net.br 1 3 237031 20110828160205
201-68-134-144.dsl.telesp.net.br 0 1 7657 
tvc.tv222.static.gvt.net.br 2 6 37308 20110831105412
200-171-161-96.dsl.telesp.net.br 0 2 297729 
187-35-239-56.dsl.telesp.net.br 0 4 15314 
201.64.141.67 0 1 0 
186.220.149.222 0 1 0 
200-138-212-71.fnsce701.dsl.brasiltelecom.net.br 2 7 134765 20110806093359
187.107.87.13 2 6 256825 20110818074057
186.214.85.108.static.host.gvt.net.br 3 38 256825 20110823091444
187-71-171-208.3g.claro.net.br 0 1 7657 
mail.rtsvalvulas.com.br 0 2 33125 
mail2.montarte.com.br 0 2 297729 
18913008085.user.veloxzone.com.br 0 1 0 
201.33.206.63 0 1 33125 
186.255.22.210 6 12 12296 20110816131203
ip-187-119-241-86.user.vivozap.com.br 0 2 0 
189.26.159.108.dynamic.adsl.gvt.net.br 0 1 33125 
bd7975d1.virtua.com.br 1 3 2969332 20110802130228
ip-187-88-203-50.user.vivozap.com.br 0 3 7657 
mail.unifrax.com.br 2 6 256825 20110825032242
187-92-214-138.customer.tdatabrasil.net.br 0 4 0 
bb250779.virtua.com.br 0 2 297729 
189.2.138.98 0 1 7657 
189-91-239-73-wlan.lpnet.com.br 0 1 0 
18913159064.user.veloxzone.com.br 0 2 297729 
187-70-112-187.3g.claro.net.br 2 6 256825 20110829090201
18743219200.3g.telemar.net.br 0 3 33125 
201.33.206.190 1 4 2969332 20110823101152
189-31-76-179.fnses700.dsl.brasiltelecom.net.br 2 6 256825 20110816121659
18912109005.user.veloxzone.com.br 0 3 22971 
201-93-167-129.dsl.telesp.net.br 1 3 2969332 20110801104633
200-207-147-198.dsl.telesp.net.br 1 3 867690 20110801112131
187-95-183-5.vianet.net.br 0 3 99375 
santiagoecintra59.static.gvt.net.br 0 2 15314 
187-55-218-124.fnses700.e.brasiltelecom.net.br 1 3 18654 20110803075528
bb688692.virtua.com.br 0 1 28827 
187-11-116-244.dsl.telesp.net.br 0 2 137060 
c90626cd.virtua.com.br 2 7 235373 20110826114845
189-75-40-15.fnses700.dsl.brasiltelecom.net.br 2 6 256825 20110802073528
187-52-136-199.fnses700.e.brasiltelecom.net.br 3 7 202874 20110810165841
200-153-196-231.dsl.telesp.net.br 0 1 15027 
201-27-163-88.dsl.telesp.net.br 0 1 7657 
186.212.213.114.static.host.gvt.net.br 2 9 3068707 20110823134352
msnbot-65-52-109-59.search.msn.com 2 2 3156 20110804045108
187-71-161-240.3g.claro.net.br 0 1 7657 
200-170-150-105.static.ctbctelecom.com.br 0 10 51092 
189-93-12-105.3g.claro.net.br 1 2 8008 20110819060039
c906654b.static.spo.virtua.com.br 0 1 7657 
187-34-234-49.dsl.telesp.net.br 0 4 15314 
189-79-119-118.dsl.telesp.net.br 0 1 7657 
189-30-107-107.dsl.fnses700.brasiltelecom.net.br 2 6 256825 20110819160149
201-43-190-186.dsl.telesp.net.br 0 4 68530 
187.52.173.131 0 1 33125 
189-68-137-55.dsl.telesp.net.br 1 5 316383 20110824064112
189-47-143-38.dsl.telesp.net.br 0 1 7657 
201-24-90-190.fnsce702.dsl.brasiltelecom.net.br 4 14 557841 20110821161949
189-78-41-76.dsl.telesp.net.br 2 8 541374 20110815115320
msnbot-207-46-204-195.search.msn.com 1 1 0 20110814160838
200.160.26.194 0 2 297729 
187.59.84.93.static.host.gvt.net.br 1 3 18791 20110828160216
msnbot-65-52-110-23.search.msn.com 1 1 0 20110819011710
200-148-150-106.vetnil.com.br 0 10 39760 
187-57-244-161.dsl.telesp.net.br 0 1 12695 
ip42.shimadzu.com.br 0 1 33125 
189-11-177-94.fnses700.dsl.brasiltelecom.net.br 1 3 18654 20110816173143
177.18.216.15.static.host.gvt.net.br 0 3 0 
18983077035.user.veloxzone.com.br 0 2 297729 
189-54-186-33-nd.cpe.vivax.com.br 5 13 101271 20110831192458
201-27-124-129.dsl.telesp.net.br 0 2 297729 
187-19-89-206.customer.ntelecom.com.br 0 1 0 
201-14-165-79.fnsce703.dsl.brasiltelecom.net.br 1 4 30801 20110823142134
186.214.82.92.static.host.gvt.net.br 0 39 0 
200-204-197-44.dsl.telesp.net.br 1 3 1715 20110823103810
201.20.212.53.user.ajato.com.br 0 2 15314 
187.55.254.203 2 7 285471 20110826183007
bb69c20a.virtua.com.br 0 2 15314 
18913004096.user.veloxzone.com.br 0 2 68530 
badc488d.virtua.com.br 1 3 2969332 20110802072830
187-4-202-137.fnses700.e.brasiltelecom.net.br 3 9 256825 20110817133825
186.214.66.138.static.host.gvt.net.br 1 9 0 20110815090547
187.59.84.167.static.host.gvt.net.br 2 6 256825 20110822120201
200-102-60-138.fnsce702.dsl.brasiltelecom.net.br 4 10 258540 20110824084854
200.166.203.114 0 1 33125 
187-71-161-72.3g.claro.net.br 0 1 7657 
189-31-93-148.fnses700.dsl.brasiltelecom.net.br 1 3 18654 20110802102433
186.214.71.175.static.host.gvt.net.br 0 21 7657 
189-47-170-176.dsl.telesp.net.br 0 3 33125 
189-30-85-160.fnsce703.dsl.brasiltelecom.net.br 1 3 18654 20110815113742
189.102.17.120 0 5 15314 
host-77-186-107-208.midco.net 1 1 1578 20110823041351
jmc.jmcprod.com.br 0 1 7657 
wtp-g3-maya9.sjdc 3 5 2972762 20110824114035
189-112-246-217.static.ctbcnetsuper.com.br 0 2 33125 
sr341.2dayhost.com 2 2 3156 20110813090351
187.55.55.74 0 1 33125 
187-50-29-68.customer.tdatabrasil.net.br 0 1 33125 
186.251.20.2 0 1 7657 
201-87-123-29.static-corp.ajato.com.br 0 1 33125 
mail3.sulcorte.com.br 1 1 1715 20110801111731
177.30.49.62 0 1 7657 
186.214.64.92.static.host.gvt.net.br 1 4 8008 20110809091047
200-138-212-28.fnsce701.dsl.brasiltelecom.net.br 1 3 18654 20110827161905
187.55.0.178 1 3 18654 20110812175029
189-110-220-114.dsl.telesp.net.br 0 1 7657 
187.59.84.91.static.host.gvt.net.br 2 6 256825 20110830064247
200-215-93-145.cuace700.e.brasiltelecom.net.br 4 11 278197 20110815064922
187-24-105-11.3g.claro.net.br 0 1 7657 
END_VISITOR

# Date - Pages - Hits - Bandwidth - Visits
BEGIN_DAY 31
20110801 46 268 49382527 29
20110802 30 137 12097809 14
20110803 43 190 22443029 23
20110804 39 212 3095092 14
20110805 15 101 10926408 9
20110806 14 38 5353746 7
20110807 4 9 75359 4
20110808 18 118 4372155 14
20110809 12 71 3620915 9
20110810 14 88 5943886 10
20110811 22 91 4766598 11
20110812 25 108 2975916 15
20110813 9 21 684268 6
20110814 6 12 559288 5
20110815 17 129 5357567 12
20110816 27 110 5802090 12
20110817 22 83 7318553 15
20110818 22 186 7898609 14
20110819 23 108 11288102 17
20110820 6 14 577942 5
20110821 10 24 661775 7
20110822 26 105 7827318 11
20110823 25 181 11280855 18
20110824 20 162 1990216 12
20110825 30 115 8731308 16
20110826 20 161 5132817 14
20110827 11 46 6951693 8
20110828 18 52 4714737 10
20110829 21 209 12823932 15
20110830 19 236 14482375 15
20110831 16 79 4750332 12
END_DAY

# Session range - Number of visits
BEGIN_SESSION 7
1h+ 1
5mn-15mn 7
2mn-5mn 7
30s-2mn 24
15mn-30mn 5
0s-30s 334
30mn-1h 5
END_SESSION

# URL - Pages - Bandwidth - Entry - Exit
# The 10 first Pages must be first (order not required for others)
BEGIN_SIDER 7
/ 301 394500 266 155
/site.html 168 224665 6 104
/eventos/ 95 154350 65 73
/webmail/ 61 10881 44 46
/clips/01/clips_01.html 3 8613 0 3
// 1 1578 1 1
/eventos/\r 1 1715 1 1
END_SIDER
