AWSTATS DATA FILE 6.4 (build 1.814)
# If you remove this file, all statistics for date 2010-02 will be lost/reset.

# Position (offset in bytes) in this file of beginning of each section for
# direct I/O access. If you made changes somewhere in this file, you should
# also remove completely the MAP section (AWStats will rewrite it at next
# update).
BEGIN_MAP 27
POS_GENERAL 1865                
POS_TIME 2547                
POS_VISITOR 11158               
POS_DAY 27650               
POS_DOMAIN 3268                
POS_LOGIN 3562                
POS_ROBOT 3717                
POS_WORMS 4069                
POS_EMAILSENDER 4200                
POS_EMAILRECEIVER 4343                
POS_SESSION 28388               
POS_SIDER 28591               
POS_FILETYPES 4478                
POS_OS 4607                
POS_BROWSER 4755                
POS_SCREENSIZE 5027                
POS_UNKNOWNREFERER 5101                
POS_UNKNOWNREFERERBROWSER 5438                
POS_ORIGIN 5670                
POS_SEREFERRALS 5812                
POS_PAGEREFS 5979                
POS_SEARCHWORDS 9208                
POS_KEYWORDS 9614                
POS_MISC 2210                
POS_ERRORS 9898                
POS_CLUSTER 3418                
POS_SIDER_404 10009               
END_MAP

# LastLine    = Date of last record processed - Last record line number in last log - Last record offset in last log - Last record signature value
# FirstTime   = Date of first visit for history file
# LastTime    = Date of last visit for history file
# LastUpdate  = Date of last update - Nb of parsed records - Nb of parsed old records - Nb of parsed new records - Nb of parsed corrupted - Nb of parsed dropped
# TotalVisits = Number of visits
# TotalUnique = Number of unique visitors
# MonthHostsKnown   = Number of hosts known
# MonthHostsUnKnown = Number of hosts unknown
BEGIN_GENERAL 8
LastLine 20100301021840 12012 2993972 60804732242
FirstTime 20100201041018
LastTime 20100228160629
LastUpdate 20100301043706 26 0 25 0 0
TotalVisits 186                 
TotalUnique 135                 
MonthHostsKnown 308                 
MonthHostsUnknown 55                  
END_GENERAL

# Misc ID - Pages - Hits - Bandwidth
BEGIN_MISC 10
QuickTimeSupport 0 0 0
JavaEnabled 0 0 0
JavascriptDisabled 0 0 0
PDFSupport 0 0 0
WindowsMediaPlayerSupport 0 0 0
AddToFavourites 0 68 0
RealPlayerSupport 0 0 0
TotalMisc 0 0 0
DirectorSupport 0 0 0
FlashSupport 0 0 0
END_MISC

# Hour - Pages - Hits - Bandwidth - Not viewed Pages - Not viewed Hits - Not viewed Bandwidth
BEGIN_TIME 24
0 4 7 77660 0 0 0
1 0 7 176244 6 6 1578
2 13 43 1651209 5 5 340
3 21 97 5487527 10 10 4188
4 28 137 6615105 64 65 244904
5 38 200 14921633 22 28 35920
6 19 126 4351556 10 11 50190
7 22 168 10251733 11 15 26892
8 30 183 12620469 9 12 43793
9 37 192 10913463 12 12 5354
10 50 294 12842279 9 11 19632
11 30 163 5716403 21 24 29976
12 11 97 8531243 4 4 1020
13 6 31 503056 5 5 2598
14 6 17 316242 4 4 340
15 7 31 1096105 5 6 90429
16 3 10 12391 5 5 4734
17 11 68 2255050 6 7 3156
18 19 23 3156 2 2 1578
19 0 2 297729 7 7 4734
20 2 2 3156 1 1 0
21 1 1 1578 6 6 4734
22 3 3 4734 4 4 0
23 0 0 0 4 4 0
END_TIME

# Domain - Pages - Hits - Bandwidth
# The 10 first Pages must be first (order not required for others)
BEGIN_DOMAIN 5
br 278 1649 78887577
ip 42 206 19153420
com 39 43 307839
ru 2 2 3156
fr 0 2 297729
END_DOMAIN

# Cluster ID - Pages - Hits - Bandwidth
BEGIN_CLUSTER 0
END_CLUSTER

# Login - Pages - Hits - Bandwidth - Last visit
# The 10 first Pages must be first (order not required for others)
BEGIN_LOGIN 0
END_LOGIN

# Robot ID - Hits - Bandwidth - Last visit - Hits on robots.txt
# The 10 first Hits must be first (order not required for others)
BEGIN_ROBOT 7
msnbot 16 13725 20100228074512 0
googlebot 10 8027 20100225112854 0
jeeves 9 14202 20100228151444 0
yandex 9 14202 20100212064141 0
slurp 6 9468 20100228211959 0
crawl 2 13725 20100223072535 0
robot 2 0 20100210140053 0
END_ROBOT

# Worm ID - Hits - Bandwidth - Last visit
# The 5 first Hits must be first (order not required for others)
BEGIN_WORMS 0
END_WORMS

# EMail - Hits - Bandwidth - Last visit
# The 20 first Hits must be first (order not required for others)
BEGIN_EMAILSENDER 0
END_EMAILSENDER

# EMail - Hits - Bandwidth - Last visit
# The 20 first hits must be first (order not required for others)
BEGIN_EMAILRECEIVER 0
END_EMAILRECEIVER

# Files type - Hits - Bandwidth - Bandwidth without compression - Bandwidth after compression
BEGIN_FILETYPES 4
html 361 437235 0 0
js 163 175560 0 0
jpg 1133 15392601 0 0
swf 245 82644325 0 0
END_FILETYPES

# OS ID - Hits
BEGIN_OS 11
macintosh 1
winlong 377
winxp 1318
win2000 5
winnt 103
win98 2
linux 11
macosx 79
gnu 1
win2003 1
Unknown 4
END_OS

# Browser ID - Hits
BEGIN_BROWSER 17
msie6.0 376
firefox3.6 22
firefox3.0.17 4
firefox3.0.1 1
lynx 1
lotus\-notes 9
firefox3.0.5 1
msie8.0 406
firefox1.0 2
mozilla 32
netscape5.0 1
msie7.0 886
firefox3.5.8 20
Unknown 2
firefox3.5 1
safari 96
firefox3.5.7 42
END_BROWSER

# Screen size - Hits
BEGIN_SCREENSIZE 0
END_SCREENSIZE

# Unknown referer OS - Last visit date
BEGIN_UNKNOWNREFERER 3
GbPlugin 20100202091456
SAMSUNG-GT-S8000B/1.0_SHP/VPP/R5_Jasmine/1.0_Nextreaming_SMM-MMS/1.2.0_profile/MIDP-2.1_configuration/CLDC-1.1 20100225114530
Mozilla/5.0_(en-us)_AppleWebKit/525.13_(KHTML,_like_Gecko)_Version/3.1_Safari/525.13 20100209083340
END_UNKNOWNREFERER

# Unknown referer Browser - Last visit date
BEGIN_UNKNOWNREFERERBROWSER 2
GbPlugin 20100202091456
SAMSUNG-GT-S8000B/1.0_SHP/VPP/R5_Jasmine/1.0_Nextreaming_SMM-MMS/1.2.0_profile/MIDP-2.1_configuration/CLDC-1.1 20100225114530
END_UNKNOWNREFERERBROWSER

# Origin - Pages - Hits 
BEGIN_ORIGIN 6
From0 254 875
From1 0 0
From2 34 36
From3 34 269
From4 39 722
From5 0 0
END_ORIGIN

# Search engine referers ID - Pages - Hits
BEGIN_SEREFERRALS 2
google 33 35
yahoo 1 1
END_SEREFERRALS

# External page referers - Pages - Hits
# The 10 first Pages must be first (order not required for others)
BEGIN_PAGEREFS 59
http://www.dentalis.com.br/flash/hotsite_7.swf 7 7
http://www.dentalis.com.br/marketing-consultorio-odontologia.html 4 4
http://ferpak.com.br/site.swf 3 3
http://pop.input.com.br/cgi-bin/webmail/webmail-view.pl 3 4
http://ferpak.com.br 2 2
http://www.radarbit.com/site/gscomunicacao.com.br 1 1
http://www.ferpak.com.br/site.swf 1 1
http://gscomunicacao.blogspot.com 1 19
http://fofobichos.estrela.com.br/webmail/src/download.php 1 2
http://www.fefisa.com.br/curtas 1 1
http://71.6.217.131/mail/writemail.html 0 84
http://mail2.terra.com.br/86.1trr/reademail.php 0 3
http://webmail.bellsoft.com.br/zimbra/ 0 3
http://co111w.col111.mail.live.com/mail/InboxLight.aspx 0 3
http://sn103w.snt103.mail.live.com/mail/InboxLight.aspx 0 1
http://mail.uol.com.br/compose/forward 0 1
http://webmail.hostnet.com.br/ultramail/main.php 0 1
http://br.mg2.mail.yahoo.com/dc/launch 0 2
http://mail.uol.com.br/main/message 0 1
http://webmail.artesanatocosta.com.br/cgi-bin/webmail/webmail-view.pl 0 1
http://br.mc448.mail.yahoo.com/mc/welcome 0 2
http://mail.terra.com.br/87trr/reademail.php 0 3
http://pop.hariz.com.br/Session/481380-XC7NURZ5rse2q8Q4kFlt-aodhstw/webmail.wssp 0 1
http://www.orkut.com.br/FullProfile 1 1
http://mail2.terra.com.br/87trr/reademail.php 0 2
http://webmail.heladri.com/cgi-bin/webmail/webmail-view.pl 0 2
http://www.daniloleite.net/gs.swf 1 1
http://www.espacodoblindado.com.br 1 1
http://www.fefisa.com.br/moda/ 1 1
http://co117w.col117.mail.live.com/mail/InboxLight.aspx 0 1
http://gscomunicacao.blogspot.com/2010_01_01_archive.html 0 2
http://sn101w.snt101.mail.live.com/mail/InboxLight.aspx 0 1
http://71.6.217.131/mail/viewaction.html 0 6
http://zimbra.alispec.com.br/zimbra/ 0 2
http://www.mognomarcenaria.com.br/site.swf 1 1
http://pop.hariz.com.br/Session/587355-cBvAKHPSgZqxtmNOY1mv-aodhstw/message.wssp 0 1
http://71.6.217.131/mail/view.html 0 31
http://mail.produtoskit.com.br/cgi-bin/webmail/webmail-view.pl 0 1
http://sn116w.snt116.mail.live.com/mail/RteFrame_15.1.3028.1103.html 0 2
http://curtasfefisa.blogspot.com 0 2
http://webmail.dolly.com.br/Session/2153720-KUp6YFg7DrYEUHUfgcYC-aodhsti/Message.wssp 0 1
http://by136w.bay136.mail.live.com/mail/InboxLight.aspx 0 2
http://co123w.col123.mail.live.com/mail/InboxLight.aspx 0 3
http://br.mc368.mail.yahoo.com/mc/welcome 0 2
http://br.mc1140.mail.yahoo.com/mc/welcome 0 1
http://pop.hariz.com.br/Session/648064-Dd0ka0uz2L6wEk80Nmyu-aodhsti/webmail.wssp 0 2
http://by139w.bay139.mail.live.com/mail/InboxLight.aspx 0 2
http://ferpak.com.br/intro.swf 1 1
http://bmail.uol.com.br/main/message 1 1
http://webmail.grupoldm.com.br/mewebmail/HooDoo/lang/pt-br/Forms/MAI/msgbody.aspx 1 5
http://www.ebblindados.com.br/site.html 1 1
http://sn118w.snt118.mail.live.com/mail/InboxLight.aspx 0 1
http://www.stampspumas.com.br/novo/ 0 6
http://webmail/zimbra/ 0 1
http://sn116w.snt116.mail.live.com/mail/InboxLight.aspx 0 8
http://mail.terra.com.br/86.1trr/sendmail.php 0 2
http://by112w.bay112.mail.live.com/mail/InboxLight.aspx 0 1
http://mail.globo.com/mail/ 0 11
http://mail.terra.com.br/86.1trr/reademail.php 1 10
END_PAGEREFS

# Search keyphrases - Number of search
# The 10 first number of search must be first (order not required for others)
BEGIN_SEARCHWORDS 11
gs+comunica%c3%a7%c3%a3o 17
gs+comunicacao 4
gs+comunica%c3%a7%c3%b5es 3
www.gscomunicacao.com.br 3
gs+comunica%c3%87%c3%83o 1
gscomunicacao 1
gscomunica%c3%a7%c3%a3o 1
gs+comunica%c3%a7oes 1
ferpak 1
www.gscomunicacao.com 1
g+s+comunica%c3%a7%c3%a3o 1
END_SEARCHWORDS

# Search keywords - Number of search
# The 10 first number of search must be first (order not required for others)
BEGIN_KEYWORDS 13
gs 26
comunica%c3%a7%c3%a3o 18
comunicacao 4
www.gscomunicacao.com.br 3
comunica%c3%a7%c3%b5es 3
gscomunicacao 1
comunica%c3%87%c3%83o 1
gscomunica%c3%a7%c3%a3o 1
s 1
comunica%c3%a7oes 1
g 1
ferpak 1
www.gscomunicacao.com 1
END_KEYWORDS

# Errors - Hits - Bandwidth
BEGIN_ERRORS 3
206 9 474001
301 84 28740
404 107 0
END_ERRORS

# URL with 404 errors - Hits - Last URL referer
BEGIN_SIDER_404 18
/eventos/index.html\"%20target=\"_blank\"><img%20src=\"http://www.gscomunicacao.com.br/eventos/email.jpg\"%20border=\"0\"%20/></a> 1 -
/robots.txt 52 -
/apresentacao/apres_gs_web.swf.jpge 1 http://71.6.217.131/mail/writemail.html
/crony/catalogo_foto_atual_2_capa.cdr 1 -
/webmai 1 -
/crony/catalogo_foto_atual2.cdr 1 -
/crony/catalogo_foto_atual2capa.cdr 1 -
/apresentacao/apres_gs_web.jpg 1 http://71.6.217.131/mail/writemail.html
/apresentacao/apres_gs_web 1 -
/apres_gs.swf 1 -
/apresentacao/apres_gs.swf 1 -
/apresentacao/apresent_gs.swf 1 -
/clips/07/Scripts/AC_ActiveX.js 3 http://www.gscomunicacao.com.br/clips/07/clips_07.html
/apresentacao/apres_web.jpg 1 http://71.6.217.131/mail/writemail.html
/index.php 2 -
/wp-login.php 36 -
/apresentacao/apres_gs_web.swf.jpg 1 http://71.6.217.131/mail/writemail.html
/apres_gs_web.swf 1 -
END_SIDER_404

# Host - Pages - Hits - Bandwidth - Last visit date - [Start date of last visit] - [Last page of last visit]
# [Start date of last visit] and [Last page of last visit] are saved only if session is not finished
# The 10 first Hits must be first (order not required for others)
BEGIN_VISITOR 363
201.23.69.242.dynamic.neoviatelecom.com.br 39 197 3738148 20100226125412
189-72-114-20.fnses700.dsl.brasiltelecom.net.br 20 30 249453 20100222180129
c953d05c.virtua.com.br 16 52 3378050 20100218104733
189.121.146.58 9 27 128444 20100208112211
200-138-137-248.fozit700-3.e.brasiltelecom.net.br 7 44 3997586 20100224043603
mqrouter2.pucsp.br 6 34 5872449 20100222055756
18714041054.user.veloxzone.com.br 6 54 1987127 20100219175239
bd21138b.virtua.com.br 6 19 1336351 20100208093246
189-75-156-237.pgosm702.dsl.brasiltelecom.net.br 6 17 1108270 20100219081520
201-95-110-65.dsl.telesp.net.br 6 10 249453 20100212023215
200.174.78.2 0 1 135298 
189.120.73.224 0 1 0 
200.169.143.10 1 3 825692 20100202053812
187.7.8.152 1 1 1578 20100226073657
c9346607.virtua.com.br 0 1 7657 
201-75-227-249-am.cpe.vivax.com.br 0 1 7657 
187-6-187-234.ggs4102.3g.brasiltelecom.net.br 0 1 7657 
ip-189-98-52-62.user.vivozap.com.br 0 1 0 
201-92-144-172.dsl.telesp.net.br 2 6 249453 20100207154433
200-204-156-235.dsl.telesp.net.br 2 6 249453 20100202031546
adijon-551-1-42-118.w90-26.abo.wanadoo.fr 0 2 297729 
189.115.4.189.dynamic.adsl.gvt.net.br 0 1 7657 
c93453e5.virtua.com.br 0 3 15314 
201-95-19-196.dsl.telesp.net.br 0 1 7657 
189.121.180.134 0 1 33125 
mail.rohm.com.br 0 1 33125 
201-0-203-241.dial-up.telesp.net.br 0 1 33125 
200-158-10-158.dsl.telesp.net.br 0 1 7657 
189-30-85-94.fnsce703.dsl.brasiltelecom.net.br 3 9 574147 20100208103630
201-0-204-156.dial-up.telesp.net.br 0 1 33125 
187-35-138-124.dsl.telesp.net.br 2 6 249453 20100222043948
200-168-6-74.speedyterra.com.br 0 2 66250 
201-27-106-251.dsl.telesp.net.br 0 6 0 
static-208-80-193-37.as13448.com 3 3 4734 20100217142844
200.162.12.70 5 17 1372874 20100222104617
109.114.128.176 1 3 18654 20100211130308
189-47-147-146.dsl.telesp.net.br 0 6 40782 
189-74-43-221.bsaco701.dsl.brasiltelecom.net.br 1 3 18654 20100227094302
nat.unimep.br 0 1 56034 
189.62.197.142 0 1 33125 
201-26-116-87.dsl.telesp.net.br 0 1 7657 
189-29-158-33-nd.cpe.vivax.com.br 3 9 249453 20100210092623
201-27-164-72.dsl.telesp.net.br 0 4 0 
dyn-81-118.fttbee.kis.ru 2 2 3156 20100218095856
200-162-206-111.static-user.ajato.com.br 2 4 20369 20100222061502
189.115.5.60.dynamic.adsl.gvt.net.br 0 1 7657 
189.102.23.101 0 1 7657 
201-0-152-194.dial-up.telesp.net.br 0 1 7657 
200-168-76-33.speedyterra.com.br 2 10 1761378 20100218085807
189.100.33.137 0 2 15314 
static-208-80-193-27.as13448.com 1 1 1578 20100212184808
mail.direitosbc.br 2 6 249453 20100224072440
187-3-86-228-sa.cpe.vivax.com.br 2 6 249453 20100210092436
201-13-138-54.dial-up.telesp.net.br 0 2 0 
189-54-57-64-nd.cpe.vivax.com.br 0 3 33125 
72.14.194.1 0 2 97546 
mail.cya.com.br 3 12 1425434 20100203095645
201-27-116-57.dsl.telesp.net.br 0 4 66250 
189-78-225-185.dsl.telesp.net.br 0 1 0 
ip-187-117-116-89.user.vivozap.com.br 2 6 249453 20100224065027
200-207-13-144.dsl.telesp.net.br 0 2 66250 
189-78-208-133.dsl.telesp.net.br 0 3 7657 
187.36.208.27 2 7 249453 20100206155333
189-20-192-18.customer.tdatabrasil.net.br 1 5 891942 20100223100326
c90665af.static.spo.virtua.com.br 0 1 33125 
201.57.117.2 0 1 33125 
200-207-77-125.dsl.telesp.net.br 0 1 33125 
webmail.fcl.com.br 1 3 18654 20100205082336
189.86.41.162 1 4 858817 20100202073300
189-46-140-130.dsl.telesp.net.br 0 1 7657 
189-46-26-164.dsl.telesp.net.br 1 3 825692 20100228110454
189.6.160.5 1 1 1578 20100210164745
189-19-218-89.dsl.telesp.net.br 0 1 33125 
189-47-150-234.dsl.telesp.net.br 0 2 66250 
2.35.125.189.static.impsat.net.br 0 1 33125 
189-29-65-160-bp.cpe.vivax.com.br 0 1 33125 
189.115.6.123.dynamic.adsl.gvt.net.br 1 7 866474 20100201051439
200-158-82-132.dsl.telesp.net.br 2 10 2377213 20100223122230
189.84.117.36 2 6 249453 20100225081753
mail.unimonte.br 2 8 547182 20100205084452
201-68-8-102.dsl.telesp.net.br 2 6 249453 20100208101126
200.178.191.130 0 7 66250 
201-62-104-79-mu.static.vivax.com.br 0 2 15314 
189-46-12-232.dsl.telesp.net.br 0 1 0 
static-208-80-193-32.as13448.com 1 1 1578 20100212224856
216.104.15.138 0 1 822974 
proxy2.manikraft.com.br 0 1 33125 
bb2536f2.virtua.com.br 0 1 33125 
201-43-192-126.dsl.telesp.net.br 1 9 1622499 20100223122552
18982027069.user.veloxzone.com.br 1 3 18654 20100213115137
bd076a9d.virtua.com.br 0 1 0 
bd3ef01e.virtua.com.br 0 2 0 
200-225-202-092.static.ctbctelecom.com.br 0 7 30628 
sol.sisnetti.com.br 1 1 1578 20100211133024
187-9-76-106.customer.tdatabrasil.net.br 0 2 66250 
201-1-203-218.dsl.telesp.net.br 0 1 7657 
187-50-190-18.customer.tdatabrasil.net.br 0 5 151107 
201-1-232-131.dsl.telesp.net.br 0 1 0 
189-46-166-231.dsl.telesp.net.br 0 1 7657 
189.114.158.129.static.host.gvt.net.br 2 6 249453 20100201053403
201-26-107-124.dsl.telesp.net.br 0 1 7657 
189-19-39-119.dsl.telesp.net.br 0 1 33125 
201-26-43-54.dsl.telesp.net.br 3 9 1075145 20100228110613
static-208-80-193-31.as13448.com 4 4 6312 20100222064024
189-19-17-55.dsl.telesp.net.br 0 2 25546 
201.55.84.130 0 3 15314 
201.47.19.34.dynamic.adsl.gvt.net.br 1 3 18654 20100204051251
189-19-28-213.dsl.telesp.net.br 0 3 99375 
187-50-47-241.customer.tdatabrasil.net.br 1 8 925067 20100218092854
201.85.83.66 2 6 249453 20100201055226
c9532a3b.virtua.com.br 0 3 33125 
static-208-80-193-40.as13448.com 3 3 4734 20100228121942
189-19-226-156.dsl.telesp.net.br 3 26 1998399 20100205030327
201-1-70-124.dsl.telesp.net.br 0 2 33125 
201-42-181-231.dsl.telesp.net.br 0 1 33125 
189-8-57-130.ded.unitelco.com.br 0 2 7657 
187-3-56-140-sa.cpe.vivax.com.br 0 2 15314 
srv1.riclan.com.br 0 2 33125 
mail.hotelcantodafloresta.com.br 0 1 0 
201-26-3-123.dsl.telesp.net.br 1 3 18654 20100201061445
189-110-159-74.dsl.telesp.net.br 0 1 7657 
189.27.88.172.dynamic.adsl.gvt.net.br 2 6 153700 20100212091422
189107054073.user.veloxzone.com.br 0 1 7657 
201-42-221-153.dsl.telesp.net.br 0 12 0 
216.104.15.142 0 1 1003 
201-0-153-86.dial-up.telesp.net.br 3 9 249453 20100201100127
189.2.67.132 2 8 1034242 20100212041729
201-63-6-202.customer.tdatabrasil.net.br 2 17 1783884 20100210073115
corporativo.gvt.net.br 0 2 40782 
201-1-3-37.dsl.telesp.net.br 0 1 7657 
201-13-29-206.dsl.telesp.net.br 0 1 7657 
187-34-156-223.dsl.telesp.net.br 0 1 0 
201-63-22-202.customer.tdatabrasil.net.br 0 1 33125 
187-50-9-2.customer.tdatabrasil.net.br 0 7 48505 
bd3e377e.virtua.com.br 0 1 33125 
bd3de814.virtua.com.br 0 1 33125 
189-47-143-12.dsl.telesp.net.br 4 18 1580366 20100202091452
189.123.118.72 0 1 33125 
200-161-181-60.dsl.telesp.net.br 0 3 33125 
exchange2k.shofu.com 2 6 249453 20100211084946
201-91-190-125.customer.tdatabrasil.net.br 0 2 15314 
189-8-14-118.ded.unitelco.com.br 1 4 858817 20100210104325
201-26-69-40.dsl.telesp.net.br 3 6 21372 20100204055521
189-47-185-39.dsl.telesp.net.br 0 4 66250 
65.240.238.228 0 2 33125 
150.70.84.204 1 3 825692 20100218085919
189-111-95-123.dsl.telesp.net.br 1 4 858817 20100211063446
201-93-140-61.dsl.telesp.net.br 0 2 66250 
c9510f0e.virtua.com.br 0 4 7657 
bd79300f.virtua.com.br 1 8 891942 20100223065250
189-47-203-147.dsl.telesp.net.br 0 2 87488 
189.43.110.4 0 1 33125 
static-208-80-193-39.as13448.com 2 2 3156 20100225142023
189-92-12-200.3g.claro.net.br 0 1 12773 
208.91.115.10 2 2 3156 20100228034257
static-208-80-193-29.as13448.com 3 3 4734 20100227025036
189.59.161.186.static.host.gvt.net.br 2 6 249453 20100215114151
c9067121.static.spo.virtua.com.br 3 9 1075145 20100219050604
189-29-64-23-bp.cpe.vivax.com.br 0 1 33125 
201009059001.user.veloxzone.com.br 2 6 249453 20100207034032
189.7.106.157 0 3 15314 
brma.abr.ind.br 0 1 0 
imss01.tecondi.com.br 0 2 66250 
189-56-50-99.customer.tdatabrasil.net.br 1 6 866474 20100218095702
201-43-152-35.dsl.telesp.net.br 1 5 41133 20100208115133
200-232-167-160.dsl.telesp.net.br 2 6 249453 20100224103759
bd21e345.virtua.com.br 0 1 7657 
200.18.248.103 0 2 112068 
bb15e5c2.virtua.com.br 2 6 249453 20100204114917
ip-187-116-18-172.user.vivozap.com.br 0 1 0 
bd78259c.virtua.com.br 1 6 925067 20100217073953
201-68-9-108.dsl.telesp.net.br 2 17 2959348 20100208034422
201-75-228-75-am.cpe.vivax.com.br 0 1 7657 
mail.maxxibolt.com.br 0 1 33125 
200-153-224-21.dsl.telesp.net.br 0 3 73907 
201-1-46-36.dsl.telesp.net.br 0 1 0 
bd799325.virtua.com.br 0 1 33125 
200-171-148-23.dsl.telesp.net.br 0 4 132500 
201-1-202-189.dsl.telesp.net.br 0 1 7657 
189-29-75-242-bp.cpe.vivax.com.br 0 1 33125 
189.26.6.234.dynamic.adsl.gvt.net.br 0 1 0 
fw.metaltrend.com.br 0 1 33125 
201-1-64-92.dsl.telesp.net.br 5 26 833349 20100202055725
65.55.109.62 1 1 1578 20100213033436
c906f07d.virtua.com.br 0 2 66250 
201-92-220-119.dsl.telesp.net.br 0 1 0 
201-68-211-124.dsl.telesp.net.br 0 3 0 
200-170-102-50.static-corp.ajato.com.br 0 1 33125 
18715170181.user.veloxzone.com.br 0 1 33125 
189-110-239-112.dsl.telesp.net.br 0 1 33125 
mail.habasit.com.br 0 6 7657 
dns2.faap.br 0 1 56034 
189-68-197-189.dsl.telesp.net.br 0 1 7657 
201008052240.user.veloxzone.com.br 5 9 249453 20100208105714
189-19-65-14.dsl.telesp.net.br 1 4 858817 20100204104934
200-204-164-107.dsl.telesp.net.br 1 5 858817 20100211082319
200-171-162-6.dsl.telesp.net.br 0 4 30628 
200.211.255.130 0 1 56034 
200-148-81-28.dsl.telesp.net.br 0 2 297729 
201-27-4-217.dsl.telesp.net.br 0 1 7657 
187-3-45-246-sa.cpe.vivax.com.br 0 1 7657 
189-47-194-245.dsl.telesp.net.br 0 1 7657 
201.23.73.226 1 5 891942 20100201060225
ip-189-98-180-174.user.vivozap.com.br 0 2 33125 
189-111-209-95.dsl.telesp.net.br 2 6 249453 20100205100211
201-68-87-72.dsl.telesp.net.br 0 2 66250 
201-0-37-17.dsl.telesp.net.br 0 1 0 
201-27-3-130.dsl.telesp.net.br 0 1 33125 
159.53.78.147 2 17 4201285 20100209120120
189.62.118.195 0 1 7657 
c906682f.static.spo.virtua.com.br 0 2 66250 
189.62.36.157 0 1 33125 
200-232-169-193.dsl.telesp.net.br 1 7 925067 20100209083049
189-47-151-13.dsl.telesp.net.br 0 1 33125 
static-208-80-193-42.as13448.com 1 1 1578 20100220211232
bd3e7906.virtua.com.br 0 2 25534 
ec2-184-73-23-37.compute-1.amazonaws.com 1 1 1578 20100225041647
189-19-91-189.dsl.telesp.net.br 0 17 7657 
189-112-204-226.static.ctbctelecom.com.br 0 1 7657 
c951a92b.virtua.com.br 0 5 99375 
bb16b79e.virtua.com.br 1 1 1578 20100212003353
200-171-112-190.dsl.telesp.net.br 0 2 50128 
189.62.55.19 1 4 825692 20100209073402
bd215296.virtua.com.br 0 1 7657 
189-111-213-127.dsl.telesp.net.br 0 2 66250 
200-168-8-138.dsl.telesp.net.br 0 1 7657 
200-171-161-96.dsl.telesp.net.br 0 11 76570 
201-25-211-146.fnsce702.dsl.brasiltelecom.net.br 1 1 1578 20100225082904
c906c361.virtua.com.br 2 6 249453 20100219034253
200.182.149.130 0 1 7657 
187-3-71-34-sa.cpe.vivax.com.br 0 1 0 
189-19-29-100.dsl.telesp.net.br 0 3 7657 
201.28.235.5 0 1 56034 
201-92-164-102.dsl.telesp.net.br 0 1 7657 
static-208-80-193-30.as13448.com 3 3 4734 20100228160629
200.174.81.100 2 17 3560412 20100208045045
bd3eef5c.virtua.com.br 0 1 7657 
201-43-182-188.dsl.telesp.net.br 0 6 0 
187.7.175.31 0 1 0 
200-207-166-36.dsl.telesp.net.br 0 1 24447 
189.62.203.76 0 1 33125 
189.100.156.49 0 4 22971 
189-73-99-80.fnsce704.dsl.brasiltelecom.net.br 2 6 249453 20100219022217
bd649c31.virtua.com.br 0 1 7657 
200.99.202.3 0 8 56096 
189-19-68-160.dsl.telesp.net.br 4 24 331482 20100222052012
201009065117.user.veloxzone.com.br 2 6 249453 20100224072045
200-148-81-7.dsl.telesp.net.br 2 8 547182 20100219153538
static-208-80-193-36.as13448.com 2 2 3156 20100220172055
189.121.189.246 0 1 17003 
189-46-178-253.dsl.telesp.net.br 2 7 305487 20100224063347
bb258968.virtua.com.br 0 1 33125 
200-207-87-240.speedyterra.com.br 0 1 33125 
189-46-157-67.dsl.telesp.net.br 0 1 18501 
65.55.109.202 1 1 1578 20100204101900
200-148-81-63.dsl.telesp.net.br 3 31 1865886 20100209082848
189-79-58-12.dsl.telesp.net.br 1 1 1578 20100223113611
smtp.abr.ind.br 0 5 7657 
static-208-80-193-33.as13448.com 4 4 6312 20100225101013
bd7b7648.virtua.com.br 0 2 66250 
ip-187-88-133-59.user.vivozap.com.br 0 1 7657 
189-19-244-70.dsl.telesp.net.br 0 2 40507 
200.230.207.2 0 1 25907 
189-46-2-38.dsl.telesp.net.br 0 2 15314 
189107043130.user.veloxzone.com.br 5 39 1818506 20100209102329
201-93-166-43.dsl.telesp.net.br 0 1 7657 
201-27-73-215.dsl.telesp.net.br 0 1 7657 
bd3e249d.virtua.com.br 0 1 33125 
201-43-96-124.dsl.telesp.net.br 0 6 0 
187-3-122-243-sa.cpe.vivax.com.br 0 3 15314 
brma.radiex.com.br 0 1 33125 
200-158-80-158.dsl.telesp.net.br 0 3 7657 
189-47-142-85.dsl.telesp.net.br 0 1 33125 
125.226.47.187.isp.timbrasil.com.br 0 1 33125 
201-74-15-230-sc.cpe.vivax.com.br 2 6 249453 20100204111413
c906fbc5.virtua.com.br 0 82 130169 
201-26-117-236.dsl.telesp.net.br 0 3 0 
189-47-185-108.dsl.telesp.net.br 0 1 33125 
187-3-53-163-sa.cpe.vivax.com.br 0 1 7657 
18983194017.user.veloxzone.com.br 2 6 249453 20100201070120
201-68-206-20.dsl.telesp.net.br 0 1 0 
200.198.120.101 0 1 7657 
189-18-226-175.dsl.telesp.net.br 3 11 416661 20100224055343
189-108-201-164.customer.tdatabrasil.net.br 0 1 7657 
bd2271c1.virtua.com.br 0 9 38285 
200-170-150-105.static.ctbctelecom.com.br 3 9 249453 20100222113730
famotec-200-225-222-017.static.ctbctelecom.com.br 0 3 66250 
187-3-58-55-sa.cpe.vivax.com.br 0 2 15314 
mail.alpax.com.br 1 3 18654 20100210102930
200-158-220-120.dsl.telesp.net.br 0 2 66250 
189.34.113.193 0 1 7657 
187-35-78-155.dsl.telesp.net.br 0 14 0 
200-148-81-50.dsl.telesp.net.br 0 2 297729 
201-13-136-217.dial-up.telesp.net.br 0 2 0 
200-207-89-27.speedycti.com.br 0 1 33125 
201-27-149-189.dsl.telesp.net.br 0 4 22971 
200-143-139-90.ded.unitelco.com.br 0 1 33125 
189-110-233-186.dsl.telesp.net.br 1 3 18654 20100220091156
189-47-143-38.dsl.telesp.net.br 0 2 142955 
201-048-128-082.static.ctbctelecom.com.br 2 6 249453 20100223050713
20129185074.user.veloxzone.com.br 2 6 249453 20100218101049
201-43-18-115.dsl.telesp.net.br 0 8 0 
bd214415.virtua.com.br 0 1 33125 
c915af61.virtua.com.br 1 1 1578 20100226053218
189-54-64-64-nd.cpe.vivax.com.br 1 3 18654 20100212091447
serv2.predilecta.com.br 0 3 33125 
189-78-223-196.dsl.telesp.net.br 0 1 7657 
189-18-193-155.dsl.telesp.net.br 0 10 30628 
200-207-15-49.speedyterra.com.br 0 2 56034 
189-46-195-243.dsl.telesp.net.br 0 1 135298 
201-92-63-226.dsl.telesp.net.br 0 1 12773 
187-9-94-34.customer.tdatabrasil.net.br 0 1 33125 
189-79-91-125.dsl.telesp.net.br 0 2 25546 
200.162.63.140 0 4 0 
187-3-121-151-sa.cpe.vivax.com.br 0 1 7657 
bd3eb0ae.virtua.com.br 0 1 33125 
216.104.15.130 1 1 1715 20100218085915
smtp.atendeweb.com.br 0 1 7657 
189-78-218-223.dsl.telesp.net.br 0 1 0 
c95161c9.virtua.com.br 3 6 22950 20100220122318
200-207-86-160.speedyterra.com.br 1 8 866474 20100226070451
187-3-120-132-sa.cpe.vivax.com.br 0 1 0 
c934675e.virtua.com.br 1 4 858817 20100209113407
201-43-201-141.dsl.telesp.net.br 0 1 7657 
187-3-139-133-sa.cpe.vivax.com.br 1 3 18654 20100218141051
mail.italbronze.com.br 0 1 33125 
bd21e9c1.virtua.com.br 0 1 0 
189-47-137-126.dsl.telesp.net.br 2 7 858817 20100224095541
189.26.10.30.dynamic.adsl.gvt.net.br 2 8 485404 20100224104023
201-27-163-192.dsl.telesp.net.br 0 2 0 
static-208-80-193-34.as13448.com 2 2 3156 20100211051803
200-207-89-151.speedyterra.com.br 0 2 33125 
200-207-85-239.dsl.telesp.net.br 0 1 33125 
201-27-111-73.dsl.telesp.net.br 0 2 66250 
201-68-126-157.dsl.telesp.net.br 2 7 257110 20100209051202
201-43-126-96.dsl.telesp.net.br 2 6 249453 20100223143755
ip-187-117-88-237.user.vivozap.com.br 2 6 249453 20100201132338
200-171-228-174.customer.telesp.net.br 0 1 33125 
189-18-245-64.dsl.telesp.net.br 0 1 33125 
server.fischer.com.br 0 1 33125 
189-78-214-10.dsl.telesp.net.br 0 1 0 
187-9-75-26.customer.tdatabrasil.net.br 0 23 0 
201-75-131-208-sa.cpe.vivax.com.br 0 3 99375 
150.70.84.48 0 2 823977 
bd21acf8.virtua.com.br 2 8 1252775 20100203073019
187.37.48.80 2 7 373392 20100218100925
189.26.21.71.dynamic.adsl.gvt.net.br 0 1 33125 
189-18-198-19.dsl.telesp.net.br 1 3 825692 20100202083218
bd3e061c.virtua.com.br 0 3 12767 
201-93-177-100.dsl.telesp.net.br 0 16 15314 
static-208-80-193-28.as13448.com 5 5 7890 20100223201538
static-208-80-193-35.as13448.com 2 2 3156 20100226225526
150.70.84.43 1 4 826695 20100208100711
c9067c98.static.spo.virtua.com.br 0 2 66250 
201-42-116-251.dsl.telesp.net.br 1 3 18654 20100210025214
201-27-17-28.dsl.telesp.net.br 0 1 7657 
200-206-225-30.dsl.telesp.net.br 0 3 33125 
bd21e09f.virtua.com.br 3 17 3042109 20100226071209
200-160-126-208.static.spo.ctbc.com.br 1 3 229084 20100222062029
200.210.84.130 0 1 7657 
201-74-46-141-sa.cpe.vivax.com.br 1 1 0 20100224032610
201-92-163-157.dsl.telesp.net.br 0 1 7657 
201-74-53-229-sa.cpe.vivax.com.br 0 1 33125 
END_VISITOR

# Date - Pages - Hits - Bandwidth - Visits
BEGIN_DAY 28
20100201 19 108 3647747 12
20100202 16 95 5576203 8
20100203 20 81 4969152 8
20100204 16 69 2630164 10
20100205 9 54 2296864 6
20100206 4 10 260266 3
20100207 4 13 532031 2
20100208 38 158 12766070 14
20100209 17 179 11517832 9
20100210 13 84 2622464 8
20100211 8 97 2683970 7
20100212 17 48 1769363 8
20100213 2 4 20232 2
20100214 2 2 3156 2
20100215 2 6 249453 1
20100216 2 2 3156 2
20100217 6 30 1157601 5
20100218 20 110 8191104 13
20100219 30 164 11330207 11
20100220 6 12 52417 4
20100221 0 3 305386 0
20100222 45 127 3913143 12
20100223 11 108 6939673 8
20100224 25 151 8470232 12
20100225 10 91 681510 6
20100226 9 74 4125287 6
20100227 2 5 20232 2
20100228 8 17 1914806 5
END_DAY

# Session range - Number of visits
BEGIN_SESSION 6
5mn-15mn 7
0s-30s 154
15mn-30mn 2
2mn-5mn 12
30s-2mn 10
30mn-1h 1
END_SESSION

# URL - Pages - Bandwidth - Entry - Exit
# The 10 first Pages must be first (order not required for others)
BEGIN_SIDER 8
/ 158 211452 136 61
/site.html 122 121765 3 67
/eventos/ 61 78890 38 45
/webmail/ 13 351 9 10
/clips/07/clips_07.html 3 12306 0 2
/clips/01/clips_01.html 2 5742 0 1
/clips/02/clips_02.html 1 2980 0 0
/clips/03/clips_03.html 1 3749 0 0
END_SIDER
