AWSTATS DATA FILE 6.4 (build 1.814)
# If you remove this file, all statistics for date 2012-02 will be lost/reset.

# Position (offset in bytes) in this file of beginning of each section for
# direct I/O access. If you made changes somewhere in this file, you should
# also remove completely the MAP section (AWStats will rewrite it at next
# update).
BEGIN_MAP 27
POS_GENERAL 1865                
POS_TIME 2546                
POS_VISITOR 14729               
POS_DAY 61509               
POS_DOMAIN 3336                
POS_LOGIN 3799                
POS_ROBOT 3954                
POS_WORMS 4287                
POS_EMAILSENDER 4418                
POS_EMAILRECEIVER 4561                
POS_SESSION 62333               
POS_SIDER 62542               
POS_FILETYPES 4696                
POS_OS 4846                
POS_BROWSER 4989                
POS_SCREENSIZE 5476                
POS_UNKNOWNREFERER 5550                
POS_UNKNOWNREFERERBROWSER 6498                
POS_ORIGIN 7013                
POS_SEREFERRALS 7158                
POS_PAGEREFS 7326                
POS_SEARCHWORDS 13570               
POS_KEYWORDS 13943               
POS_MISC 2209                
POS_ERRORS 14200               
POS_CLUSTER 3655                
POS_SIDER_404 14313               
END_MAP

# LastLine    = Date of last record processed - Last record line number in last log - Last record offset in last log - Last record signature value
# FirstTime   = Date of first visit for history file
# LastTime    = Date of last visit for history file
# LastUpdate  = Date of last update - Nb of parsed records - Nb of parsed old records - Nb of parsed new records - Nb of parsed corrupted - Nb of parsed dropped
# TotalVisits = Number of visits
# TotalUnique = Number of unique visitors
# MonthHostsKnown   = Number of hosts known
# MonthHostsUnKnown = Number of hosts unknown
BEGIN_GENERAL 8
LastLine 20120301012828 444 121707 33013849806
FirstTime 20120201020546
LastTime 20120229161406
LastUpdate 20120301050259 229 0 228 0 0
TotalVisits 498                 
TotalUnique 402                 
MonthHostsKnown 860                 
MonthHostsUnknown 164                 
END_GENERAL

# Misc ID - Pages - Hits - Bandwidth
BEGIN_MISC 10
QuickTimeSupport 0 0 0
JavaEnabled 0 0 0
JavascriptDisabled 0 0 0
PDFSupport 0 0 0
WindowsMediaPlayerSupport 0 0 0
AddToFavourites 0 47 0
RealPlayerSupport 0 0 0
TotalMisc 0 0 0
DirectorSupport 0 0 0
FlashSupport 0 0 0
END_MISC

# Hour - Pages - Hits - Bandwidth - Not viewed Pages - Not viewed Hits - Not viewed Bandwidth
BEGIN_TIME 24
0 9 27 404830 6 8 195192
1 23 160 25685912 9 10 5457
2 56 494 73997762 16 19 79105
3 52 523 60465712 20 24 2521717
4 50 411 35312358 24 31 675269
5 31 396 33586689 20 26 311499
6 18 167 10687445 7 8 5855
7 22 249 15356024 14 16 122252
8 68 486 47841121 9 19 602369
9 155 494 63355035 15 25 211492
10 82 437 59923428 5 6 245120
11 74 755 108906233 5 11 463540
12 73 344 48383493 12 12 5776
13 33 139 14783750 13 13 704
14 31 117 17002896 6 8 82756
15 15 67 5450313 15 19 461765
16 18 69 1741565 10 10 1578
17 19 53 7307378 7 9 11934
18 7 26 646789 0 0 0
19 9 26 614553 15 16 15303
20 8 14 305497 5 5 0
21 8 8 9468 10 10 0
22 9 9 12624 10 11 3023
23 9 9 9468 5 5 0
END_TIME

# Domain - Pages - Hits - Bandwidth
# The 10 first Pages must be first (order not required for others)
BEGIN_DOMAIN 16
br 575 3942 516802169
com 124 161 3510273
ip 93 1194 79018431
org 46 47 3028836
net 27 97 19528244
iad1 4 7 9869
pt 3 11 3266939
sjdc 2 6 2972916
ca 1 5 3267061
nl 1 1 1578
rs 0 2 297729
cl 0 2 40782
ar 1 1 1578
arpa 1 1 1578
fr 0 2 40782
at 1 1 1578
END_DOMAIN

# Cluster ID - Pages - Hits - Bandwidth
BEGIN_CLUSTER 0
END_CLUSTER

# Login - Pages - Hits - Bandwidth - Last visit
# The 10 first Pages must be first (order not required for others)
BEGIN_LOGIN 0
END_LOGIN

# Robot ID - Hits - Bandwidth - Last visit - Hits on robots.txt
# The 10 first Hits must be first (order not required for others)
BEGIN_ROBOT 6
msnbot 30 48785 20120229220228 0
googlebot 18 17018 20120229040421 0
yandex 10 15780 20120222095154 0
robot 6 1715 20120228023055 0
netcraft 2 3156 20120201164811 0
baiduspider 1 1578 20120202192458 0
END_ROBOT

# Worm ID - Hits - Bandwidth - Last visit
# The 5 first Hits must be first (order not required for others)
BEGIN_WORMS 0
END_WORMS

# EMail - Hits - Bandwidth - Last visit
# The 20 first Hits must be first (order not required for others)
BEGIN_EMAILSENDER 0
END_EMAILSENDER

# EMail - Hits - Bandwidth - Last visit
# The 20 first hits must be first (order not required for others)
BEGIN_EMAILRECEIVER 0
END_EMAILRECEIVER

# Files type - Hits - Bandwidth - Bandwidth without compression - Bandwidth after compression
BEGIN_FILETYPES 5
html 875 1089974 0 0
js 344 336993 0 0
jpg 3887 46358529 0 0
Unknown 4 6860 0 0
swf 370 583997987 0 0
END_FILETYPES

# OS ID - Hits
BEGIN_OS 10
winlong 363
winxp 1795
win2000 6
winnt 2774
win98 1
linux 56
macosx 222
win2003 21
wince 3
Unknown 239
END_OS

# Browser ID - Hits
BEGIN_BROWSER 30
msie6.0 107
firefox4.0.1 6
firefox10.0 55
firefox3.6.25 5
opera 4
firefox10.0.1 39
firefox4.0 5
firefox3.6.17 3
firefox3.6.16 3
firefox7.0.1 24
w3c_css_validator 18
firefox3.6.26 6
lotus\-notes 11
msie8.0 629
firefox6.0.2 6
mozilla 303
netscape5.0 1
msie7.0 2989
firefox5.0.1 6
firefox6.0 9
firefox3.6.27 9
firefox3.6.3 7
firefox9.0.1 60
msie9.0 263
firefox8.0.1 5
Unknown 172
firefox10.0.2 31
firefox3.6.8 6
w3c_validator 7
safari 691
END_BROWSER

# Screen size - Hits
BEGIN_SCREENSIZE 0
END_SCREENSIZE

# Unknown referer OS - Last visit date
BEGIN_UNKNOWNREFERER 17
Opera/9.80_(Series_60;_Opera_Mini/6.5.27354/27.1169;_U;_pt)_Presto/2.8.119_Version/11.10 20120211181041
EventMachine_HttpClient 20120210062537
Mozilla/5.0_(compatible;_MJ12bot/v1.4.2;_http://www.majestic12.co.uk/bot.php?_) 20120229072500
- 20120227124308
Mozilla/5.0_(compatible;_bingbot/2.0;__http://www.bing.com/bingbot.htm) 20120229103920
URLRedirect.pm 20120227133005
CatchBot/1.0;__http://www.catchbot.com 20120222050627
ClamAV_0.95.3 20120217104912
Mozilla/5.0_(compatible;_MJ12bot/v1.4.1;_http://www.majestic12.co.uk/bot.php?_) 20120228070120
W3C_Validator/1.2 20120223093421
Jigsaw/2.2.5_W3C_CSS_Validator_JFouffa/2.0 20120223093426
FeedValidator/1.3 20120223093424
GbPlugin 20120217031338
W3C_Unicorn/1.0 20120223093419
Windows-Live-Social-Object-Extractor-Engine/1.0 20120206171838
Mozilla/5.0 20120204171659
Mozilla/4.0_(compatible;) 20120226032134
END_UNKNOWNREFERER

# Unknown referer Browser - Last visit date
BEGIN_UNKNOWNREFERERBROWSER 10
GbPlugin 20120217031338
FeedValidator/1.3 20120223093424
Microsoft_Office/14.0_(Windows_NT_6.1;_Microsoft_Outlook_14.0.4760;_Pro;_ms-office;_MSOffice_14) 20120227100025
EventMachine_HttpClient 20120210062537
W3C_Unicorn/1.0 20120223093419
- 20120227124308
Windows-Live-Social-Object-Extractor-Engine/1.0 20120206171838
URLRedirect.pm 20120227133005
ClamAV_0.95.3 20120217104912
CatchBot/1.0;__http://www.catchbot.com 20120222050627
END_UNKNOWNREFERERBROWSER

# Origin - Pages - Hits 
BEGIN_ORIGIN 6
From0 712 3948
From1 0 0
From2 23 23
From3 39 351
From4 105 1158
From5 0 0
END_ORIGIN

# Search engine referers ID - Pages - Hits
BEGIN_SEREFERRALS 2
google 22 22
search 1 1
END_SEREFERRALS

# External page referers - Pages - Hits
# The 10 first Pages must be first (order not required for others)
BEGIN_PAGEREFS 99
http://webmail.metrics.ind.br/3rdparty/roundcube/ 4 6
http://www.ferpak.com.br/intro.swf 4 4
http://www.easyfor.com.br/site.html 3 3
http://br.bing.com/search 3 3
http://webmail.mackross.com.br/ultramail/main.php 2 8
http://mail.uol.com.br/main/message 2 11
http://server2003.afs.local:4080/nonauth/deny.php 2 2
http://webmail.brinquedospicapau.com.br/webmail.php 1 1
http://www.sitedossier.com/site/www.gscomunicacao.com.br 1 1
http://www.sitedossier.com/site/gscomunicacao.com.br 1 1
http://co109w.col109.mail.live.com/mail/InboxLight.aspx 0 2
http://br.mg1.mail.yahoo.com/neo/launch 0 1
http://pop.endobrax.com.br/Session/902778-R1642lfpYDm1A8DrfIbR-aoganjy/webmail.wssp 0 1
http://bl147w.blu147.mail.live.com/mail/InboxLight.aspx 0 5
http://webmail.sterilex.com.br:32000/mail/view.html 0 2
http://webmail.cimitarra.com.br/webmail.php 1 1
http://webmail.grehder.com.br 0 4
http://webmail.airslaid.com.br/zimbra/h/search 0 2
http://gscomunicacao.blogspot.com/2010/06/o-grupo-bimbo-do-brasil-e-sucesso-na.html 0 15
http://gscomunicacao.blogspot.com/2010/10/gs-no-mega-evento-da-nutricao.html 0 8
http://link.smartscreen.live.com 1 1
http://gscomunicacao.blogspot.com/2011/07/gs-vence-concorrencia-da-ams-kepler.html 0 2
http://pop.intercos.com.br/Session/579391-itJ4lt2j0y2Jy6zeLcmc-aoganmy/message.wssp 0 5
http://www.ferpak.com.br 1 1
http://by148w.bay148.mail.live.com/mail/InboxLight.aspx 0 2
http://pop.intercos.com.br/Session/519517-E1navAPtlA2VPyUtZO4i-aoganmz/message.wssp 0 2
http://gscomunicacao.blogspot.com/2010/04/lontra-na-automec-2010.html 0 2
http://mail.metahospitalar.com.br/Main/frmCompose.aspx 0 9
http://webmail.danfex.com.br/Session/1186782-HpdIOy3NpW3la0tJ10m5-aogauct/blank.wssp 0 2
http://correio.minor.ind.br/zimbra/ 0 2
http://webmail.lpr.com.br/Session/171681-JSceFrcozyUEYQw4DamS-aoganlr/blank.wssp 0 1
http://zimbra.paema.com.br/zimbra/ 1 5
http://consultoraimaginarium.blogspot.com 0 2
http://webmail1.shockmusic.com.br/cgi-bin/webmail.cgi/To_view_full_html_email_click_here 1 1
http://bl156w.blu156.mail.live.com/mail/InboxLight.aspx 0 2
https://webmail.scs.swagelok.com/exchange/Jean.Strasse/Inbox/A_xF8FF_c%20:%20Jean%20-%20Mec%C3%A2nica%202012%20-%20GS%20Comunica%C3%A7%C3%A3o.EML 0 2
http://gscomunicacao.blogspot.com/2010/07/parceria-de-sucesso.html/ 0 1
http://webmail.jiki.com.br/imp/message.php 1 1
http://mail.metahospitalar.com.br/Main/frmMessage.aspx 1 9
http://sn145w.snt145.mail.live.com/default.aspx 1 1
http://gscomunicacao.blogspot.com/2011/07/bimbo-faz-sucesso-no-evento-fispal-food.html 0 2
http://pop.intercos.com.br/Session/570486-mRC9IxQzEPgbgzLijvOD-aoganmy/message.wssp 0 3
http://200.215.218.38/zimbra/ 0 2
http://webmail.cultura.com.br/MsgTxt.aspx 0 2
http://pop.endobrax.com.br/Session/184295-EU1I2TyAOR0CqwesIk3A-aoganjw/webmail.wssp 0 2
http://36ohk6dgmcd1n-c.c.yom.mail.yahoo.net/om/api/1.0/openmail.app.invoke/36ohk6dgmcd1n/9/1.0.35/br/pt-BR/controller.html/0 0 4
http://gscomunicacao.blogspot.com/2010/12/escola-great-idiomas-especializada-em.html 0 2
http://mail.uol.com.br/compose/reply 0 2
http://webmail.metroametro.com.br/webmail.php 0 18
http://webmail.rdibender.com.br/imp/message.php 1 3
http://gscomunicacao.blogspot.com 0 14
http://gscomunicacao.blogspot.com/2011/02/santiago-e-cintra-na-mundo-geo-connect.html 0 8
http://gscomunicacao.blogspot.com/2009/05/vestibular-de-moda-fefisa.html 0 3
http://gscomunicacao.blogspot.com/2010/07/parceria-de-sucesso.html 0 4
http://bl147w.blu147.mail.live.com 0 1
http://webmail.hostnet.com.br/ultramail/main.php 0 2
http://pop.endobrax.com.br/Session/734108-SPFEFaJ0ogrT8rEhFyxJ-aoganjy/webmail.wssp 0 2
http://webmail.netabc.com.br/MsgTxt.aspx 0 2
http://webmail.onda.com.br/atmail/reademail.php 0 2
http://pop.intercos.com.br/Session/502328-0frXk1GDVLkxQ3lrjWgG-aoganmz/message.wssp 0 4
http://webmail.lpr.com.br/Session/301217-o7ClChX0OI9Vj8WTIBC3-aoganlu/blank.wssp 0 1
http://mail.terra.com.br/105.0trr/reademail.php 1 15
http://bl153w.blu153.mail.live.com/mail/RteFrame_16.2.3026.0119.html 0 2
http://gscomunicacao.blogspot.com/2012/02/nanno-na-hair-brasil-2012.html 0 2
http://eurofoods.dyndns.biz:2997/fckeditor/editor/fckeditor.html 0 1
http://gscomunicacao.blogspot.com 0 2
http://pop.endobrax.com.br/Session/20237-kcVt1d6JBw7fJF37QbTV-aoganjw/webmail.wssp 0 2
http://gscomunicacao.blogspot.com/2010_02_01_archive.html 0 2
http://www.ferpak.com.br/site.swf 1 1
http://beta.locamail.com.br 0 2
http://webmail.grupoosmoze.com.br 0 2
http://bl157w.blu157.mail.live.com/default.aspx 1 3
http://webmail02.webserverbr.net/Main/frmPreview.aspx 0 2
http://sn116w.snt116.mail.live.com/default.aspx 0 1
http://gscomunicacao.blogspot.com/2010/04/rotary-club.html 0 2
http://www.radarbit.com 1 1
http://webmail.neolider.net.br/WorldClient.dll 0 2
http://172.16.90.200/SCAN/cgi-bin/openwebmail/openwebmail-read.pl 1 1
http://webmail.telium.com.br/c3mail/ 0 1
http://webmail.sthill.com.br 0 2
http://webmail.totalityeventos.com.br/105.0trr/reademail.php 0 2
http://webmail.emagrecentro.com.br/webmail.php 0 2
http://gscomunicacao.blogspot.com/2011_07_01_archive.html 0 2
http://bl162w.blu162.mail.live.com/mail/RteFrame_16.2.3026.0119.html 0 1
http://71.6.217.131/mail/view.html 0 34
http://gscomunicacao.blogspot.com/2011/05/gross-cargo-na-intermodal-2011.html 0 12
http://mail.tovani.com.br/src/download.php 1 3
http://bl155w.blu155.mail.live.com/mail/InboxLight.aspx 0 2
http://189.90.130.50:8001/Main/frmReadMail_body.aspx 0 2
http://pop.intercos.com.br/Session/486285-sy5oydnRmpfIigNdzABx-aoganmz/message.wssp 0 4
http://bl162w.blu162.mail.live.com/mail/InboxLight.aspx 0 2
http://gscomunicacao.blogspot.com/2010_12_01_archive.html/ 0 1
http://36ohk6dgmcd1n-c.c.yom.mail.yahoo.net/om/api/1.0/openmail.app.invoke/36ohk6dgmcd1n/9/1.0.35/br/pt-BR/controller.html 0 2
http://webmail/zimbra/ 1 5
http://webmail.grupoldm.com.br/WorldClient.dll 0 4
http://gscomunicacao.blogspot.com/2011/02/imagens-stand-trident-2011.html 0 4
http://pop.humma.com.br/src/read_body.php 0 2
http://gscomunicacao.blogspot.com/2010_12_01_archive.html 0 2
http://webmail.oscariskin.com.br/zimbra/h/search 0 2
END_PAGEREFS

# Search keyphrases - Number of search
# The 10 first number of search must be first (order not required for others)
BEGIN_SEARCHWORDS 8
gs+comunica%c3%a7%c3%a3o 11
http+//www.gscomunicacao.com.br/ 2
gs+comunica%c3%a7%c3%b5es 2
www.gscomunicacao.com.br 1
www.gscomunicacao.com.b 1
gscomunicacao 1
gscomunicacao.com.br 1
gs+comunica%c3%a7%c3%b5es+fortaleza 1
END_SEARCHWORDS

# Search keywords - Number of search
# The 10 first number of search must be first (order not required for others)
BEGIN_KEYWORDS 10
gs 14
comunica%c3%a7%c3%a3o 11
comunica%c3%a7%c3%b5es 3
//www.gscomunicacao.com.br/ 2
http 2
www.gscomunicacao.com.br 1
www.gscomunicacao.com.b 1
gscomunicacao 1
fortaleza 1
gscomunicacao.com.br 1
END_KEYWORDS

# Errors - Hits - Bandwidth
BEGIN_ERRORS 3
206 60 5922468
301 34 11206
404 160 0
END_ERRORS

# URL with 404 errors - Hits - Last URL referer
BEGIN_SIDER_404 2
/robots.txt 159 -
/clips/07/Scripts/AC_ActiveX.js 1 http://www.gscomunicacao.com.br/clips/07/clips_07.html
END_SIDER_404

# Host - Pages - Hits - Bandwidth - Last visit date - [Start date of last visit] - [Last page of last visit]
# [Start date of last visit] and [Last page of last visit] are saved only if session is not finished
# The 10 first Hits must be first (order not required for others)
BEGIN_VISITOR 1024
www.easymailing.com.br 104 104 0 20120227124308
200.99.7.194 22 53 4246026 20120214113527
b120023e.virtua.com.br 18 58 2392913 20120209042352
mx5.letti.com.br 12 12 20580 20120217111847
dr-steve.w3.org 10 10 16876 20120223093426
static-208-80-194-30.as13448.com 10 10 15780 20120228170319
lx4.letti.com.br 10 10 17150 20120217110203
mx20.grendene.com.br 8 10 0 20120227133005
mail02.activas.com.br 6 38 3994648 20120223075943
201-92-132-126.dsl.telesp.net.br 6 16 3226157 20120208142823
bb03228e.virtua.com.br 0 2 40782 
187-75-230-71.dsl.telesp.net.br 0 2 40782 
email.theimagepress.com.br 0 1 7657 
177.97.79.dynamic.adsl.gvt.net.br 0 2 40782 
msnbot-65-52-110-147.search.msn.com 1 1 0 20120211131640
187.17.164.56 1 3 2969332 20120213114249
187-75-214-93.dsl.telesp.net.br 0 4 81564 
201-1-166-195.dsl.telesp.net.br 0 2 40782 
62.172.186.200.sta.impsat.net.br 0 22 40782 
187-121-112-21.corp.ajato.com.br 0 2 40782 
187.55.226.108 1 3 18654 20120225195933
189-68-188-137.dsl.telesp.net.br 0 2 40782 
189-95-137-226.3g.claro.net.br 0 1 7657 
internet.thevear.com.br 2 6 5938664 20120217092043
189-19-75-19.dsl.telesp.net.br 2 10 6020228 20120215021018
ip-187-89-72-175.user.vivozap.com.br 0 2 40782 
201-42-50-130.dsl.telesp.net.br 0 16 81564 
c94bb71d.virtua.com.br 0 2 40782 
201.83.75.44 0 4 81564 
200.175.247.167.dynamic.adsl.gvt.net.br 0 2 40782 
189-11-190-233.dsl.fnsce703.brasiltelecom.net.br 1 3 18654 20120212081608
189.102.248.148 0 2 40782 
189-93-74-28.3g.claro.net.br 0 1 7657 
msnbot-207-46-204-224.search.msn.com 2 2 0 20120227112531
187-25-1-46.3g.claro.net.br 0 1 7657 
186-231-7-90.ded.intelignet.com.br 0 2 40782 
b1206bd5.virtua.com.br 0 1 7657 
c935c9ca.virtua.com.br 0 2 40782 
srv3.officinalis.ind.br 1 3 387490 20120217090720
177.18.210.42.static.host.gvt.net.br 1 1 1578 20120204171659
b1530403.virtua.com.br 0 1 0 
201-23-160-73.gprs.claro.net.br 1 4 43500 20120208142815
msnbot-207-46-204-219.search.msn.com 4 4 6312 20120207021016
66-112-51-98.stat.centurytel.net 1 1 1578 20120201191231
189.2.221.146 0 4 40782 
252.n1.netell.net.br 2 8 2969332 20120213094840
177.40.33.72.static.host.gvt.net.br 0 9 0 
177.97.155.dynamic.adsl.gvt.net.br 0 2 40782 
200-168-13-80.dsl.telesp.net.br 2 7 268972 20120224101723
187.45.70.3 0 3 73907 
200-180-69-250.fnsce702.dsl.brasiltelecom.net.br 1 3 238171 20120206163445
62.225.59.158 0 1 68530 
189-112-169-225.static.ctbctelecom.com.br 2 6 5938664 20120224073926
161.58.86.205 0 4 297729 
c934693b.virtua.com.br 0 2 40782 
187-92-221-34.customer.tdatabrasil.net.br 1 19 3010114 20120214113729
186-238-70-2.customer.tdatabrasil.net.br 0 2 0 
bacc9eee.virtua.com.br 0 6 0 
189-110-30-14.dsl.telesp.net.br 1 3 18654 20120209020335
bd795a7a.virtua.com.br 0 2 40782 
179.174.195.200.static.copel.net 1 13 6093697 20120202015307
201-1-2-239.dsl.telesp.net.br 0 4 81564 
1552ob.scansafe.net 0 9 122346 
57.74.24.208 0 8 0 
189-111-106-172.dsl.telesp.net.br 1 3 2969332 20120202064713
pool-71-168-82-83.cncdnh.east.myfairpoint.net 1 1 1578 20120228070120
189.2.187.210 0 2 40782 
186.225.102.189 1 5 3010114 20120203014940
201.83.69.24 1 7 3050896 20120214015736
177.40.41.225.static.host.gvt.net.br 2 41 6020228 20120208101340
20129127093.user.veloxzone.com.br 0 1 7657 
173.227.230.236 3 3 4734 20120229034351
200.232.24.66 0 2 40782 
189.26.82.14.dynamic.adsl.gvt.net.br 0 2 40782 
noma115.static.gvt.net.br 2 10 3059220 20120215040856
200.186.201.247 0 226 0 
189-19-207-70.dsl.telesp.net.br 0 8 40782 
189-75-191-21.ctame700.e.brasiltelecom.net.br 0 2 40782 
177-106-002-138.xd-dynamic.ctbcnetsuper.com.br 0 8 81564 
18983132228.user.veloxzone.com.br 0 2 0 
200-150-182-254.static-corp.ajato.com.br 0 18 40782 
177.77.61.73 0 2 40782 
mx.isri.com.br 1 1 1578 20120229023215
proxy21.messagelabs.net 2 11 5987103 20120215044317
189-78-9-114.dsl.telesp.net.br 2 8 554554 20120229105852
c9534518.virtua.com.br 0 4 81564 
201.64.253.18 0 6 40782 
201.85.50.148 0 2 397080 
b1201859.virtua.com.br 0 2 40782 
mail.sulcorte.com.br 4 5 14380 20120217104912
18913230125.user.veloxzone.com.br 0 2 20352 
micromar66.static.host.gvt.net.br 0 2 40782 
189105163155.user.veloxzone.com.br 1 5 3010114 20120228031810
189.26.19.101.dynamic.adsl.gvt.net.br 1 3 493362 20120202024204
201.66.67.2 1 9 1433927 20120209020923
201-93-218-199.dsl.telesp.net.br 0 1 7657 
200-138-213-1.fnsce702.dsl.brasiltelecom.net.br 2 5 21372 20120206144607
201-43-189-50.dsl.telesp.net.br 0 2 0 
gw-fortinet.storm.ca 1 5 3267061 20120213135752
host01.agabe.com.br 0 6 40782 
msnbot-207-46-204-165.search.msn.com 2 2 3156 20120216155839
200-161-179-181.dsl.telesp.net.br 0 2 40782 
189-19-46-225.dsl.telesp.net.br 0 22 163128 
bd7920f7.virtua.com.br 0 2 40782 
187-35-140-140.dsl.telesp.net.br 0 6 122346 
95-172-244-190.fibertel.com.ar 1 1 1578 20120209224338
bb03c8d6.virtua.com.br 0 1 7657 
bd2251a2.virtua.com.br 0 6 81564 
189-47-152-147.dsl.telesp.net.br 0 2 40782 
187-121-115-169.corp.ajato.com.br 0 2 32104 
177.18.212.28.static.host.gvt.net.br 1 3 2969332 20120214111230
186240176195.telemar.net.br 0 2 40782 
65.49.14.70 0 1 7657 
c951f098.virtua.com.br 0 10 91501 
201-1-18-136.dsl.telesp.net.br 0 2 40782 
www2.kuhn.fr 0 2 40782 
18715052171.user.veloxzone.com.br 1 3 2969332 20120217111923
207.189.121.44 1 1 1578 20120214091006
mail.minipa.com.br 0 5 89221 
bd367a58.virtua.com.br 3 9 3226157 20120223092946
bd04d3e6.virtua.com.br 1 3 2969332 20120222074647
cliente20003.redesul.com.br 0 2 40782 
200-170-125-27.corp.ajato.com.br 1 32 87567 20120202021401
18713195177.user.veloxzone.com.br 3 12 3312976 20120215051104
201-93-140-61.dsl.telesp.net.br 0 11 45942 
proxy53.messagelabs.net 0 2 0 
177-64-119-249.sp01.viaembratel.net.br 0 18 226281 
vps549.hosting90.net 1 1 1578 20120204204709
mail.quimicanastacio.com.br 0 2 40782 
bd6568e2.virtua.com.br 0 4 81564 
b123e0b8.virtua.com.br 2 11 462328 20120215084724
bacd3753.virtua.com.br 1 3 2969332 20120217123926
189-19-18-21.dsl.telesp.net.br 3 10 268972 20120215021005
200.192.66.252 2 6 256825 20120202081829
b121d55e.virtua.com.br 0 2 40782 
189-94-9-166.3g.claro.net.br 0 1 7657 
badcd810.virtua.com.br 0 1 24445 
bd66205b.virtua.com.br 0 1 7657 
bb69c5e3.virtua.com.br 0 2 40782 
189-92-113-27.3g.claro.net.br 0 2 15314 
189-19-237-47.dsl.telesp.net.br 1 6 2976989 20120215090228
189-79-60-233.dsl.telesp.net.br 0 2 40782 
201-27-68-77.dsl.telesp.net.br 0 2 40782 
187-4-226-72.jvece702.e.brasiltelecom.net.br 0 3 73907 
189.120.189.26 1 3 42980 20120217095228
189-56-22-82.customer.tdatabrasil.net.br 1 14 3010114 20120201092025
200-158-113-85.dsl.telesp.net.br 0 2 40782 
177.99.143.dynamic.adsl.gvt.net.br 4 15 6129183 20120208110926
187-4-220-105.fnses700.dsl.brasiltelecom.net.br 2 5 21372 20120221141141
200-160-113-116.static.spo.ctbc.com.br 0 2 40782 
badc8357.virtua.com.br 0 1 0 
ks380405.kimsufi.com 1 1 1578 20120210230107
mail.habasit.com.br 0 1 7657 
msnbot-207-46-204-172.search.msn.com 2 2 3156 20120222064429
177.113.165.107 0 2 40782 
177.118.45.97 0 1 68530 
201-27-2-148.dsl.telesp.net.br 1 2 2718 20120217100108
177.18.251.119.static.host.gvt.net.br 2 6 256825 20120203035729
bd66ab25.virtua.com.br 0 4 76187 
201.56.71.66 0 2 40782 
189.115.128.128.static.host.gvt.net.br 0 2 68267 
krustofski.w3.org 1 1 1715 20120223093406
200-181-199-15.cscgo701.e.brasiltelecom.net.br 0 2 0 
bd7815a0.virtua.com.br 0 4 81564 
187-25-209-90.3g.claro.net.br 0 1 7657 
177.60.206.37 4 18 552782 20120218102948
186.255.1.170 0 4 60558 
host-74-186-107-208.midco.net 2 2 3156 20120224044359
200.97.128.10 2 8 5979446 20120210020201
gx-in-f84.1e100.net 1 2 4601 20120229161406
186-201-218-66.customer.tdatabrasil.net.br 0 2 40782 
mail.sumig.com.br 0 2 40782 
201.23.69.138.dynamic.neoviatelecom.com.br 0 1 7657 
74.125.156.95 0 1 294706 
189.3.94.230 0 4 40782 
187-25-194-53.3g.claro.net.br 0 1 7657 
187-71-181-53.3g.claro.net.br 0 2 40782 
189.26.121.205.static.gvt.net.br 0 19 450447 
bb1742ac.virtua.com.br 1 5 35730 20120227095049
187.87.149.50 0 39 107032 
12.46.189.10 0 3 73907 
187.63.216.225 0 3 144717 
201-27-92-200.dsl.telesp.net.br 0 10 81564 
linuxserver.jmbzeppelin.com.br 0 8 0 
186-201-30-74.customer.tdatabrasil.net.br 0 2 40782 
static-208-80-194-27.as13448.com 2 2 3156 20120226102942
bd66044b.virtua.com.br 0 2 40782 
201-25-234-147.fnsce701.dsl.brasiltelecom.net.br 2 6 256825 20120225180132
186.255.93.151 1 9 3091678 20120202144744
177-106-023-207.xd-dynamic.ctbcnetsuper.com.br 0 2 0 
189-69-142-107.dial-up.telesp.net.br 3 20 5374643 20120210034450
186-201-217-154.customer.tdatabrasil.net.br 0 2 40782 
187.54.98.250 0 2 7657 
bd22ab84.virtua.com.br 0 2 40782 
201.81.240.152 0 5 76187 
pennycandy.w3.org 2 2 3293 20120223093405
177.78.78.214 0 2 20316 
187-4-193-138.fnses700.e.brasiltelecom.net.br 2 6 256825 20120223132125
201-27-0-245.dsl.telesp.net.br 0 17 7657 
msnbot-65-52-110-198.search.msn.com 1 1 0 20120225001429
177.43.159.229.static.host.gvt.net.br 0 2 40782 
201.83.39.112 0 2 40782 
214.99.95.187.static.copel.net 3 9 3226157 20120208071725
145.253.185.59 2 6 3164416 20120206050621
badcabcc.virtua.com.br 0 2 40782 
bb26cb0c.virtua.com.br 0 4 40782 
bb14d27b.virtua.com.br 0 2 40782 
201.90.43.2 0 8 122346 
200-168-129-150.dsl.telesp.net.br 0 1 0 
201-43-190-173.dsl.telesp.net.br 0 2 40782 
189-108-26-98.customer.tdatabrasil.net.br 0 27 40782 
189-19-160-5.dsl.telesp.net.br 0 2 40782 
201-27-112-126.dsl.telesp.net.br 0 2 40782 
pur-gateway.purifarma.com.br 0 2 40782 
201-41-71-108.gnace704.e.brasiltelecom.net.br 1 5 3010114 20120203101939
santiagoecintra58.static.gvt.net.br 0 18 61256 
201-28-103-210.customer.tdatabrasil.net.br 0 4 81564 
msnbot-65-52-110-153.search.msn.com 2 2 0 20120206021112
187.59.85.205.static.host.gvt.net.br 2 6 256825 20120222095142
201-40-133-29.nhoce701.e.brasiltelecom.net.br 0 2 40782 
189.103.164.153 0 2 40782 
187-70-2-185.3g.claro.net.br 0 2 34796 
mail1.tubosoliveira.com.br 0 1 7657 
187-101-78-29.dsl.telesp.net.br 1 2 8008 20120215135214
3dtelecom229.static.host.gvt.net.br 3 7 192303 20120205085728
bd3efc50.virtua.com.br 1 11 3010114 20120217034916
187-25-94-43.3g.claro.net.br 0 3 18079 
200.228.122.130 1 3 4947208 20120227120145
187-7-133-110.pgosm702.e.brasiltelecom.net.br 0 2 40782 
189-69-129-193.dial-up.telesp.net.br 0 2 40782 
187-55-51-150.fnses700.e.brasiltelecom.net.br 1 3 18654 20120214041142
200.175.79.71.static.gvt.net.br 0 2 40782 
177-106-019-186.xd-dynamic.ctbcnetsuper.com.br 1 6 4597018 20120207072349
177.28.67.248 0 1 0 
187-24-223-11.3g.claro.net.br 0 2 297729 
177-58-77-203.3g.claro.net.br 0 2 40782 
200-158-236-18.dsl.telesp.net.br 0 12 81564 
mail.inarmeg.com.br 0 2 40782 
ftp.alfatest.com.br 0 2 40782 
201.55.84.146 0 4 40782 
bd79116a.virtua.com.br 0 2 40782 
187-9-42-122.customer.tdatabrasil.net.br 0 1 68530 
189-041-62-147.xd-dynamic.ctbcnetsuper.com.br 1 5 3010114 20120215025353
srv1.officinalis.ind.br 0 1 1003 
200-232-92-202.customer.tdatabrasil.net.br 0 1 7657 
189-94-57-70.3g.claro.net.br 2 20 4474165 20120223033540
187.113.209.228.static.host.gvt.net.br 0 2 297729 
constance.w3.org 4 4 0 20120223093419
74.125.90.81 0 1 3023 
bb69e14f.virtua.com.br 0 6 40782 
187-35-136-195.dsl.telesp.net.br 1 3 2969332 20120215075933
161.58.86.198 0 1 3023 
253.n1.netell.net.br 0 2 40782 
200.186.205.247 0 255 320700 
187-121-198-158.sta.lancernet.com.br 0 4 81564 
189-95-153-2.3g.claro.net.br 0 2 40782 
20158116237.user.veloxzone.com.br 1 3 2969332 20120217091113
201-26-21-96.dsl.telesp.net.br 3 9 269975 20120217031353
189-69-221-156.dial-up.telesp.net.br 0 1 7657 
115.77.150.200.static.copel.net 1 5 3010114 20120213111735
bd7a28d9.virtua.com.br 1 7 631386 20120227073905
smtp.yanmar.com.br 0 2 40782 
187-25-14-105.3g.claro.net.br 0 1 7657 
200-161-5-28.sabrebrasil.com.br 0 4 40782 
187-75-205-46.dsl.telesp.net.br 0 2 40782 
189-93-106-253.3g.claro.net.br 0 1 7657 
wtp-g8-maya2.iad1 4 7 9869 20120211091043
bd3df6f0.virtua.com.br 2 13 19747 20120202170349
177.19.78.194.static.host.gvt.net.br 0 2 40782 
189-47-147-146.dsl.telesp.net.br 0 3 15314 
201009204102.user.veloxzone.com.br 1 7 3086301 20120202051028
187-25-88-141.3g.claro.net.br 0 1 7657 
c92efa2a.virtua.com.br 1 3 18654 20120202094712
186.232.248.165 0 3 73907 
200-158-222-218.dsl.telesp.net.br 0 4 81564 
115.154.125.189.static.impsat.net.br 0 2 40782 
186.214.50.67.static.host.gvt.net.br 0 4 40782 
187-53-196-22.cslce700.e.brasiltelecom.net.br 0 2 297729 
187.83.51.221 0 8 173175 
200-185-230-169.user.ajato.com.br 2 6 5938664 20120213114917
177.18.249.10.static.host.gvt.net.br 1 3 2969332 20120229121049
79-101-224-245.dynamic.isp.telekom.rs 0 2 297729 
bb27b9af.virtua.com.br 0 2 40782 
bd641b27.virtua.com.br 0 3 22971 
msnbot-207-46-12-72.search.msn.com 2 2 3156 20120206191355
c95315f9.virtua.com.br 1 3 2969332 20120217101357
b1201a21.virtua.com.br 0 1 0 
62.180.125.243 0 4 81564 
mail.topico.com.br 0 4 15314 
200-168-187-242.starinf.com.br 1 5 3010114 20120227124823
200-207-94-201.dsl.telesp.net.br 2 7 268972 20120203021430
itchy.w3.org 2 2 3293 20120223093416
177.29.147.59 3 7 256825 20120224061405
c9066f9c.static.spo.virtua.com.br 2 6 0 20120201053743
200.175.4.182.static.gvt.net.br 2 33 447701 20120214043912
177-103-221-170.dsl.telesp.net.br 1 3 2969332 20120217105414
114.128.195.200.static.copel.net 0 4 81564 
187-11-254-51.dsl.telesp.net.br 1 4 3037862 20120215051518
proxy32.messagelabs.net 0 2 0 
189-47-177-136.dsl.telesp.net.br 0 13 79067 
201.23.95.106.dedicated.neoviatelecom.com.br 1 3 2969332 20120209135736
bd37f0d3.virtua.com.br 0 2 40782 
yi-in-f85.1e100.net 0 1 91982 
bd671a58.virtua.com.br 0 2 40782 
bb6a83cd.virtua.com.br 0 2 40782 
200-171-167-4.dsl.telesp.net.br 0 2 40782 
msnbot-157-55-112-202.search.msn.com 2 2 3156 20120215170734
189-108-43-194.customer.tdatabrasil.net.br 0 1 33125 
bb2693d4.virtua.com.br 0 2 40782 
189-75-40-91.fnses700.dsl.brasiltelecom.net.br 2 6 152248 20120212004842
177.99.145.dynamic.adsl.gvt.net.br 0 1 68530 
18714107074.user.veloxzone.com.br 1 11 3050896 20120210020241
189.115.17.243.static.host.gvt.net.br 2 9 495813 20120210170304
189-73-79-186.dsl.fnses700.brasiltelecom.net.br 1 3 18654 20120204141226
saggita.arpa 1 1 1578 20120225051019
189-92-89-37.3g.claro.net.br 0 1 7657 
b12156e5.virtua.com.br 1 3 2969332 20120217094938
bb6ae3e3.virtua.com.br 3 10 6015854 20120207033817
200-161-58-105.dsl.telesp.net.br 0 5 7657 
201-27-148-151.dsl.telesp.net.br 0 2 40782 
c94a2671.virtua.com.br 0 2 40782 
gx-in-f82.1e100.net 0 1 294706 
201-23-177-66.gprs.claro.net.br 0 2 40782 
msnbot-207-46-13-95.search.msn.com 1 1 0 20120210092641
187.17.170.18 0 4 61206 
200-232-145-165.dsl.telesp.net.br 0 4 81564 
msnbot-157-55-17-145.search.msn.com 4 4 0 20120205104122
b1217a38.virtua.com.br 0 8 81564 
190-21-121-172.baf.movistar.cl 0 2 40782 
90.n2.netell.net.br 2 6 256825 20120209070921
201-13-254-225.dsl.telesp.net.br 0 4 90910 
189-47-189-239.dsl.telesp.net.br 1 3 2969332 20120217103006
65.55.39.110 0 1 7657 
189-68-226-4.dsl.telesp.net.br 0 2 40782 
187.112.177.18.static.host.gvt.net.br 1 5 3010114 20120207123858
200.136.53.151 0 2 40782 
201-26-71-78.dsl.telesp.net.br 0 2 40782 
189.115.17.250.static.host.gvt.net.br 2 6 161822 20120222172723
201.6.248.194 1 3 2969332 20120228062132
c934d0d5.virtua.com.br 0 2 40782 
189-19-29-237.dsl.telesp.net.br 2 7 264482 20120207084317
192.68.47.187.isp.timbrasil.com.br 0 1 7657 
bd2339bd.virtua.com.br 0 2 40782 
msnbot-207-46-204-163.search.msn.com 4 4 6312 20120210154112
bb039df9.virtua.com.br 0 2 15314 
189-93-0-165.3g.claro.net.br 0 1 7657 
177-9-29-127.dsl.telesp.net.br 2 9 3053614 20120203121448
dyn2-85-23-163-92.psoas.suomi.net 2 2 3156 20120217013047
201-0-153-237.dial-up.telesp.net.br 0 2 47908 
187-50-198-74.customer.tdatabrasil.net.br 1 3 393602 20120217095814
186-209-36-41.netturbointernet.net.br 3 9 3226157 20120208020358
200-207-95-31.dsl.telesp.net.br 0 2 76187 
teeny.w3.org 6 6 10153 20120223093424
zeus.zl.ind.br 1 5 3010114 20120223082437
ec2-107-20-82-85.compute-1.amazonaws.com 1 1 1578 20120210062537
108.76.186.200.sta.impsat.net.br 0 6 109288 
187-10-163-54.dsl.telesp.net.br 0 2 40782 
187.115.148.1.static.gvt.net.br 2 4 2969332 20120228021452
201-28-16-2.customer.tdatabrasil.net.br 0 4 40782 
201.33.206.34 0 13 368718 
bd67554d.virtua.com.br 0 2 40782 
mail.edlo.com.br 0 8 163128 
access21-f-03.neowave.com.br 0 4 40782 
201-93-98-29.dial-up.telesp.net.br 0 1 7657 
ool-44c1949f.dyn.optonline.net 1 1 1578 20120211232958
177.61.47.36 0 2 40782 
189-94-5-221.3g.claro.net.br 0 3 63383 
18983169151.user.veloxzone.com.br 1 5 3010114 20120223085352
200-138-212-21.fnsce701.dsl.brasiltelecom.net.br 2 6 256825 20120202162123
postnews2.google.com 0 1 4929 
200-168-20-93.dsl.telesp.net.br 0 2 40782 
189.114.37.150.static.host.gvt.net.br 0 1 7657 
bd64758c.virtua.com.br 0 2 40782 
189-73-118-119.fnses700.e.brasiltelecom.net.br 4 11 136624 20120227135827
dr-monroe.w3.org 4 4 6860 20120223093420
187-17-68-234.whservidor.com 2 2 3430 20120210114124
200.251.11.167 0 9 173065 
scratchy.w3.org 2 2 3293 20120223093419
187-75-47-143.dsl.telesp.net.br 0 20 109312 
bd7e1244.virtua.com.br 0 4 81564 
177.17.118.241.static.host.gvt.net.br 0 2 40782 
187-74-126-102.dsl.telesp.net.br 1 3 2969332 20120215044631
200-168-6-210.dsl.telesp.net.br 0 4 81564 
189-79-51-184.dsl.telesp.net.br 0 2 20424 
msnbot-207-46-195-105.search.msn.com 1 1 0 20120207005701
189-111-216-90.dsl.telesp.net.br 0 7 53599 
200-193-76-69.fnsce703.dsl.brasiltelecom.net.br 2 6 256825 20120214190204
bb03793c.virtua.com.br 0 2 40782 
18925078106.user.veloxzone.com.br 0 1 7657 
177.40.95.50.static.host.gvt.net.br 0 4 0 
177.99.137.dynamic.adsl.gvt.net.br 2 10 3348976 20120227123447
189.38.187.148.user.ajato.com.br 0 2 15314 
c9517a2d.virtua.com.br 1 1 0 20120213044747
189.33.150.113 0 28 0 
host1.ivomaq.com.br 0 2 40782 
s27-03.opera-mini.net 1 3 18654 20120211181040
smtp01.baltec.com.br 0 1 7657 
177-103-214-246.dsl.telesp.net.br 2 6 256825 20120228052510
msnbot-157-55-112-201.search.msn.com 2 2 3156 20120209145347
201.72.14.66 0 3 48439 
187-7-37-59.fnses700.ipd.brasiltelecom.net.br 2 6 256825 20120225062641
200-170-103-157.static-corp.ajato.com.br 0 1 35893 
187-11-41-44.dsl.telesp.net.br 1 1 1578 20120228024043
doriaserver.doriassociados.com.br 0 1 7657 
network-ppp177-166-157.prtelecom.com.br 0 2 40782 
mail.procana.com.br 1 3 1052122 20120227110207
mail2.conexel.com.br 0 2 40782 
189-72-124-185.dsl.fnses700.brasiltelecom.net.br 2 6 256825 20120228054315
b1209ca9.virtua.com.br 2 6 256825 20120216055923
65.49.14.13 0 2 15314 
194.178.108.226 0 2 40782 
bb4383e3.virtua.com.br 0 2 15314 
tvc.tv222.static.gvt.net.br 3 11 3243233 20120219131404
ftp.gam.com.br 2 5 251896 20120209181947
bb030e8e.virtua.com.br 0 2 15314 
186.193.169.9 1 7 3010114 20120217095913
189-18-167-10.dsl.telesp.net.br 0 1 7657 
msnbot-157-55-16-231.search.msn.com 1 1 0 20120203211946
dhcp-077-248-048-035.chello.nl 1 1 1578 20120212234357
189-111-216-126.dsl.telesp.net.br 0 6 40782 
bb15a4f6.virtua.com.br 1 3 2969332 20120219030002
mail2.montarte.com.br 0 2 0 
200-193-110-133.fnses700.dsl.brasiltelecom.net.br 2 5 21372 20120226100723
200-207-6-112.dsl.telesp.net.br 0 2 40782 
186.214.69.2.static.host.gvt.net.br 2 7 3108355 20120201085636
189-31-92-102.fnses700.dsl.brasiltelecom.net.br 3 9 47114 20120212151120
187-71-129-206.3g.claro.net.br 0 1 7657 
189-30-105-117.dsl.fnses700.brasiltelecom.net.br 1 3 18654 20120221155824
189-73-78-223.dsl.fnses700.brasiltelecom.net.br 3 7 256825 20120214042441
c9066f4c.static.spo.virtua.com.br 1 3 119122 20120209130425
187-92-203-146.customer.tdatabrasil.net.br 0 1 7657 
189-21-198-114.ded.intelignet.com.br 0 1 7657 
151.137.248.31 0 2 40782 
msnbot-157-55-112-209.search.msn.com 4 4 6312 20120220212633
189-38-250-208.static-corp.ajato.com.br 0 2 40782 
200.162.214.219.static-user.ajato.com.br 0 2 40782 
200.212.168.1 1 3 42497 20120209082147
201.81.67.123 0 2 40782 
187-072-013-049.static.ctbctelecom.com.br 0 2 40782 
mail.filtracom.com.br 0 2 40782 
1433ob.scansafe.net 0 7 155471 
mail.acinh.com.br 1 3 2969332 20120213114132
mx.dicomp.com.br 0 1 7657 
201.56.164.237 0 4 81564 
ip-189-99-198-42.user.vivozap.com.br 0 2 40782 
201-34-142-191.fnses700.e.brasiltelecom.net.br 2 6 38402 20120227110945
187-55-218-124.fnses700.e.brasiltelecom.net.br 1 3 18654 20120228054015
187.33.149.66 1 3 2969332 20120217093904
187-9-75-162.customer.tdatabrasil.net.br 0 15 106815 
c94a06d6.virtua.com.br 1 3 2969332 20120215015238
mvx-200-142-123-132.mundivox.com 0 14 109312 
187-74-242-210.dsl.telesp.net.br 0 8 152374 
187-4-196-155.ccoce300.ipd.brasiltelecom.net.br 1 3 18382 20120228025414
65.49.14.75 0 1 7657 
mailserver02.emailcorp.com.br 0 2 40782 
host94-130.dh-c.net.br 0 4 81564 
187-71-152-50.3g.claro.net.br 0 1 7657 
200-206-183-36.dsl.telesp.net.br 1 5 1157084 20120223023152
200-168-129-68.dsl.telesp.net.br 0 4 81564 
201.20.204.29.corp.ajato.com.br 1 5 3010114 20120205145002
177-58-83-19.3g.claro.net.br 0 1 7657 
msnbot-65-52-108-20.search.msn.com 1 1 0 20120220163640
187.5.198.165 0 2 40782 
201-13-33-213.dsl.telesp.net.br 0 4 0 
189-18-48-222.dsl.telesp.net.br 0 1 68530 
c906fb37.virtua.com.br 0 2 40782 
ip68-102-134-67.ks.ok.cox.net 1 1 1578 20120205210906
201.52.0.183 0 2 40782 
bd66213b.virtua.com.br 0 2 40782 
187-10-20-202.dsl.telesp.net.br 0 2 40782 
rot-jpfarma.jpfarma.com.br 0 2 40782 
na4.dow.com 0 6 81564 
201.87.20.160.user.ajato.com.br 0 2 40782 
189-110-134-169.dsl.telesp.net.br 0 2 40782 
bd3e931e.virtua.com.br 0 2 40782 
gw.ogura.com.br 0 3 48439 
server8.mkm.net.br 2 6 236456 20120219160326
208.77.221.210 1 1 1578 20120222050627
187-50-72-18.customer.tdatabrasil.net.br 1 7 3010114 20120207081604
177-106-197-177.xd-dynamic.ctbcnetsuper.com.br 1 3 2969332 20120215104131
189-19-61-97.dsl.telesp.net.br 1 5 3010114 20120208112416
200-187-84-226.wireless.dynamic.bta3.sp.faster.net.br 0 19 156829 
201.87.34.235 0 2 297729 
198.28.116.189.isp.timbrasil.com.br 1 3 224502 20120209123739
200-232-73-234.galutti.com.br 1 3 2969332 20120217103100
189.124.115.83 2 6 181578 20120215121237
201-10-112-83.pgosm700.e.brasiltelecom.net.br 0 2 40782 
189-94-43-194.3g.claro.net.br 0 3 22971 
187.16.241.249 0 3 22971 
host-77-186-107-208.midco.net 1 1 1578 20120219021335
mail.montarte.com.br 0 2 0 
200-215-93-3.cuace700.e.brasiltelecom.net.br 0 2 40782 
bd21ca2f.virtua.com.br 0 1 7657 
bd79392d.virtua.com.br 0 2 40782 
bd78d138.virtua.com.br 1 3 2969332 20120203055641
bb025e10.virtua.com.br 1 14 5976728 20120215022244
bhe201062184149.res-com.wayinternet.com.br 0 2 40782 
187-50-79-10.customer.tdatabrasil.net.br 0 2 40782 
msnbot-207-46-12-71.search.msn.com 2 2 3156 20120218220936
189-20-53-101.customer.tdatabrasil.net.br 0 4 81564 
187.55.63.253 0 2 0 
marista141.static.gvt.net.br 0 2 297729 
189-112-246-217.static.ctbcnetsuper.com.br 0 2 40782 
186.214.31.188.dynamic.adsl.gvt.net.br 1 4 5935946 20120210080646
177.63.139.226 0 2 40782 
mlsrj20123227p016.static.mls.com.br 0 2 40782 
snyder.w3.org 5 5 0 20120223093419
187-52-136-27.fnses700.e.brasiltelecom.net.br 2 6 226898 20120216114258
201-27-21-23.dsl.telesp.net.br 0 3 15314 
142-158-154-149.static.edis.at 1 1 1578 20120218014813
msnbot-157-55-112-203.search.msn.com 2 2 3156 20120227125529
200-185-230-228.user.ajato.com.br 0 2 40782 
200.194.69.94 0 2 40782 
189-110-24-170.dsl.telesp.net.br 0 1 12693 
148.188.162.2 0 4 40782 
187-71-240-68.3g.claro.net.br 0 1 7657 
mail.solepoxy.com.br 0 2 40782 
177-106-037-040.xd-dynamic.ctbcnetsuper.com.br 0 2 0 
201-2-209-92.fnsce702.dsl.brasiltelecom.net.br 1 3 18654 20120202190559
b1206a20.virtua.com.br 1 3 2969332 20120217094103
187-35-97-171.dsl.telesp.net.br 1 3 2492390 20120229101633
177.42.108.162.static.host.gvt.net.br 0 2 40782 
200-180-68-152.fnsce702.dsl.brasiltelecom.net.br 2 6 256825 20120203141348
189.59.201.179.static.host.gvt.net.br 0 1 68530 
189-11-176-116.fnses700.dsl.brasiltelecom.net.br 1 3 18654 20120206180352
exchange.durr.com.br 2 10 643946 20120214024444
201-11-76-252.jvece7004.e.brasiltelecom.net.br 3 11 6020228 20120215030350
200-207-123-103.speedyterra.com.br 0 3 57785 
msnbot-207-46-204-217.search.msn.com 2 2 3156 20120228092033
189-18-135-117.dsl.telesp.net.br 0 2 40782 
200.155.58.101 0 5 15314 
200-161-121-217.dsl.telesp.net.br 1 13 3010114 20120215032850
c9349335.virtua.com.br 4 18 552782 20120214085113
189-79-37-60.dsl.telesp.net.br 0 2 40782 
186.215.213.114.static.host.gvt.net.br 0 2 40782 
200-158-136-121.speedyterra.com.br 0 2 40782 
200-206-253-2.dsl.telesp.net.br 0 2 0 
gy-in-f86.1e100.net 1 2 13725 20120219185559
mail.fanem.com.br 1 5 3010114 20120201084301
204.115.208.38 0 5 82567 
187-70-57-59.3g.claro.net.br 0 2 15314 
mvx-189-45-139-214.mundivox.com 1 8 3045519 20120228065314
177.42.103.60.static.host.gvt.net.br 0 2 40782 
189-57-38-114.customer.tdatabrasil.net.br 0 2 15314 
201.67.210.224 2 6 129878 20120224044843
177.116.232.144 0 2 40782 
dslb-092-074-233-071.pools.arcor-ip.net 1 1 1578 20120202200846
194-232-71-201.vipway.net.br 1 5 3010114 20120214115940
189.102.194.103 2 5 2718 20120202090725
bb258655.virtua.com.br 0 2 297729 
ip-189-99-64-115.user.vivozap.com.br 0 2 40782 
201-67-9-8.bsace702.dsl.brasiltelecom.net.br 1 5 3010114 20120206123630
201.55.40.66 0 2 297729 
yi-in-f92.1e100.net 0 1 4929 
www.quadaenterprises.com 1 1 1578 20120222040257
18713229105.user.veloxzone.com.br 0 2 15314 
msnbot-157-55-112-208.search.msn.com 4 4 6312 20120225061614
189.33.173.196 0 4 78779 
187.59.85.97.static.host.gvt.net.br 4 14 288393 20120229123046
207.189.121.45 1 1 1578 20120223175435
pool-74-111-11-3.syrcny.fios.verizon.net 1 1 1578 20120203202251
msnbot-157-55-16-222.search.msn.com 3 3 1578 20120219230135
186-231-57-80.ded.intelignet.com.br 0 16 40782 
177-9-252-235.dsl.telesp.net.br 0 1 7657 
201-43-110-251.dsl.telesp.net.br 0 1 68530 
187-4-202-157.fnses700.e.brasiltelecom.net.br 3 5 22084 20120225101101
177-68-141-43.dsl.telesp.net.br 0 1 7657 
187-25-205-205.3g.claro.net.br 0 2 15314 
177-68-42-141.dsl.telesp.net.br 0 2 40782 
189-79-62-127.dsl.telesp.net.br 0 7 40782 
177.17.37.235.static.host.gvt.net.br 0 13 163128 
200.247.161.131 0 12 0 
187-75-41-103.dsl.telesp.net.br 0 2 40782 
200-102-14-85.fnsce703.dsl.brasiltelecom.net.br 5 9 3156 20120209080911
189-47-190-28.dsl.telesp.net.br 0 2 40782 
187-072-111-157.static.ctbctelecom.com.br 0 4 40782 
ip-187-119-78-163.user.vivozap.com.br 1 3 277846 20120218142329
ip-189-99-225-211.user.vivozap.com.br 0 1 7657 
b12102c5.virtua.com.br 0 2 15314 
177.77.155.189 0 2 40782 
189-47-149-114.dsl.telesp.net.br 0 2 40782 
ks206121.kimsufi.com 3 3 4734 20120229072500
dr-foster.w3.org 4 4 6586 20120223093416
static-208-80-194-33.as13448.com 2 2 3156 20120220024659
187.49.237.18 2 7 256825 20120208023929
bd07b424.virtua.com.br 2 6 256825 20120216054542
bd6631d1.virtua.com.br 0 2 297729 
189.114.74.204.static.gvt.net.br 0 4 40782 
187-35-220-200.dsl.telesp.net.br 2 8 5979446 20120222095917
189-72-97-178.bsace702.e.brasiltelecom.net.br 2 8 554554 20120219103453
189-30-95-3.dsl.ccoce700.brasiltelecom.net.br 0 1 3023 
bd667194.virtua.com.br 0 47 107198 
187.121.102.227 0 1 7657 
201-93-134-156.dsl.telesp.net.br 0 2 40782 
badc0eb5.virtua.com.br 0 1 7657 
mailcer.cermoful.coop.br 3 9 3226157 20120222084227
189-47-195-42.dsl.telesp.net.br 0 6 40782 
201.20.232.150.user.ajato.com.br 0 10 81564 
177-102-26-167.dsl.telesp.net.br 0 1 7657 
201-1-52-3.dsl.telesp.net.br 0 4 344729 
200.213.4.132 0 2 40782 
201-0-11-210.dsl.telesp.net.br 0 6 40782 
200.188.208.150.dedicated.neoviatelecom.com.br 1 3 2969332 20120213113039
187.52.75.116 0 2 131140 
201.81.130.191 0 2 15314 
120.31.117.189.isp.timbrasil.com.br 0 2 40782 
201.33.206.147 0 8 147814 
c93414f8.virtua.com.br 1 2 2718 20120209123518
189.33.201.81 0 1 7657 
177.0.226.36 1 3 18654 20120224133215
badc5627.virtua.com.br 0 1 7657 
bd211791.virtua.com.br 0 4 81564 
200.152.202.58.sertrading.com.br 1 11 3444903 20120222102940
187-11-169-117.dsl.telesp.net.br 0 2 40782 
tvc.tv130.static.host.gvt.net.br 2 6 256825 20120225110647
msnbot-207-46-204-173.search.msn.com 2 2 3156 20120217083456
200.162.215.174.static-user.ajato.com.br 0 1 7657 
189-39-81-162.reverso.wideway.net.br 0 2 40782 
201-27-27-108.dsl.telesp.net.br 1 3 2969332 20120214020821
187-52-33-101.cslce700.e.brasiltelecom.net.br 1 3 2969332 20120207012842
200-161-215-64.dsl.telesp.net.br 0 2 40782 
186.252.120.59 0 2 40782 
18713148226.user.veloxzone.com.br 2 11 588169 20120203093511
201-3-78-104.dsl.ctaje701.brasiltelecom.net.br 0 6 38285 
18714200101.user.veloxzone.com.br 0 1 7657 
189-31-113-158.dsl.fnsce704.brasiltelecom.net.br 2 6 70346 20120203125648
189-30-124-184.dsl.fnses700.brasiltelecom.net.br 2 6 256825 20120227195544
bd664e93.virtua.com.br 0 2 40782 
18925184026.user.veloxzone.com.br 0 8 163128 
mail.fresadorasantana.com.br 2 9 631799 20120222071117
gy-in-f83.1e100.net 0 1 12147 
200-171-235-207.customer.telesp.net.br 1 3 2969332 20120217095600
189-68-188-213.dsl.telesp.net.br 0 2 40782 
200-153-117-194.customer.tdatabrasil.net.br 0 29 178442 
200-232-176-35.dsl.telesp.net.br 0 2 40782 
189-041-204-199.xd-dynamic.ctbcnetsuper.com.br 0 2 40782 
187.5.225.188 0 2 40782 
177-103-189-173.dsl.telesp.net.br 1 3 2969332 20120214123031
msnbot-157-55-17-192.search.msn.com 1 1 0 20120205213513
c9066d18.static.spo.virtua.com.br 1 3 2969332 20120214032326
187-5-152-155.fnsce704.e.brasiltelecom.net.br 1 3 131372 20120217093945
189-30-120-41.dsl.fnses700.brasiltelecom.net.br 2 6 256825 20120222130258
201-13-220-47.dial-up.telesp.net.br 0 2 40782 
201-68-90-144.dsl.telesp.net.br 0 4 40782 
201-68-95-95.dsl.telesp.net.br 0 1 7657 
mail.engrecon.com.br 0 8 0 
b123a2d4.virtua.com.br 0 2 40782 
b1207a11.virtua.com.br 3 8 38264 20120207120709
161.58.86.206 0 4 297729 
189.59.207.42.static.host.gvt.net.br 0 2 40782 
187-11-51-81.dsl.telesp.net.br 0 4 40782 
ceres.provimi.com 0 2 29184 
189.115.23.239.static.host.gvt.net.br 2 6 97934 20120227115426
18715158151.user.veloxzone.com.br 2 3 4433 20120213165727
btmupdates.marshal.com 0 1 1003 
189.120.96.172 0 6 7657 
187.17.165.46 1 3 2969332 20120228020602
189-38-250-197.static-corp.ajato.com.br 0 2 40782 
187-50-44-122.customer.tdatabrasil.net.br 0 2 0 
bacc8a3e.virtua.com.br 0 2 40782 
200-161-99-68.dsl.telesp.net.br 0 15 76570 
69.71.222.186 2 2 3156 20120203004629
177-64-63-4.cpeciv.viaembratel.net.br 0 2 40782 
189.42.144.132 0 2 40782 
mail.tecmaes.com.br 0 2 40782 
186-209-34-10.netturbointernet.net.br 0 3 73907 
200.215.113.163 1 1 1715 20120217110206
200-185-231-156.user.ajato.com.br 2 14 1379679 20120203030504
189-95-143-173.3g.claro.net.br 0 1 7657 
static-208-80-194-32.as13448.com 2 2 3156 20120229032143
187-34-28-135.dsl.telesp.net.br 4 16 8555991 20120228035255
mx.ecp.com.br 0 2 40782 
187-5-185-232.fnses700.e.brasiltelecom.net.br 1 3 18654 20120214073106
static-208-80-194-28.as13448.com 1 1 1578 20120217060421
189-74-250-28.paemt701.e.brasiltelecom.net.br 0 2 297729 
iad1-wtp-gd-maya9.sdi.trendnet.org 3 4 2971759 20120217104232
201-0-208-188.dial-up.telesp.net.br 4 20 6317835 20120224111209
static-208-80-194-37.as13448.com 1 1 1578 20120207061018
tmsa141.static.gvt.net.br 1 3 2969332 20120215091431
msnbot-207-46-199-49.search.msn.com 2 2 0 20120223013004
177-68-75-127.dsl.telesp.net.br 0 2 24564 
wtp-gb-maya3.sjdc 1 1 1578 20120201114612
200.237.249.180 1 1 1578 20120207101045
msnbot-207-46-204-171.search.msn.com 6 6 9468 20120227090438
201.81.247.198 0 2 40782 
200-205-211-106.customer.tdatabrasil.net.br 0 4 81564 
200-207-128-59.dsl.telesp.net.br 1 3 2969332 20120213121250
bacd224e.virtua.com.br 0 2 40782 
189-015-241-218.xd-dynamic.ctbcnetsuper.com.br 1 3 1238622 20120228101521
201-42-185-102.dsl.telesp.net.br 1 19 2969332 20120227113433
177.19.224.35.static.gvt.net.br 0 4 15314 
187-25-242-94.3g.claro.net.br 0 1 7657 
bd78a5e7.virtua.com.br 0 1 91982 
200-158-11-233.dsl.telesp.net.br 0 2 40782 
186.215.148.179.static.gvt.net.br 0 1 12586 
187-11-229-38.dsl.telesp.net.br 0 2 40782 
200-232-33-130.customer.tdatabrasil.net.br 0 2 40782 
177.16.115.185.static.host.gvt.net.br 0 2 0 
187-25-41-76.3g.claro.net.br 0 2 40782 
b120ed35.virtua.com.br 0 2 40782 
mail.letti.com.br 6 6 10290 20120217093046
189.102.9.249 1 3 2969332 20120201115748
msnbot-207-46-204-164.search.msn.com 4 4 6312 20120216084302
200.162.133.154 0 17 22971 
200-153-218-14.speedyterra.com.br 0 2 40782 
qw-in-f90.1e100.net 0 1 294706 
200.198.98.88 0 3 73907 
187-57-173-38.dsl.telesp.net.br 0 4 81564 
201-1-165-164.dsl.telesp.net.br 0 5 0 
mirellaturismo.com.br 2 6 256825 20120228085640
fiscosoft210.static.gvt.net.br 0 2 66250 
186.214.52.236.static.host.gvt.net.br 0 1 33125 
189-47-155-65.dsl.telesp.net.br 0 2 297729 
mail.grossplast.com.br 0 4 40782 
mail.sunnyvale.com.br 0 2 40782 
186.252.62.127 1 5 215648 20120201124855
200-161-97-252.dsl.telesp.net.br 2 40 1051007 20120228105929
c94a0008.virtua.com.br 1 4 43500 20120212163752
189-19-41-36.dsl.telesp.net.br 0 4 40782 
177.114.129.33 1 3 2969332 20120223012151
ip-189-99-16-177.user.vivozap.com.br 0 2 32664 
msnbot-207-46-12-75.search.msn.com 2 2 3156 20120201142700
189-79-43-104.dsl.telesp.net.br 2 14 6358739 20120227092257
187.59.83.122.static.host.gvt.net.br 0 2 40782 
189-68-20-189.dsl.telesp.net.br 2 6 256825 20120223174836
bb170739.virtua.com.br 0 2 40782 
static-208-80-194-36.as13448.com 3 3 4734 20120221202644
186.199.245.66 0 2 40782 
189-111-117-172.dsl.telesp.net.br 2 6 4080026 20120206021324
187-121-115-62.corp.ajato.com.br 0 6 109312 
200-170-124-245.corp.ajato.com.br 2 6 256825 20120208085319
189-19-30-50.dsl.telesp.net.br 1 15 3050896 20120210043501
189-78-46-38.dsl.telesp.net.br 0 1 7657 
201-0-212-237.dial-up.telesp.net.br 0 6 114689 
189-19-177-2.dsl.telesp.net.br 1 5 3010114 20120201020546
189-78-19-119.dsl.telesp.net.br 0 4 40782 
201-42-138-156.dsl.telesp.net.br 2 6 1047384 20120217093712
186-201-29-36.customer.tdatabrasil.net.br 0 2 40782 
189-30-127-19.dsl.fnses700.brasiltelecom.net.br 1 3 18654 20120222145603
187.58.198.58.static.host.gvt.net.br 0 2 40782 
187-25-7-60.3g.claro.net.br 0 1 7657 
187-71-228-244.3g.claro.net.br 0 1 7657 
s1.960.clients.serverdeals.org 1 1 1578 20120215040904
200-206-113-163.customer.tdatabrasil.net.br 0 2 40782 
186.232.248.161 0 2 40782 
bd21a16f.virtua.com.br 2 8 3050896 20120209115038
200.182.189.170 0 2 40782 
btk-srv7.brastak.com.br 0 2 40782 
ticelequipamentos45.static.gvt.net.br 0 2 40782 
20129036223.user.veloxzone.com.br 1 4 3037862 20120208040656
b1530ace.virtua.com.br 1 6 3078644 20120216085155
177.36.98.51 0 5 81564 
bd660505.virtua.com.br 0 4 40782 
65.49.14.80 0 1 7657 
177-106-067-198.xd-dynamic.ctbcnetsuper.com.br 1 5 3010114 20120224093942
200-162-236-206.static-corp.ajato.com.br 0 8 81564 
201-42-215-167.dsl.telesp.net.br 0 7 155471 
201.55.162.30 0 2 40782 
177.97.159.dynamic.adsl.gvt.net.br 3 10 6048327 20120228121023
189.102.0.103 0 1 7657 
189-72-113-147.fnses700.dsl.brasiltelecom.net.br 2 6 256825 20120206131615
201-68-45-167.dsl.telesp.net.br 0 2 40782 
roma.tramontina.net 0 2 40782 
bd6607bd.virtua.com.br 0 1 7657 
177.18.223.120.static.host.gvt.net.br 0 1 7657 
189.120.41.165 0 1 7657 
geoposition.com.br 0 12 366642 
201.86.23.103.dynamic.adsl.gvt.net.br 0 2 40782 
201-0-11-115.dsl.telesp.net.br 0 2 297729 
177.40.87.238.static.host.gvt.net.br 0 1 7657 
bl13-65-165.dsl.telepac.pt 2 6 256825 20120227074145
189-47-170-59.dsl.telesp.net.br 0 14 109312 
bb42ba57.virtua.com.br 0 2 40782 
mail.emfils.com.br 2 6 5938664 20120213114606
bb25e31d.virtua.com.br 0 2 40782 
c94add16.virtua.com.br 1 3 2969332 20120217103909
static-208-80-194-35.as13448.com 3 3 4734 20120217155442
otam50.static.host.gvt.net.br 1 8 3070323 20120213111946
177.24.84.123 0 2 297729 
201-27-173-115.dsl.telesp.net.br 1 1 351 20120205101704
bd3e53a7.virtua.com.br 0 1 7657 
bd23db72.virtua.com.br 0 2 40782 
189.115.24.71.stat.gvt.net.br 2 6 37308 20120213065816
177.17.228.79.dynamic.adsl.gvt.net.br 0 1 7657 
187-25-199-206.3g.claro.net.br 0 1 7657 
b12094c6.virtua.com.br 1 5 3010114 20120209051003
189-110-48-241.dsl.telesp.net.br 0 2 40782 
201-68-221-228.dsl.telesp.net.br 1 3 413854 20120222074008
201-92-210-220.dsl.telesp.net.br 0 4 81564 
bb6ab8eb.virtua.com.br 0 2 40782 
189-19-31-37.dsl.telesp.net.br 0 2 40782 
177.19.238.192.static.gvt.net.br 0 1 7657 
bb254b04.virtua.com.br 2 6 63318 20120213112756
mail.vedat.com.br 0 2 40782 
200-150-183-125.static-corp.ajato.com.br 0 2 40782 
187.54.103.196 0 6 7657 
216-125-94-178.pool.ukrtel.net 1 1 1578 20120221033046
189-73-80-222.dsl.fnses700.brasiltelecom.net.br 2 6 256825 20120209080504
189-95-65-180.3g.claro.net.br 0 1 7657 
bl17-21-100.dsl.telepac.pt 0 2 40782 
b12178ac.virtua.com.br 0 2 40782 
supermax178.static.gvt.net.br 0 2 40782 
201-27-5-140.dsl.telesp.net.br 0 8 7657 
207.189.121.46 1 1 1578 20120220081018
187-25-22-60.3g.claro.net.br 0 1 7657 
bd07f32e.virtua.com.br 0 6 40782 
b121bb84.virtua.com.br 0 10 81564 
200.20.217.24 1 3 18654 20120214053313
bd3e6e8f.virtua.com.br 0 6 122346 
fw-cpqd.cpqd.com.br 0 14 285474 
200.155.37.233 0 2 40782 
189-73-173-139.paebv701.e.brasiltelecom.net.br 0 30 40782 
bacc7fac.virtua.com.br 0 2 40782 
yi-in-f82.1e100.net 0 1 4929 
187.55.184.50 1 10 3078644 20120201105441
187-70-200-121.3g.claro.net.br 0 1 7657 
189.59.167.14.static.host.gvt.net.br 0 2 40782 
bb25c548.virtua.com.br 0 1 33125 
bb69b8c1.virtua.com.br 0 2 40782 
177.53.242.188 0 2 40782 
76.72.167.164 1 1 1578 20120220023331
nail.brazicolor.com.br 1 1 1715 20120214122304
189-45-34-117.static.stech.net.br 1 3 2969332 20120217100753
msnbot-207-46-13-212.search.msn.com 2 2 0 20120224221243
200-203-7-151.cslce701.dsl.brasiltelecom.net.br 0 2 40782 
bd787f64.virtua.com.br 0 2 40782 
pub-192-41-95-2.center7.com 4 10 90156 20120223120507
c953425c.virtua.com.br 1 3 2969332 20120217100722
krusty.w3.org 2 2 3430 20120223093421
200.174.118.50 0 1 7657 
186.214.80.50.static.host.gvt.net.br 0 1 7657 
177.40.95.253.static.host.gvt.net.br 0 2 40782 
proxy.cjheletronicos.com.br 2 5 21372 20120206014729
177.114.0.171 0 2 20424 
msnbot-207-46-13-98.search.msn.com 2 2 0 20120214134651
187-032-097-213.static.ctbctelecom.com.br 0 2 40782 
189.102.113.148 0 10 30628 
177-64-51-190.cpebre.viaembratel.net.br 0 6 81564 
200-102-100-9.cslce701.e.brasiltelecom.net.br 0 4 81564 
177-069-017-081.static.ctbctelecom.com.br 1 9 3091678 20120217012034
189-47-137-36.dsl.telesp.net.br 0 2 40782 
msnbot-207-46-199-39.search.msn.com 1 1 0 20120208091332
177.19.230.66.static.gvt.net.br 0 2 40782 
bd219671.virtua.com.br 2 307 6211415 20120208093546
bd219681.virtua.com.br 0 2 40782 
177.77.5.65 1 3 2969332 20120216025618
187-11-237-93.dsl.telesp.net.br 0 1 7657 
200-185-230-210.user.ajato.com.br 0 2 40782 
177.99.148.dynamic.adsl.gvt.net.br 4 11 3088371 20120223015721
189-47-135-65.dsl.telesp.net.br 0 2 32104 
200-170-103-160.static-corp.ajato.com.br 0 2 40782 
c9345250.virtua.com.br 0 2 40782 
bacce01e.virtua.com.br 2 11 1176553 20120201031453
bb258ea8.virtua.com.br 0 2 40782 
dslb-178-011-088-194.pools.arcor-ip.net 1 1 1578 20120215002808
189.115.16.47.static.host.gvt.net.br 2 5 21372 20120207082616
151.77.90.209 0 2 27332 
mail.ramadaferramentas.com.br 1 1 1715 20120213120622
189-111-238-50.dsl.telesp.net.br 0 6 122346 
187-25-108-155.3g.claro.net.br 0 1 7657 
mail.gehaka.com.br 0 4 0 
187-57-178-178.dsl.telesp.net.br 2 9 631799 20120229102929
bd3f1532.virtua.com.br 0 2 297729 
gw.bermo.com.br 4 13 3243139 20120210034406
177-9-106-92.dsl.telesp.net.br 0 2 40782 
187-71-225-95.3g.claro.net.br 0 1 7657 
189.100.183.137 0 8 81564 
189.34.8.5 0 2 40782 
static-208-80-194-34.as13448.com 4 4 6312 20120226205711
200-206-217-125.dsl.telesp.net.br 1 3 1003950 20120228025437
201.55.168.1 0 2 40782 
msnbot-157-55-112-204.search.msn.com 4 4 6312 20120223013005
177.40.51.175.static.host.gvt.net.br 1 3 2969332 20120215051818
brma.ilscargo.com.br 2 55 3092681 20120201114837
189-19-42-150.dsl.telesp.net.br 1 5 3010114 20120213113629
187.49.88.2 0 1 7657 
c94a2728.virtua.com.br 1 3 2969332 20120201034323
74.125.156.82 1 1 1578 20120202162810
201.20.178.250 0 20 203910 
187-4-10-96.paemt704.e.brasiltelecom.net.br 1 7 5977731 20120201124113
201-93-144-20.dsl.telesp.net.br 0 2 40782 
189-8-62-50.ded.unitelco.com.br 1 27 3305858 20120209020714
bb69e544.virtua.com.br 0 2 40782 
200.187.136.122 0 1 0 
177.0.68.13 0 2 40782 
189-69-135-81.dial-up.telesp.net.br 0 1 7657 
189-108-12-121.customer.tdatabrasil.net.br 0 6 147814 
200.146.78.184.static.gvt.net.br 1 3 2969332 20120217101136
177-106-050-214.xd-dynamic.ctbcnetsuper.com.br 0 2 40782 
187-25-72-221.3g.claro.net.br 0 1 7657 
lx5.letti.com.br 2 2 3430 20120217104908
201-27-131-22.dsl.telesp.net.br 0 4 81564 
texas.casasfretta.com.br 2 6 256825 20120202054334
186-209-56-196.netturbointernet.net.br 0 2 40782 
189-30-85-124.fnsce703.dsl.brasiltelecom.net.br 2 6 256825 20120219203649
189-38-241-25.static-corp.ajato.com.br 1 3 2969332 20120209111115
187.55.61.238 2 6 256825 20120203090748
189-19-214-246.dsl.telesp.net.br 0 1 0 
bd7862cd.virtua.com.br 0 3 15314 
186.214.68.218.static.host.gvt.net.br 0 1 68530 
mail.radiex.com.br 1 3 2969332 20120213021241
189-47-136-156.dsl.telesp.net.br 0 2 24804 
201-93-132-48.dsl.telesp.net.br 0 1 33125 
187-8-205-250.customer.tdatabrasil.net.br 1 3 2969332 20120201041555
189.77.141.41 3 7 244237 20120210101222
189-30-124-90.dsl.fnses700.brasiltelecom.net.br 1 4 30801 20120202144243
187-35-28-207.dsl.telesp.net.br 0 2 24708 
200-204-164-107.dsl.telesp.net.br 0 4 81564 
mail.gascom.com.br 1 3 2969332 20120215025405
177-64-85-207.cpebre.viaembratel.net.br 0 2 297729 
200-185-231-140.user.ajato.com.br 0 3 109312 
177-103-221-84.dsl.telesp.net.br 1 7 208526 20120203085019
pferd186.static.gvt.net.br 1 13 3050896 20120214033728
bb03de9f.virtua.com.br 3 5 2971047 20120206171839
host-137-82-2-96.midco.net 2 2 3156 20120227054300
bb69c845.virtua.com.br 0 1 0 
200.198.91.170 1 5 3010114 20120203021506
mercedes.marafon.com.br 0 24 40782 
201-63-114-50.customer.tdatabrasil.net.br 0 2 40782 
187.58.233.59.static.host.gvt.net.br 0 2 40782 
189.115.18.176.static.host.gvt.net.br 4 12 290871 20120201102950
187-95-53-66.vianet.net.br 0 2 40782 
200-168-68-185.dsl.telesp.net.br 0 4 81564 
142ob.scansafe.net 0 2 40782 
b12296b0.virtua.com.br 2 6 2969332 20120228025047
177-106-036-112.xd-dynamic.ctbcnetsuper.com.br 0 2 40782 
c953a997.virtua.com.br 0 2 40782 
bb25e8c5.virtua.com.br 1 8 3058553 20120207110342
177-106-013-040.xd-dynamic.ctbcnetsuper.com.br 0 2 40782 
mail2.cp.com.br 0 2 40782 
c9534ea5.virtua.com.br 0 1 7657 
189-19-23-82.dsl.telesp.net.br 0 2 40782 
201-42-25-230.dsl.telesp.net.br 0 6 15314 
189-69-220-195.dial-up.telesp.net.br 0 2 33125 
189-31-244-196.ctaje701.dsl.brasiltelecom.net.br 0 4 15314 
qy-in-f92.1e100.net 0 1 3023 
187.54.49.192 0 2 40782 
189.2.195.210 2 6 157058 20120213081433
177-9-253-108.dsl.telesp.net.br 1 5 3267061 20120201153458
186.193.7.50 0 2 76187 
189-8-7-28.ded.unitelco.com.br 1 3 2969332 20120217095130
b120109f.virtua.com.br 2 9 0 20120215164300
74.125.156.80 0 1 12147 
201-67-167-85.fnsce703.dsl.brasiltelecom.net.br 0 2 17076 
189-79-36-172.dsl.telesp.net.br 0 2 40782 
189-31-66-90.fnsce300.ipd.brasiltelecom.net.br 0 2 36484 
nac.mec-rul.com.br 0 2 0 
msnbot-207-46-204-218.search.msn.com 2 2 3156 20120227133927
189.9.0.139 2 6 256825 20120202134305
ip-187-116-20-70.user.vivozap.com.br 0 2 40782 
msnbot-207-46-204-209.search.msn.com 2 2 3156 20120214162544
msnbot-207-46-12-28.search.msn.com 1 1 1578 20120228023629
200.192.86.109.triolan.net 1 1 1578 20120223042909
r230-pw-doscedros.ibys.com.br 0 4 40782 
200-170-114-177.user.ajato.com.br 1 23 3193126 20120210112441
201-1-44-172.dsl.telesp.net.br 1 3 2969332 20120206172048
204.115.208.42 1 2 2968329 20120209023049
187-8-235-146.customer.tdatabrasil.net.br 0 16 22971 
200.146.119.242.static.gvt.net.br 0 2 33125 
177.99.151.dynamic.adsl.gvt.net.br 0 1 7657 
brma.dyna.com.br 1 5 3010114 20120229045535
187.7.238.184 0 2 76187 
bd64a2de.virtua.com.br 0 3 0 
187-53-214-55.nhoce701.e.brasiltelecom.net.br 0 2 40782 
189107167248.user.veloxzone.com.br 1 1 1715 20120222085630
189-109-25-34.customer.tdatabrasil.net.br 2 6 5938664 20120223080041
200.228.33.10 1 6 84282 20120211090811
201-92-199-158.dsl.telesp.net.br 0 2 297729 
200-168-79-182.dsl.telesp.net.br 0 2 40782 
189-69-140-22.dial-up.telesp.net.br 0 2 40782 
161.58.86.204 0 4 297729 
201.22.56.58.static.gvt.net.br 0 2 40782 
netserver.klin.com.br 0 2 40782 
bb0358b2.virtua.com.br 2 6 5938664 20120229083703
200-204-152-234.dsl.telesp.net.br 0 2 20424 
201-34-142-115.fnses700.e.brasiltelecom.net.br 3 7 97298 20120222081801
200-138-192-131.fnsce704.dsl.brasiltelecom.net.br 2 6 34046 20120208163135
189-19-15-16.dsl.telesp.net.br 0 2 40782 
74.160.85.189.dyn.oletelecom.com.br 2 6 72078 20120228151923
200.208.185.162 1 10 3010114 20120207111948
177.21.234.94 0 2 40782 
189-73-71-62.dsl.fnsce704.brasiltelecom.net.br 2 7 298539 20120216125611
189-47-143-38.dsl.telesp.net.br 3 19 560439 20120209024501
200.150.168.102 1 6 3043239 20120203040423
186.214.29.155.dynamic.adsl.gvt.net.br 2 8 3051247 20120203094353
189-69-112-18.dsl.telesp.net.br 0 1 7657 
200.211.82.10 0 2 40782 
189-19-47-185.dsl.telesp.net.br 0 4 15314 
bd66d9c1.virtua.com.br 1 3 2969332 20120209123655
201-3-190-116.paemt704.dsl.brasiltelecom.net.br 0 2 297729 
187-50-19-130.customer.tdatabrasil.net.br 0 2 40782 
mail.mazdanet.com.br 3 10 5982164 20120222042609
bd6482bd.virtua.com.br 0 1 33125 
201-92-187-133.dsl.telesp.net.br 0 2 40782 
b1201e94.virtua.com.br 0 1 12767 
18713203186.user.veloxzone.com.br 0 1 7657 
177.114.47.130 0 2 40782 
200-207-106-59.dsl.telesp.net.br 0 2 40782 
msnbot-157-55-17-195.search.msn.com 1 1 0 20120229103920
bb033172.virtua.com.br 0 8 40782 
b120467b.virtua.com.br 0 2 40782 
177.29.190.127 1 2 2718 20120210114811
187.55.61.54 2 6 256825 20120211141401
jmc.jmcprod.com.br 0 8 38285 
mic.mic.ind.br 1 18 3141841 20120203110320
189.33.150.129 0 2 40782 
200-205-108-34.customer.tdatabrasil.net.br 0 2 40782 
200-161-121-142.dsl.telesp.net.br 0 6 81564 
badc5257.virtua.com.br 0 2 40782 
bb25dd5e.virtua.com.br 0 2 40782 
wtp-g3-maya9.sjdc 1 5 2971338 20120206141322
ipemp178-206.tpa.net.br 0 1 68530 
201-0-20-127.dsl.telesp.net.br 0 6 81564 
18924161038.user.veloxzone.com.br 0 4 81564 
201.56.198.194 0 4 81564 
201.22.230.242.static.host.gvt.net.br 0 4 40782 
189-47-24-121.dsl.telesp.net.br 0 2 40782 
a85-138-193-99.cpe.netcabo.pt 1 3 2969332 20120206143117
msnbot-207-46-12-76.search.msn.com 2 2 3156 20120210092821
b1208707.virtua.com.br 0 2 40782 
189-74-48-15.gnace703.dsl.brasiltelecom.net.br 0 2 7657 
200-206-225-30.dsl.telesp.net.br 1 3 2969332 20120210114257
177.99.139.dynamic.adsl.gvt.net.br 0 2 15314 
200-204-244-145.bbone.tdatabrasil.net.br 0 4 81564 
END_VISITOR

# Date - Pages - Hits - Bandwidth - Visits
BEGIN_DAY 29
20120201 32 380 44576524 24
20120202 26 232 21900776 20
20120203 32 288 32319566 22
20120204 5 9 65748 4
20120205 11 23 3291346 9
20120206 27 212 25991186 18
20120207 25 205 33656609 18
20120208 30 378 30920156 18
20120209 60 376 36846778 28
20120210 34 309 33368419 22
20120211 10 21 327571 8
20120212 8 23 237626 5
20120213 43 290 53082747 28
20120214 74 407 32827961 27
20120215 39 276 56331108 30
20120216 19 182 8802665 13
20120217 139 300 65790148 45
20120218 9 29 3820008 5
20120219 16 44 7326148 10
20120220 6 9 56329 5
20120221 5 23 571870 4
20120222 33 168 28034451 22
20120223 70 297 26883736 28
20120224 19 202 11339791 12
20120225 16 55 1235942 9
20120226 5 13 106092 4
20120227 38 272 27552580 23
20120228 32 193 29976624 24
20120229 16 264 14549838 13
END_DAY

# Session range - Number of visits
BEGIN_SESSION 7
1h+ 2
5mn-15mn 10
0s-30s 446
15mn-30mn 8
2mn-5mn 7
30s-2mn 18
30mn-1h 7
END_SESSION

# URL - Pages - Bandwidth - Entry - Exit
# The 10 first Pages must be first (order not required for others)
BEGIN_SIDER 9
/eventos/ 406 471625 233 237
/ 308 413436 246 155
/site.html 126 181790 2 88
/alpha/site.html 14 6265 1 5
/alpha/ 11 8500 5 0
/webmail/ 8 2808 7 7
/eventos/\r 4 6860 3 4
/bimbo/ 1 1448 1 1
/clips/07/clips_07.html 1 4102 0 1
END_SIDER
