AWSTATS DATA FILE 6.4 (build 1.814)
# If you remove this file, all statistics for date 2012-05 will be lost/reset.

# Position (offset in bytes) in this file of beginning of each section for
# direct I/O access. If you made changes somewhere in this file, you should
# also remove completely the MAP section (AWStats will rewrite it at next
# update).
BEGIN_MAP 27
POS_GENERAL 1865                
POS_TIME 2549                
POS_VISITOR 14407               
POS_DAY 58786               
POS_DOMAIN 3363                
POS_LOGIN 3781                
POS_ROBOT 3936                
POS_WORMS 4302                
POS_EMAILSENDER 4433                
POS_EMAILRECEIVER 4576                
POS_SESSION 59679               
POS_SIDER 59890               
POS_FILETYPES 4711                
POS_OS 4862                
POS_BROWSER 4996                
POS_SCREENSIZE 5554                
POS_UNKNOWNREFERER 5628                
POS_UNKNOWNREFERERBROWSER 6445                
POS_ORIGIN 6660                
POS_SEREFERRALS 6805                
POS_PAGEREFS 6975                
POS_SEARCHWORDS 11930               
POS_KEYWORDS 12449               
POS_MISC 2212                
POS_ERRORS 12776               
POS_CLUSTER 3637                
POS_SIDER_404 12890               
END_MAP

# LastLine    = Date of last record processed - Last record line number in last log - Last record offset in last log - Last record signature value
# FirstTime   = Date of first visit for history file
# LastTime    = Date of last visit for history file
# LastUpdate  = Date of last update - Nb of parsed records - Nb of parsed old records - Nb of parsed new records - Nb of parsed corrupted - Nb of parsed dropped
# TotalVisits = Number of visits
# TotalUnique = Number of unique visitors
# MonthHostsKnown   = Number of hosts known
# MonthHostsUnKnown = Number of hosts unknown
BEGIN_GENERAL 8
LastLine 20120601034908 22487 5501021 57697253277
FirstTime 20120501005629
LastTime 20120531225850
LastUpdate 20120601043526 452 0 451 0 0
TotalVisits 569                 
TotalUnique 452                 
MonthHostsKnown 781                 
MonthHostsUnknown 130                 
END_GENERAL

# Misc ID - Pages - Hits - Bandwidth
BEGIN_MISC 10
QuickTimeSupport 0 0 0
JavaEnabled 0 0 0
JavascriptDisabled 0 0 0
PDFSupport 0 0 0
WindowsMediaPlayerSupport 0 0 0
AddToFavourites 0 84 0
RealPlayerSupport 0 0 0
TotalMisc 0 0 0
DirectorSupport 0 0 0
FlashSupport 0 0 0
END_MISC

# Hour - Pages - Hits - Bandwidth - Not viewed Pages - Not viewed Hits - Not viewed Bandwidth
BEGIN_TIME 24
0 4 4 4734 8 8 6312
1 8 8 11046 7 8 15303
2 3 6 105769 6 7 1578
3 12 76 15996930 23 24 40559
4 43 328 63836000 45 56 279743
5 42 374 29124308 19 26 368615
6 39 347 25848500 16 23 394029
7 58 398 29887061 52 56 1555057
8 65 373 24976826 15 25 542929
9 41 363 33993168 9 20 412294
10 93 555 55091237 15 28 569631
11 74 499 42293210 20 33 3097316
12 49 510 37453555 18 22 377776
13 133 696 69832143 16 29 1143929
14 150 335 39039368 11 11 2986
15 33 130 3429153 9 22 638687
16 65 207 15329975 14 20 253504
17 60 210 10441646 14 28 595271
18 46 139 25571848 13 13 5972
19 36 95 11738872 9 10 235805
20 15 53 4943895 3 3 352
21 11 25 574346 11 12 13862
22 9 11 308775 6 7 0
23 6 6 7890 5 5 0
END_TIME

# Domain - Pages - Hits - Bandwidth
# The 10 first Pages must be first (order not required for others)
BEGIN_DOMAIN 14
br 766 4809 453117235
ip 148 678 68934550
com 147 161 6394766
net 25 77 8078272
ua 2 2 3156
io 2 2 3156
pt 1 3 2969332
org 1 2 2581
hu 1 1 1578
fi 1 1 1578
it 0 2 34744
ar 0 3 0
nl 0 6 297729
sjdc 1 1 1578
END_DOMAIN

# Cluster ID - Pages - Hits - Bandwidth
BEGIN_CLUSTER 0
END_CLUSTER

# Login - Pages - Hits - Bandwidth - Last visit
# The 10 first Pages must be first (order not required for others)
BEGIN_LOGIN 0
END_LOGIN

# Robot ID - Hits - Bandwidth - Last visit - Hits on robots.txt
# The 10 first Hits must be first (order not required for others)
BEGIN_ROBOT 7
googlebot 27 518150 20120530022113 0
msnbot 27 42606 20120531044206 0
yandex 16 25248 20120529122711 0
robot 15 20514 20120521081506 0
turnitinbot 2 3156 20120527171831 0
crawl 2 3156 20120509131318 0
netcraft 1 1578 20120503064813 0
END_ROBOT

# Worm ID - Hits - Bandwidth - Last visit
# The 5 first Hits must be first (order not required for others)
BEGIN_WORMS 0
END_WORMS

# EMail - Hits - Bandwidth - Last visit
# The 20 first Hits must be first (order not required for others)
BEGIN_EMAILSENDER 0
END_EMAILSENDER

# EMail - Hits - Bandwidth - Last visit
# The 20 first hits must be first (order not required for others)
BEGIN_EMAILRECEIVER 0
END_EMAILRECEIVER

# Files type - Hits - Bandwidth - Bandwidth without compression - Bandwidth after compression
BEGIN_FILETYPES 5
html 1090 1397240 0 0
js 405 386160 0 0
jpg 3807 66002728 0 0
Unknown 5 8575 0 0
swf 441 472045552 0 0
END_FILETYPES

# OS ID - Hits
BEGIN_OS 9
macosx 154
winlong 459
winxp 1975
win2003 11
win2000 2
winnt 2918
win98 1
Unknown 181
linux 47
END_OS

# Browser ID - Hits
BEGIN_BROWSER 35
firefox3.6.24 1
msie6.0 196
firefox5.0 5
firefox4.0.1 6
firefox8.0 12
firefox3.5.3 6
lotus\-notes 12
msie8.0 600
firefox6.0.2 9
msie7.0 2619
firefox3.6.27 6
firefox9.0.1 39
msie9.0 390
Unknown 108
firefox11.0 72
firefox3.0.2 3
msie5.01 1
firefox13.0 6
firefox3.6.25 7
opera 11
firefox3.6.17 2
firefox3.5.2 8
firefox7.0.1 15
firefox12.0 226
firefox3.5.10 3
firefox3.6.23 34
mozilla 284
netscape5.0 1
firefox5.0.1 9
firefox3.6.28 12
firefox8.0.1 13
firefox10.0.2 16
firefox3.6.8 3
safari 1010
firefox3.6.13 3
END_BROWSER

# Screen size - Hits
BEGIN_SCREENSIZE 0
END_SCREENSIZE

# Unknown referer OS - Last visit date
BEGIN_UNKNOWNREFERER 12
Mozilla/5.0_(compatible;_MJ12bot/v1.4.3;_http://www.majestic12.co.uk/bot.php?_) 20120531192652
GbPlugin 20120529182137
Mozilla/5.0_(compatible;_DCPbot/1.2;__http://domains.checkparams.com/) 20120530124838
Mozilla/5.0_(compatible;_MJ12bot/v1.4.2;_http://www.majestic12.co.uk/bot.php?_) 20120515110440
Mozilla/5.0_(compatible;_WBSearchBot/1.1;__http://www.warebay.com/bot.html) 20120501015233
Windows-Live-Social-Object-Extractor-Engine/1.0 20120530180155
- 20120531103957
Mozilla/5.0_(compatible;_Ezooms/1.0;_ezooms.bot@gmail.com) 20120525215042
Mozilla/5.0 20120518010153
Mozilla/5.0_(compatible;_bingbot/2.0;__http://www.bing.com/bingbot.htm) 20120531002551
Mozilla/4.0_(compatible;) 20120528043128
ClamAV_0.95.3 20120504141031
END_UNKNOWNREFERER

# Unknown referer Browser - Last visit date
BEGIN_UNKNOWNREFERERBROWSER 4
Windows-Live-Social-Object-Extractor-Engine/1.0 20120530180155
- 20120531103957
GbPlugin 20120529182137
ClamAV_0.95.3 20120504141031
END_UNKNOWNREFERERBROWSER

# Origin - Pages - Hits 
BEGIN_ORIGIN 6
From0 736 3684
From1 0 0
From2 91 91
From3 36 300
From4 232 1673
From5 0 0
END_ORIGIN

# Search engine referers ID - Pages - Hits
BEGIN_SEREFERRALS 2
google 75 75
search 16 16
END_SEREFERRALS

# External page referers - Pages - Hits
# The 10 first Pages must be first (order not required for others)
BEGIN_PAGEREFS 85
http://mail.terra.com.br/105.0trr/reademail.php 5 16
http://start.funmoods.com/results.php 3 3
http://www.easyfor.com.br/site.swf 3 3
http://pop.fambras.org.br 2 4
http://server2003.afs.local:4080/nonauth/deny.php 2 2
http://www.ferpak.com.br/intro.swf 2 2
http://www.easyfor.com.br/site.html 1 1
http://domains.checkparams.com/index.php 1 1
http://www.newmind.com.br/antigo.htm 1 1
http://webmail.editorabiruta.com.br 1 1
http://gscomunicacao.blogspot.com.br 0 21
http://webmail.plastpet.com.br/c3mail/ 0 2
http://mail.uol.com.br/main/message 0 2
http://gscomunicacao.blogspot.com/2009/08/anuncio-eb-blindados.html 0 2
http://by160w.bay160.mail.live.com/default.aspx 0 2
http://gscomunicacao.blogspot.com/2010/06/o-grupo-bimbo-do-brasil-e-sucesso-na.html 0 2
http://gscomunicacao.blogspot.com.br/2012/04/nanno-faz-sucesso-na-hair-brasil-2012.html 0 4
http://sn135w.snt135.mail.live.com/default.aspx 0 1
http://gscomunicacao.blogspot.com/2010/10/gs-no-mega-evento-da-nutricao.html 0 6
http://www.ferpak.com.br 1 1
http://br.bing.com/search 1 1
http://sn110w.snt110.mail.live.com/m/messages.m/ 1 1
http://externo.protefer.com.br:8081/webmail/ 0 2
http://webmail.idealcosmeticos.com.br 1 1
http://webmail.rainbowid.com.br/webmail.php 0 2
http://gscomunicacao.blogspot.com.br/2010/04/lontra-na-automec-2010.html 0 2
http://webmail.imetame.com.br/zimbra/ 0 2
http://gscomunicacao.blogspot.com.br/2011/02/santiago-e-cintra-na-mundo-geo-connect.html 0 34
http://webmail.franmetal.com.br:32000/mail/view.html 0 2
http://bl156w.blu156.mail.live.com/mail/InboxLight.aspx 0 4
http://www.somapar.com.br/webmail/ 0 5
http://gscomunicacao.blogspot.com.br/2010/01/sebo-o-leitor.html 0 2
http://mail.mailig.ig.com.br/mail/ 0 1
http://bl151w.blu151.mail.live.com/mail/InboxLight.aspx 0 2
http://gscomunicacao.blogspot.com.br/2009/05/vestibular-de-moda-fefisa.html 0 4
http://gscomunicacao.blogspot.com.br/2011/05/easy-for-e-sucesso-na-cards-2011.html 0 6
http://gscomunicacao.blogspot.com.br/2010/10/gs-no-mega-evento-da-nutricao.html 0 4
http://gscomunicacao.blogspot.com.br/2011/07/bimbo-faz-sucesso-no-evento-fispal-food.html 0 6
http://webmail.mackross.com.br/ultramail/main.php 1 1
http://gscomunicacao.blogspot.com.br/2012/04/gs-vence-concorrencia-do-grupo-ldm.html 0 2
http://gscomunicacao.blogspot.com.br/2009/08/anuncio-eb-blindados.html 0 2
http://br.mg3.mail.yahoo.com/neo/launch 0 2
http://71.6.217.131/mail/writemail.html 0 2
http://webmail.metroametro.com.br/webmail.php 0 3
http://gscomunicacao.blogspot.com/2009/05/vestibular-de-moda-fefisa.html 0 2
http://vebidoo.de/gs+comunicacao 0 2
http://webmail.arambiental.com.br 1 1
http://www.dadaarquitetura.com.br/load.swf 1 1
http://webmail.snakepro.com.br 1 1
http://gscomunicacao.blogspot.com.br/2011/09/adpix-na-maximidia-2011.html 0 4
http://sn135w.snt135.mail.live.com/mail/ 0 1
http://gscomunicacao.blogspot.com.br 0 12
http://www.ferpak.com.br/site.swf 1 1
http://beta.locamail.com.br 1 1
http://www.radarbit.com 1 1
http://webmail.neolider.net.br/WorldClient.dll 1 3
http://www.facebook.com 1 1
http://gscomunicacao.blogspot.com.br/2011/10/virbac-com-muita-interatividade-na-pet.html 0 2
http://192.168.122.3/egroupware/index.php 0 2
http://71.6.217.131/mail/viewaction.html 0 1
http://gscomunicacao.blogspot.com.br/2010/11/prol.html 0 1
http://by160w.bay160.mail.live.com/mail/InboxLight.aspx 0 1
http://gscomunicacao.blogspot.com.br/2011/02/imagens-stand-trident-2011.html 0 6
http://mail.terra.com.br/105.0trr/sendmail.php 0 1
http://dnserros.oi.com.br/main 1 1
http://71.6.217.131/mail/view.html 0 28
http://bl158w.blu158.mail.live.com/mail/InboxLight.aspx 0 1
http://sn133w.snt133.mail.live.com/mail/InboxLight.aspx 0 1
http://by145w.bay145.mail.live.com/default.aspx 0 1
http://gscomunicacao.blogspot.com.br/2010/04/rotary-club.html 0 6
http://webmail.wilkuro.com.br/webmail.php 0 2
http://gscomunicacao.blogspot.com.br/2010/06/o-grupo-bimbo-do-brasil-e-sucesso-na.html 0 16
http://by171w.bay171.mail.live.com/default.aspx 1 1
http://webmail.plastpet.com.br/services/editor/fckeditor/editor/fckeditor.html 0 2
http://www.atx.com.br/WorldClient.dll 0 2
http://gscomunicacao.blogspot.com.br/2011/07/grupo-s-na-mundo-geo-2011.html 0 2
http://gscomunicacao.blogspot.com.br/2011/05/gross-cargo-na-intermodal-2011.html 0 6
http://gscomunicacao.blogspot.com/2009/05/eb-blindados.html 0 1
http://co124w.col124.mail.live.com/default.aspx 0 1
http://webmail.grupoldm.com.br/WorldClient.dll 0 3
http://gscomunicacao.blogspot.com.br/2010/12/escola-great-idiomas-especializada-em.html 0 2
http://br.mc1616.mail.yahoo.com/mc/welcome 0 1
http://36ohk6dgmcd1n-c.c.yom.mail.yahoo.net/om/api/1.0/openmail.app.invoke/36ohk6dgmcd1n/11/1.0.35/br/pt-BR/controller.html/0 0 4
http://192.168.0.25/webmail/main.php 0 2
http://sn133w.snt133.mail.live.com/default.aspx 0 2
END_PAGEREFS

# Search keyphrases - Number of search
# The 10 first number of search must be first (order not required for others)
BEGIN_SEARCHWORDS 14
gs+comunica%c3%a7%c3%a3o 56
gs+comunica%c3%a7%c3%b5es 4
gs+comunicacao 3
gscomunicacao 2
gscomunica%c3%a7%c3%a3o 2
web 2
gs+comunicacoes 2
http+//www.gscomunicacao.com.br/ 1
site+do+gs+comunica%c3%a7%c3%a3o 1
g+%26+s+comunica%c3%a7%c3%b5es 1
gs+comunica%c3%a7%c3%a3o+%5d 1
gs21+comunica%c3%a7%c3%a3o 1
gs+comunica%c3%a7ao 1
gs+comunica%c3%a7%c3%b5es%40holmail.com 1
END_SEARCHWORDS

# Search keywords - Number of search
# The 10 first number of search must be first (order not required for others)
BEGIN_KEYWORDS 19
gs 69
comunica%c3%a7%c3%a3o 59
comunica%c3%a7%c3%b5es 5
comunicacao 3
gscomunicacao 2
gscomunica%c3%a7%c3%a3o 2
web 2
comunicacoes 2
do 1
%26 1
http 1
g 1
%5d 1
//www.gscomunicacao.com.br/ 1
comunica%c3%a7%c3%b5es%40holmail.com 1
gs21 1
s 1
comunica%c3%a7ao 1
site 1
END_KEYWORDS

# Errors - Hits - Bandwidth
BEGIN_ERRORS 3
206 131 9914950
301 63 22152
404 212 0
END_ERRORS

# URL with 404 errors - Hits - Last URL referer
BEGIN_SIDER_404 42
//phpMyAdmin-2.5.5-pl1/index.php 1 -
//phpMyAdmin-2.5.6-rc2/index.php 1 -
//web/phpMyAdmin/index.php 1 -
/robots.txt 166 -
//phpMyAdmin-2.5.7-pl1/index.php 1 -
//dbadmin/index.php 1 -
//myadmin/index.php 1 -
//php-my-admin/index.php 2 -
//mysqladmin/index.php 1 -
/muieblackcat 1 -
//phpMyAdmin-2.5.1/index.php 1 -
//phpMyAdmin-2.5.4/index.php 1 -
/clips/02/email_clips_02.jpg 1 -
//phpMyAdmin/index.php 2 -
//phpmyadmin1/index.php 1 -
/crossdomain.xml 3 http://s.nsdsvc.com/App/DddWrapper.swf
//web/index.php 1 -
//phpmyadmin/index.php 2 -
/clips/01/email_clips.jpg 1 -
//admin/pma/index.php 1 -
//index.php 1 -
//phpMyAdmin-2.2.3/index.php 1 -
//phpMyAdmin-2.5.6/index.php 1 -
//pma/index.php 1 -
//phpmyadmin2/index.php 1 -
//typo3/phpmyadmin/index.php 1 -
//phpadmin/index.php 1 -
//phpMyAdmin-2.5.6-rc1/index.php 1 -
//xampp/phpmyadmin/index.php 1 -
//phpMyAdmin-2.5.5-rc1/index.php 1 -
//phpMyAdmin-2.5.5/index.php 1 -
//phpMyAdmin-2/index.php 1 -
//phpMyAdmin-2.5.5-rc2/index.php 1 -
//phpMyAdmin-2.2.6/index.php 1 -
//websql/index.php 1 -
//phpMyAdmin-2.5.7/index.php 1 -
/eventosa 1 -
//admin/phpmyadmin/index.php 1 -
//db/index.php 1 -
/eventos/%20 1 -
//admin/index.php 1 -
//mysql/index.php 1 -
END_SIDER_404

# Host - Pages - Hits - Bandwidth - Last visit date - [Start date of last visit] - [Last page of last visit]
# [Start date of last visit] and [Last page of last visit] are saved only if session is not finished
# The 10 first Hits must be first (order not required for others)
BEGIN_VISITOR 911
www.easymailing.com.br 94 94 0 20120531103957
msnbot-65-52-109-151.search.msn.com 33 33 7890 20120531002551
mx6.letti.com.br 25 25 42875 20120531102725
189.115.24.193.stat.gvt.net.br 16 56 6722064 20120531111603
lx4.letti.com.br 14 14 24010 20120504143857
187-52-168-98.cuace1010.ipd.brasiltelecom.net.br 10 37 1297254 20120531194932
mail.letti.com.br 10 10 17150 20120504144230
189-30-85-85.fnsce703.dsl.brasiltelecom.net.br 10 28 3523886 20120521184023
wllserver.tro.contato.net 9 18 3256958 20120528102804
187.55.60.44 9 22 256825 20120521134806
201-25-233-128.fnsce703.dsl.brasiltelecom.net.br 1 3 18654 20120526171855
201-25-204-181.fnsce701.dsl.brasiltelecom.net.br 4 12 3226157 20120521142511
201.44.242.30 2 6 256825 20120518130130
201-42-58-155.dsl.telesp.net.br 0 2 67869 
186240149172.telemar.net.br 1 2 35095 20120526101208
201.85.19.162 0 4 95022 
badddadb.virtua.com.br 0 3 332473 
bb0311db.virtua.com.br 0 2 297729 
deznet-f3-3-1-gacc02.fns.embratel.net.br 0 2 67869 
200.215.6.254 2 6 256825 20120531111616
189.3.113.197 0 2 67869 
201-2-214-173.fnsce701.dsl.brasiltelecom.net.br 0 3 189030 
c9069f3a.static.spo.virtua.com.br 1 2 2718 20120531131421
bd64edd6.virtua.com.br 0 1 34744 
189-30-127-10.dsl.fnses700.brasiltelecom.net.br 2 6 49778 20120531083333
187-70-86-95.3g.claro.net.br 0 2 69488 
189-78-155-245.dsl.telesp.net.br 0 8 203607 
201.90.184.67 0 2 67869 
186.216.123.58 1 7 3037201 20120509135328
200-19-48-34.static.bovespa.com.br 0 2 67869 
187.59.84.222.static.host.gvt.net.br 3 9 492278 20120502193250
187.52.55.26 0 4 70491 
ip-189-99-60-9.user.vivozap.com.br 3 7 258403 20120509213314
c95145c9.virtua.com.br 0 1 34744 
200-204-153-243.dsl.telesp.net.br 5 17 6195826 20120502103015
201-048-208-061.static.ctbctelecom.com.br 1 3 2969332 20120530031338
ip-187-89-192-4.user.vivozap.com.br 0 2 67869 
msnbot-207-46-199-25.search.msn.com 2 2 3156 20120521102729
rev2.cedro.ind.br 0 2 67869 
189.102.219.147 0 1 33125 
177.97.224.dynamic.adsl.gvt.net.br 0 1 34744 
yn-in-f89.1e100.net 0 1 3023 
smtp-gw.amazonas.com.br 0 2 67869 
189-93-29-139.3g.claro.net.br 0 2 32806 
189-57-38-114.customer.tdatabrasil.net.br 0 1 34744 
186.154.46.187.isp.timbrasil.com.br 0 1 34744 
177.51.203.26 2 6 189618 20120504085855
200-180-66-82.fnses700.dsl.brasiltelecom.net.br 1 3 18654 20120523211420
200.178.219.170 3 14 326313 20120517060358
187-25-65-120.3g.claro.net.br 0 1 34744 
189-38-239-2.static-corp.ajato.com.br 1 3 1265774 20120507045036
186.214.69.112.static.host.gvt.net.br 2 9 256825 20120507120931
189-31-109-80.fnses700.dsl.brasiltelecom.net.br 5 13 256825 20120522182742
186.215.83.159.static.gvt.net.br 4 14 3279555 20120510102802
bb69e63a.virtua.com.br 0 10 116763 
189-38-237-192.static-corp.ajato.com.br 1 1 1715 20120518133954
177.97.230.dynamic.adsl.gvt.net.br 1 3 68220 20120528111331
bb03101c.virtua.com.br 0 3 104232 
177.18.252.10.static.host.gvt.net.br 2 8 324694 20120515132026
yi-in-f92.1e100.net 0 1 3023 
msnbot-207-46-204-219.search.msn.com 2 2 3156 20120517164933
177.29.166.18 1 2 35095 20120504110103
www.quadaenterprises.com 1 1 1578 20120501052548
189-19-252-52.dsl.telesp.net.br 0 2 67869 
s4.sulmaq.com.br 0 21 68530 
msnbot-157-55-112-208.search.msn.com 2 2 3156 20120514121833
177.97.155.dynamic.adsl.gvt.net.br 3 8 3072647 20120503123749
189-57-47-22.customer.tdatabrasil.net.br 0 2 60568 
187.45.70.3 0 1 34744 
bb02cc16.virtua.com.br 1 3 2969332 20120502091553
1862453261.user.veloxzone.com.br 0 1 34744 
189.102.109.141 1 2 2718 20120504163811
200.205.75.202 0 8 69488 
187-11-235-8.dsl.telesp.net.br 0 53 135738 
189-68-15-145.dsl.telesp.net.br 2 6 256825 20120513115303
177-103-157-23.dsl.telesp.net.br 0 4 122401 
200.205.9.138 1 5 3037201 20120515134101
187.73.168.194 0 2 67869 
p3nlhg840.shr.prod.phx3.secureserver.net 2 2 3156 20120522060456
32.59.181.65 0 2 288308 
prcomunicacao.com.br 1 3 93042 20120509134321
186-231-57-80.ded.intelignet.com.br 1 5 3037201 20120525042527
201-43-110-251.dsl.telesp.net.br 0 3 80563 
189-112-169-225.static.ctbctelecom.com.br 0 28 69488 
187-4-202-105.fnses700.e.brasiltelecom.net.br 2 6 256825 20120508085020
189-30-126-200.dsl.fnses700.brasiltelecom.net.br 3 8 269139 20120505062104
201.52.108.186 1 18 3038204 20120529115310
186-238-70-2.customer.tdatabrasil.net.br 0 1 34744 
201-28-66-219.customer.tdatabrasil.net.br 0 2 297729 
200-148-11-29.dsl.telesp.net.br 0 1 0 
186.n1.netell.net.br 0 4 135738 
62.189.112.129 1 1 1578 20120504140910
200.19.144.28 0 2 297729 
bd3631fa.virtua.com.br 0 1 34744 
bb265403.virtua.com.br 3 9 326313 20120523130405
bd64e4a8.virtua.com.br 0 1 34744 
bd7bd88c.virtua.com.br 0 2 297729 
bd1d8c32.virtua.com.br 0 2 0 
187-45-100-137.mhnet.com.br 0 2 297729 
189.11.132.101 3 10 257828 20120521161529
189.115.17.187.static.host.gvt.net.br 4 12 3226157 20120524134311
177.97.228.dynamic.adsl.gvt.net.br 3 9 256825 20120507055405
ip-177-76-57-251.user.vivozap.com.br 0 2 67869 
189-30-122-130.dsl.fnses700.brasiltelecom.net.br 1 2 13725 20120520165707
wtp-g3-maya5.sjdc 1 1 1578 20120531114436
173.227.230.236 1 1 1578 20120506134037
200.170.120.178.corp.ajato.com.br 1 5 3037201 20120530061900
200-171-142-90.dsl.telesp.net.br 0 2 67869 
201-95-193-173.dsl.telesp.net.br 0 3 25390 
194.250.98.243 0 12 69488 
inet5.petrobras.com.br 1 5 3037201 20120525095910
189-18-242-87.dsl.telesp.net.br 0 2 297729 
ks206121.kimsufi.com 5 5 7890 20120525155410
189.115.18.242.static.host.gvt.net.br 2 8 273901 20120525085156
189-112-187-079.static.ctbctelecom.com.br 0 7 148585 
189-12-179-30.user.veloxzone.com.br 0 2 67869 
187.55.195.114 2 6 256825 20120504190741
bb41bcef.virtua.com.br 0 2 297729 
189-19-19-101.dsl.telesp.net.br 0 2 67869 
189.115.16.189.static.host.gvt.net.br 3 8 257828 20120510083010
msnbot-207-46-204-169.search.msn.com 2 2 3156 20120527132623
189.2.108.146 1 3 2969332 20120528072802
187-75-210-153.dsl.telesp.net.br 0 2 67869 
177.99.153.dynamic.adsl.gvt.net.br 0 1 34744 
d-159-106.fox.com.br 2 4 2969332 20120507042227
201.16.201.21 0 2 0 
mvx-201-76-190-118.mundivox.com 0 4 67869 
177.133.160.185.dynamic.adsl.gvt.net.br 0 1 0 
34.36.26.69.virtela.net 0 4 69488 
200.174.101.2 1 5 3267061 20120504141253
186.253.229.44 1 2 35095 20120511102749
bd3cb29d.virtua.com.br 0 2 297729 
mx2.volkdobrasil.com.br 1 9 3037201 20120531042436
200-158-239-206.dsl.telesp.net.br 0 1 34744 
58-241-28-31.host.sevstar.net 1 1 1578 20120526164028
eyck2.ima.sp.gov.br 0 4 595458 
bb255b30.virtua.com.br 4 61 4846267 20120528060035
177.96.44.dynamic.adsl.gvt.net.br 0 2 67869 
pool-72-74-73-148.bstnma.fios.verizon.net 1 3 18654 20120518113045
189-79-105-187.dsl.telesp.net.br 0 1 0 
20.132.68.147 1 1 1578 20120523042320
187-7-11-119.fnses700.dsl.brasiltelecom.net.br 2 6 256825 20120522075805
mail.sulcorte.com.br 3 3 5145 20120504141031
187.83.150.237 1 1 351 20120516161113
200-158-144-152.dsl.telesp.net.br 1 4 2819541 20120504141323
c95134be.virtua.com.br 0 152 164060 
67.219.107.162 1 1 1578 20120527165451
201.55.84.130 0 3 104232 
189-106-224-86.user.veloxzone.com.br 0 2 0 
177.22.121.34 0 18 262423 
189.38.234.23 0 1 34744 
189-47-137-216.dsl.telesp.net.br 1 3 2969332 20120507040651
189-30-68-166.fnses700.dsl.brasiltelecom.net.br 1 3 18654 20120531110724
189-19-55-36.dsl.telesp.net.br 1 3 2969332 20120507042052
189-47-207-102.dsl.telesp.net.br 0 1 34744 
mail.check-in.com.br 0 2 67869 
gatec10.static.host.gvt.net.br 0 8 34744 
177.18.96.52.static.host.gvt.net.br 0 2 67869 
177.162.89.249 0 1 34744 
187.55.3.55 2 6 256825 20120527173014
mail.gpb.ind.br 0 4 67869 
189-47-5-160.dsl.telesp.net.br 0 2 67869 
200.152.202.58.sertrading.com.br 0 1 34744 
ip-189-99-210-214.user.vivozap.com.br 0 1 34744 
189.124.114.171 3 9 275479 20120524071532
c9111c44.virtua.com.br 0 2 52870 
187-79-130-109.user.veloxzone.com.br 2 8 268972 20120504172712
msnbot-207-46-204-165.search.msn.com 4 4 6312 20120531225850
msnbot-207-46-204-173.search.msn.com 2 2 3156 20120512083929
ip-187-90-1-115.user.vivozap.com.br 0 2 25318 
189-19-46-225.dsl.telesp.net.br 0 2 34744 
200-158-75-122.dsl.telesp.net.br 2 7 380764 20120502134415
mail.moldurarte.com.br 2 5 252529 20120522134019
186.253.150.155 1 2 35095 20120504121557
36.113.46.187.isp.timbrasil.com.br 0 1 34744 
200-161-174-146.dsl.telesp.net.br 0 2 67869 
c9350b82.virtua.com.br 4 9 2969332 20120503074817
bd786bf7.virtua.com.br 0 2 297729 
189-30-120-108.dsl.fnses700.brasiltelecom.net.br 1 3 18654 20120512125039
187.55.229.192 2 2 1578 20120530180156
187.59.84.52.static.host.gvt.net.br 2 6 256825 20120527110927
187-78-180-135.user.veloxzone.com.br 1 3 2969332 20120510071402
201.67.236.54 7 17 489935 20120521161846
c9349b79.virtua.com.br 1 5 3267061 20120521084924
189-95-49-94.3g.claro.net.br 0 1 34744 
msnbot-207-46-204-215.search.msn.com 2 2 3156 20120529151321
dragon228.startdedicated.com 1 1 1578 20120530191111
177.18.219.112.static.host.gvt.net.br 1 5 3006688 20120518130704
187-4-220-213.fnses700.dsl.brasiltelecom.net.br 2 6 211190 20120516145302
189-79-103-214.dsl.telesp.net.br 0 1 0 
badc4869.virtua.com.br 1 2 2718 20120519175326
189.56.23.162 0 2 67869 
bb252670.virtua.com.br 0 2 67869 
177.0.239.216 2 8 273901 20120520045052
200-153-117-194.customer.tdatabrasil.net.br 0 4 67869 
200-170-125-27.corp.ajato.com.br 0 31 243208 
189-47-207-12.dsl.telesp.net.br 1 3 2969332 20120507042152
187.55.1.129 2 6 256825 20120530080014
201-23-160-145.gprs.claro.net.br 0 1 34744 
201-92-155-76.dsl.telesp.net.br 2 6 256825 20120529123125
189-19-154-126.dsl.telesp.net.br 2 7 268972 20120531133038
186.215.10.111.static.host.gvt.net.br 0 2 297729 
187.55.3.98 2 8 560128 20120521042453
177.97.238.dynamic.adsl.gvt.net.br 1 1 351 20120503063445
bb438f16.virtua.com.br 0 1 24311 
mail.quimicanastacio.com.br 1 3 2969332 20120507132958
177-9-245-34.dsl.telesp.net.br 0 2 0 
bd069480.virtua.com.br 0 6 203607 
ns.somapar.com.br 0 7 342947 
200-148-68-33.dsl.telesp.net.br 1 3 2969332 20120503071624
187-11-113-81.dsl.telesp.net.br 1 3 2969332 20120503064637
189.120.163.64 2 6 202018 20120531113103
189-109-22-3.customer.tdatabrasil.net.br 0 2 67869 
187-61-170-118.cable.cabotelecom.com.br 0 2 297729 
201.65.0.226 0 1 33125 
201-35-223-30.fnses700.dsl.brasiltelecom.net.br 2 6 256825 20120523204707
c94a3a28.virtua.com.br 0 3 104232 
201-62-79-13.life.net.br 0 2 67869 
177-113-88-183.user.vivozap.com.br 1 3 2969332 20120505141002
189-73-111-152.fnses700.dsl.brasiltelecom.net.br 3 9 2515947 20120528163801
18925245030.user.veloxzone.com.br 1 3 2969332 20120521041817
187.108.38.179 1 2 2718 20120531110903
189-79-131-153.dsl.telesp.net.br 0 2 67869 
201-0-205-152.dial-up.telesp.net.br 1 3 2969332 20120502060940
201-14-188-228.fnsce701.dsl.brasiltelecom.net.br 2 6 256825 20120521160308
177.29.208.69 0 2 27982 
bc243a09.catv.pool.telekom.hu 1 1 1578 20120520141242
177.0.242.173 2 6 256825 20120520085537
msnbot-157-56-229-245.search.msn.com 2 2 3156 20120523070057
177.19.236.138.static.gvt.net.br 0 2 67869 
bizz10.static.host.gvt.net.br 5 16 673814 20120525092527
189-75-33-166.fnsce704.dsl.brasiltelecom.net.br 2 6 256825 20120529175725
187-8-235-98.customer.tdatabrasil.net.br 0 4 34744 
c95213a7.virtua.com.br 1 3 98662 20120507090838
201090001147.provale.com.br 0 2 0 
186240143246.telemar.net.br 0 1 34744 
bd37f081.virtua.com.br 5 26 493613 20120521172227
se-connect122.static.host.gvt.net.br 1 3 18654 20120517125542
200-161-99-68.dsl.telesp.net.br 4 39 3942319 20120511113318
201-42-182-122.dsl.telesp.net.br 3 9 3226157 20120530163835
187-27-32-58.3g.claro.net.br 0 2 69488 
186.214.28.233.dynamic.adsl.gvt.net.br 4 12 3294026 20120523115434
cachoeiro.imetame.com.br 0 2 67869 
187.58.198.131.static.host.gvt.net.br 1 3 2969332 20120530042434
mx2.bremil.com.br 0 4 67869 
lx1.letti.com.br 3 3 5145 20120518134008
189-24-227-89.user.veloxzone.com.br 1 11 3309999 20120514132856
189.115.16.100.static.host.gvt.net.br 2 6 256825 20120521123107
187-5-153-86.fnses700.e.brasiltelecom.net.br 2 6 256825 20120501061825
as28165-187-62-215-138.wcs.net.br 0 1 0 
177.31.142.25 2 13 6210801 20120531131753
msnbot-157-55-112-200.search.msn.com 6 6 9468 20120528143952
fw.commscope.com 1 3 2969332 20120530061644
ycar1.mobile.bf1.yahoo.com 1 1 1578 20120504174954
200.180.22.34 0 1 12147 
bd367ba3.virtua.com.br 2 6 256825 20120516065640
189-30-108-18.fnses700.dsl.brasiltelecom.net.br 2 6 256825 20120512174415
186.215.97.159.static.gvt.net.br 2 10 6074402 20120503133408
177.97.234.dynamic.adsl.gvt.net.br 2 9 712043 20120531080338
static-208-80-194-32.as13448.com 2 2 3156 20120513122948
msnbot-207-46-199-33.search.msn.com 2 2 3156 20120530175452
c951f6ac.virtua.com.br 0 1 34744 
ks380405.kimsufi.com 2 2 3156 20120518132534
bd0503db.virtua.com.br 2 6 130672 20120507124807
mail.habasit.com.br 0 4 69488 
bd64e882.virtua.com.br 2 4 20232 20120523123242
189-8-12-170.ded.unitelco.com.br 0 2 67869 
189.116.214.255 0 1 34744 
e134.smartservercontrol.com 1 1 1578 20120517114613
bd379110.virtua.com.br 1 3 2969332 20120504181352
189.58.236.244.dynamic.adsl.gvt.net.br 0 2 67869 
76.72.167.162 1 1 1578 20120513102319
wiz-200-222-29-166.rj.wiz.com.br 0 2 67869 
static-208-80-194-37.as13448.com 4 4 6312 20120510191801
186-200-25-162.customer.tdatabrasil.net.br 1 3 2969332 20120531101830
bd3fc6f4.virtua.com.br 0 8 229141 
200.237.249.180 6 19 607395 20120524164944
177-103-229-116.dsl.telesp.net.br 0 2 67869 
112.194.64.189.isp.timbrasil.com.br 0 1 34744 
189.120.191.233 1 7 222044 20120522050639
187.115.148.92.static.gvt.net.br 1 3 2969332 20120518131346
189-111-212-19.dsl.telesp.net.br 0 2 67869 
bacdb22a.virtua.com.br 0 2 67869 
201.73.226.52 1 4 3004076 20120502080952
189-19-44-53.dsl.telesp.net.br 0 2 67869 
187.59.85.122.static.host.gvt.net.br 3 7 256825 20120528040641
msnbot-207-46-199-31.search.msn.com 2 2 3156 20120526125954
b1202738.virtua.com.br 0 1 34744 
201-95-196-46.dsl.telesp.net.br 0 5 0 
187-7-8-209.fnses700.dsl.brasiltelecom.net.br 2 7 245707 20120528183437
187.55.12.93 2 6 37165 20120515075040
189-10-247-171.pasce300.ipd.brasiltelecom.net.br 0 2 67869 
177-9-183-92.dsl.telesp.net.br 1 3 2969332 20120510080927
bb692264.virtua.com.br 1 3 2969332 20120504043944
bb17ad2d.virtua.com.br 0 11 173720 
189.115.23.245.static.host.gvt.net.br 7 15 256825 20120521163325
189-79-100-113.dsl.telesp.net.br 0 1 0 
178.33.64.239 1 1 1578 20120504062837
201-11-104-161.fnsce703.dsl.brasiltelecom.net.br 2 6 256825 20120520115115
bb174426.virtua.com.br 3 9 3226157 20120522090437
ns2.biondini.com.br 1 3 2969332 20120518131615
201-43-131-36.dsl.telesp.net.br 1 2 2718 20120521093624
177.19.116.9.static.host.gvt.net.br 0 2 297729 
177-103-154-62.dsl.telesp.net.br 0 2 33125 
200-232-169-193.dsl.telesp.net.br 0 9 104232 
200-205-211-106.customer.tdatabrasil.net.br 2 10 6074402 20120530051613
mail.lzt.com.br 0 2 68530 
186.214.144.54.static.host.gvt.net.br 0 2 297729 
wg-in-f214.1e100.net 0 1 294706 
187-27-139-88.3g.claro.net.br 0 1 0 
bd3dd457.virtua.com.br 0 2 297729 
200-148-64-99.dsl.telesp.net.br 0 2 67869 
ns3.rexnord.com.br 1 4 3001454 20120517041429
fermax154.static.host.gvt.net.br 0 2 67869 
187-101-66-128.dsl.telesp.net.br 0 2 67869 
21.105.117.189.isp.timbrasil.com.br 1 6 5017805 20120517110535
189-73-99-235.fnsce704.dsl.brasiltelecom.net.br 2 8 373649 20120527180144
badfa403.virtua.com.br 0 2 67869 
msnbot-157-55-112-199.search.msn.com 2 2 3156 20120503135146
189-51-34-179.unotel.com.br 0 2 67869 
201-1-186-59.dsl.telesp.net.br 0 1 34744 
201-69-83-26.dial-up.telesp.net.br 1 3 44430 20120503065632
189-106-83-30.user.veloxzone.com.br 0 2 67869 
201-67-169-231.fnses700.dsl.brasiltelecom.net.br 2 8 356085 20120520132516
177.41.212.126.static.host.gvt.net.br 2 6 256825 20120509164650
201-88-83-55.bsace702.dsl.brasiltelecom.net.br 2 6 248080 20120529064035
email.haenke.com.br 0 2 67869 
177.28.35.176 0 1 34744 
smtp-gw.cianet.ind.br 1 3 2969332 20120522055417
187.87.147.106 4 17 3707423 20120502100058
187-50-25-5.customer.tdatabrasil.net.br 1 2 2718 20120529141054
200-138-215-134.fnsce7003.e.brasiltelecom.net.br 2 6 256825 20120529051311
mx.toalhasatlantica.com.br 0 4 34744 
186.255.66.210 0 1 34744 
b1201e55.virtua.com.br 1 1 0 20120518142112
201-69-184-96.dial-up.telesp.net.br 0 2 0 
81.176.230.39 1 1 1578 20120517050253
msnbot-157-56-229-202.search.msn.com 2 2 3156 20120520191811
bd1d84b9.virtua.com.br 1 3 68930 20120506155441
186.214.65.73.static.host.gvt.net.br 1 1 351 20120515071518
200-148-62-10.dsl.telesp.net.br 0 8 135738 
b121be28.virtua.com.br 0 2 297729 
189.115.17.31.static.host.gvt.net.br 1 3 18654 20120526074618
ip-177-77-127-186.user.vivozap.com.br 0 2 297729 
173.227.230.238 1 2 36322 20120518021247
gh-in-f30.1e100.net 0 1 294706 
201.87.80.174 0 1 34744 
bd215f66.virtua.com.br 0 2 67869 
linuxserver.jmbzeppelin.com.br 0 1 34744 
b120d09f.virtua.com.br 1 1 0 20120509195150
201-2-192-221.fnsce702.dsl.brasiltelecom.net.br 3 9 3226157 20120521191840
200.198.98.88 0 2 67869 
bd376fef.virtua.com.br 0 2 297729 
c92587b6.virtua.com.br 0 2 297729 
186-201-30-74.customer.tdatabrasil.net.br 0 2 67869 
187-52-33-59.cslce700.e.brasiltelecom.net.br 0 3 0 
189-75-3-112.fnses700.dsl.brasiltelecom.net.br 1 3 18654 20120505144721
bb2613fa.virtua.com.br 2 11 658786 20120514142917
201-23-160-146.gprs.claro.net.br 0 1 34744 
189.115.16.168.static.host.gvt.net.br 2 6 61578 20120516132955
189-69-223-124.dial-up.telesp.net.br 0 14 67869 
static-208-80-194-27.as13448.com 2 2 3156 20120515194438
187-5-185-70.fnses700.e.brasiltelecom.net.br 2 6 131330 20120511125005
18620345241.rec.simbandalarga.com.br 0 2 297729 
200-170-98-214.ind.ajato.com.br 0 3 102613 
189-31-108-136.dsl.fnses700.brasiltelecom.net.br 2 6 256825 20120518122804
201-2-192-51.fnsce702.dsl.brasiltelecom.net.br 2 8 273901 20120518200121
bb2695b1.virtua.com.br 1 3 2969332 20120504142650
clonix.7.static.gvt.net.br 2 6 256825 20120524171837
201-67-181-100.fnsce702.dsl.brasiltelecom.net.br 2 8 273901 20120520145524
bacc9c04.virtua.com.br 0 2 29662 
189.34.168.176 0 2 67869 
b121c050.virtua.com.br 0 14 0 
201-27-0-245.dsl.telesp.net.br 0 26 34744 
bb6b638a.virtua.com.br 0 2 297729 
186.215.83.159 0 1 68530 
server1.camaracapivari.sc.gov.br 2 6 256825 20120522061317
187-52-164-65.jvece702.dsl.brasiltelecom.net.br 0 2 297729 
bd05fffc.virtua.com.br 0 2 67869 
200-161-97-252.dsl.telesp.net.br 0 733 2991325 
201.57.61.98 1 42 3105731 20120508132815
189-19-43-31.dsl.telesp.net.br 1 3 2969332 20120531115117
187-4-219-245.fnses700.dsl.brasiltelecom.net.br 2 6 256825 20120516163535
200-171-108-31.travelnet.com.br 1 8 3141478 20120510034852
200.174.136.26 1 5 3037201 20120531120104
189-79-43-104.dsl.telesp.net.br 1 3 2969332 20120507110107
189.22.67.5 3 10 275479 20120522115025
b151350d.virtua.com.br 1 3 2969332 20120531103700
189-19-200-94.dsl.telesp.net.br 0 2 67869 
bd214276.virtua.com.br 0 2 25534 
bd7966cf.virtua.com.br 0 2 67869 
host-177-52-250-58.ipwave.com.br 1 5 3037201 20120524041838
187.52.157.101 3 9 3226157 20120516124657
187-70-89-182.3g.claro.net.br 0 4 138976 
200-138-248-75.fnsce701.dsl.brasiltelecom.net.br 3 9 3226157 20120522202656
msnbot-207-46-199-20.search.msn.com 2 2 3156 20120517051028
189.38.181.210.user.ajato.com.br 1 1 351 20120523113221
177.97.231.dynamic.adsl.gvt.net.br 0 1 0 
bacde7c9.virtua.com.br 4 7 2972050 20120523193341
bacc80be.virtua.com.br 0 1 34744 
bb031f12.virtua.com.br 0 3 104232 
santiagoecintra58.static.gvt.net.br 0 57 416928 
189-11-180-164.fnsce702.dsl.brasiltelecom.net.br 3 7 258540 20120527174102
177.97.156.dynamic.adsl.gvt.net.br 1 5 3070987 20120531100513
189-11-177-22.fnses700.dsl.brasiltelecom.net.br 3 6 22950 20120505152921
177.99.141.dynamic.adsl.gvt.net.br 1 5 248484 20120529135035
201-92-180-218.dsl.telesp.net.br 0 4 135738 
id207834a.linhalivre.net 1 7 3037201 20120504120545
vpn.uniaoquimica.com.br 0 2 0 
bd22592b.virtua.com.br 0 2 297729 
200.208.248.154 0 2 67869 
bd2115da.virtua.com.br 0 4 67869 
187-11-236-120.dsl.telesp.net.br 0 14 67869 
201-42-138-156.dsl.telesp.net.br 1 3 2969332 20120504144651
187-4-219-55.fnses700.dsl.brasiltelecom.net.br 1 3 18654 20120521172128
186-193-200-9.byteweb.com.br 0 5 204268 
201.54.30.154.dedicated.neoviatelecom.com.br 0 2 67869 
186.213.39.244.static.host.gvt.net.br 0 2 67869 
bd64400e.virtua.com.br 0 2 67869 
3dtelecom229.static.host.gvt.net.br 8 32 3822175 20120523153458
187-57-140-157.dsl.telesp.net.br 2 6 256825 20120510095817
187.81.183.72 0 1 34744 
177.16.122.38.static.host.gvt.net.br 0 2 67869 
177.18.223.110.static.host.gvt.net.br 0 1 0 
bd7a644f.virtua.com.br 0 2 297729 
201-14-156-45.fnsce701.dsl.brasiltelecom.net.br 2 7 93184 20120520153445
201-27-16-146.dsl.telesp.net.br 0 2 34006 
s1.960.clients.serverdeals.org 1 1 1578 20120509062158
187.113.131.49.dynamic.adsl.gvt.net.br 1 3 2969332 20120506162227
201-27-85-32.dsl.telesp.net.br 0 12 161272 
yi-in-f83.1e100.net 0 1 294706 
c95381a3.virtua.com.br 0 2 25534 
177.97.37.dynamic.adsl.gvt.net.br 0 4 67869 
189.114.20.218.static.host.gvt.net.br 2 7 492278 20120530132753
214.51.209.91.akson45.kiev.ua 1 1 1578 20120517130506
118.192.35.172 2 2 3156 20120531141026
200.136.65.189.isp.timbrasil.com.br 0 2 67869 
187-11-141-164.dsl.telesp.net.br 0 2 67869 
bd64c250.virtua.com.br 2 6 256825 20120531073503
baccb856.virtua.com.br 0 2 67869 
187-122-46-72.cpeoco.eviaembratel.net.br 0 2 67869 
187-70-79-12.3g.claro.net.br 2 6 256825 20120525183656
bd646c2a.virtua.com.br 0 2 69488 
187-74-227-166.dsl.telesp.net.br 0 5 67869 
msnbot-207-46-199-26.search.msn.com 2 2 3156 20120510082629
187.115.125.26.static.gvt.net.br 0 4 104667 
tvc.tv90.static.host.gvt.net.br 2 6 256825 20120518090953
empwl03-131.tpaempresas.com.br 0 4 135738 
msnbot-207-46-199-29.search.msn.com 2 2 3156 20120507181527
177.97.159.dynamic.adsl.gvt.net.br 3 20 1039040 20120531070413
bd794839.virtua.com.br 0 9 243208 
189-19-70-16.dsl.telesp.net.br 2 8 291569 20120509053658
189.120.215.140 0 2 67869 
200-232-92-202.customer.tdatabrasil.net.br 0 2 67869 
200.186.251.201 2 6 256825 20120516112936
189-38-101-100.itake.net.br 0 8 135738 
189-31-124-3.fnses700.dsl.brasiltelecom.net.br 2 6 256825 20120527173947
201-19-156-210.user.veloxzone.com.br 0 1 34744 
teclenet110.static.host.gvt.net.br 2 7 492278 20120521150843
servidor.aguiasistemas.com.br 1 3 2969332 20120523125545
187-072-096-161.static.ctbctelecom.com.br 0 2 67869 
189.38.244.45 0 1 68530 
201-27-174-217.dsl.telesp.net.br 0 2 297729 
186.97.150.200.static.copel.net 0 2 67869 
177.99.147.dynamic.adsl.gvt.net.br 0 1 68530 
186.215.128.188.static.gvt.net.br 0 1 24310 
177.97.233.dynamic.adsl.gvt.net.br 0 2 59055 
ateky62.static.host.gvt.net.br 1 1 1578 20120516070543
189.59.17.6.static.gvt.net.br 0 2 34744 
177.98.245.dynamic.adsl.gvt.net.br 2 6 256825 20120507061424
201.73.142.34 0 2 0 
186-201-126-114.customer.tdatabrasil.net.br 0 35 206845 
exatech35.static.gvt.net.br 0 2 67869 
189-72-113-205.fnses700.dsl.brasiltelecom.net.br 7 14 268972 20120520195652
253.n1.netell.net.br 0 4 0 
200.186.205.247 4 21 1713929 20120522114704
webmail.cosmotec.com.br 0 6 135738 
189-79-79-211.dsl.telesp.net.br 0 1 0 
177.97.34.dynamic.adsl.gvt.net.br 0 2 67869 
186.212.190.205.static.host.gvt.net.br 1 3 2969332 20120502141901
ip-177-76-121-117.user.vivozap.com.br 0 2 0 
187.55.6.214 2 6 256825 20120531092437
c9519a6b.virtua.com.br 0 2 67869 
187-75-208-2.dsl.telesp.net.br 0 2 67869 
bd1d95bf.virtua.com.br 2 6 318098 20120528161343
msnbot-207-46-204-221.search.msn.com 1 1 1578 20120501221324
189-94-49-171.3g.claro.net.br 0 2 297729 
b1519e8e.virtua.com.br 0 1 34744 
bd79d9a8.virtua.com.br 0 2 67869 
201-67-180-45.fnsce702.dsl.brasiltelecom.net.br 2 6 256825 20120510115804
200-171-239-70.customer.telesp.net.br 1 5 3037201 20120531141421
189-47-183-130.dsl.telesp.net.br 0 3 100994 
177-9-245-136.dsl.telesp.net.br 0 4 67869 
201-67-180-20.fnsce702.dsl.brasiltelecom.net.br 1 3 18654 20120524141253
bb033191.virtua.com.br 0 1 34744 
msnbot-207-46-204-210.search.msn.com 2 2 3156 20120522124456
201-14-168-25.fnsce701.dsl.brasiltelecom.net.br 1 3 18654 20120519154355
187-52-15645.fnsce704.e.brasiltelecom.net.br 0 6 204268 
189-106-24-5.user.veloxzone.com.br 0 2 67869 
186.214.111.163.static.host.gvt.net.br 0 2 67869 
201.85.98.82 0 4 125441 
208.51.71.138 0 4 93403 
201-93-228-185.dsl.telesp.net.br 0 1 34744 
bb034f6e.virtua.com.br 0 2 297729 
201-95-209-201.dsl.telesp.net.br 0 6 67869 
inet.wirth.com.br 0 1 33125 
bb034124.virtua.com.br 2 6 2969332 20120507123704
bb174448.virtua.com.br 2 6 256825 20120523102057
189-112-176-061.static.ctbctelecom.com.br 1 5 3037201 20120503120932
lider.gwmnet.net 0 2 67869 
erft-4d07f1b7.pool.mediaways.net 1 1 1578 20120529184831
c953289f.virtua.com.br 0 2 67869 
c9357899.virtua.com.br 0 4 135738 
189-47-147-146.dsl.telesp.net.br 0 2 33125 
189-30-126-65.fnses700.dsl.brasiltelecom.net.br 2 8 916734 20120521172233
177-102-3-101.dsl.telesp.net.br 1 13 2987679 20120530044419
b121b831.virtua.com.br 0 2 67869 
177.18.199.121.static.host.gvt.net.br 0 1 0 
200-232-78-26.tbline.com.br 1 3 2969332 20120507134639
56.138.87.109.triolan.net 1 1 1578 20120510085006
189-106-115-71.user.veloxzone.com.br 0 5 33125 
201-93-162-207.dsl.telesp.net.br 0 2 67869 
201.20.212.121.user.ajato.com.br 0 29 312696 
187-101-129-22.dsl.telesp.net.br 0 2 297729 
189-73-91-67.fnses700.e.brasiltelecom.net.br 2 6 256825 20120524110134
c9343b32.virtua.com.br 1 3 2969332 20120522052018
187-101-24-177.dsl.telesp.net.br 1 11 3071945 20120508045926
189.115.17.32.static.host.gvt.net.br 2 6 256825 20120506092902
177.96.4.dynamic.adsl.gvt.net.br 0 2 0 
189.38.141.227.user.ajato.com.br 3 8 268972 20120509205252
189.27.207.2.dynamic.adsl.gvt.net.br 1 5 3037201 20120516040810
201-14-169-42.fnses700.dsl.brasiltelecom.net.br 1 3 18654 20120505213140
177.22.116.202 0 7 245305 
201-2-210-209.fnsce702.dsl.brasiltelecom.net.br 3 9 3226157 20120523144148
201-35-224-198.fnses700.dsl.brasiltelecom.net.br 2 5 21372 20120514192115
wg-in-f225.1e100.net 0 1 3023 
189-30-75-80.fnses700.dsl.brasiltelecom.net.br 1 4 30801 20120520154452
200.135.6.19 1 3 18654 20120530180118
badc01e3.virtua.com.br 1 5 3037201 20120514120835
177.96.40.dynamic.adsl.gvt.net.br 0 2 67869 
bb256c3a.virtua.com.br 2 8 6006533 20120522120541
ip-177-24-198-12.user.vivozap.com.br 0 1 34744 
200-138-233-42.fnses700.dsl.brasiltelecom.net.br 2 6 162412 20120530154903
187.123.235.34 3 7 214740 20120521114434
fw-cpqd.cpqd.com.br 1 3 1160482 20120521062700
189-31-94-47.fnses700.dsl.brasiltelecom.net.br 2 6 256825 20120511141731
187-71-38-236.3g.claro.net.br 0 2 69488 
189-73-173-139.paebv701.e.brasiltelecom.net.br 0 4 101971 
200-168-187-242.starinf.com.br 0 4 313517 
mail.sptf.com.br 0 19 239673 
10.65.65.189.isp.timbrasil.com.br 0 1 34744 
bd369c9a.virtua.com.br 0 1 0 
200-185-248-127.user.ajato.com.br 0 2 0 
177-102-82-198.dsl.telesp.net.br 0 1 33125 
gg-in-f81.1e100.net 0 1 3023 
177.11.179.252 0 2 67869 
189-46-201-227.dsl.telesp.net.br 0 2 67869 
c934ed3d.virtua.com.br 0 7 136399 
201-11-52-92.ldajc700-4.e.brasiltelecom.net.br 1 3 2320802 20120522053613
187-5-172-232.fnsce704.dsl.brasiltelecom.net.br 2 7 492278 20120524150924
200-153-164-15.dsl.telesp.net.br 0 4 0 
187-53-223-200.scrce1010.ipd.brasiltelecom.net.br 0 2 297729 
200-180-9-115.fnsce703.dsl.brasiltelecom.net.br 1 3 18654 20120516192656
pokusn1.default.pokusn.uk0.bigv.io 2 2 3156 20120521142622
nail.brazicolor.com.br 1 1 1715 20120504140430
76.72.167.164 2 2 3156 20120506072520
201.86.212.30.static.gvt.net.br 0 4 67869 
bb031967.virtua.com.br 0 1 34744 
187.59.85.160.static.host.gvt.net.br 2 6 86318 20120504102336
bd646192.virtua.com.br 0 3 69488 
189-111-214-41.dsl.telesp.net.br 0 4 115308 
187-71-14-143.3g.claro.net.br 0 6 138976 
177-0-206-105.jvece702.e.brasiltelecom.net.br 0 2 67869 
logtelecom.cua.gvt.net.br 1 3 18654 20120521183629
189-68-179-249.dsl.telesp.net.br 0 2 297729 
177.99.142.dynamic.adsl.gvt.net.br 0 4 33125 
ns4.rexnord.com.br 0 1 33125 
187-27-43-172.3g.claro.net.br 0 4 138976 
msnbot-157-55-112-202.search.msn.com 4 4 6312 20120516132757
187.94.241.39 0 2 297729 
187-27-94-101.3g.claro.net.br 0 4 69488 
badd8bec.virtua.com.br 0 1 34744 
187-71-29-183.3g.claro.net.br 3 8 268972 20120521172531
99.9.64.189.isp.timbrasil.com.br 0 1 34744 
200.174.118.50 0 8 138976 
187-85-144-62.gegnet.com.br 0 2 67869 
c94a27ac.virtua.com.br 0 2 0 
bb0374b7.virtua.com.br 2 6 256825 20120517104948
msnbot-157-55-112-205.search.msn.com 2 2 3156 20120518182702
ip-177-61-186-6.user.vivozap.com.br 2 3 4433 20120502154739
189.115.16.149.static.host.gvt.net.br 1 5 35730 20120526094514
186.214.68.35.static.host.gvt.net.br 0 2 0 
189.2.170.2 0 4 135738 
200-180-66-122.fnses700.dsl.brasiltelecom.net.br 2 6 256825 20120505182402
b151b656.virtua.com.br 0 2 69488 
189.115.24.211.stat.gvt.net.br 7 21 11408958 20120521185405
200-161-58-105.dsl.telesp.net.br 0 17 347440 
189-47-170-45.dsl.telesp.net.br 0 2 67869 
host8-186.brs.com.br 0 2 297729 
dyn2-212-50-133-153.psoas.suomi.net 2 2 3156 20120519135801
177.19.217.189.static.gvt.net.br 1 3 2969332 20120504141017
177.19.230.66.static.gvt.net.br 0 6 163792 
189-72-97-186.bsace702.e.brasiltelecom.net.br 1 5 35730 20120518161645
187.45.154.25 0 2 66051 
189.115.24.193 4 12 513650 20120528100114
189-30-68-58.fnses700.dsl.brasiltelecom.net.br 2 6 63086 20120520134432
c934a559.virtua.com.br 2 5 21372 20120530134304
220.181.141.69 1 1 1578 20120530071059
201-35-252-80.fnses700.dsl.brasiltelecom.net.br 2 6 47114 20120520172032
187.52.157.6 4 12 256825 20120521043845
189-30-108-139.fnses700.dsl.brasiltelecom.net.br 2 6 256825 20120521141922
189.115.16.86.static.host.gvt.net.br 1 3 18654 20120522130600
187.112.168.115.static.host.gvt.net.br 2 6 256825 20120522053431
177-103-215-227.dsl.telesp.net.br 0 4 135738 
msnbot-207-46-204-162.search.msn.com 2 2 3156 20120520212038
186.215.116.206.static.gvt.net.br 0 37 135738 
bd3e27d1.virtua.com.br 1 3 2969332 20120507095357
bd370182.virtua.com.br 1 1 1578 20120517072206
mail2.jasminealimentos.com.br 0 2 67869 
201-27-162-190.dsl.telesp.net.br 0 4 135738 
200-160-75-119.static-corp.ajato.com.br 0 1 34744 
ip-189-96-150-129.user.vivozap.com.br 0 2 297729 
201-43-165-55.dsl.telesp.net.br 1 3 2969332 20120510033131
177.97.153.dynamic.adsl.gvt.net.br 0 1 0 
187.112.171.149.static.host.gvt.net.br 1 4 30801 20120515180023
189-111-217-125.dsl.telesp.net.br 2 10 733660 20120515083138
mail.ramadaferramentas.com.br 1 1 1715 20120504140854
186.214.64.157.static.host.gvt.net.br 0 4 0 
189.115.17.208.static.host.gvt.net.br 5 11 135452 20120521053136
189-30-121-228.dsl.fnses700.brasiltelecom.net.br 3 9 256825 20120522145538
201-0-213-131.dial-up.telesp.net.br 0 1 34744 
189-111-238-50.dsl.telesp.net.br 0 2 25174 
87-194-162-194.dsl.cnl.uk.net 1 1 1578 20120508081316
189.38.23.165 0 8 135738 
201.67.253.237 1 3 18654 20120529100814
bd79a8c7.virtua.com.br 0 2 37214 
189.34.245.73 0 2 67869 
186.214.115.24.static.host.gvt.net.br 1 1 1578 20120518010153
msnbot-157-55-112-207.search.msn.com 2 2 3156 20120524111203
bd787118.virtua.com.br 0 2 67869 
200.228.82.2 0 4 34744 
clientes.187-108-054-019.linksol.com.br 1 2 2718 20120507043000
187-55-211-218.fnsce704.e.brasiltelecom.net.br 2 8 273901 20120522084949
msnbot-65-52-111-212.search.msn.com 2 2 3156 20120526124023
189-72-104-132.fnsce704.e.brasiltelecom.net.br 0 4 67869 
msnbot-207-46-204-163.search.msn.com 4 4 6312 20120525161326
187.55.0.240 2 9 397939 20120517191622
186.215.182.159.static.gvt.net.br 0 1 33125 
177.40.149.132.static.host.gvt.net.br 0 2 297729 
189-75-214-49.ctaje701.dsl.brasiltelecom.net.br 0 2 297729 
187-71-235-65.3g.claro.net.br 0 2 67869 
187-54-255-108.bsace703.e.brasiltelecom.net.br 0 1 0 
msnbot-157-55-112-204.search.msn.com 2 2 3156 20120508050258
bb175268.virtua.com.br 0 1 34744 
189-106-99-59.user.veloxzone.com.br 0 2 69488 
bacec6c2.virtua.com.br 0 4 67869 
msnbot-207-46-204-214.search.msn.com 2 2 3156 20120514233233
bb25b522.virtua.com.br 0 1 34744 
189-57-124-110.customer.tdatabrasil.net.br 1 36 3105731 20120525052849
avemaria2.static.host.gvt.net.br 1 3 2969332 20120507043410
186.199.228.185 0 1 34744 
187.59.84.145.static.host.gvt.net.br 4 12 3523886 20120523075314
201.20.178.250 1 3 2969332 20120507042437
server1.silbeck.com.br 1 3 18654 20120531090334
bb2555f7.virtua.com.br 0 4 595458 
msnbot-157-56-229-76.search.msn.com 2 2 3156 20120513070754
bhe200150034093.res-com.wayinternet.com.br 0 12 252501 
c906fb57.virtua.com.br 2 14 587656 20120518131718
200-138-246-30.fnsce703.dsl.brasiltelecom.net.br 2 6 256825 20120520162822
access21-f-03.neowave.com.br 0 1 0 
bb2674c8.virtua.com.br 0 1 34744 
177.18.199.88.static.host.gvt.net.br 0 2 69488 
host140-72-static.23-87-b.business.telecomitalia.it 0 2 34744 
244.51.116.189.isp.timbrasil.com.br 0 2 297729 
177.16.220.54.static.host.gvt.net.br 2 6 256825 20120516170307
187.108.47.77 2 7 2400310 20120530161205
187-35-94-178.dsl.telesp.net.br 0 9 263525 
msnbot-65-52-111-243.search.msn.com 2 2 3156 20120522140754
65.49.14.96 0 1 0 
177-103-222-227.dsl.telesp.net.br 0 12 136399 
200.251.11.167 0 1 34744 
c9346cba.virtua.com.br 0 12 203607 
ip-177-27-117-205.user.vivozap.com.br 0 1 34744 
200-171-4-206.dsl.telesp.net.br 0 7 203607 
p3nlhg857.shr.prod.phx3.secureserver.net 2 2 3156 20120530015449
lx5.letti.com.br 6 6 10290 20120529141919
186-228-57-178.ded.intelignet.com.br 0 8 135738 
200-206-197-182.dsl.telesp.net.br 0 4 67869 
71.138.87.109.triolan.net 2 2 3156 20120528174152
189.16.1.66 0 2 67869 
187.55.249.11 0 2 297729 
177-146-6-122.user.vivozap.com.br 0 2 67869 
texas.casasfretta.com.br 2 6 256825 20120519073229
187-35-161-40.dsl.telesp.net.br 0 2 69488 
201-27-22-205.dsl.telesp.net.br 0 2 0 
189.115.16.41.static.host.gvt.net.br 5 13 513650 20120521175524
queluz.economatica.com.br 0 2 67869 
bd6483a1.virtua.com.br 0 3 34744 
208.115.113.91 2 2 3156 20120525215042
189-19-214-246.dsl.telesp.net.br 0 1 34744 
189-31-92-172.fnses700.dsl.brasiltelecom.net.br 1 3 238171 20120520154703
213138128045.edelkey.net 0 10 208464 
bd78c3d9.virtua.com.br 0 2 297729 
c9517835.virtua.com.br 1 3 2969332 20120518131730
bd664e8f.virtua.com.br 0 2 67869 
200.250.152.14 1 3 2969332 20120530072107
ip-3057.rusanovka-net.kiev.ua 1 1 1578 20120531192652
189.100.97.146 0 1 0 
bl13-13-35.dsl.telepac.pt 1 3 2969332 20120507085434
177.99.137.dynamic.adsl.gvt.net.br 0 1 0 
bb259ab8.virtua.com.br 0 24 277952 
bb6b885b.virtua.com.br 3 9 104934 20120525141540
189-112-170-033.static.ctbctelecom.com.br 1 3 2969332 20120530075323
bb25da92.virtua.com.br 0 2 297729 
189-94-27-44.3g.claro.net.br 0 6 69488 
201-68-46-177.dsl.telesp.net.br 0 6 135738 
webmail.districar.com.br 0 22 154586 
187.111.143.7 2 7 257828 20120531072002
186.215.126.166.static.gvt.net.br 0 4 135738 
201-67-162-61.fnsce703.dsl.brasiltelecom.net.br 2 6 65618 20120510134945
b121410b.virtua.com.br 0 2 297729 
177.0.248.180 2 6 256825 20120520183434
187-13-66-208.user.veloxzone.com.br 0 2 67869 
rsm-196-252.faculty.fbk.eur.nl 0 6 297729 
189-68-15-180.dsl.telesp.net.br 0 2 67869 
201-93-157-228.dsl.telesp.net.br 0 4 135738 
xeon.primeiramao.com.br 0 6 208464 
msnbot-157-55-112-201.search.msn.com 2 2 3156 20120501234400
201-67-168-218.fnses700.dsl.brasiltelecom.net.br 3 10 258314 20120520132703
201.22.86.11.static.gvt.net.br 4 17 6207941 20120507121209
201.72.14.66 0 2 67869 
187-52-217-209.ctame700.e.brasiltelecom.net.br 0 4 67869 
187-032-057-177.static.ctbctelecom.com.br 0 22 173720 
189-73-99-121.fnses700.dsl.brasiltelecom.net.br 2 6 62738 20120509133214
41.78.18.79 0 2 297729 
msnbot-207-46-199-24.search.msn.com 4 4 6312 20120530222051
189-19-22-173.dsl.telesp.net.br 0 5 92316 
a88-112-35-63.elisa-laajakaista.fi 1 1 1578 20120523150950
200-168-68-185.dsl.telesp.net.br 0 2 67869 
142ob.scansafe.net 0 8 135738 
187.59.84.53.static.host.gvt.net.br 2 6 1003 20120526102250
189.21.188.130 0 22 67869 
webmail.hbuster.com.br 0 2 67869 
c9532774.virtua.com.br 0 14 34744 
mail2.conexel.com.br 1 3 282226 20120531123457
201-28-15-82.customer.tdatabrasil.net.br 0 2 69488 
msnbot-65-52-111-238.search.msn.com 2 2 3156 20120527030755
200216102154.user.veloxzone.com.br 4 14 6292521 20120531125546
189.115.17.181.static.host.gvt.net.br 2 6 63086 20120520171153
nat-dc5.es.bluecoat.com 1 1 1578 20120523042320
189.115.24.189.stat.gvt.net.br 4 12 513650 20120520065142
ip-177-27-44-97.user.vivozap.com.br 1 2 2718 20120509134806
2.194.21.177.miragetelecom.com.br 0 4 67869 
tvc.tv222.static.gvt.net.br 4 12 513650 20120521084534
187-75-116-14.dsl.telesp.net.br 1 3 2969332 20120521103056
mail.castor.ind.br 0 3 67869 
ftp.gam.com.br 3 11 292555 20120509134734
189-106-68-138.user.veloxzone.com.br 0 15 67869 
189-94-44-75.3g.claro.net.br 3 9 269975 20120525112936
201-67-167-66.fnsce703.dsl.brasiltelecom.net.br 3 9 256825 20120502165853
d-ip22-235.cti.com.br 1 5 3037201 20120514094929
bugs.profine-group.com 1 5 3037201 20120523192726
189-112-104-045.static.ctbctelecom.com.br 1 10 3106689 20120507032500
bb039068.virtua.com.br 0 2 67869 
177.120.26.123 0 1 34744 
189-19-252-196.dsl.telesp.net.br 0 1 33125 
189.115.24.115.stat.gvt.net.br 2 7 268972 20120529083927
187.59.85.143.static.host.gvt.net.br 1 4 30801 20120508125723
201-35-227-96.fnsce703.dsl.brasiltelecom.net.br 2 6 256825 20120509181749
yi-in-f95.1e100.net 0 1 3023 
bd21b20f.virtua.com.br 1 3 260742 20120518165838
bd1dc96d.virtua.com.br 0 2 297729 
189-79-57-123.dsl.telesp.net.br 0 5 0 
189-30-105-107.fnses700.dsl.brasiltelecom.net.br 1 3 2969332 20120511170721
201-42-143-26.dsl.telesp.net.br 2 11 1161111 20120514132056
189-19-244-50.dsl.telesp.net.br 0 2 67869 
201.87.1.185.user.ajato.com.br 1 3 69584 20120529135237
187-75-207-226.dsl.telesp.net.br 1 7 968078 20120529141219
187-70-71-121.3g.claro.net.br 0 1 34744 
msnbot-207-46-204-209.search.msn.com 2 2 3156 20120517072728
187-11-253-221.dsl.telesp.net.br 0 86 192327 
yn-in-f81.1e100.net 0 1 294706 
hosted-by.leaseweb.com 1 1 1578 20120531005348
177.16.219.152.static.host.gvt.net.br 0 4 119395 
200-168-115-42.dsl.telesp.net.br 2 6 256825 20120524102112
bb034b3c.virtua.com.br 0 2 297729 
reverso.arxo.com.br 0 14 138018 
187.7.5.2 2 6 256825 20120521095638
201-2-254-160.fnsce701.dsl.brasiltelecom.net.br 2 6 256825 20120521175431
mail.cejatel.com.br 2 6 116546 20120522104011
177.99.150.dynamic.adsl.gvt.net.br 0 1 0 
189-11-181-86.fnsce702.dsl.brasiltelecom.net.br 1 4 30801 20120521152838
bb6b5fd5.virtua.com.br 0 2 67869 
18624320184.user.veloxzone.com.br 0 1 0 
187.81.51.213 1 1 1578 20120514055505
201.67.237.243 6 14 208658 20120522080514
201.55.89.226 0 4 67869 
189.115.24.89.stat.gvt.net.br 2 6 256825 20120523100621
urlc4.mail.mud.yahoo.com 2 2 3156 20120521102519
253-176-49-201.iol.net.br 4 17 3374042 20120504061329
clari.clari.com.br 1 5 2969332 20120521052043
200-157-145-222.ded.intelignet.com.br 0 9 0 
mxt.geoposition.com.br 0 2 69488 
200-180-114-118.fnsce303.ipd.brasiltelecom.net.br 1 10 3207683 20120503133750
badcb9a0.virtua.com.br 0 2 0 
189001128130.adm.predialnet.com.br 0 2 67869 
189-11-181-142.fnsce702.dsl.brasiltelecom.net.br 3 10 210796 20120529170131
srvmail.mchecon.com.br 0 1 34744 
187.59.84.238.static.host.gvt.net.br 1 3 18654 20120522123434
st-21-102-42-195.2dayhost.com 2 2 3156 20120501015233
189-109-25-34.customer.tdatabrasil.net.br 2 6 4025774 20120521035431
189-30-121-69.dsl.fnses700.brasiltelecom.net.br 6 23 6468678 20120521090429
static-208-80-194-30.as13448.com 6 6 9468 20120517155803
177.66.133.208 1 3 238171 20120523202115
187-75-207-26.dsl.telesp.net.br 1 3 2969332 20120530083028
bacc980c.virtua.com.br 0 3 205590 
c953f384.virtua.com.br 1 9 3037201 20120502100948
200-180-66-225.fnses700.dsl.brasiltelecom.net.br 3 9 3226157 20120520104422
ip-177-60-212-75.user.vivozap.com.br 3 11 148520 20120521175917
mvx-200-142-111-54.mundivox.com 0 4 135738 
187.58.163.108.static.host.gvt.net.br 1 10 3038204 20120531133235
201-26-50-205.dsl.telesp.net.br 6 15 442962 20120515132441
189-110-27-14.dsl.telesp.net.br 0 1 34744 
189.115.17.19.static.host.gvt.net.br 2 6 256825 20120507070649
65.49.68.168 1 3 2969332 20120507044658
189.115.16.155.static.host.gvt.net.br 2 5 21372 20120516090433
189.115.21.32.static.host.gvt.net.br 2 6 63086 20120527061602
www.brasimpex.com.br 0 6 135738 
189-31-110-106.fnses700.dsl.brasiltelecom.net.br 3 9 3226157 20120511093029
201-34-142-115.fnses700.e.brasiltelecom.net.br 2 6 256825 20120525110330
msnbot-65-52-111-214.search.msn.com 2 2 3156 20120505160041
187-032-104-054.static.ctbctelecom.com.br 0 2 67869 
ip-177-24-29-39.user.vivozap.com.br 0 1 34744 
iad1-wtp-gd-maya10.sdi.trendnet.org 0 1 1003 
189-30-86-1.fnses700.dsl.brasiltelecom.net.br 1 3 18654 20120511184829
189-31-124-127.fnses700.dsl.brasiltelecom.net.br 2 4 20232 20120521201535
187-35-155-74.dsl.telesp.net.br 1 3 2969332 20120507043706
187-7-11-19.fnses700.dsl.brasiltelecom.net.br 1 3 18654 20120530173443
186-231-69-50.ded.intelignet.com.br 7 52 4117851 20120528082004
200-148-150-106.vetnil.com.br 1 30 3037201 20120502104226
189-19-47-185.dsl.telesp.net.br 0 1 14227 
177.132.179.253.dynamic.adsl.gvt.net.br 2 6 256825 20120522200117
189-30-117-250.dsl.ccoce700.brasiltelecom.net.br 0 2 0 
201-92-138-78.dsl.telesp.net.br 0 8 138976 
186-193-232-158.dedicated.cti.com.br 0 1 34744 
201-35-225-49.fnsce701.dsl.brasiltelecom.net.br 3 11 485665 20120521113648
186.213.239.210.static.host.gvt.net.br 3 9 3226157 20120517105514
a5-196-66.infovia.com.ar 0 3 0 
187.55.228.85 1 3 18654 20120520162149
200-206-22-154.customer.tdatabrasil.net.br 0 7 0 
bacc4815.virtua.com.br 0 6 203607 
177.97.235.dynamic.adsl.gvt.net.br 0 3 0 
b151320f.virtua.com.br 2 10 1056836 20120507043458
201-93-104-83.dial-up.telesp.net.br 2 6 256825 20120502083003
177.97.157.dynamic.adsl.gvt.net.br 0 1 0 
187.55.2.140 2 6 256825 20120512163453
www.marsul.com.br 0 16 271476 
177.97.252.dynamic.adsl.gvt.net.br 1 9 3174261 20120517102701
189-110-206-25.dsl.telesp.net.br 1 3 2969332 20120507050938
bb15c661.virtua.com.br 0 2 0 
bacf74e6.virtua.com.br 0 2 67869 
186.214.110.100.static.host.gvt.net.br 0 3 34744 
201.67.210.55 3 15 812080 20120521135949
186.214.64.251.static.host.gvt.net.br 1 1 351 20120524105958
189-108-89-66.customer.tdatabrasil.net.br 0 1 0 
webmail.melhoramentos.com.br 0 2 67869 
186.214.68.243.static.host.gvt.net.br 0 2 101655 
177.19.124.168.static.host.gvt.net.br 2 6 256825 20120524134557
189.44.253.68 0 2 297729 
host-77-186-107-208.midco.net 2 2 3156 20120515110440
201-68-130-201.dsl.telesp.net.br 0 2 297729 
201-13-84-126.dsl.telesp.net.br 2 4 1089206 20120502071153
200.135.6.8 1 3 18654 20120514152002
200-102-14-27.fnses700.dsl.brasiltelecom.net.br 1 3 18654 20120508174916
201-95-210-3.dsl.telesp.net.br 0 1 34744 
189-041-65-128.xd-dynamic.ctbcnetsuper.com.br 0 2 297729 
b1235a78.virtua.com.br 0 2 67869 
187-75-164-186.dsl.telesp.net.br 0 2 69488 
201-79-231-245.user.veloxzone.com.br 0 2 33526 
200-205-108-34.customer.tdatabrasil.net.br 0 2 67869 
201-92-228-48.dsl.telesp.net.br 0 2 67869 
c953e0cd.virtua.com.br 0 8 67869 
b121f4e5.virtua.com.br 0 2 67869 
186.214.67.39.static.host.gvt.net.br 0 1 68530 
187-75-142-114.dsl.telesp.net.br 0 10 170482 
187-101-100-138.dsl.telesp.net.br 2 6 256825 20120525165656
msnbot-207-46-204-168.search.msn.com 2 2 3156 20120511054759
189-20-53-101.customer.tdatabrasil.net.br 0 2 67869 
bb42a57c.virtua.com.br 0 2 0 
ateky34.static.host.gvt.net.br 2 7 273855 20120520101927
189-68-139-159.dsl.telesp.net.br 0 2 67869 
85.195.101.146 1 1 1578 20120530124838
187-5-138-240.fnses700.e.brasiltelecom.net.br 1 3 18654 20120522092700
189.102.41.76 1 5 3267061 20120509101746
bd6568ea.virtua.com.br 0 2 297729 
177.18.199.125.static.host.gvt.net.br 0 1 34744 
mail.doehler.com.br 0 4 67869 
msnbot-207-46-204-213.search.msn.com 2 2 3156 20120505082011
201-67-181-67.fnsce702.dsl.brasiltelecom.net.br 2 8 273901 20120524212204
201-19-95-68.user.veloxzone.com.br 3 11 324694 20120515095327
200-101-252-20.bnut3702.e.brasiltelecom.net.br 0 2 67869 
201.22.255.55.dynamic.adsl.gvt.net.br 0 8 67869 
177.73.251.71 0 2 57654 
c9531870.virtua.com.br 1 3 2969332 20120503133414
ip-187-89-55-160.user.vivozap.com.br 0 2 67869 
201-41-60-212.paemt702.e.brasiltelecom.net.br 0 2 67869 
189-73-111-205.fnses700.dsl.brasiltelecom.net.br 3 6 22950 20120519153412
mlsrj200152100p061.static.mls.com.br 0 6 0 
187-11-184-52.dsl.telesp.net.br 0 2 67869 
189.58.153.227.dynamic.adsl.gvt.net.br 2 17 3106073 20120503110938
200-161-83-40.dsl.telesp.net.br 0 14 203607 
END_VISITOR

# Date - Pages - Hits - Bandwidth - Visits
BEGIN_DAY 31
20120501 15 19 274183 11
20120502 66 302 39114447 27
20120503 24 152 31955129 19
20120504 78 250 37864957 34
20120505 22 65 7782298 11
20120506 9 23 3477063 7
20120507 41 177 53064422 32
20120508 14 160 8025910 11
20120509 35 229 10798131 17
20120510 24 268 20907372 15
20120511 21 256 8391980 14
20120512 11 24 642807 7
20120513 7 15 860173 5
20120514 18 289 13622670 13
20120515 22 205 10406236 12
20120516 24 191 9720750 14
20120517 28 138 17334116 18
20120518 49 147 15474472 21
20120519 8 22 372213 5
20120520 55 158 8060293 28
20120521 143 579 55701969 54
20120522 62 277 27199642 29
20120523 39 228 23107190 20
20120524 28 193 11109421 16
20120525 24 206 13316504 15
20120526 13 38 862349 10
20120527 19 45 1473640 10
20120528 33 240 16731310 13
20120529 53 215 8872136 19
20120530 40 226 35375325 28
20120531 70 411 47941147 34
END_DAY

# Session range - Number of visits
BEGIN_SESSION 7
1h+ 1
5mn-15mn 14
0s-30s 492
2mn-5mn 16
15mn-30mn 6
30s-2mn 30
30mn-1h 10
END_SESSION

# URL - Pages - Bandwidth - Entry - Exit
# The 10 first Pages must be first (order not required for others)
BEGIN_SIDER 6
/ 489 656448 384 205
/eventos/ 341 382445 160 179
/site.html 241 349860 4 164
/webmail/ 18 5616 17 16
/eventos/\r 5 8575 4 4
/clips/01/clips_01.html 1 2871 0 1
END_SIDER
