AWSTATS DATA FILE 6.4 (build 1.814)
# If you remove this file, all statistics for date 2012-08 will be lost/reset.

# Position (offset in bytes) in this file of beginning of each section for
# direct I/O access. If you made changes somewhere in this file, you should
# also remove completely the MAP section (AWStats will rewrite it at next
# update).
BEGIN_MAP 27
POS_GENERAL 1865                
POS_TIME 2545                
POS_VISITOR 12987               
POS_DAY 49652               
POS_DOMAIN 3381                
POS_LOGIN 3766                
POS_ROBOT 3921                
POS_WORMS 4388                
POS_EMAILSENDER 4519                
POS_EMAILRECEIVER 4662                
POS_SESSION 50538               
POS_SIDER 50737               
POS_FILETYPES 4797                
POS_OS 4927                
POS_BROWSER 5043                
POS_SCREENSIZE 5430                
POS_UNKNOWNREFERER 5504                
POS_UNKNOWNREFERERBROWSER 6502                
POS_ORIGIN 6640                
POS_SEREFERRALS 6785                
POS_PAGEREFS 6961                
POS_SEARCHWORDS 11563               
POS_KEYWORDS 11994               
POS_MISC 2208                
POS_ERRORS 12319               
POS_CLUSTER 3622                
POS_SIDER_404 12442               
END_MAP

# LastLine    = Date of last record processed - Last record line number in last log - Last record offset in last log - Last record signature value
# FirstTime   = Date of first visit for history file
# LastTime    = Date of last visit for history file
# LastUpdate  = Date of last update - Nb of parsed records - Nb of parsed old records - Nb of parsed new records - Nb of parsed corrupted - Nb of parsed dropped
# TotalVisits = Number of visits
# TotalUnique = Number of unique visitors
# MonthHostsKnown   = Number of hosts known
# MonthHostsUnKnown = Number of hosts unknown
BEGIN_GENERAL 8
LastLine 20120901043257 37060 9083287 30262568162
FirstTime 20120801040045
LastTime 20120831233448
LastUpdate 20120902042329 1 0 0 0 0
TotalVisits 376                 
TotalUnique 306                 
MonthHostsKnown 666                 
MonthHostsUnknown 112                 
END_GENERAL

# Misc ID - Pages - Hits - Bandwidth
BEGIN_MISC 10
QuickTimeSupport 0 0 0
JavaEnabled 0 0 0
JavascriptDisabled 0 0 0
PDFSupport 0 0 0
WindowsMediaPlayerSupport 0 0 0
AddToFavourites 0 53 0
RealPlayerSupport 0 0 0
TotalMisc 0 0 0
DirectorSupport 0 0 0
FlashSupport 0 0 0
END_MISC

# Hour - Pages - Hits - Bandwidth - Not viewed Pages - Not viewed Hits - Not viewed Bandwidth
BEGIN_TIME 24
0 3 7 317961 4 6 284387
1 6 6 9468 12 14 660463
2 15 33 4600414 8 8 1578
3 18 79 12638404 12 14 241785
4 26 250 24084623 45 60 467731
5 22 294 35337051 25 30 212507
6 35 345 22126295 7 13 945015
7 34 374 31799432 10 18 1175536
8 19 189 13282922 8 11 134364
9 56 312 23345509 12 24 463461
10 28 405 14973727 15 23 523842
11 62 508 48638924 13 23 651566
12 84 449 69387431 13 35 1015119
13 46 446 57602946 11 25 770269
14 31 244 16653918 9 16 4091290
15 28 113 10948443 6 12 279542
16 38 116 15361256 7 22 4299946
17 16 76 2618816 8 11 258757
18 48 161 24179322 16 23 456625
19 21 82 17190113 13 31 1025716
20 6 22 4407173 12 17 1041950
21 6 22 995336 3 5 812426
22 5 5 6312 15 19 1101191
23 6 6 4734 7 8 23955
END_TIME

# Domain - Pages - Hits - Bandwidth
# The 10 first Pages must be first (order not required for others)
BEGIN_DOMAIN 11
br 452 3714 348615643
ip 102 679 89673728
com 88 97 402185
net 5 12 506203
nl 4 4 6312
sjdc 3 7 7395727
org 2 4 5299
iad1 1 4 3698009
tw 1 1 1578
no 1 1 1578
pt 0 21 204268
END_DOMAIN

# Cluster ID - Pages - Hits - Bandwidth
BEGIN_CLUSTER 0
END_CLUSTER

# Login - Pages - Hits - Bandwidth - Last visit
# The 10 first Pages must be first (order not required for others)
BEGIN_LOGIN 0
END_LOGIN

# Robot ID - Hits - Bandwidth - Last visit - Hits on robots.txt
# The 10 first Hits must be first (order not required for others)
BEGIN_ROBOT 10
googlebot 89 8290232 20120831225917 0
msnbot 31 59487 20120831050749 0
yandex 6 9468 20120828125555 0
robot 5 1578 20120829013955 0
turnitinbot 4 6312 20120811224018 0
python 2 67869 20120810135326 0
surveybot 2 3156 20120821073629 0
ia_archiver 1 1578 20120822201256 0
larbin 1 1578 20120802121252 0
netcraft 1 1578 20120806102752 0
END_ROBOT

# Worm ID - Hits - Bandwidth - Last visit
# The 5 first Hits must be first (order not required for others)
BEGIN_WORMS 0
END_WORMS

# EMail - Hits - Bandwidth - Last visit
# The 20 first Hits must be first (order not required for others)
BEGIN_EMAILSENDER 0
END_EMAILSENDER

# EMail - Hits - Bandwidth - Last visit
# The 20 first hits must be first (order not required for others)
BEGIN_EMAILRECEIVER 0
END_EMAILRECEIVER

# Files type - Hits - Bandwidth - Bandwidth without compression - Bandwidth after compression
BEGIN_FILETYPES 4
html 659 900212 0 0
jpg 3289 63230688 0 0
js 278 278835 0 0
swf 318 386100795 0 0
END_FILETYPES

# OS ID - Hits
BEGIN_OS 7
macosx 241
winxp 1215
winlong 213
win2003 8
winnt 2643
Unknown 106
linux 118
END_OS

# Browser ID - Hits
BEGIN_BROWSER 25
msie6.0 41
firefox3.6 3
firefox13.0 3
libwww 1
opera 4
firefox10.0.1 6
firefox8.0 2
firefox10.0.6 2
firefox12.0 23
lotus\-notes 6
msie8.0 256
firefox13.0.1 22
mozilla 259
netscape5.0 1
msie7.0 2323
firefox14.0.1 235
firefox5.0.1 1
msie10.0 2
firefox3.6.18 1
firefox3.6.3 6
firefox9.0.1 2
msie9.0 294
Unknown 47
safari 999
firefox11.0 5
END_BROWSER

# Screen size - Hits
BEGIN_SCREENSIZE 0
END_SCREENSIZE

# Unknown referer OS - Last visit date
BEGIN_UNKNOWNREFERER 13
NokiaX2-01/5.0_(08.63)_Profile/MIDP-2.1_Configuration/CLDC-1.1_Mozilla/5.0_AppleWebKit/420__(KHTML,_like_Gecko)_Safari/420_ 20120823182851
Mozilla/5.0_(compatible;_aiHitBot/1.1;__http://www.aihit.com/) 20120817232824
libwww-perl/5.79 20120820121506
Mozilla/5.0_(compatible;_MJ12bot/v1.4.3;_http://www.majestic12.co.uk/bot.php?_) 20120830190140
EventMachine_HttpClient 20120808114004
- 20120828073355
Mozilla/5.0 20120822215649
Mozilla/5.0_(compatible;_Ezooms/1.0;_ezooms.bot@gmail.com) 20120828210010
Mozilla/5.0_(compatible;_bingbot/2.0;__http://www.bing.com/bingbot.htm) 20120831233446
Opera/9.80_(Android;_Opera_Mini/7.0.29952/28.2282;_U;_pt)_Presto/2.8.119_Version/11.10 20120818111345
Mozilla/4.0_(compatible;) 20120827130048
NokiaC3-00/5.0_(08.70)_Profile/MIDP-2.1_Configuration/CLDC-1.1_Mozilla/5.0_AppleWebKit/420__(KHTML,_like_Gecko)_Safari/420_ 20120828163027
Mozilla/3.0_(compatible) 20120831054135
END_UNKNOWNREFERER

# Unknown referer Browser - Last visit date
BEGIN_UNKNOWNREFERERBROWSER 2
- 20120828073355
EventMachine_HttpClient 20120808114004
END_UNKNOWNREFERERBROWSER

# Origin - Pages - Hits 
BEGIN_ORIGIN 6
From0 418 2998
From1 0 0
From2 46 47
From3 37 326
From4 158 1173
From5 0 0
END_ORIGIN

# Search engine referers ID - Pages - Hits
BEGIN_SEREFERRALS 3
google 40 41
search 5 5
ask 1 1
END_SEREFERRALS

# External page referers - Pages - Hits
# The 10 first Pages must be first (order not required for others)
BEGIN_PAGEREFS 76
http://www.ferpak.com.br 6 6
http://www.ferpak.com.br/site.swf 4 4
http://bl156w.blu156.mail.live.com/default.aspx 3 5
http://br.bing.com/search 3 3
http://www.griffestands.com.br 2 2
http://71.6.217.131/mail/view.html 2 8
http://by167w.bay167.mail.live.com/default.aspx 2 6
http://griffestands.com.br 1 1
http://www.griffestands.com.br/index.php 1 1
http://webmail.cimitarra.com.br/webmail.php 1 1
http://gscomunicacao.blogspot.com/2012/06/habibs-ragazzo-loja-box-30-abf-2012.html 0 1
http://webmail.bluepm.com.br/105.0trr/reademail.php 0 1
http://gscomunicacao.blogspot.com.br 0 6
http://gscomunicacao.blogspot.com.br/2012/06/habibs-ragazzo-loja-box-30-abf-2012.html 0 74
http://gscomunicacao.blogspot.com.br/2011_10_01_archive.html 0 2
http://bl159w.blu159.mail.live.com/mail/InboxLight.aspx 0 2
http://gscomunicacao.blogspot.com.br/2012/07/grupo-ldm-de-cara-nova-na-hospitalar.html 0 2
http://mail.uol.com.br/main/message 0 12
http://gscomunicacao.blogspot.com.br/2012/04/nanno-faz-sucesso-na-hair-brasil-2012.html 0 2
http://sn135w.snt135.mail.live.com/default.aspx 0 1
http://www.easyfor.com.br/site.html 1 1
http://sn131w.snt131.mail.live.com/mail/InboxLight.aspx 1 3
http://gscomunicacao.blogspot.com.br/2009/06/anuncio-de-revista-para-helsten.html 0 2
http://gscomunicacao.blogspot.com.br/2011/02/santiago-e-cintra-na-mundo-geo-connect.html 0 14
http://pop.modamercatto.com.br/zimbra/public/blank.html 0 2
http://webmail.cazo.com.br 0 2
http://webmail.maqbelting.com.br/webmail.php 1 3
http://bl170w.blu170.mail.live.com/mail/InboxLight.aspx 0 1
http://sn145w.snt145.mail.live.com/default.aspx 0 2
http://bl153w.blu153.mail.live.com/mail/InboxLight.aspx 0 7
http://www.newmind.com.br/portifolio6.swf 1 1
http://gscomunicacao.blogspot.com.br/2009/05/vestibular-de-moda-fefisa.html 0 2
http://www.jdroyale.com.br:2095/3rdparty/roundcube/ 0 2
http://gscomunicacao.blogspot.com.br/2009_10_01_archive.html 0 4
http://www.ferpak.com.br/intro.swf 1 1
http://gscomunicacao.blogspot.com/2011/07/bimbo-faz-sucesso-no-evento-fispal-food.html 0 2
http://webmail.g-maia.com.br 0 2
http://gscomunicacao.blogspot.com.br/2010/10/gs-no-mega-evento-da-nutricao.html 0 2
http://by156w.bay156.mail.live.com/default.aspx 1 3
http://webmail.activeware.com.br 0 2
http://mail.grupoldm.com.br/WorldClient.dll 0 1
http://bl164w.blu164.mail.live.com/mail/InboxLight.aspx 1 5
http://gscomunicacao.blogspot.com.br/2011/07/bimbo-faz-sucesso-no-evento-fispal-food.html 0 4
http://www.atsblindados.com.br/site.swf 1 1
http://gscomunicacao.blogspot.com.br/2012/02/nanno-na-hair-brasil-2012.html 0 8
http://gscomunicacao.blogspot.com.br/2012/04/grupo-bimbo-do-brasil-inaugura-em.html 0 4
http://gscomunicacao.blogspot.com.br/2011/10/ad-pix-foi-sucesso-na-maximidia-2011.html 0 2
http://br.mc1404.mail.yahoo.com/mc/welcome 0 4
http://gscomunicacao.blogspot.com.br/2009/08/anuncio-eb-blindados.html 0 2
http://71.6.217.131/mail/writemail.html 0 1
http://webmail.sacontadores.com.br/imp/message.php 1 1
http://bl159w.blu159.mail.live.com/m/messages.m/ 0 2
http://mail.terra.com.br/105.0trr/reademail.php 0 5
http://webmail.morana.com.br 0 2
http://gscomunicacao.blogspot.com.br/2012/07/box-30-habibs-ragazzo-sucesso-em-campos.html 0 20
http://dtc-enk-winvp01.corporativehost.net:9998/Main/frmMessage.aspx 0 2
http://www.radarbit.com 1 1
http://bl159w.blu159.mail.live.com/default.aspx 0 2
http://webmail.fashionroom.com.br 0 2
http://webmail.linkjoias.com.br/webmail.php 0 2
http://sn136w.snt136.mail.live.com/mail/InboxLight.aspx 0 2
http://webmail.totalityeventos.com.br/105.0trr/reademail.php 0 1
http://gscomunicacao.blogspot.com.br/2011/02/imagens-stand-trident-2011.html 0 4
http://by152w.bay152.mail.live.com/mail/InboxLight.aspx 0 2
http://mail.checarvistorias.com.br/webmail.php 1 3
http://sn134w.snt134.mail.live.com/default.aspx 0 2
http://sn133w.snt133.mail.live.com/mail/InboxLight.aspx 0 6
http://www.plusnetwork.com 1 1
http://gscomunicacao.blogspot.com.br/2010/04/rotary-club.html 0 2
http://by153w.bay153.mail.live.com/mail/InboxLight.aspx 0 2
http://gscomunicacao.blogspot.com.br/2010/06/o-grupo-bimbo-do-brasil-e-sucesso-na.html 0 16
http://mail.abcol.com.br/msg 0 2
http://by168w.bay168.mail.live.com/default.aspx 0 4
http://gscomunicacao.blogspot.com.br/2012_02_01_archive.html 0 2
http://36ohk6dgmcd1n-c.c.yom.mail.yahoo.net/om/api/1.0/openmail.app.invoke/36ohk6dgmcd1n/11/1.0.35/br/pt-BR/controller.html/0 0 4
http://mail.prosoft.com.br/WorldClient.dll 0 4
END_PAGEREFS

# Search keyphrases - Number of search
# The 10 first number of search must be first (order not required for others)
BEGIN_SEARCHWORDS 11
gs+comunica%c3%a7%c3%a3o 19
gs+comunica%c3%a7%c3%b5es 4
http+//www.gscomunicacao.com.br/ 3
http+//gscomunicacao.com.br/ 2
gs+comunicacoes 2
gs+comunica%c3%a7oes+site 1
web 1
gs+comunicacao 1
www.gscomunicacao.comb.r 1
www.gscomunica%c3%a7%c3%b5es.com.br 1
gs+comunica%c3%a7ao 1
END_SEARCHWORDS

# Search keywords - Number of search
# The 10 first number of search must be first (order not required for others)
BEGIN_KEYWORDS 14
gs 28
comunica%c3%a7%c3%a3o 19
http 5
comunica%c3%a7%c3%b5es 4
//www.gscomunicacao.com.br/ 3
//gscomunicacao.com.br/ 2
comunicacoes 2
comunicacao 1
web 1
comunica%c3%a7oes 1
comunica%c3%a7ao 1
www.gscomunicacao.comb.r 1
site 1
www.gscomunica%c3%a7%c3%b5es.com.br 1
END_KEYWORDS

# Errors - Hits - Bandwidth
BEGIN_ERRORS 4
403 1 0
206 120 12481781
404 164 0
301 41 14404
END_ERRORS

# URL with 404 errors - Hits - Last URL referer
BEGIN_SIDER_404 6
/clips/05/Scripts/AC_ActiveX.js 1 http://www.gscomunicacao.com.br/clips/05/clips_05.html
/robots.txt 159 -
/crossdomain.xml 1 http://www.gscomunicacao.com.br/
/mail 1 -
/eventos/emailjpg 1 http://71.6.217.131/mail/view.html
/eentos 1 -
END_SIDER_404

# Host - Pages - Hits - Bandwidth - Last visit date - [Start date of last visit] - [Last page of last visit]
# [Start date of last visit] and [Last page of last visit] are saved only if session is not finished
# The 10 first Hits must be first (order not required for others)
BEGIN_VISITOR 778
www.easymailing.com.br 41 41 0 20120810131818
msnbot-207-46-13-203.search.msn.com 15 15 0 20120818065633
200.237.249.180 12 33 1467044 20120830062641
wiremorro2.engeplus.com.br 11 36 4928965 20120828183559
186.214.68.195.static.host.gvt.net.br 9 31 1580276 20120828073300
server8.mkm.net.br 8 22 0 20120831065528
189.9.20.48 7 21 789129 20120820121317
msnbot-207-46-192-48.search.msn.com 7 7 0 20120828120306
189.115.16.126.static.host.gvt.net.br 6 16 3953831 20120818052647
187.55.15.97 6 21 4418259 20120811161720
189-30-75-100.fnses700.dsl.brasiltelecom.net.br 2 6 144738 20120804152301
189.115.197.166.static.host.gvt.net.br 0 2 67869 
bb252a7c.virtua.com.br 0 4 135738 
187-51-156-228.customer.tdatabrasil.net.br 0 9 170482 
201-42-58-155.dsl.telesp.net.br 1 3 3697006 20120810140405
187-124-233-234.user3g.veloxzone.com.br 1 1 351 20120820142236
201-23-160-72.gprs.claro.net.br 0 2 0 
201-23-188-73.gprs.claro.net.br 0 1 0 
ip-187-88-88-19.user.vivozap.com.br 0 2 67869 
200-19-48-34.static.bovespa.com.br 0 4 135738 
host152.2037776.gcn.net.tw 1 1 1578 20120808094548
46-166-150-200-static.megatelecom.com.br 0 2 0 
189.115.46.249.static.gvt.net.br 2 12 3698584 20120821121849
bb030d78.virtua.com.br 3 9 256825 20120824141043
201-54-229-253-dns-bre.linktel.net.br 0 2 0 
c953e147.virtua.com.br 3 15 1767560 20120810093152
201.76.6.64 2 6 162828 20120813190649
189-19-29-31.dsl.telesp.net.br 0 2 67869 
c915de1d.virtua.com.br 0 2 67869 
200-204-161-53.dsl.telesp.net.br 1 4 30801 20120813144311
201-58-45-93.user.veloxzone.com.br 0 3 0 
187.121.89.36 0 2 297729 
laborh90.static.host.gvt.net.br 0 2 67869 
187-34-253-206.dsl.telesp.net.br 1 5 3764875 20120801134549
201-23-160-170.gprs.claro.net.br 0 1 0 
gwsc.cisc.usp.br 0 2 67869 
10-137-10-177.static.bluephone.com.br 0 2 67869 
201-23-177-71.gprs.claro.net.br 1 7 3697006 20120812191122
186-241-42-227.user.veloxzone.com.br 0 1 0 
187.59.64.209.static.host.gvt.net.br 0 2 67869 
189.115.24.193.stat.gvt.net.br 3 9 275479 20120825183139
187-35-142-213.dsl.telesp.net.br 0 2 67869 
187-10-144-208.dsl.telesp.net.br 0 2 67869 
140.clientes.200.201.148.rjo.ifx.net.br 1 5 87567 20120806103255
177-103-174-154.dsl.telesp.net.br 0 14 295386 
10.33.67.189.isp.timbrasil.com.br 0 2 67869 
c934650f.virtua.com.br 0 4 67869 
c.ns.zzm.com.br 2 12 631799 20120824092420
189-19-252-52.dsl.telesp.net.br 0 1 33125 
msnbot-157-55-112-208.search.msn.com 2 2 3156 20120807074554
c94b9020.virtua.com.br 0 2 67869 
201-23-188-69.gprs.claro.net.br 0 1 0 
177.97.155.dynamic.adsl.gvt.net.br 1 1 0 20120808111345
bb691be7.virtua.com.br 0 2 67869 
201-26-32-85.dsl.telesp.net.br 1 5 3764875 20120815090812
186.213.250.179.static.host.gvt.net.br 1 3 3697006 20120814133413
189.23.216.184 0 2 67869 
bd37c180.static.virtua.com.br 0 1 34744 
200.19.200.7 4 12 480523 20120817095124
c9511a2a.virtua.com.br 0 24 67869 
177.97.236.dynamic.adsl.gvt.net.br 0 2 51027 
186.225.19.222 0 1 34744 
bb25e9e2.virtua.com.br 0 4 135738 
b18ca315.virtua.com.br 0 2 67869 
200-204-156-100.dsl.telesp.net.br 0 2 0 
201-23-160-151.gprs.claro.net.br 0 2 0 
201-35-226-131.fnses700.dsl.brasiltelecom.net.br 2 6 256825 20120811182207
msnbot-157-56-93-220.search.msn.com 2 2 3156 20120817030858
bb0230bc.virtua.com.br 1 1 1578 20120831054135
177.18.143.148.static.host.gvt.net.br 0 4 135738 
187.115.170.219.static.host.gvt.net.br 0 6 50354 
187-75-229-149.dsl.telesp.net.br 1 3 3697006 20120813043827
b18d85bb.virtua.com.br 0 58 135738 
189-56-16-85.customer.tdatabrasil.net.br 0 6 60608 
177.132.97.188.dynamic.adsl.gvt.net.br 0 2 25174 
177.42.239.95.static.host.gvt.net.br 0 2 67869 
177-9-41-53.dsl.telesp.net.br 0 2 297729 
200.247.161.131 0 2 0 
187-121-81-225.corp.ajato.com.br 1 9 273191 20120813142106
bace75e4.virtua.com.br 2 16 3173426 20120807072721
bb030c71.virtua.com.br 0 2 297729 
177.96.35.19.dynamic.adsl.gvt.net.br 2 6 256825 20120811140317
msnbot-207-46-199-204.search.msn.com 1 1 0 20120813125340
bd36c2f5.virtua.com.br 1 7 3832744 20120802133554
msnbot-207-46-199-28.search.msn.com 1 1 1578 20120829115510
187-52-156118.fnsce704.e.brasiltelecom.net.br 2 6 86318 20120801115921
187-126-145-220.user.veloxzone.com.br 0 16 135738 
177-102-2-40.dsl.telesp.net.br 0 1 68530 
177.41.151.207.static.host.gvt.net.br 3 7 3764875 20120817034811
187.55.227.103 1 3 18654 20120826102406
186.214.29.189.dynamic.adsl.gvt.net.br 5 15 4012561 20120828074938
wtp-gs-maya8.sjdc 1 3 3697006 20120802192715
mx2.grupposrs.com.br 0 2 67869 
ks206121.kimsufi.com 1 1 1578 20120830190140
189.115.17.193.static.host.gvt.net.br 2 6 215546 20120806180907
65.54.55.152 0 2 67869 
187-53-131-210.gnace704.dsl.brasiltelecom.net.br 0 4 135738 
201.85.19.2 0 1 34744 
189.115.17.96.static.host.gvt.net.br 2 8 273901 20120827150100
189-104-37-67.user.veloxzone.com.br 1 5 3764875 20120822184349
c8ecd15b.dynamic.shd.tesa.net.br 0 1 34744 
c934c6ea.virtua.com.br 0 2 67869 
177.0.227.32 1 3 18654 20120817073714
177.4.108.129 0 2 34744 
host1.agabe.com.br 0 2 67869 
189-11-180-201.fnses700.dsl.brasiltelecom.net.br 2 5 21372 20120816075247
177.134.0.52.dynamic.adsl.gvt.net.br 0 2 297729 
bb2593c5.virtua.com.br 0 33 138976 
187.53.239.117 0 6 203607 
177.19.40.160.static.host.gvt.net.br 0 2 297729 
187-50-173-194.customer.tdatabrasil.net.br 0 2 67869 
177.17.50.160.static.host.gvt.net.br 0 2 67869 
177.110.3.178 1 5 3729572 20120815193921
ip-187-118-4-202.user.vivozap.com.br 0 2 297729 
186.213.85.104.static.host.gvt.net.br 0 2 67869 
187-27-26-128.3g.claro.net.br 0 2 67869 
187-35-91-193.dsl.telesp.net.br 0 4 115200 
bb255b30.virtua.com.br 2 7 3750404 20120823081742
187-34-42-42.dsl.telesp.net.br 0 2 297729 
201-35-253-202.fnses700.dsl.brasiltelecom.net.br 1 3 18654 20120811144131
201.55.89.210 0 2 58816 
201-27-11-183.dsl.telesp.net.br 0 2 67869 
200.97.222.53 4 37 4239779 20120815121954
c953103f.virtua.com.br 0 2 67869 
200.178.216.149 0 2 67869 
177.30.147.34 0 1 0 
b18cc7a1.virtua.com.br 0 2 67869 
177.22.121.34 0 9 103274 
201-23-177-146.gprs.claro.net.br 0 1 0 
187-78-49-178.user.veloxzone.com.br 1 5 3764875 20120809114646
187.58.70.223.static.host.gvt.net.br 0 2 297729 
189-107-231-204.user.veloxzone.com.br 0 2 69488 
s26-11.opera-mini.net 0 1 294706 
200-168-206-154.banespa.com.br 0 4 135738 
www2.easymailing.com.br 5 5 8438 20120828073355
201.90.183.118 0 6 135738 
lx4.letti.com.br 4 6 70054 20120810125543
smtp.ahkbrasil.com.br 0 17 100994 
mail.gpb.ind.br 0 4 128520 
server.tdv.com.br 0 2 67869 
msnbot-157-56-93-229.search.msn.com 4 4 6312 20120828120307
187.59.85.94.static.host.gvt.net.br 2 6 256825 20120803134622
c.aihit.com 2 2 3156 20120817232824
186.213.37.81.static.host.gvt.net.br 1 3 18654 20120827140410
186.214.30.217.dynamic.adsl.gvt.net.br 2 7 325355 20120815111620
brma.centroprojekt-brasil.com.br 1 3 691570 20120820095409
200-215-42-234.fnsce702.dsl.brasiltelecom.net.br 2 6 124660 20120812195613
ip-189-96-101-64.user.vivozap.com.br 2 7 492278 20120828162949
b18dabb5.virtua.com.br 0 2 297729 
177.17.249.23.dynamic.adsl.gvt.net.br 0 2 297729 
201.49.78.14 1 12 3764875 20120814044820
177.98.163.dynamic.adsl.gvt.net.br 0 2 67869 
187.55.229.18 2 7 268692 20120822195550
177-103-202-82.dsl.telesp.net.br 0 1 34744 
mail.dualgusmoes.com.br 0 4 135738 
bb429250.virtua.com.br 0 2 67869 
177.97.225.dynamic.adsl.gvt.net.br 4 15 581519 20120820094342
189-74-77-4.ctaje701.dsl.brasiltelecom.net.br 0 16 0 
201-68-113-151.dsl.telesp.net.br 0 2 67869 
b18d5e2e.virtua.com.br 0 2 67869 
bb03d344.virtua.com.br 0 2 34744 
ip-189-0-161-91.user.vivozap.com.br 0 2 67869 
187.115.125.69.static.gvt.net.br 0 4 101683 
bd37c943.virtua.com.br 0 1 34744 
yeling110.cta.gvt.net.br 1 3 1714902 20120810122958
177.43.90.96.static.gvt.net.br 0 2 297729 
193.182.46.187.isp.timbrasil.com.br 0 2 67869 
bd22b320.virtua.com.br 1 6 3765878 20120801201602
189-72-113-21.fnses700.dsl.brasiltelecom.net.br 2 6 67122 20120819090906
c9346061.virtua.com.br 1 3 3697006 20120813053017
a.ns.zm.com.br 0 2 0 
187.49.37.66 0 3 0 
c9532011.virtua.com.br 0 4 67869 
b18d6669.virtua.com.br 0 2 43054 
189-68-227-22.dsl.telesp.net.br 2 6 256825 20120808131443
177-139-234-227.dsl.telesp.net.br 0 2 67869 
187.55.15.38 2 7 492278 20120804184239
200-180-5-95.fnsce703.dsl.brasiltelecom.net.br 4 9 298802 20120817143838
201-23-160-171.gprs.claro.net.br 0 1 0 
187.72.224.189 0 1 0 
189.52.189.2 0 1 33125 
bd794e99.virtua.com.br 0 2 67869 
187.54.177.15 1 3 3697006 20120813120922
177-162-210-145.user.vivozap.com.br 0 2 67869 
bb2549c6.virtua.com.br 0 1 34744 
201-0-100-82.dsl.telesp.net.br 0 2 0 
dhcp-089-099-005-017.chello.nl 1 1 1578 20120818113720
mail.csm.ind.br 0 2 67869 
187-75-210-193.dsl.telesp.net.br 0 4 135738 
bzq-114-71-13.static.bezeqint.net 1 1 1578 20120818190900
201-23-177-70.gprs.claro.net.br 0 20 0 
187-78-68-130.user.veloxzone.com.br 1 2 2718 20120809115208
200-138-214-41.fnsce702.dsl.brasiltelecom.net.br 0 2 67869 
201-43-177-234.dsl.telesp.net.br 0 2 67869 
200-236-229-171.desktop.com.br 0 6 126720 
bd7909ab.virtua.com.br 0 2 297729 
201-19-112-28.user.veloxzone.com.br 1 6 3765878 20120829133113
static-208-80-194-140.as13448.com 1 1 1578 20120807010850
200-171-103-124.netwalk.com.br 0 2 67869 
b1213899.virtua.com.br 0 2 0 
beckhauser-malhas42.static.host.gvt.net.br 2 6 256825 20120807131903
189.43.69.150 0 2 297729 
c9344499.virtua.com.br 2 11 3833747 20120802191415
200.247.104.130 0 2 67869 
200-181-50-226.gnace301.ipd.brasiltelecom.net.br 0 4 135738 
200-138-204-123.fnsce702.dsl.brasiltelecom.net.br 2 6 18654 20120802113756
177.43.213.95.static.gvt.net.br 0 2 67869 
pg-cin-px7.pg.com 0 3 0 
200-161-99-68.dsl.telesp.net.br 0 2 69488 
177.156.98.197 0 2 0 
200.187.122.67 0 1 33125 
iad1-wtp-gd-maya3.sdi.trendnet.org 2 3 4296 20120825114751
189.115.19.153.static.host.gvt.net.br 2 7 268972 20120830125415
201-27-179-149.dsl.telesp.net.br 1 3 23922 20120810183620
201-14-169-176.fnses700.dsl.brasiltelecom.net.br 1 3 18654 20120821061347
bd644321.virtua.com.br 0 2 297729 
bb030a32.virtua.com.br 0 1 34744 
bd21f547.virtua.com.br 2 8 7461881 20120810123709
mail.habasit.com.br 0 422 138976 
b18d990a.virtua.com.br 0 2 297729 
b150aa14.virtua.com.br 0 2 297729 
201.76.6.84 2 6 256825 20120801201155
187.121.91.63 0 2 297729 
c9514590.virtua.com.br 0 2 67869 
189-74-99-71.ctame700.dsl.brasiltelecom.net.br 0 14 67869 
201.39.224.98 0 4 93187 
200.222.72.76 0 2 67869 
177-139-248-191.dsl.telesp.net.br 0 6 208464 
aragorn.locktec.com.br 1 2 2718 20120820103704
12.72.66.189.isp.timbrasil.com.br 0 2 67869 
177.49.191.162 0 4 100675 
177.133.160.195.dynamic.adsl.gvt.net.br 1 3 3697006 20120801124824
msnbot-207-46-199-31.search.msn.com 3 3 4734 20120817033340
189-110-242-168.dsl.telesp.net.br 1 5 3764875 20120831122432
bd6637c2.virtua.com.br 0 11 69488 
bd6463b4.virtua.com.br 0 2 0 
201.49.78.2 0 2 67869 
187-27-197-142.3g.claro.net.br 0 2 297729 
187.12.201.114 1 5 3764875 20120806124324
177.132.154.88.dynamic.adsl.gvt.net.br 2 6 256825 20120828140621
189-106-137-124.user.veloxzone.com.br 0 2 0 
200-148-64-27.dsl.telesp.net.br 0 2 67869 
177.3.164.191 2 6 256825 20120804112942
177-112-201-103.user.vivozap.com.br 0 2 67869 
189-30-70-103.fnsce701.dsl.brasiltelecom.net.br 1 3 18654 20120801100201
147.96.64.189.isp.timbrasil.com.br 2 4 20024 20120814045407
200-158-210-134.dsl.telesp.net.br 0 16 67869 
187-50-174-234.customer.tdatabrasil.net.br 0 4 135738 
mail.censi.com.br 0 2 67869 
187-032-091-033.static.ctbctelecom.com.br 3 48 876383 20120823032318
177-106-103-109.xd-dynamic.ctbcnetsuper.com.br 0 2 67869 
mail.wam.com.br 0 1 33125 
msnbot-157-55-112-199.search.msn.com 4 4 6312 20120820084153
correio.sswhite.com.br 0 4 135738 
201-50-153-225.user.veloxzone.com.br 0 2 67869 
177.2.17.59 1 7 3832744 20120804091042
177.18.216.105.static.host.gvt.net.br 0 1 68530 
187.1.16.66 0 2 67869 
bd22c5f5.virtua.com.br 0 2 67869 
189.115.18.157.static.host.gvt.net.br 2 6 256825 20120817094040
bb033b36.virtua.com.br 0 4 34744 
201-67-168-50.fnses700.dsl.brasiltelecom.net.br 2 6 256825 20120821181337
201-0-101-32.dsl.telesp.net.br 0 2 297729 
c9065779.virtua.com.br 0 2 67869 
200-138-215-134.fnsce7003.e.brasiltelecom.net.br 2 6 256825 20120830125049
77.242.201.55 2 9 357819 20120802071803
as28168-187-63-228-197.minasmaistelecom.com.br 0 1 34744 
proshowcomercioeletronicos50.static.gvt.net.br 2 6 256825 20120831101916
189.115.18.59.static.host.gvt.net.br 2 6 256825 20120823141230
187-101-77-63.dsl.telesp.net.br 1 2 35095 20120824131215
187-4-219-111.fnses700.dsl.brasiltelecom.net.br 2 7 125073 20120811134801
ip-187-117-3-194.user.vivozap.com.br 1 3 18654 20120801045825
189.76.75.6 0 2 47511 
81.176.230.39 2 4 20232 20120815040158
187.87.149.50 0 6 67869 
189-31-92-151.fnses700.dsl.brasiltelecom.net.br 3 7 256825 20120811140928
bb254454.virtua.com.br 0 1 0 
189-31-125-93.fnses700.dsl.brasiltelecom.net.br 3 9 366564 20120814093137
201-23-177-162.gprs.claro.net.br 0 1 0 
bd3e2370.virtua.com.br 2 35 443312 20120803095343
187-6-124-164.cpece700.e.brasiltelecom.net.br 1 3 3697006 20120821073319
177.107.64.36 0 2 18708 
186.214.81.69.static.host.gvt.net.br 2 5 21372 20120830064325
187.55.60.55 2 6 256825 20120818161450
baded4a4.virtua.com.br 0 2 297729 
201.47.228.42.static.host.gvt.net.br 0 2 67869 
bd371cd8.virtua.com.br 1 3 3697006 20120828181936
177-144-131-23.user.vivozap.com.br 0 2 67869 
201.81.133.14 0 1 34744 
bb6912b9.virtua.com.br 1 3 3697006 20120813052618
186-231-77-154.ded.intelignet.com.br 1 23 3900613 20120801143437
200-193-14-133.fnsce703.dsl.brasiltelecom.net.br 2 4 20369 20120818132038
200-185-230-132.user.ajato.com.br 0 2 67869 
bd1d809b.virtua.com.br 0 17 273756 
201-25-201-61.fnsce702.dsl.brasiltelecom.net.br 1 4 30801 20120818125337
187.55.226.6 2 6 256825 20120817041359
201-27-0-245.dsl.telesp.net.br 0 2 34744 
mail.itagres.com.br 2 6 256825 20120823085355
bb42375f.virtua.com.br 0 2 67869 
smtp.azaleia.com.br 1 6 3798000 20120830134744
46.165.197.142 1 1 1578 20120813010320
200-161-97-252.dsl.telesp.net.br 0 155 836010 
badc6532.virtua.com.br 0 2 67869 
201-14-169-198.fnsce701.dsl.brasiltelecom.net.br 2 7 257828 20120814084332
189-107-198-14.user.veloxzone.com.br 0 13 238351 
187.113.43.42.static.host.gvt.net.br 0 2 67869 
bb1759f5.virtua.com.br 0 2 297729 
186.214.82.35.static.host.gvt.net.br 0 1 68530 
c8ecd1ab.dynamic.shd.tesa.net.br 4 7 24665 20120829062730
200.178.83.13 1 3 3697006 20120823043213
177.99.141.dynamic.adsl.gvt.net.br 2 8 7461881 20120827135533
b12071b0.virtua.com.br 0 26 67869 
ip-189-97-215-33.user.vivozap.com.br 0 2 297729 
201-23-177-194.gprs.claro.net.br 0 4 0 
189-106-121-23.user.veloxzone.com.br 0 4 339913 
201-11-104-118.fnsce703.dsl.brasiltelecom.net.br 2 8 269975 20120818142252
201.64.141.178 2 36 7461881 20120802054324
bd04b2df.virtua.com.br 0 2 297729 
177-115-121-105.user.vivozap.com.br 0 2 67869 
200-158-223-112.dsl.telesp.net.br 0 4 135738 
c95277b1.virtua.com.br 1 5 3764875 20120816105531
189.115.17.119.static.host.gvt.net.br 4 9 41604 20120818095004
msnbot-207-46-199-22.search.msn.com 2 2 3156 20120805134258
201.90.34.194 1 6 3765878 20120823114555
bb434507.virtua.com.br 1 3 3697006 20120820161509
189-30-109-64.fnses700.dsl.brasiltelecom.net.br 2 6 256825 20120826163110
177-113-148-36.user.vivozap.com.br 0 2 67869 
mail.ppub.com.br 0 2 67869 
187-121-81-34.corp.ajato.com.br 0 8 69488 
177.18.210.157.static.host.gvt.net.br 1 11 3832744 20120821025504
187-7-133-110.pgosm702.e.brasiltelecom.net.br 1 4 3697006 20120801094432
200-148-155-162.customer.tdatabrasil.net.br 0 4 135738 
187-032-096-57.static.ctbctelecom.com.br 0 4 135738 
201-67-181-193.fnsce702.dsl.brasiltelecom.net.br 2 6 256825 20120828163531
c95289bf.virtua.com.br 0 2 297729 
bb245080.virtua.com.br 0 2 297729 
189-31-75-62.fnses700.dsl.brasiltelecom.net.br 2 7 257828 20120803210213
200-215-93-147.fnses700.e.brasiltelecom.net.br 1 3 18654 20120825072503
189-82-218-54.user.veloxzone.com.br 0 2 67869 
201-2-217-81.bnut3702.dsl.brasiltelecom.net.br 0 2 24454 
201-68-119-113.dsl.telesp.net.br 0 4 135738 
adasa202.static.host.gvt.net.br 0 2 297729 
189-47-187-176.dsl.telesp.net.br 0 4 67869 
205.209.190.116 1 1 1578 20120802010006
187.121.43.99 0 2 67869 
c934b0de.virtua.com.br 0 2 297729 
msnbot-207-46-199-26.search.msn.com 1 1 1578 20120813125341
msnbot-157-56-93-224.search.msn.com 2 2 3156 20120811034325
189-039-015-070.static.spo.ctbc.com.br 0 4 135738 
msnbot-207-46-199-29.search.msn.com 2 2 3156 20120803221534
200-102-27-74.fnsce701.dsl.brasiltelecom.net.br 1 3 18654 20120830060603
177-139-190-29.dsl.telesp.net.br 0 4 67869 
187.121.43.93 1 5 3764875 20120803062515
187-93-92-227.customer.tdatabrasil.net.br 3 12 1054733 20120802042220
bd7810a0.virtua.com.br 0 8 271476 
200.186.251.201 1 3 3697006 20120809134310
189-38-101-100.itake.net.br 0 2 69488 
189-71-223-51.user.veloxzone.com.br 0 2 67869 
189-18-250-175.dsl.telesp.net.br 1 3 3697006 20120823114037
189-19-113-217.dsl.telesp.net.br 0 4 67869 
bonito.mp.rj.gov.br 0 2 297729 
189-041-207-075.xd-dynamic.ctbcnetsuper.com.br 2 8 3698009 20120810123841
bade906a.virtua.com.br 2 8 4081001 20120817121842
200-236-243-223.desktop.com.br 0 18 67869 
187-11-136-223.dsl.telesp.net.br 1 2 2718 20120810121249
186-201-126-114.customer.tdatabrasil.net.br 0 12 69488 
177.40.96.103.static.host.gvt.net.br 0 2 67869 
mail.electroman.com.br 0 2 67869 
186.199.139.201 2 4 20232 20120804154522
200.186.205.247 0 69 34744 
189-47-145-97.dsl.telesp.net.br 0 21 203607 
187.55.12.62 3 10 3965978 20120808132513
bd37ce1e.virtua.com.br 1 3 18654 20120824055932
201.56.77.34 0 2 67869 
187-35-139-202.dsl.telesp.net.br 1 13 3764875 20120802053949
bd231c7c.virtua.com.br 0 2 297729 
189-72-104-87.fnsce704.e.brasiltelecom.net.br 2 7 157017 20120822173553
bd78a6ac.virtua.com.br 0 1 34744 
187.59.85.115.static.host.gvt.net.br 2 6 70346 20120816105546
201.67.205.54 2 7 492278 20120802184522
201-27-68-252.dsl.telesp.net.br 1 7 3834363 20120809100628
201-92-187-135.dsl.telesp.net.br 0 4 135738 
187-35-93-209.dsl.telesp.net.br 0 10 69488 
200.174.228.210 0 2 69488 
189-041-175-214.xd-dynamic.ctbcnetsuper.com.br 1 5 3764875 20120817062828
smtp-gw2.gail.com.br 0 2 67869 
201.22.213.27.static.gvt.net.br 0 2 297729 
c9517889.virtua.com.br 0 2 67869 
b1514394.virtua.com.br 0 4 0 
highsoft.com.br 2 7 272271 20120816042153
200-150-178-164.static-corp.ajato.com.br 0 2 69488 
b120246d.virtua.com.br 1 3 3697006 20120817152616
177-162-158-144.user.vivozap.com.br 0 2 67869 
189.115.18.228.static.host.gvt.net.br 1 3 18654 20120807045315
187-52-136-99.fnses700.e.brasiltelecom.net.br 4 9 161192 20120807124304
187.63.228.197 0 2 47511 
189-69-57-165.dsl.telesp.net.br 1 3 18654 20120803044110
177.18.254.166.static.host.gvt.net.br 0 3 0 
189-46-143-194.dsl.telesp.net.br 2 6 256825 20120828172603
189.115.203.192.static.host.gvt.net.br 0 2 297729 
201-016-220-241.static.ctbctelecom.com.br 0 7 34744 
189-015-219-114.xd-dynamic.ctbcnetsuper.com.br 4 12 4251560 20120817080848
200-180-107-118.fnsce701.e.brasiltelecom.net.br 2 6 256825 20120818062010
wtp-g8-maya2.iad1 1 3 3697006 20120830135504
30.239.186.200.sta.impsat.net.br 0 2 297729 
187-34-105-57.dsl.telesp.net.br 0 4 135738 
b18e9039.virtua.com.br 0 2 67869 
b18da935.virtua.com.br 0 2 67869 
186.214.49.82.static.host.gvt.net.br 0 2 34744 
186.225.46.198 0 2 297729 
bd786912.virtua.com.br 0 10 34744 
201.20.212.121.user.ajato.com.br 0 44 277952 
74.125.181.25 0 2 297729 
177-106-033-049.xd-dynamic.ctbcnetsuper.com.br 0 2 67869 
200-159-108-90.customer.tdatabrasil.net.br 0 2 67869 
200-160-71-34.static-user.ajato.com.br 2 7 273807 20120823110407
wtp-gb-maya6.sjdc 2 4 3698721 20120810125258
177.128.2.253 0 2 69488 
189-30-54-172.paemt700.dsl.brasiltelecom.net.br 0 2 15716 
201-23-177-192.gprs.claro.net.br 0 1 0 
b18d5272.virtua.com.br 0 2 69488 
177.157.132.205 1 1 1578 20120822215649
201-92-136-185.dsl.telesp.net.br 0 2 297729 
msnbot-157-56-229-145.search.msn.com 2 2 3156 20120818214307
189.16.21.242 0 3 102613 
200.10.103.140 2 6 73305 20120802033301
200-138-204-67.fnsce702.dsl.brasiltelecom.net.br 2 6 256825 20120804124004
177.99.146.dynamic.adsl.gvt.net.br 0 1 33125 
187-35-120-146.dsl.telesp.net.br 2 6 256825 20120817113347
187-7-11-117.fnses700.dsl.brasiltelecom.net.br 4 12 301807 20120831101512
177-0-227-253.fnses700.dsl.brasiltelecom.net.br 2 6 256825 20120826095113
18776123178.telemar.net.br 0 2 297729 
177.97.182.dynamic.adsl.gvt.net.br 0 2 67869 
mail2.assintecal.org.br 0 2 67869 
201-19-206-2.user.veloxzone.com.br 0 3 80456 
177.97.226.dynamic.adsl.gvt.net.br 0 1 34744 
186-201-222-122.customer.tdatabrasil.net.br 0 2 57571 
187.49.37.110 0 57 128866 
189.115.17.176.static.host.gvt.net.br 1 3 18654 20120806074519
201-23-160-149.gprs.claro.net.br 0 2 0 
177.121.223.16 0 2 67869 
201-25-202-203.fnsce702.dsl.brasiltelecom.net.br 2 6 256825 20120803185054
host-32-42-2-96.midco.net 1 1 1578 20120824141648
200-251-138-35.poolip.bhe.embratel.net.br 0 2 297729 
189.115.16.226.static.host.gvt.net.br 2 6 256825 20120831114719
bb25acd9.virtua.com.br 3 60 7804828 20120813072938
177-113-51-246.user.vivozap.com.br 0 2 67869 
iad1-wtp-gd-maya7.sdi.trendnet.org 0 1 1003 
187-121-81-107.corp.ajato.com.br 0 16 277952 
201-2-233-32.fnsce703.dsl.brasiltelecom.net.br 2 6 256825 20120828195745
189-041-250-128.xdsl-dinamico.ctbcnetsuper.com.br 0 2 67869 
msnbot-207-46-199-34.search.msn.com 3 3 4734 20120821095022
b1215f17.virtua.com.br 0 1 34744 
201-23-177-145.gprs.claro.net.br 0 3 0 
msnbot-207-46-204-212.search.msn.com 1 1 1578 20120810224842
b18d8eae.virtua.com.br 0 1 34744 
bd212423.virtua.com.br 0 2 67869 
186.255.170.253 0 1 12119 
189.115.17.72.static.host.gvt.net.br 2 6 256825 20120815134853
msnbot-157-56-92-176.search.msn.com 2 2 3156 20120813011054
msnbot-157-55-36-40.search.msn.com 3 3 4734 20120830155752
bd22f23d.virtua.com.br 0 1 0 
c9345926.virtua.com.br 1 3 3697006 20120810155408
177.55.183.116 0 2 67869 
200.174.118.50 0 2 69488 
bacc9dde.virtua.com.br 0 5 67869 
bb257d3b.virtua.com.br 0 2 67869 
201-28-69-250.customer.tdatabrasil.net.br 0 2 67869 
c934ae82.virtua.com.br 0 2 67869 
201-95-75-161.dsl.telesp.net.br 0 10 135738 
server1.aguadaserra.com.br 2 7 273567 20120817090042
177-103-196-12.dsl.telesp.net.br 3 9 3953831 20120810130145
bd21bac2.virtua.com.br 0 20 135738 
200.246.44.129 0 2 297729 
189-69-137-193.dial-up.telesp.net.br 0 2 34744 
187.58.49.160.static.host.gvt.net.br 0 2 67869 
177.19.230.66.static.gvt.net.br 0 2 33814 
200-160-71-71.static-user.ajato.com.br 0 2 67869 
177.99.144.dynamic.adsl.gvt.net.br 0 2 137060 
ip-177-62-160-212.user.vivozap.com.br 0 2 67869 
177.99.148.dynamic.adsl.gvt.net.br 0 1 34744 
189-039-020-162.static.spo.ctbc.com.br 1 13 3764875 20120801135105
187.121.87.63 2 6 3698009 20120814074529
189-69-192-21.dial-up.telesp.net.br 2 4 3697006 20120811064606
tvc.tv131.static.host.gvt.net.br 5 13 90524 20120817182419
177.96.96.77.dynamic.adsl.gvt.net.br 0 2 297729 
mail.siverst.com.br 0 1 34744 
b18d6a23.virtua.com.br 0 2 297729 
189-46-156-237.dsl.telesp.net.br 1 3 3697006 20120813115112
177-103-223-3.dsl.telesp.net.br 0 1 33125 
189-30-234-46.nhoce701.dsl.brasiltelecom.net.br 0 2 297729 
msnbot-207-46-204-162.search.msn.com 2 2 3156 20120804165331
ip-177-24-197-240.user.vivozap.com.br 3 10 3690511 20120809164413
201.20.248.205.user.ajato.com.br 0 4 138976 
177-139-167-206.dsl.telesp.net.br 0 1 422711 
187-19-87-125.customer.ntelecom.com.br 0 2 67869 
c8ecd07d.dynamic.shd.tesa.net.br 1 30 607805 20120830045141
177.97.153.dynamic.adsl.gvt.net.br 1 5 3731750 20120809141326
badcaf3c.virtua.com.br 2 15 3644983 20120801075707
201-66-43-75.ctame706.dsl.brasiltelecom.net.br 0 2 297729 
187-35-184-155.dsl.telesp.net.br 0 2 67869 
68.195.125.189.static.impsat.net.br 0 2 67869 
c952aa52.virtua.com.br 0 2 67869 
b18f7bd1.virtua.com.br 0 2 297729 
189-111-238-50.dsl.telesp.net.br 0 4 135738 
msnbot-207-46-199-23.search.msn.com 3 3 4734 20120823100621
msnbot-157-55-35-47.search.msn.com 1 1 0 20120829115508
186-200-160-26.customer.tdatabrasil.net.br 0 2 297729 
177-139-136-70.dsl.telesp.net.br 0 2 67869 
b1514be8.virtua.com.br 0 4 80636 
b1201af1.virtua.com.br 0 2 67869 
203.78.66.189.isp.timbrasil.com.br 0 2 63099 
177.3.164.193 1 3 18654 20120806090926
bb26a671.virtua.com.br 0 4 67869 
200-207-70-195.dsl.telesp.net.br 0 4 135738 
c951a288.virtua.com.br 0 13 34744 
74-92-59-61-newengland.hfc.comcastbusiness.net 0 2 67869 
msnbot-157-56-93-230.search.msn.com 2 2 3156 20120825122833
b12091e5.virtua.com.br 2 11 916348 20120808053805
ns2.ceramicaportoferreira.com.br 0 2 67869 
189-106-62-5.user.veloxzone.com.br 0 4 67869 
201-27-201-42.dsl.telesp.net.br 5 9 256825 20120808025313
wtp-g8-maya7.iad1 0 1 1003 
bd21288f.virtua.com.br 0 2 67869 
187.72.28.46 0 1 30035 
5ed13a19.cm-7-2a.dynamic.ziggo.nl 3 3 4734 20120821135853
201-19-113-100.user.veloxzone.com.br 0 2 297729 
bb1644c8.virtua.com.br 0 2 15788 
189-041-182-111.xd-dynamic.ctbcnetsuper.com.br 1 5 3764875 20120806041122
186.213.135.17.static.host.gvt.net.br 0 8 135738 
201-92-185-46.dsl.telesp.net.br 0 10 67869 
200-232-74-34.albnet.com.br 2 6 60398 20120813091916
bb25660a.virtua.com.br 0 2 67869 
247.187.202.84.customer.cdi.no 1 1 1578 20120811100047
201-23-177-198.gprs.claro.net.br 0 3 0 
74.125.178.23 0 1 3023 
intravel.com.br 0 2 67869 
badfd0db.virtua.com.br 0 15 69488 
bb16ec0b.virtua.com.br 0 1 0 
187-26-61-55.3g.claro.net.br 0 2 67869 
177-103-182-69.dsl.telesp.net.br 0 13 339345 
201005051038.userdial.telemar.net.br 0 2 67869 
177.97.91.dynamic.adsl.gvt.net.br 0 10 0 
189-73-91-236.fnses700.e.brasiltelecom.net.br 1 3 18654 20120801100644
ip-177-25-224-10.user.vivozap.com.br 0 2 67869 
badda9c3.virtua.com.br 0 1 33125 
177.3.141.245 2 6 256825 20120814094726
static-208-80-194-144.as13448.com 0 1 12147 
200-204-179-124.cwaynet.com.br 1 17 4306468 20120808121832
201-95-6-114.dsl.telesp.net.br 1 2 35095 20120809091039
177-170-198-8.user.vivozap.com.br 0 2 67869 
142-196-10-116.res.bhn.net 0 2 67869 
bd37cfd3.virtua.com.br 0 2 67869 
189-72-113-173.fnses700.dsl.brasiltelecom.net.br 1 3 18654 20120821192738
200-138-244-71.fnsce701.dsl.brasiltelecom.net.br 2 6 256825 20120818185119
201-23-160-71.gprs.claro.net.br 2 8 5814064 20120802182416
187-35-94-178.dsl.telesp.net.br 0 2 67869 
msnbot-157-56-92-177.search.msn.com 1 1 1578 20120831233448
189.22.57.180 0 2 67869 
bb0320b1.virtua.com.br 0 2 67869 
189.38.186.48.user.ajato.com.br 0 5 69488 
201.65.106.66 1 5 3764875 20120815090821
189.1.88.110 0 2 67869 
187-4-202-82.fnses700.e.brasiltelecom.net.br 1 7 3764875 20120829110755
189.51.4.18 0 4 67869 
b1503406.virtua.com.br 1 3 18654 20120828051123
201-14-75-33.gnace702.dsl.brasiltelecom.net.br 0 2 67869 
bd7883d2.virtua.com.br 0 2 297729 
189-57-231-234.customer.tdatabrasil.net.br 0 4 595458 
187-15-182-181.user.veloxzone.com.br 0 2 297729 
msnbot-157-55-32-111.search.msn.com 1 1 0 20120831233446
201.87.7.91.user.ajato.com.br 0 4 67869 
187.18.1.33 0 4 135738 
texas.casasfretta.com.br 1 3 18654 20120803070713
189.114.123.38.dynamic.adsl.gvt.net.br 0 2 297729 
189-111-232-34.dsl.telesp.net.br 0 2 67869 
bb039aaf.virtua.com.br 2 6 153420 20120814092620
201.47.205.77.dynamic.adsl.gvt.net.br 0 2 67869 
187.113.20.233.static.host.gvt.net.br 0 2 297729 
189-111-216-90.dsl.telesp.net.br 0 1 27139 
bzq-82-80-249-137.static.dcenter.bezeqint.net 1 1 1578 20120818022638
208.115.113.91 2 2 3156 20120828210010
189-112-169-001.static.ctbctelecom.com.br 0 8 67869 
187-14-141-146.user.veloxzone.com.br 2 7 354305 20120828174411
187.112.251.210.static.host.gvt.net.br 0 4 297729 
bb0388bd.virtua.com.br 2 10 567704 20120822123755
201-23-160-150.gprs.claro.net.br 0 8 34744 
200-138-222-145.fnsce702.dsl.brasiltelecom.net.br 2 6 256825 20120825185428
200-185-252-157.user.ajato.com.br 0 2 67869 
200.128.15.2 0 2 297729 
bd367e9d.virtua.com.br 0 1 34744 
b1226b8e.virtua.com.br 0 1 34744 
187-4-219-171.fnses700.dsl.brasiltelecom.net.br 1 3 18654 20120807110644
189-11-175-242.fnsce1010.ipd.brasiltelecom.net.br 2 6 256825 20120809112804
187-75-166-58.dsl.telesp.net.br 0 1 34744 
177.99.137.dynamic.adsl.gvt.net.br 0 2 69488 
189-72-86.fnses700.dsl.brasiltelecom.net.br 1 3 18654 20120822093546
187-75-173-56.dsl.telesp.net.br 0 2 67869 
200-180-66-64.fnses700.dsl.brasiltelecom.net.br 2 6 256825 20120815100149
bd07d798.virtua.com.br 3 13 4021700 20120817062057
b1239d12.virtua.com.br 0 1 34744 
177-103-181-109.dsl.telesp.net.br 0 2 67869 
webmail.districar.com.br 0 1 18607 
177-139-161-162.dsl.telesp.net.br 0 16 69488 
189-30-120-197.dsl.fnses700.brasiltelecom.net.br 2 6 256825 20120827175614
c94a6fa0.virtua.com.br 0 2 67869 
pferd186.static.gvt.net.br 0 2 34006 
200-169-222-162.spopa302.ipd.brasiltelecom.net.br 0 5 168863 
msnbot-157-56-93-214.search.msn.com 2 2 3156 20120813032123
187-26-65-13.3g.claro.net.br 0 6 67869 
187-122-72-89.cpecoa.viaembratel.net.br 0 2 67869 
177-112-163-156.user.vivozap.com.br 0 1 34744 
xeon.primeiramao.com.br 1 12 338918 20120815112545
173-12-47-99-philadelphia.hfc.comcastbusiness.net 0 2 67869 
177-68-249-36.dsl.telesp.net.br 0 2 67869 
badc15cb.virtua.com.br 0 2 69488 
badc9bdd.virtua.com.br 0 2 297729 
c950efaf.virtua.com.br 0 4 34744 
189-82-1-151.user.veloxzone.com.br 0 2 297729 
187.113.115.21.static.host.gvt.net.br 0 4 135738 
189-11-190-16.fnses700.dsl.brasiltelecom.net.br 2 6 256825 20120811155532
200-96-4-155.ctaje701.dsl.brasiltelecom.net.br 0 5 0 
msnbot-157-55-33-17.search.msn.com 1 1 0 20120828181004
177.98.227.dynamic.adsl.gvt.net.br 0 2 0 
c9068579.virtua.com.br 0 10 203607 
bd79b713.virtua.com.br 0 1 34744 
b1525747.virtua.com.br 0 2 67869 
177-174-152-27.user.vivozap.com.br 0 2 297729 
187.55.41.100 2 7 142552 20120819193628
ip-177-78-66-76.user.vivozap.com.br 0 1 68530 
c9514136.virtua.com.br 0 2 67869 
bacf1d61.virtua.com.br 0 2 67869 
tvc.tv222.static.gvt.net.br 4 12 513650 20120825055213
81-200-30-78.host.sevstar.net 1 1 1578 20120827184958
177.0.226.10 2 6 256825 20120807072557
187-121-90-32.corp.ajato.com.br 1 5 3764875 20120821122646
189-31-111-16.fnsce704.dsl.brasiltelecom.net.br 1 4 30801 20120809144638
189.59.23.120.static.host.gvt.net.br 0 2 297729 
177.110.191.191 0 2 67869 
201.38.207.56 0 12 135738 
bd0657ad.virtua.com.br 1 3 3697006 20120820075601
189-31-76-156.fnses700.dsl.brasiltelecom.net.br 2 7 268972 20120825102303
ip-177-78-199-243.user.vivozap.com.br 0 2 67869 
189-79-52-26.dsl.telesp.net.br 0 2 297729 
msnbot-157-56-229-246.search.msn.com 2 2 3156 20120802180551
ducargo60.cta.gvt.net.br 0 1 0 
189.114.236.123.dynamic.adsl.gvt.net.br 0 2 67869 
b1517f76.virtua.com.br 0 2 69488 
200.175.53.218.static.gvt.net.br 0 6 67869 
177.99.129.dynamic.adsl.gvt.net.br 0 8 0 
200.247.87.11 2 6 256825 20120807061748
201-51-5-205.user.veloxzone.com.br 0 2 297729 
201.55.92.218 0 4 98979 
189-19-72-145.dsl.telesp.net.br 0 2 67869 
187-92-203-146.customer.tdatabrasil.net.br 0 8 135738 
server.hmsj.org.br 0 2 297729 
gateway.deznet.com.br 0 2 53748 
189-30-107-225.dsl.fnses700.brasiltelecom.net.br 3 7 256825 20120818115311
201.86.214.69.static.host.gvt.net.br 0 2 297729 
200.231.40.130 1 5 3764875 20120809053139
186.212.199.220.static.host.gvt.net.br 1 5 3764875 20120828114903
177.99.73.dynamic.adsl.gvt.net.br 0 2 67869 
189-94-100-0.3g.claro.net.br 0 1 34744 
ycar10.mobile.bf1.yahoo.com 1 1 1578 20120814151209
201-2-192-206.fnsce702.dsl.brasiltelecom.net.br 2 6 46682 20120827181944
201-95-71-66.dsl.telesp.net.br 0 1 34744 
187-11-75-5.dsl.telesp.net.br 2 6 256825 20120829105605
253-176-49-201.iol.net.br 0 2 67869 
187.59.84.96.static.host.gvt.net.br 1 3 18654 20120821052529
201-69-41-64.dial-up.telesp.net.br 0 1 68530 
201-34-105-122.paemt701.e.brasiltelecom.net.br 2 6 256825 20120821140318
bacc8755.virtua.com.br 0 2 297729 
189.2.233.119 0 4 67869 
b18d8568.virtua.com.br 0 6 67869 
186.214.70.172.static.host.gvt.net.br 2 6 256825 20120828103700
187-55-254-195.fnses700.e.brasiltelecom.net.br 0 4 67869 
187.55.40.198 2 6 256825 20120825112401
187-121-85-235.corp.ajato.com.br 1 3 3697006 20120810124348
189-93-238-172.3g.claro.net.br 0 2 67869 
187-9-75-162.customer.tdatabrasil.net.br 0 14 136399 
144.191.148.3 1 3 3697006 20120810123420
201-25-212-191.fnsce702.dsl.brasiltelecom.net.br 3 7 258540 20120823164129
189-111-148-237.dsl.telesp.net.br 0 2 68530 
201.73.139.50 0 2 67869 
msnbot-65-52-111-211.search.msn.com 1 1 1578 20120806000025
201-23-160-148.gprs.claro.net.br 0 1 0 
177.99.61.dynamic.adsl.gvt.net.br 1 5 3764875 20120821045150
201-23-188-65.gprs.claro.net.br 0 3 0 
189-71-166-201.user.veloxzone.com.br 0 2 297729 
vpn.morelli.com.br 0 6 67869 
200.135.6.16 1 3 18654 20120822160750
187.59.82.168.static.host.gvt.net.br 0 2 297729 
www.brasimpex.com.br 0 2 68530 
unitafiat155.static.host.gvt.net.br 2 7 268972 20120808094108
201-68-121-182.dsl.telesp.net.br 2 6 256825 20120827094936
webserver.ceramicaportoferreira.com.br 3 9 3953831 20120828132307
177-102-85-65.dsl.telesp.net.br 0 2 67869 
ec2-107-20-62-143.compute-1.amazonaws.com 1 1 1578 20120808114004
177-103-196-197.dsl.telesp.net.br 1 21 3900613 20120820072253
host-186-225-252-130.unetvale.com.br 1 5 3764875 20120829113451
c9519d67.virtua.com.br 0 2 297729 
c934d067.virtua.com.br 0 8 0 
200.199.21.218 0 2 67869 
187-072-225-148.static.ctbctelecom.com.br 0 2 69488 
200.201.110.15 0 2 297729 
bl6-195-215.dsl.telepac.pt 0 21 204268 
c906fb37.virtua.com.br 0 2 67869 
187-27-107-219.3g.claro.net.br 2 6 133398 20120831124136
bd79c4a4.virtua.com.br 1 16 3901616 20120803112441
b18d7bc1.virtua.com.br 0 4 69488 
189-47-143-38.dsl.telesp.net.br 3 29 587526 20120814143235
www.acesse.net 1 1 1578 20120820121506
189.62.35.112 0 1 34744 
201-23-177-197.gprs.claro.net.br 0 2 0 
200-207-125-47.dsl.telesp.net.br 0 1 34744 
a.ns.zzm.com.br 0 2 0 
ns1.alump.com.br 1 3 18654 20120801112326
b12160f1.virtua.com.br 1 4 30801 20120828090610
brma.platinan.com.br 0 2 67869 
c94a5668.virtua.com.br 0 4 135738 
189-30-124-198.fnses700.dsl.brasiltelecom.net.br 1 3 18654 20120825155530
bd7aebb1.virtua.com.br 2 6 175738 20120807110815
187-50-19-130.customer.tdatabrasil.net.br 0 4 135738 
msnbot-157-56-92-143.search.msn.com 2 2 3156 20120815024156
189-53-142-112.poolip.sdr.embratel.net.br 0 2 297729 
mvx-200-201-180-114.mundivox.com 0 1 34744 
189.40.191.73 1 3 18654 20120823182847
201.87.159.226 1 23 3764875 20120823130217
ip-189-99-86-249.user.vivozap.com.br 0 1 34744 
186.214.82.132.static.host.gvt.net.br 0 4 135738 
187-11-236-23.dsl.telesp.net.br 0 2 67869 
189-73-120-177.fnses700.dsl.brasiltelecom.net.br 4 12 2272857 20120831182853
177.42.73.122.static.host.gvt.net.br 0 2 297729 
177.97.235.dynamic.adsl.gvt.net.br 0 3 483608 
187-15-173-20.user.veloxzone.com.br 0 3 104232 
201-58-19-79.user.veloxzone.com.br 0 2 0 
177.97.157.dynamic.adsl.gvt.net.br 2 7 268972 20120827190348
msnbot-157-55-112-210.search.msn.com 1 1 1578 20120826230444
www.marsul.com.br 0 1 28827 
fugroinsitu68.cta.gvt.net.br 0 2 0 
178-117-208-186.static.gotelecom.com.br 4 27 8102509 20120820054127
177.132.142.180.dynamic.adsl.gvt.net.br 0 5 0 
177.133.168.122.dynamic.adsl.gvt.net.br 0 18 104232 
200.247.198.11 0 2 67869 
189-108-89-66.customer.tdatabrasil.net.br 2 10 303716 20120814123601
193.239.254.247 1 1 1578 20120812104715
b120b72f.virtua.com.br 0 2 67869 
187-55-53-133.ccoce700.e.brasiltelecom.net.br 0 3 72304 
c95382d5.virtua.com.br 2 6 256825 20120804155314
189.115.19.10.static.host.gvt.net.br 4 10 771080 20120809114854
b18da15d.virtua.com.br 0 2 67869 
badd90af.virtua.com.br 0 1 34744 
bd78924b.virtua.com.br 0 2 297729 
201-8-167-144.user.veloxzone.com.br 0 4 595458 
msnbot-207-46-204-166.search.msn.com 5 5 7890 20120819170314
bb272493.virtua.com.br 0 4 595458 
177.54.51.78 3 8 418721 20120813165307
189-20-53-101.customer.tdatabrasil.net.br 0 4 73028 
ateky34.static.host.gvt.net.br 4 16 532818 20120828081626
static-208-80-194-142.as13448.com 1 5 259036 20120807002122
187.55.55.74 1 7 3868149 20120807061246
kraftfoodscompany.static.gvt.net.br 0 2 69488 
177.18.218.140.static.host.gvt.net.br 5 15 1657646 20120810131253
177.18.154.62.static.host.gvt.net.br 2 6 256825 20120829135523
200-236-246-100.desktop.com.br 0 8 256141 
1.179.118.189.isp.timbrasil.com.br 0 2 67869 
189-78-111-157.dsl.telesp.net.br 0 2 297729 
201-19-205-204.user.veloxzone.com.br 0 6 34744 
200-158-210-107.dsl.telesp.net.br 0 2 297729 
bd646b0b.virtua.com.br 0 1 0 
201-95-64-6.dsl.telesp.net.br 0 2 297729 
18949252216.user.veloxzone.com.br 1 2 34744 20120820150049
142.71.65.189.isp.timbrasil.com.br 0 1 12047 
bd66927a.virtua.com.br 0 4 34744 
187-57-62-187.dsl.telesp.net.br 0 1 34744 
ip-177-60-33-22.user.vivozap.com.br 3 10 1898846 20120813095659
74.125.178.21 0 1 294706 
200-161-83-40.dsl.telesp.net.br 0 4 93043 
END_VISITOR

# Date - Pages - Hits - Bandwidth - Visits
BEGIN_DAY 31
20120801 17 224 28995782 14
20120802 31 221 33309952 19
20120803 20 242 16185459 13
20120804 19 51 5269674 10
20120805 5 11 617486 4
20120806 25 175 14658509 14
20120807 24 309 11615342 14
20120808 25 101 11741866 13
20120809 22 161 26640045 14
20120810 64 207 37044047 20
20120811 25 69 9547851 11
20120812 8 33 4947003 6
20120813 28 177 34941986 20
20120814 22 169 12096075 13
20120815 21 252 18704694 13
20120816 10 154 6608282 6
20120817 36 148 30472365 20
20120818 30 85 6710145 14
20120819 9 18 215986 5
20120820 21 106 18771741 16
20120821 18 148 21064392 14
20120822 11 150 8088447 8
20120823 25 268 22936817 16
20120824 9 65 1684173 6
20120825 14 41 1455443 9
20120826 6 19 866355 4
20120827 18 162 5896799 11
20120828 48 266 25832398 21
20120829 13 166 13481708 8
20120830 15 167 12138449 10
20120831 20 179 7971259 10
END_DAY

# Session range - Number of visits
BEGIN_SESSION 6
1h+ 2
5mn-15mn 4
30s-2mn 20
15mn-30mn 2
2mn-5mn 12
0s-30s 336
END_SESSION

# URL - Pages - Bandwidth - Entry - Exit
# The 10 first Pages must be first (order not required for others)
BEGIN_SIDER 7
/ 321 430794 264 131
/eventos/ 168 204085 101 115
/site.html 159 255535 2 122
/webmail/ 7 1755 6 5
/alpha/site.html 2 1253 1 2
/alpha/ 1 1700 1 0
/clips/05/clips_05.html 1 5090 1 1
END_SIDER
